%!PS-Adobe-3.0 EPSF-3.0
%%BoundingBox: 20 330 575 461
%%Creator: FreeHEP Graphics2D Driver
%%Producer: org.freehep.graphicsio.ps.EPSGraphics2D
%%For: 
%%Title: 
%%LanguageLevel: 3
%%EndComments
%%BeginProlog
100 dict dup begin

%
% File: org/freehep/graphicsio.ps/PSProlog.txt
% Author: Charles Loomis
%

% Redefinitions which save some space in the output file.  These are also
% the same as the PDF operators.
/q {gsave} def
/Q {grestore} def

/n {newpath} def
/m {moveto} def
/l {lineto} def
/c {curveto} def
/h {closepath} def

/re {4 -2 roll moveto
     dup 0 exch rlineto exch 0 rlineto
     neg 0 exch rlineto closepath} def

/f {fill} def
/f* {eofill} def
/F {gsave vg&FC fill grestore} def
/F* {gsave vg&FC eofill grestore} def

/s {closepath stroke} def
/S {stroke} def

/b {closepath gsave vg&FC fill grestore
    gsave stroke grestore newpath} def
/B {gsave vg&FC fill grestore gsave stroke grestore newpath} def
/b* {closepath gsave vg&FC eofill grestore
    gsave stroke grestore newpath} def
/B* {gsave vg&FC eofill grestore gsave stroke grestore newpath} def

/g {1 array astore /vg&fcolor exch def} def
/G {setgray} def
/k {4 array astore /vg&fcolor exch def} def
/K {setcmykcolor} def
/rg {3 array astore /vg&fcolor exch def} def
/RG {setrgbcolor} def

% Initialize the fill color.
0 0 0 rg

/vg&FC {mark vg&fcolor aload pop
        counttomark 1 eq {G} if
        counttomark 3 eq {RG} if
        counttomark 4 eq {K} if
        cleartomark } def

/vg&DFC {/vg&fcolor exch def} def

/vg&C {mark exch aload pop
       counttomark 1 eq {G} if
       counttomark 3 eq {RG} if
       counttomark 4 eq {K} if
       cleartomark } def

/w {setlinewidth} def
/j {setlinejoin} def
/J {setlinecap} def
/M {setmiterlimit} def
/d {setdash} def
/i {setflat} def

/W {clip} def
/W* {eoclip} def

% Setup the default graphics state.
% (black; 1 pt. linewidth; miter join; butt-ends; solid)
/defaultGraphicsState {0 g 1 w 0 j 0 J [] 0 d} def

% Emulation of the rectangle operators for PostScript implementations
% which do not implement all Level 2 features.  This is an INCOMPLETE
% emulation; only the "x y width height rect..." form is emulated.
/*rf {gsave newpath re fill grestore} def
/*rs {gsave newpath re stroke grestore} def
/*rc {newpath re clip} def
/rf  /rectfill where {pop /rectfill}{/*rf} ifelse load def
/rs  /rectstroke where {pop /rectstroke}{/*rs} ifelse load def
/rc  /rectclip where {pop /rectclip}{/*rc} ifelse load def

% Emulation of the selectfont operator.  This includes a 20% increase in
% the fontsize which is necessary to get sizes similar to the Java fonts.
/*sf {exch findfont exch
      dup type /arraytype eq {makefont}{scalefont} ifelse setfont} bind def
/sf /selectfont where {pop {1.2 mul selectfont}}{{1.2 mul *sf}} ifelse def

% Special version of stroke which allows the dash pattern to continue
% across path segments.  (This may be needed for PostScript although
% modern printers seem to do this correctly.)
/vg&stroke {
  currentdash pop length 0 eq
  {stroke}
  {
    currentdash /vg&doffset exch def pop
    flattenpath
    {m vg&resetdash}
    {2 copy
     currentpoint
     3 -1 roll sub dup mul
     3 1 roll sub dup mul
     add sqrt
     3 1 roll l
     currentdash 3 -1 roll add setdash}
     {}
     {h vg&resetdash}
     pathforall
     stroke
     vg&resetdash
  } ifelse
} def
/vg&resetdash {currentdash pop vg&doffset setdash} def

% Initialize variables for safety.
/delta 0 def
/xv 0 def  /yv 0 def  /width 0 def  /height 0 def

% Initialize to portrait INTERNATIONAL (Letter-height, A4-width) page.
/pw 595 def  /ph 791  def  /po true def /ftp false def

% Initialize margins to 20 points.
/ml 20 def  /mr 20 def  /mt 20 def  /mb 20 def

% Temporary matrices.
/smatrix 0 def  /nmatrix 0 def

% set page size (usage: <page width><page height> setpagesize)
/setpagesize {/ph exch def /pw exch def} def

% set page orientation (usage: portrait or landscape)
/portrait {/po true def} def
/landscape {/po false def} def

% force natural size for image (usage: naturalsize)
/naturalsize {/ftp false def} def

% resize image to fill page (usage: fittopage)
/fittopage {/ftp true def} def

% set margins of the page (usage: <left><bottom><top><right> setmargins)
/setmargins {/mr exch def /mt exch def /mb exch def /ml exch def} def

% set the graphic's size (usage: <width><height> setsize)
/setsize {/gh exch def /gw exch def} def

% set the graphic's origin (usage: <x0><y0> setorigin)
/setorigin {/gy exch def /gx exch def} def

% calculate image center
/imagecenter {pw ml sub mr sub 2 div ml add
              ph mt sub mb sub 2 div mb add} def

% calculate the necessary scaling
/imagescale {po {gw}{gh} ifelse pw ml sub mr sub div
             po {gh}{gw} ifelse ph mt sub mb sub div
             2 copy lt {exch} if pop
             ftp not {1 2 copy lt {exch} if pop} if
             1 exch div /sfactor exch def
             /gw gw sfactor mul def /gh gh sfactor mul def} def

% calculate image origin
/imageorigin {pw ml sub mr sub 2 div ml add
              po {gw}{gh} ifelse 2 div sub
              ph mt sub mb sub 2 div mb add
              po {gh}{gw} ifelse 2 div po {add}{sub} ifelse} def

% calculate the clipping origin
/cliporigin  {pw ml sub mr sub 2 div ml add
              po {gw}{gh} ifelse 2 div sub floor
              ph mt sub mb sub 2 div mb add
              po {gh}{gw} ifelse 2 div sub floor} def

% Set the clipping region to the bounding box.
/cliptobounds {cliporigin po {gw}{gh} ifelse 1 add
                          po {gh}{gw} ifelse 1 add rc} def

% set the base transformation matrix (usage: setbasematrix)
/setbasematrix {imageorigin translate
                po {0}{90} ifelse rotate
                sfactor sfactor neg scale
                /defaultmatrix matrix currentmatrix def} def

% The lower-right bias in drawing 1 pt. wide lines.
/bias  {q 0.5 0.5 translate} def
/unbias {Q} def

% Define the composite fonts used to print Unicode strings.
% Undefine particular values in an encoding array.
/vg&undef { {exch dup 3 -1 roll /.notdef put} forall } def
/vg&redef { {3 -1 roll dup 4 2 roll put} forall } def

% usage: key encoding basefontname vg&newbasefont font
/vg&newbasefont {
findfont dup length dict copy
  begin
    currentdict /FID undef
    /Encoding exch def
    dup /FontName exch def
    currentdict
  end
definefont
} def

% usage: key encoding basefontname vg&newskewedbasefont font
/vg&newskewedbasefont {
findfont dup length dict copy
  begin
    currentdict /FID undef
    /Encoding exch def
    dup /FontName exch def
    exch FontMatrix exch matrix concatmatrix /FontMatrix exch def
    currentdict
  end
definefont
} def

% usage: basekey suffix vg&nconcat name
/vg&nconcat {
  2 {dup length string cvs exch} repeat
  dup length 3 -1 roll dup length 3 -1 roll add string
  dup 0 4 -1 roll dup length 5 1 roll putinterval
  dup 4 -2 roll exch putinterval cvn
} def

%usage: fontname vg&skewmatrix matrix
/vg&skewmatrix {
findfont dup /FontInfo known
  {
    /FontInfo get dup /ItalicAngle known
    {
      [ 1 0 4 -1 roll /ItalicAngle get neg dup sin exch cos div 1 0 0 ]
    }
    {pop matrix} ifelse
  }
  {pop matrix} ifelse
} def

% usage: newfontname basefontname vg&newcompositefont --
/vg&newcompositefont {
/vg&fstyle exch def
/vg&bfont exch def
/vg&fname exch def
<<
/FontStyleBits vg&fstyle
/FontType 0
/FontMatrix matrix
/FontName vg&fname
/FMapType 2
/Encoding [ 0 1 255 {pop 6} for ]
          dup 16#00 0 put % Latin
          dup 16#03 1 put % Greek
          dup 16#20 2 put % Punctuation
          dup 16#21 3 put % Arrows
          dup 16#22 4 put % MathOps
          dup 16#27 5 put % Dingbats

/FDepVector [
vg&bfont /-UC-Latin vg&nconcat UCLatinEncoding
vg&bfont vg&newbasefont

vg&bfont vg&skewmatrix
vg&bfont /-UC-Greek vg&nconcat UCGreekEncoding
/Symbol vg&newskewedbasefont

vg&bfont /-UC-Punctuation vg&nconcat UCPunctuationEncoding
vg&bfont vg&newbasefont

/Arrows-UC findfont
/MathOps-UC findfont
/Dingbats-UC findfont
/Undefined-UC findfont ]
>>
vg&fname exch definefont pop
} def

% Null encoding vector (all elements set to .notdef)
/NullEncoding [ 256 {/.notdef} repeat ] def

% Unicode Latin encoding (unicode codes \u0000-\u00ff)
/UCLatinEncoding
  ISOLatin1Encoding dup length array copy
  dup 16#60 /grave put
  [ 16#90 16#91 16#92 16#93 16#94 16#95 16#96
    16#97 16#98 16#9a 16#9b 16#9d 16#9e 16#9f
  ] vg&undef
  def

% Unicode Greek encoding (unicode codes \u0370-\u03ff)
/UCGreekEncoding
  NullEncoding dup length array copy
  << 16#91 /Alpha    16#92 /Beta      16#93 /Gamma    16#94 /Delta
     16#95 /Epsilon  16#96 /Zeta      16#97 /Eta      16#98 /Theta
     16#99 /Iota     16#9a /Kappa     16#9b /Lambda   16#9c /Mu
     16#9d /Nu       16#9e /Xi        16#9f /Omicron  16#a0 /Pi
     16#a1 /Rho      16#a3 /Sigma     16#a4 /Tau      16#a5 /Upsilon
     16#a6 /Phi      16#a7 /Chi       16#a8 /Psi      16#a9 /Omega
     16#b1 /alpha    16#b2 /beta      16#b3 /gamma    16#b4 /delta
     16#b5 /epsilon  16#b6 /zeta      16#b7 /eta      16#b8 /theta
     16#b9 /iota     16#ba /kappa     16#bb /lambda   16#bc /mu
     16#bd /nu       16#be /xi        16#bf /omicron  16#c0 /pi
     16#c1 /rho      16#c2 /sigma1    16#c3 /sigma    16#c4 /tau
     16#c5 /upsilon  16#c6 /phi1      16#c7 /chi      16#c8 /psi
     16#c9 /omega    16#7e /semicolon 16#87 /dotmath  16#d1 /theta1
     16#d2 /Upsilon1 16#d5 /phi       16#d6 /omega1
  >> vg&redef
  def

% Unicode punctuation encoding (unicode codes \u2000-\u206f)
/UCPunctuationEncoding
  NullEncoding dup length array copy
  << 16#10 /hyphen          16#11 /hyphen              16#12 /endash
     16#13 /emdash          16#18 /quoteleft           16#19 /quoteright
     16#1a /quotesinglbase  16#1b /quotesingle         16#1c /quotedblleft
     16#1d /quotedblright   16#1e /quotedblbase        16#1f /quotedbl
     16#20 /dagger          16#21 /daggerdbl           16#22 /bullet
     16#24 /period          16#26 /ellipsis            16#27 /periodcentered
     16#30 /perthousand     16#44 /fraction
     16#70 /zerosuperior    16#74 /foursuperior        16#75 /fivesuperior
     16#76 /sixsuperior     16#77 /sevensuperior       16#78 /eightsuperior
     16#79 /ninesuperior    16#7b /hyphensuperior      16#7d /parenleftsuperior
     16#7e /parenrightsuperior
     16#80 /zeroinferior    16#84 /fourinferior        16#85 /fiveinferior
     16#81 /oneinferior     16#82 /twoinferior         16#83 /threeinferior
     16#86 /sixinferior     16#87 /seveninferior       16#88 /eightinferior
     16#89 /nineinferior    16#8b /hypheninferior      16#8d /parenleftinferior
     16#8e /parenrightinferior
  >> vg&redef
  def

% Unicode mathematical operators encoding (unicode codes \u2200-\u22ff)
/UCMathOpsEncoding
  NullEncoding dup length array copy
  << 16#00 /universal       16#02 /partialdiff         16#03 /existential
     16#05 /emptyset        16#06 /Delta               16#07 /gradient
     16#08 /element         16#09 /notelement          16#0b /suchthat
     16#0f /product         16#11 /summation           16#12 /minus
     16#15 /fraction        16#17 /asteriskmath        16#19 /bullet
     16#1a /radical         16#1d /proportional        16#1e /infinity
     16#20 /angle           16#23 /bar                 16#27 /logicaland
     16#28 /logicalor       16#29 /intersection        16#2a /union
     16#2b /integral        16#34 /therefore           16#36 /colon
     16#3c /similar         16#45 /congruent           16#48 /approxequal
     16#60 /notequal        16#61 /equivalence         16#64 /lessequal
     16#65 /greaterequal    16#82 /propersubset        16#83 /propersuperset
     16#86 /reflexsubset    16#87 /reflexsuperset      16#95 /circleplus
     16#97 /circlemultiply  16#a5 /perpendicular       16#03 /existential
     16#c0 /logicaland      16#c1 /logicalor           16#c2 /intersection
     16#c3 /union           16#c4 /diamond             16#c5 /dotmath
  >> vg&redef
  def

% Unicode arrows encoding (unicode codes \u2190-\u21ff)
% Also includes those "Letterlike" unicode characters
% which are available in the symbol font. (unicode codes \u2100-\u214f)
/UCArrowsEncoding
  NullEncoding dup length array copy
  << 16#11 /Ifraktur        16#1c /Rfraktur            16#22 /trademarkserif
     16#35 /aleph
     16#90 /arrowleft       16#91 /arrowup             16#92 /arrowright
     16#93 /arrowdown       16#94 /arrowboth           16#d0 /arrowdblleft
     16#d1 /arrowdblup      16#d2 /arrowdblright       16#d3 /arrowdbldown
     16#d4 /arrowdblboth
  >> vg&redef
  def

/ZapfDingbats findfont /Encoding get
dup length array copy /UCDingbatsEncoding exch def
16#20 1 16#7f {
  dup 16#20 sub exch
  UCDingbatsEncoding exch get
  UCDingbatsEncoding 3 1 roll put
} for
16#a0 1 16#ff {
  dup 16#40 sub exch
  UCDingbatsEncoding exch get
  UCDingbatsEncoding 3 1 roll put
} for
UCDingbatsEncoding [ 16#c0 1 16#ff {} for ] vg&undef
[ 16#00  16#05 16#0a 16#0b  16#28 16#4c 16#4e  16#53 16#54 16#55  16#57 16#5f
  16#60  16#68 16#69 16#6a  16#6b 16#6c 16#6d  16#6e 16#6f 16#70  16#71 16#72
  16#73  16#74 16#75 16#95  16#96 16#97 16#b0  16#bf
] vg&undef pop

% Define the base fonts which don't change.
/Undefined-UC NullEncoding       /Helvetica    vg&newbasefont pop
/MathOps-UC   UCMathOpsEncoding  /Symbol       vg&newbasefont pop
/Arrows-UC    UCArrowsEncoding   /Symbol       vg&newbasefont pop
/Dingbats-UC  UCDingbatsEncoding /ZapfDingbats vg&newbasefont pop

% Make the SansSerif composite fonts.
/SansSerif /Helvetica 16#00 vg&newcompositefont
/SansSerif-Bold /Helvetica-Bold 16#01 vg&newcompositefont
/SansSerif-Italic /Helvetica-Oblique 16#02 vg&newcompositefont
/SansSerif-BoldItalic /Helvetica-BoldOblique 16#03 vg&newcompositefont

% Make the Serif composite fonts.
/Serif /Times-Roman 16#00 vg&newcompositefont
/Serif-Bold /Times-Bold 16#01 vg&newcompositefont
/Serif-Italic /Times-Italic 16#02 vg&newcompositefont
/Serif-BoldItalic /Times-BoldItalic 16#03 vg&newcompositefont

% Make the Monospaced composite fonts.
/Monospaced /Courier 16#00 vg&newcompositefont
/Monospaced-Bold /Courier-Bold 16#01 vg&newcompositefont
/Monospaced-Italic /Courier-Oblique 16#02 vg&newcompositefont
/Monospaced-BoldItalic /Courier-BoldOblique 16#03 vg&newcompositefont

% Make the Dialog composite fonts.
/Dialog /Helvetica 16#00 vg&newcompositefont
/Dialog-Bold /Helvetica-Bold 16#01 vg&newcompositefont
/Dialog-Italic /Helvetica-Oblique 16#02 vg&newcompositefont
/Dialog-BoldItalic /Helvetica-BoldOblique 16#03 vg&newcompositefont

% Make the DialogInput composite fonts.
/DialogInput /Courier 16#00 vg&newcompositefont
/DialogInput-Bold /Courier-Bold 16#01 vg&newcompositefont
/DialogInput-Italic /Courier-Oblique 16#02 vg&newcompositefont
/DialogInput-BoldItalic /Courier-BoldOblique 16#03 vg&newcompositefont

% Make the Typewriter composite fonts (JDK 1.1 only).
/Typewriter /Courier 16#00 vg&newcompositefont
/Typewriter-Bold /Courier-Bold 16#01 vg&newcompositefont
/Typewriter-Italic /Courier-Oblique 16#02 vg&newcompositefont
/Typewriter-BoldItalic /Courier-BoldOblique 16#03 vg&newcompositefont


/cfontH {
 dup /fontsize exch def /SansSerif exch sf
 /vg&fontstyles [{cfontH} {cfontHB} {cfontHI} {cfontHBI}] def
} def
/cfontHB {
  dup /fontsize exch def /SansSerif-Bold exch sf
 /vg&fontstyles [{cfontH} {cfontHB} {cfontHI} {cfontHBI}] def
} def
/cfontHI {
 dup /fontsize exch def /SansSerif-Italic exch sf
 /vg&fontstyles [{cfontH} {cfontHB} {cfontHI} {cfontHBI}] def
} def
/cfontHBI {
 dup /fontsize exch def /SansSerif-BoldItalic exch sf
 /vg&fontstyles [{cfontH} {cfontHB} {cfontHI} {cfontHBI}] def
} def

/cfontT {
 dup /fontsize exch def /Serif exch sf
 /vg&fontstyles [{cfontT} {cfontTB} {cfontTI} {cfontTBI}] def
} def
/cfontTB {
 dup /fontsize exch def /Serif-Bold exch sf
 /vg&fontstyles [{cfontT} {cfontTB} {cfontTI} {cfontTBI}] def
} def
/cfontTI {
 dup /fontsize exch def /Serif-Italic exch sf
 /vg&fontstyles [{cfontT} {cfontTB} {cfontTI} {cfontTBI}] def
} def
/cfontTBI {
 dup /fontsize exch def /Serif-BoldItalic exch sf
 /vg&fontstyles [{cfontT} {cfontTB} {cfontTI} {cfontTBI}] def
} def

/cfontC {
 dup /fontsize exch def /Typewriter exch sf
 /vg&fontstyles [{cfontC} {cfontCB} {cfontCI} {cfontCBI}] def
} def
/cfontCB {
 dup /fontsize exch def /Typewriter-Bold exch sf
 /vg&fontstyles [{cfontC} {cfontCB} {cfontCI} {cfontCBI}] def
} def
/cfontCI {
 dup /fontsize exch def /Typewriter-Italic exch sf
 /vg&fontstyles [{cfontC} {cfontCB} {cfontCI} {cfontCBI}] def
} def
/cfontCBI {
 dup /fontsize exch def /Typewriter-BoldItalic exch sf
 /vg&fontstyles [{cfontC} {cfontCB} {cfontCI} {cfontCBI}] def
} def

% Darken or lighten the current color.
/darken {0.7 exch exp 3 copy
         q 4 -1 roll vg&C
         currentrgbcolor 3 {4 -2 roll mul} repeat
         3 array astore Q} def

/displayColorMap
<< /Cr   [1.00 0.00 0.00]       /Cg     [0.00 1.00 0.00]
   /Cb   [0.00 0.00 1.00]       /Cc     [1.00 0.00 0.00 0.00]
   /Cm   [0.00 1.00 0.00 0.00]  /Cy     [0.00 0.00 1.00 0.00]
   /Co   [1.00 0.78 0.00]       /Cp     [1.00 0.67 0.67]
   /Cw   [1   ]                 /Cgrl   [0.75]
   /Cgr  [0.50]                 /Cgrd   [0.25]
   /Ck   [0   ]
   /CGr  [1.00 0.00 0.00]       /CGg    [0.00 1.00 0.00]
   /CGb  [0.00 0.00 1.00]       /CGc    [1.00 0.00 0.00 0.00]
   /CGm  [0.00 1.00 0.00 0.00]  /CGy    [0.00 0.00 1.00 0.00]
   /CGo  [1.00 0.78 0.00]       /CGp    [1.00 0.67 0.67]
   /CGw  [1   ]                 /CGgrl  [0.75]
   /CGgr [0.50]                 /CGgrd  [0.25]
   /CGk  [0   ]
   /CIr  [1.00 0.00 0.00]       /CIg    [0.00 1.00 0.00]
   /CIb  [0.00 0.00 1.00]       /CIc    [1.00 0.00 0.00 0.00]
   /CIm  [0.00 1.00 0.00 0.00]  /CIy    [0.00 0.00 1.00 0.00]
   /CIo  [1.00 0.78 0.00]       /CIp    [1.00 0.67 0.67]
   /CIw  [1   ]                 /CIgrl  [0.75]
   /CIgr [0.50]                 /CIgrd  [0.25]
   /CIk  [0   ]
>> def

/printColorMap
<< /Cr   [1.00 0.33 0.33]       /Cg     [0.33 1.00 0.33]
   /Cb   [0.33 0.33 1.00]       /Cc     [1.00 0.00 0.00 0.00]
   /Cm   [0.00 1.00 0.00 0.00]  /Cy     [0.00 0.00 1.00 0.00]
   /Co   [1.00 0.78 0.00]       /Cp     [1.00 0.67 0.67]
   /Cw   [1   ]                 /Cgrl   [0.75]
   /Cgr  [0.50]                 /Cgrd   [0.25]
   /Ck   [0   ]
   /CGr  [1.00 0.33 0.33]       /CGg    [0.33 1.00 0.33]
   /CGb  [0.33 0.33 1.00]       /CGc    [1.00 0.00 0.00 0.00]
   /CGm  [0.00 1.00 0.00 0.00]  /CGy    [0.00 0.00 1.00 0.00]
   /CGo  [1.00 0.78 0.00]       /CGp    [1.00 0.67 0.67]
   /CGw  [1   ]                 /CGgrl  [0.75]
   /CGgr [0.50]                 /CGgrd  [0.25]
   /CGk  [0   ]
   /CIr  [1.00 0.33 0.33]       /CIg    [0.33 1.00 0.33]
   /CIb  [0.33 0.33 1.00]       /CIc    [1.00 0.00 0.00 0.00]
   /CIm  [0.00 1.00 0.00 0.00]  /CIy    [0.00 0.00 1.00 0.00]
   /CIo  [1.00 0.78 0.00]       /CIp    [1.00 0.67 0.67]
   /CIw  [1   ]                 /CIgrl  [0.75]
   /CIgr [0.50]                 /CIgrd  [0.25]
   /CIk  [0   ]
>> def

/grayColorMap
<< /Cr   [0   ]                 /Cg     [0   ]
   /Cb   [0   ]                 /Cc     [0   ]
   /Cm   [0   ]                 /Cy     [0   ]
   /Co   [0   ]                 /Cp     [0   ]
   /Cw   [0   ]                 /Cgrl   [0   ]
   /Cgr  [0   ]                 /Cgrd   [0   ]
   /Ck   [0   ]
   /CGr  [0.75]                 /CGg    [1   ]
   /CGb  [0.50]                 /CGc    [0.75]
   /CGm  [0.50]                 /CGy    [1   ]
   /CGo  [0.75]                 /CGp    [1   ]
   /CGw  [0   ]                 /CGgrl  [0.25]
   /CGgr [0.50]                 /CGgrd  [0.75]
   /CGk  [1   ]
   /CIr  [1   ]                 /CIg    [1   ]
   /CIb  [1   ]                 /CIc    [1   ]
   /CIm  [1   ]                 /CIy    [1   ]
   /CIo  [1   ]                 /CIp    [1   ]
   /CIw  [1   ]                 /CIgrl  [1   ]
   /CIgr [1   ]                 /CIgrd  [1   ]
   /CIk  [1   ]
>> def

/bwColorMap
<< /Cr   [0   ]                 /Cg     [0   ]
   /Cb   [0   ]                 /Cc     [0   ]
   /Cm   [0   ]                 /Cy     [0   ]
   /Co   [0   ]                 /Cp     [0   ]
   /Cw   [0   ]                 /Cgrl   [0   ]
   /Cgr  [0   ]                 /Cgrd   [0   ]
   /Ck   [0   ]
   /CGr  [1   ]                 /CGg    [1   ]
   /CGb  [1   ]                 /CGc    [1   ]
   /CGm  [1   ]                 /CGy    [1   ]
   /CGo  [1   ]                 /CGp    [1   ]
   /CGw  [0   ]                 /CGgrl  [1   ]
   /CGgr [1   ]                 /CGgrd  [1   ]
   /CGk  [1   ]
   /CIr  [1   ]                 /CIg    [1   ]
   /CIb  [1   ]                 /CIc    [1   ]
   /CIm  [1   ]                 /CIy    [1   ]
   /CIo  [1   ]                 /CIp    [1   ]
   /CIw  [1   ]                 /CIgrl  [1   ]
   /CIgr [1   ]                 /CIgrd  [1   ]
   /CIk  [1   ]
>> def

%
% The following routines handle the alignment of and printing of
% tagged strings.
%

% Predefine the bounding box values.
/bbllx 0 def /bblly 0 def /bburx 0 def /bbury 0 def

% This routine pops the first unicode character off of a string and returns
% the remainder of the string, the character code of first character,
% and a "true" if the string was non-zero length.
% <string>      popfirst <remaining string> <true>
% <null string> popfirst <false>
/popfirst {
  dup length 1 gt
    {dup 0 get /vg&fbyte exch def
     dup 1 get /vg&cbyte exch def
     dup length 2 sub 2 exch getinterval true}
    {pop false} ifelse
} def

% This routine shows a single unicode character given the font and
% character codes.
% <font code> <char code> unicharshow --
/unicharshow {
  2 string
  dup 0 5 -1 roll put
  dup 1 4 -1 roll put
  internalshow
} def

% This is an internal routine to alternate between determining the
% bounding box for stringsize and showing the string for recshow.
% <string> internalshow --
/internalshow {show} def

% This is an internal routine to alternate between determining the
% bounding box for stringsize and stroking various ornaments.
% <string> internalstroke --
/internalstroke {S} def

% Sets up internalshow to use the null device to determine string size.
% -- nullinternalshow --
/nullinternalshow {/internalshow {false charpath flattenpath
                                  pathbbox updatebbox} def} def

% Sets up internalstroke to use the null device to determine string size.
% -- nullinternalstroke --
/nullinternalstroke {
 /internalstroke {flattenpath pathbbox updatebbox} def} def

% This routine tests to see if the character code matches the first
% character of a string.
% <char code> <string> testchar <char code> <true or false>
/testchar {exch dup 3 -1 roll 0 get eq} def

% Raise the text baseline for superscripts.
% -- raise --
/raise {
  0 fontsize 2 div rmoveto
  /fontsize fontsize 2 mul 3 div def
  currentfont /FontName get fontsize sf
} def

% Un-raise the text baseline for superscripts.
% -- unraise --
/unraise {
  /fontsize fontsize 1.5 mul def
  0 fontsize 2 div neg rmoveto
} def

% Lower the text baseline for subscripts.
% -- lower --
/lower {
  0 fontsize 3 div neg rmoveto
  /fontsize fontsize 2 mul 3 div def
  currentfont /FontName get fontsize sf
} def

% Un-lower the text baseline for subscripts.
% -- unlower --
/unlower {
  /fontsize fontsize 1.5 mul def
  0 fontsize 3 div rmoveto
} def

% Compare the top two elements on the stack and leave only the
% larger one.
/maxval {2 copy gt {pop} {exch pop} ifelse} def

% Tokenize a string.  Do not use the usual PostScript token because
% parentheses will not be interpreted correctly because of rescanning
% of the string.
/vg&token {/vg&string exch def /vg&index -1 def /vg&level 0 def
0 2 vg&string length 2 sub {
  dup dup 1 add exch vg&string exch get 8 bitshift vg&string 3 -1 roll get or
  dup 16#f0fe eq {pop 1}{16#f0ff eq {-1}{0} ifelse} ifelse
  /vg&level exch vg&level add def
  vg&level 0 eq {/vg&index exch def exit} if pop
} for
vg&index 0 ge {
  vg&string vg&index 2 add dup vg&string length exch sub getinterval
  vg&index 2 gt {vg&string 2 vg&index 2 sub getinterval}{()} ifelse
  true}
{false} ifelse
} bind def

% Recursively show an unicode string.
% <string> recshow --
/recshow {
  popfirst
  {
    % Test to see if this is a string attribute.
    vg&fbyte 16#f0 and 16#e0 eq
    {
      q

      % Font style.
      currentfont dup /FontStyleBits known {/FontStyleBits get}{pop 0} ifelse
      vg&cbyte or vg&fontstyles exch get fontsize exch exec

      vg&token pop recshow currentpoint Q m recshow
    }
    {
      vg&fbyte 16#F8 and 16#F0 eq {

        % Superscript and/or subscript.
        vg&cbyte 16#00 eq {
          vg&token pop exch vg&token pop 3 -1 roll
          q raise recshow unraise currentpoint pop Q exch
          q lower recshow unlower currentpoint pop Q
          maxval currentpoint exch pop m recshow } if

        % Strikeout.
        vg&cbyte 16#01 eq {
          vg&token pop currentpoint 3 -1 roll recshow
          q 0 J vg&underline vg&uthick w
          currentpoint 4 -2 roll fontsize 3 div add moveto
          fontsize 3 div add lineto internalstroke Q
          recshow} if

        % Underline.
        vg&cbyte 16#02 eq {
          vg&token pop currentpoint 3 -1 roll recshow
          q 0 J vg&underline vg&uthick w
          currentpoint 4 -2 roll vg&uoffset add moveto
          vg&uoffset add lineto internalstroke Q
          recshow} if

        % Dashed underline.
        vg&cbyte 16#03 eq {
          vg&token pop currentpoint 3 -1 roll recshow
          q 0 J [ vg&uthick 5 mul vg&uthick 2 mul] 0 d
          vg&underline vg&uthick w
          currentpoint 4 -2 roll vg&uoffset add moveto
          vg&uoffset add lineto internalstroke Q
          recshow} if

        % Dotted underline.
        vg&cbyte 16#04 eq {
          vg&token pop currentpoint 3 -1 roll recshow
          q 1 J [ 0 vg&uthick 3 mul] 0 d
          vg&underline vg&uthick w
          currentpoint 4 -2 roll vg&uoffset add moveto
          vg&uoffset add lineto internalstroke Q
          recshow} if

        % Thick underline.
        vg&cbyte 16#05 eq {
          vg&token pop currentpoint 3 -1 roll recshow
          q 0 J vg&underline vg&uthick 2 mul w
          currentpoint 4 -2 roll vg&uoffset vg&uthick 2 div sub add moveto
          vg&uoffset vg&uthick 2 div sub add lineto internalstroke Q
          recshow} if

        % Gray thick underline.
        vg&cbyte 16#06 eq {
          vg&token pop currentpoint 3 -1 roll recshow
          q 0 J vg&underline vg&uthick 2 mul w 0.5 setgray
          currentpoint 4 -2 roll vg&uoffset vg&uthick 2 div sub add moveto
          vg&uoffset vg&uthick 2 div sub add lineto internalstroke Q
          recshow} if

        % Overbar.
        vg&cbyte 16#07 eq {
          vg&token pop dup stringsize relative 4 1 roll pop pop exch
          3 -1 roll recshow
          q 0 J vg&underline vg&uthick w
          vg&uoffset neg add dup currentpoint pop exch m l internalstroke Q
          recshow} if
      }
      {
        vg&fbyte vg&cbyte unicharshow recshow
      } ifelse
    } ifelse
  } if
} def

% Get the underline position and thickness from the current font.
/vg&underline {

currentfont dup /FontType get 0 eq {/FDepVector get 0 get} if
dup dup /FontInfo known {
  /FontInfo get dup
  dup /UnderlinePosition known {
    /UnderlinePosition get /vg&uoffset exch def
  }
  {
    pop /vg&uoffset 0 def
  } ifelse
  dup /UnderlineThickness known {
    /UnderlineThickness get /vg&uthick exch def
  }
  {
    pop /vg&uthick 0 def
  } ifelse
}
{
  pop /vg&uoffset 0 def /vg&uthick 0 def
} ifelse
/FontMatrix get
currentfont dup /FontType get 0 eq
{/FontMatrix get matrix concatmatrix}{pop} ifelse
dup 0 vg&uoffset 3 -1 roll transform /vg&uoffset exch def pop
0 vg&uthick 3 -1 roll transform /vg&uthick exch def pop
} def

% Make a frame with the coordinates on the stack.
% <llx> <lly> <urx> <ury> frame --
/frame {4 copy m 3 1 roll exch l 4 -2 roll l l h} def

% Resets the accumulated bounding box to a degenerate box at the
% current point.
% -- resetbbox --
/resetbbox {
  currentpoint 2 copy
  /bbury exch def
  /bburx exch def
  /bblly exch def
  /bbllx exch def
} def

% Update the accumulated bounding box.
% <llx'> <lly'> <urx'> <ury'> updatebbox --
/updatebbox {
  dup bbury gt {/bbury exch def} {pop} ifelse
  dup bburx gt {/bburx exch def} {pop} ifelse
  dup bblly lt {/bblly exch def} {pop} ifelse
  dup bbllx lt {/bbllx exch def} {pop} ifelse
} def

% Set the bounding box to the values on the stack.
% <llx'> <lly'> <urx'> <ury'> updatebbox --
/restorebbox {
  /bbury exch def /bburx exch def /bblly exch def /bbllx exch def
} def

% Push the accumulated bounding box onto the stack.
% -- pushbbox <llx> <lly> <urx> <ury>
/pushbbox {bbllx bblly bburx bbury} def

% Make the relative bounding box relative to the currentpoint.
% <llx'> <lly'> <urx'> <ury'> inflate <llx> <lly> <urx> <ury>
/inflate {
  2 {fontsize 0.2 mul add 4 1 roll} repeat
  2 {fontsize 0.2 mul sub 4 1 roll} repeat
} def

% Make the relative bounding box relative to the currentpoint.
% <llx'> <lly'> <urx'> <ury'> relative <llx> <lly> <urx> <ury>
/relative {
  currentpoint 3 -1 roll add 3 1 roll add exch 4 2 roll
  currentpoint 3 -1 roll add 3 1 roll add exch 4 2 roll
} def

% Returns the size of a string appropriate for recshow.
% <string> stringsize <llx> <lly> <urx> <ury>
/stringsize {
  pushbbox /internalshow load /internalstroke load 7 -1 roll
  q
  nulldevice 0 0 m
  nullinternalshow nullinternalstroke
  resetbbox
  recshow
  /internalstroke exch def /internalshow exch def
  pushbbox 8 -4 roll restorebbox
  Q
} def

% Calculate values for string positioning.
/calcval {4 copy
  3 -1 roll sub /widy exch def sub neg /widx exch def
  pop pop /dy exch def /dx exch def} def

% Utilities to position a string.
% First letter (U=upper, C=center, B=baseline, L=lower)
% Second letter (L=left, C=center, R=right)
/align [
{calcval dx neg widy dy add neg rmoveto} % UL
{calcval dx neg widy 2 div dy add neg rmoveto} % CL
{calcval dx neg 0 rmoveto} % BL
{calcval dx neg dy neg rmoveto} % LL
{calcval widx dx add neg widy dy add neg rmoveto} % UR
{calcval widx dx add neg widy 2 div dy add neg rmoveto} % CR
{calcval widx dx add neg 0 rmoveto} % BR
{calcval widx dx add neg dy neg rmoveto} % LR
{calcval widx 2 div dx add neg widy dy add neg rmoveto} % UC
{calcval widx 2 div dx add neg widy 2 div dy add neg rmoveto} % CC
{calcval widx 2 div dx add neg 0 rmoveto} % BC
{calcval widx 2 div dx add neg dy neg rmoveto} % LC
] def

/vg&str {m q 1 -1 scale dup stringsize 4 copy align 11 -1 roll get exec
         q inflate relative frame exch exec Q recshow Q} def

end /procDict exch def
%%EndProlog

%%BeginSetup
save
procDict begin
printColorMap begin
595 791 setpagesize
20 20 20 20 setmargins
0 0 setorigin
510 120 setsize
fittopage
portrait
imagescale
cliptobounds
setbasematrix
/Helvetica 10 sf
defaultGraphicsState
%%EndSetup

0.00000 0.00000 0.00000 RG
[ 1.00000 0.00000 0.00000 1.00000 0.00000 0.00000 ] defaultmatrix matrix concatmatrix setmatrix
cliprestore
1.00000 1.00000 1.00000 RG
newpath
0.00000 0.00000 m
510.000 0.00000 l
510.000 120.000 l
0.00000 120.000 l
0.00000 0.00000 l
h
f
0.00000 0.00000 0.00000 RG
0.00000 0.00000 0.00000 RG
[ 1.00000 0.00000 0.00000 1.00000 0.00000 0.00000 ] defaultmatrix matrix concatmatrix setmatrix
cliprestore
1.00000 1.00000 1.00000 RG
newpath
0.00000 0.00000 m
510.000 0.00000 l
510.000 120.000 l
0.00000 120.000 l
0.00000 0.00000 l
h
f
0.00000 0.00000 0.00000 RG
1.00000 1.00000 1.00000 RG
newpath
0.00000 0.00000 m
510.000 0.00000 l
510.000 120.000 l
0.00000 120.000 l
0.00000 0.00000 l
h
f
cliprestore
0 0 510 120 rc
q
<< /PatternType 2
   /Shading
   << /ShadingType 2
      /ColorSpace /DeviceRGB
      /Coords [31.51781463623047 59.9488525390625 30.316795349121094 59.9488525390625]
      /Function
      << /FunctionType 2
         /Domain [0 1]
         /Range [0 1 0 1 0 1]
         /C0 [0.0 0.0 0.0]
         /C1 [0.2 0.2 0.6]
         /N 1
      >>
      /Extend [true true]
   >>
>>
matrix makepattern setpattern
newpath
39.0942 65.5537 m
39.4259 65.5537 39.6947 65.2849 39.6947 64.9531  c
39.6947 64.6214 39.4259 64.3526 39.0942 64.3526  c
22.7404 64.3526 l
22.4087 64.3526 22.1399 64.6214 22.1399 64.9531  c
22.1399 65.2849 22.4087 65.5537 22.7404 65.5537  c
h
39.0942 60.5494 m
39.4259 60.5494 39.6947 60.2806 39.6947 59.9489  c
39.6947 59.6171 39.4259 59.3483 39.0942 59.3483  c
22.7404 59.3483 l
22.4087 59.3483 22.1399 59.6171 22.1399 59.9489  c
22.1399 60.2806 22.4087 60.5494 22.7404 60.5494  c
h
39.0942 55.5451 m
39.4259 55.5451 39.6947 55.2763 39.6947 54.9446  c
39.6947 54.6128 39.4259 54.3440 39.0942 54.3440  c
22.7404 54.3440 l
22.4087 54.3440 22.1399 54.6128 22.1399 54.9446  c
22.1399 55.2763 22.4087 55.5451 22.7404 55.5451  c
h
f
Q
q
0.00000 0.00000 0.00000 RG
newpath
50.8670 60.5494 m
66.8380 60.5494 l
67.1698 60.5494 67.4386 60.2806 67.4386 59.9489  c
67.4386 59.6171 67.1698 59.3483 66.8380 59.3483  c
50.8670 59.3483 l
50.5353 59.3483 50.2665 59.6171 50.2665 59.9489  c
50.2665 60.2806 50.5353 60.5494 50.8670 60.5494  c
h
f
Q
q
.200000 .200000 .200000 RG
newpath
145.595 60.5494 m
162.347 60.5494 l
162.679 60.5494 162.947 60.2806 162.947 59.9489  c
162.947 59.6171 162.679 59.3483 162.347 59.3483  c
145.595 59.3483 l
145.263 59.3483 144.994 59.6171 144.994 59.9489  c
144.994 60.2806 145.263 60.5494 145.595 60.5494  c
h
f
Q
q
.200000 .200000 .200000 RG
newpath
240.718 60.5494 m
257.470 60.5494 l
257.802 60.5494 258.071 60.2806 258.071 59.9489  c
258.071 59.6171 257.802 59.3483 257.470 59.3483  c
240.718 59.3483 l
240.386 59.3483 240.118 59.6171 240.118 59.9489  c
240.118 60.2806 240.386 60.5494 240.718 60.5494  c
h
f
Q
q
<< /PatternType 2
   /Shading
   << /ShadingType 2
      /ColorSpace /DeviceRGB
      /Coords [455.8807373046875 86.34644317626953 456.481201171875 85.30630493164062]
      /Function
      << /FunctionType 2
         /Domain [0 1]
         /Range [0 1 0 1 0 1]
         /C0 [0.2 0.2 0.2]
         /C1 [0.2 0.2 0.6]
         /N 1
      >>
      /Extend [true true]
   >>
>>
matrix makepattern setpattern
newpath
453.399 91.8470 m
460.003 80.4062 l
460.169 80.1190 460.071 79.7518 459.784 79.5859  c
459.496 79.4201 459.129 79.5185 458.963 79.8058  c
452.359 91.2465 l
452.193 91.5338 452.291 91.9010 452.578 92.0668  c
452.866 92.2327 453.233 92.1343 453.399 91.8470  c
h
f
Q
q
<< /PatternType 2
   /Shading
   << /ShadingType 2
      /ColorSpace /DeviceRGB
      /Coords [477.5943603515625 73.8099594116211 476.3933410644531 73.8099594116211]
      /Function
      << /FunctionType 2
         /Domain [0 1]
         /Range [0 1 0 1 0 1]
         /C0 [0.2 0.2 0.2]
         /C1 [0.2 0.2 0.6]
         /N 1
      >>
      /Extend [true true]
   >>
>>
matrix makepattern setpattern
newpath
485.366 73.2094 m
468.622 73.2094 l
468.290 73.2094 468.021 73.4782 468.021 73.8100  c
468.021 74.1417 468.290 74.4105 468.622 74.4105  c
485.366 74.4105 l
485.698 74.4105 485.967 74.1417 485.967 73.8100  c
485.967 73.4782 485.698 73.2094 485.366 73.2094  c
h
f
Q
q
<< /PatternType 2
   /Shading
   << /ShadingType 2
      /ColorSpace /DeviceRGB
      /Coords [456.57818603515625 62.48412322998047 455.97760009765625 61.44404602050781]
      /Function
      << /FunctionType 2
         /Domain [0 1]
         /Range [0 1 0 1 0 1]
         /C0 [0.2 0.2 0.6]
         /C1 [0.0 0.0 0.0]
         /N 1
      >>
      /Extend [true true]
   >>
>>
matrix makepattern setpattern
newpath
460.003 67.2141 m
453.593 56.1135 l
453.427 55.8263 453.060 55.7279 452.773 55.8938  c
452.485 56.0597 452.387 56.4268 452.553 56.7141  c
458.963 67.8146 l
459.129 68.1019 459.496 68.2003 459.783 68.0344  c
460.070 67.8685 460.169 67.5013 460.003 67.2141  c
h
f
Q
q
<< /PatternType 2
   /Shading
   << /ShadingType 2
      /ColorSpace /DeviceRGB
      /Coords [461.6935729980469 42.00749588012695 460.6750793457031 42.643985748291016]
      /Function
      << /FunctionType 2
         /Domain [0 1]
         /Range [0 1 0 1 0 1]
         /C0 [0.2 0.2 0.2]
         /C1 [0.0 0.0 0.0]
         /N 1
      >>
      /Extend [true true]
   >>
>>
matrix makepattern setpattern
newpath
467.038 37.9597 m
454.694 45.6733 l
454.413 45.8491 454.328 46.2195 454.503 46.5008  c
454.679 46.7821 455.050 46.8676 455.331 46.6918  c
467.674 38.9782 l
467.955 38.8024 468.041 38.4320 467.865 38.1507  c
467.689 37.8694 467.319 37.7839 467.038 37.9597  c
h
f
Q
q
<< /PatternType 2
   /Shading
   << /ShadingType 2
      /ColorSpace /DeviceRGB
      /Coords [449.75390625 35.2591438293457 449.7119445800781 36.45943069458008]
      /Function
      << /FunctionType 2
         /Domain [0 1]
         /Range [0 1 0 1 0 1]
         /C0 [0.2 0.2 0.2]
         /C1 [0.0 0.0 0.0]
         /N 1
      >>
      /Extend [true true]
   >>
>>
matrix makepattern setpattern
newpath
449.359 29.3602 m
448.906 42.3164 l
448.895 42.6480 449.154 42.9260 449.486 42.9376  c
449.817 42.9492 450.095 42.6899 450.107 42.3584  c
450.560 29.4021 l
450.571 29.0706 450.312 28.7926 449.980 28.7810  c
449.649 28.7694 449.371 29.0287 449.359 29.3602  c
h
f
Q
q
0.00000 0.00000 0.00000 RG
newpath
427.389 50.3868 m
443.360 50.3868 l
443.691 50.3868 443.960 50.1180 443.960 49.7863  c
443.960 49.4546 443.691 49.1858 443.360 49.1858  c
427.389 49.1858 l
427.057 49.1858 426.788 49.4546 426.788 49.7863  c
426.788 50.1180 427.057 50.3868 427.389 50.3868  c
h
f
Q
.200000 .200000 .600000 RG
1.00000 1.00000 1.00000 RG
newpath
16.5962 55.0270 m
15.2370 55.0270 14.1352 56.1288 14.1352 57.4879  c
14.1352 62.4098 l
14.1352 63.7689 15.2370 64.8707 16.5962 64.8707  c
17.8774 64.8707 l
19.2366 64.8707 20.3384 63.7689 20.3384 62.4098  c
20.3384 57.4879 l
20.3384 56.1288 19.2366 55.0270 17.8774 55.0270  c
h
f
.200000 .200000 .600000 RG
[ 1.00000 0.00000 0.00000 1.00000 13.7368 52.4489 ] concat
newpath
.843750 12.0000 m
.843750 4.12500 l
1.90625 4.12500 l
6.04688 10.3125 l
6.04688 4.12500 l
7.04688 4.12500 l
7.04688 12.0000 l
5.96875 12.0000 l
1.84375 5.81250 l
1.84375 12.0000 l
.843750 12.0000 l
h
f
[ 1.00000 0.00000 0.00000 1.00000 0.00000 0.00000 ] defaultmatrix matrix concatmatrix setmatrix
[ 1.00000 0.00000 0.00000 1.00000 0.00000 0.00000 ] defaultmatrix matrix concatmatrix setmatrix
[ 1.00000 0.00000 0.00000 1.00000 9.19723 54.9489 ] concat
0.00000 0.00000 .607843 RG
newpath
2.98438 8.00000 m
2.28125 8.00000 l
2.28125 3.51562 l
2.11458 3.68229 1.89323 3.84635 1.61719 4.00781  c
1.34115 4.16927 1.09375 4.28646 .875000 4.35938  c
.875000 3.68750 l
1.27083 3.50000 1.61458 3.27604 1.90625 3.01562  c
2.19792 2.75521 2.40625 2.50000 2.53125 2.25000  c
2.98438 2.25000 l
2.98438 8.00000 l
h
f
[ 1.00000 0.00000 0.00000 1.00000 0.00000 0.00000 ] defaultmatrix matrix concatmatrix setmatrix
[ 1.00000 0.00000 0.00000 1.00000 0.00000 0.00000 ] defaultmatrix matrix concatmatrix setmatrix
.200000 .200000 .600000 RG
0.00000 0.00000 .607843 RG
1.00000 1.00000 1.00000 RG
0.00000 0.00000 0.00000 RG
1.00000 1.00000 1.00000 RG
newpath
44.0451 54.9215 m
42.6374 54.9215 41.4963 56.0627 41.4963 57.4703  c
41.4963 62.5680 l
41.4963 63.9757 42.6374 65.1168 44.0451 65.1168  c
45.9162 65.1168 l
47.3239 65.1168 48.4650 63.9757 48.4650 62.5680  c
48.4650 57.4703 l
48.4650 56.0627 47.3239 54.9215 45.9162 54.9215  c
h
f
0.00000 0.00000 0.00000 RG
[ 1.00000 0.00000 0.00000 1.00000 41.4806 52.4489 ] concat
newpath
6.46875 9.23438 m
7.51562 9.50000 l
7.29688 10.3542 6.90365 11.0078 6.33594 11.4609  c
5.76823 11.9141 5.07292 12.1406 4.25000 12.1406  c
3.39583 12.1406 2.70312 11.9661 2.17188 11.6172  c
1.64062 11.2682 1.23698 10.7656 .960938 10.1094  c
.684896 9.45312 .546875 8.75000 .546875 8.00000  c
.546875 7.18750 .703125 6.47396 1.01562 5.85938  c
1.32812 5.24479 1.77344 4.77865 2.35156 4.46094  c
2.92969 4.14323 3.56771 3.98438 4.26562 3.98438  c
5.05729 3.98438 5.72135 4.18490 6.25781 4.58594  c
6.79427 4.98698 7.16667 5.55208 7.37500 6.28125  c
6.34375 6.53125 l
6.16667 5.95833 5.90365 5.54167 5.55469 5.28125  c
5.20573 5.02083 4.77083 4.89062 4.25000 4.89062  c
3.63542 4.89062 3.12500 5.03385 2.71875 5.32031  c
2.31250 5.60677 2.02865 5.99479 1.86719 6.48438  c
1.70573 6.97396 1.62500 7.47917 1.62500 8.00000  c
1.62500 8.66667 1.72135 9.25000 1.91406 9.75000  c
2.10677 10.2500 2.40885 10.6250 2.82031 10.8750  c
3.23177 11.1250 3.67708 11.2500 4.15625 11.2500  c
4.73958 11.2500 5.23438 11.0807 5.64062 10.7422  c
6.04688 10.4036 6.32292 9.90104 6.46875 9.23438  c
h
f
[ 1.00000 0.00000 0.00000 1.00000 0.00000 0.00000 ] defaultmatrix matrix concatmatrix setmatrix
[ 1.00000 0.00000 0.00000 1.00000 0.00000 0.00000 ] defaultmatrix matrix concatmatrix setmatrix
[ 1.00000 0.00000 0.00000 1.00000 42.9806 48.9020 ] concat
0.00000 0.00000 .607843 RG
newpath
4.03125 7.32812 m
4.03125 8.00000 l
.250000 8.00000 l
.239583 7.83333 .265625 7.67188 .328125 7.51562  c
.421875 7.25521 .575521 7.00000 .789062 6.75000  c
1.00260 6.50000 1.30729 6.20833 1.70312 5.87500  c
2.32812 5.36458 2.75000 4.96094 2.96875 4.66406  c
3.18750 4.36719 3.29688 4.08854 3.29688 3.82812  c
3.29688 3.54688 3.19792 3.30990 3.00000 3.11719  c
2.80208 2.92448 2.54167 2.82812 2.21875 2.82812  c
1.88542 2.82812 1.61719 2.92969 1.41406 3.13281  c
1.21094 3.33594 1.10417 3.61979 1.09375 3.98438  c
.375000 3.90625 l
.427083 3.36458 .614583 2.95312 .937500 2.67188  c
1.26042 2.39062 1.69271 2.25000 2.23438 2.25000  c
2.78646 2.25000 3.22135 2.40104 3.53906 2.70312  c
3.85677 3.00521 4.01562 3.38542 4.01562 3.84375  c
4.01562 4.07292 3.96875 4.29688 3.87500 4.51562  c
3.78125 4.73438 3.62760 4.96615 3.41406 5.21094  c
3.20052 5.45573 2.83854 5.79167 2.32812 6.21875  c
1.91146 6.57292 1.64323 6.81250 1.52344 6.93750  c
1.40365 7.06250 1.30208 7.19271 1.21875 7.32812  c
4.03125 7.32812 l
h
f
[ 1.00000 0.00000 0.00000 1.00000 0.00000 0.00000 ] defaultmatrix matrix concatmatrix setmatrix
[ 1.00000 0.00000 0.00000 1.00000 0.00000 0.00000 ] defaultmatrix matrix concatmatrix setmatrix
0.00000 0.00000 0.00000 RG
0.00000 0.00000 .607843 RG
1.00000 1.00000 1.00000 RG
0.00000 0.00000 0.00000 RG
1.00000 1.00000 1.00000 RG
newpath
71.7889 54.9215 m
70.3812 54.9215 69.2401 56.0627 69.2401 57.4703  c
69.2401 62.5680 l
69.2401 63.9757 70.3812 65.1168 71.7889 65.1168  c
73.6600 65.1168 l
75.0677 65.1168 76.2088 63.9757 76.2088 62.5680  c
76.2088 57.4703 l
76.2088 56.0627 75.0677 54.9215 73.6600 54.9215  c
h
f
0.00000 0.00000 0.00000 RG
[ 1.00000 0.00000 0.00000 1.00000 69.2245 52.4489 ] concat
newpath
6.46875 9.23438 m
7.51562 9.50000 l
7.29688 10.3542 6.90365 11.0078 6.33594 11.4609  c
5.76823 11.9141 5.07292 12.1406 4.25000 12.1406  c
3.39583 12.1406 2.70312 11.9661 2.17188 11.6172  c
1.64062 11.2682 1.23698 10.7656 .960938 10.1094  c
.684896 9.45312 .546875 8.75000 .546875 8.00000  c
.546875 7.18750 .703125 6.47396 1.01562 5.85938  c
1.32812 5.24479 1.77344 4.77865 2.35156 4.46094  c
2.92969 4.14323 3.56771 3.98438 4.26562 3.98438  c
5.05729 3.98438 5.72135 4.18490 6.25781 4.58594  c
6.79427 4.98698 7.16667 5.55208 7.37500 6.28125  c
6.34375 6.53125 l
6.16667 5.95833 5.90365 5.54167 5.55469 5.28125  c
5.20573 5.02083 4.77083 4.89062 4.25000 4.89062  c
3.63542 4.89062 3.12500 5.03385 2.71875 5.32031  c
2.31250 5.60677 2.02865 5.99479 1.86719 6.48438  c
1.70573 6.97396 1.62500 7.47917 1.62500 8.00000  c
1.62500 8.66667 1.72135 9.25000 1.91406 9.75000  c
2.10677 10.2500 2.40885 10.6250 2.82031 10.8750  c
3.23177 11.1250 3.67708 11.2500 4.15625 11.2500  c
4.73958 11.2500 5.23438 11.0807 5.64062 10.7422  c
6.04688 10.4036 6.32292 9.90104 6.46875 9.23438  c
h
f
[ 1.00000 0.00000 0.00000 1.00000 0.00000 0.00000 ] defaultmatrix matrix concatmatrix setmatrix
[ 1.00000 0.00000 0.00000 1.00000 0.00000 0.00000 ] defaultmatrix matrix concatmatrix setmatrix
[ 1.00000 0.00000 0.00000 1.00000 77.7132 55.0192 ] concat
0.00000 0.00000 .607843 RG
newpath
.343750 6.48438 m
1.04688 6.39062 l
1.11979 6.78646 1.25521 7.07292 1.45312 7.25000  c
1.65104 7.42708 1.88542 7.51562 2.15625 7.51562  c
2.48958 7.51562 2.77083 7.40104 3.00000 7.17188  c
3.22917 6.94271 3.34375 6.66146 3.34375 6.32812  c
3.34375 6.00521 3.23698 5.73698 3.02344 5.52344  c
2.80990 5.30990 2.54167 5.20312 2.21875 5.20312  c
2.08333 5.20312 1.91667 5.22917 1.71875 5.28125  c
1.79688 4.67188 l
1.84896 4.67188 1.89062 4.67188 1.92188 4.67188  c
2.21354 4.67188 2.47917 4.59375 2.71875 4.43750  c
2.95833 4.28125 3.07812 4.04167 3.07812 3.71875  c
3.07812 3.45833 2.99219 3.24479 2.82031 3.07812  c
2.64844 2.91146 2.42188 2.82812 2.14062 2.82812  c
1.86979 2.82812 1.64323 2.91406 1.46094 3.08594  c
1.27865 3.25781 1.16146 3.51562 1.10938 3.85938  c
.406250 3.73438 l
.489583 3.26562 .684896 2.90104 .992188 2.64062  c
1.29948 2.38021 1.67708 2.25000 2.12500 2.25000  c
2.43750 2.25000 2.72656 2.31771 2.99219 2.45312  c
3.25781 2.58854 3.46094 2.77083 3.60156 3.00000  c
3.74219 3.22917 3.81250 3.47396 3.81250 3.73438  c
3.81250 3.98438 3.74479 4.21094 3.60938 4.41406  c
3.47396 4.61719 3.27604 4.77604 3.01562 4.89062  c
3.35938 4.97396 3.62500 5.13802 3.81250 5.38281  c
4.00000 5.62760 4.09375 5.93750 4.09375 6.31250  c
4.09375 6.81250 3.91146 7.23698 3.54688 7.58594  c
3.18229 7.93490 2.71875 8.10938 2.15625 8.10938  c
1.65625 8.10938 1.23958 7.95833 .906250 7.65625  c
.572917 7.35417 .385417 6.96354 .343750 6.48438  c
h
f
[ 1.00000 0.00000 0.00000 1.00000 0.00000 0.00000 ] defaultmatrix matrix concatmatrix setmatrix
[ 1.00000 0.00000 0.00000 1.00000 0.00000 0.00000 ] defaultmatrix matrix concatmatrix setmatrix
0.00000 0.00000 0.00000 RG
0.00000 0.00000 .607843 RG
1.00000 1.00000 1.00000 RG
.200000 .200000 .200000 RG
1.00000 1.00000 1.00000 RG
newpath
139.466 55.0270 m
138.107 55.0270 137.005 56.1288 137.005 57.4879  c
137.005 62.4098 l
137.005 63.7689 138.107 64.8707 139.466 64.8707  c
140.732 64.8707 l
142.091 64.8707 143.192 63.7689 143.192 62.4098  c
143.192 57.4879 l
143.192 56.1288 142.091 55.0270 140.732 55.0270  c
h
f
.200000 .200000 .200000 RG
[ 1.00000 0.00000 0.00000 1.00000 136.599 52.4489 ] concat
newpath
.875000 12.0000 m
.875000 4.12500 l
1.92188 4.12500 l
1.92188 7.35938 l
6.01562 7.35938 l
6.01562 4.12500 l
7.06250 4.12500 l
7.06250 12.0000 l
6.01562 12.0000 l
6.01562 8.28125 l
1.92188 8.28125 l
1.92188 12.0000 l
.875000 12.0000 l
h
f
[ 1.00000 0.00000 0.00000 1.00000 0.00000 0.00000 ] defaultmatrix matrix concatmatrix setmatrix
[ 1.00000 0.00000 0.00000 1.00000 0.00000 0.00000 ] defaultmatrix matrix concatmatrix setmatrix
[ 1.00000 0.00000 0.00000 1.00000 131.036 54.9489 ] concat
0.00000 0.00000 .607843 RG
newpath
2.59375 8.00000 m
2.59375 6.62500 l
.109375 6.62500 l
.109375 5.98438 l
2.71875 2.26562 l
3.29688 2.26562 l
3.29688 5.98438 l
4.06250 5.98438 l
4.06250 6.62500 l
3.29688 6.62500 l
3.29688 8.00000 l
2.59375 8.00000 l
h
2.59375 5.98438 m
2.59375 3.40625 l
.796875 5.98438 l
2.59375 5.98438 l
h
f
[ 1.00000 0.00000 0.00000 1.00000 0.00000 0.00000 ] defaultmatrix matrix concatmatrix setmatrix
[ 1.00000 0.00000 0.00000 1.00000 0.00000 0.00000 ] defaultmatrix matrix concatmatrix setmatrix
.200000 .200000 .200000 RG
0.00000 0.00000 .607843 RG
1.00000 1.00000 1.00000 RG
.200000 .200000 .200000 RG
1.00000 1.00000 1.00000 RG
newpath
167.210 55.0270 m
165.851 55.0270 164.749 56.1288 164.749 57.4879  c
164.749 62.4098 l
164.749 63.7689 165.851 64.8707 167.210 64.8707  c
168.475 64.8707 l
169.835 64.8707 170.936 63.7689 170.936 62.4098  c
170.936 57.4879 l
170.936 56.1288 169.835 55.0270 168.475 55.0270  c
h
f
.200000 .200000 .200000 RG
[ 1.00000 0.00000 0.00000 1.00000 164.343 52.4489 ] concat
newpath
.875000 12.0000 m
.875000 4.12500 l
1.92188 4.12500 l
1.92188 7.35938 l
6.01562 7.35938 l
6.01562 4.12500 l
7.06250 4.12500 l
7.06250 12.0000 l
6.01562 12.0000 l
6.01562 8.28125 l
1.92188 8.28125 l
1.92188 12.0000 l
.875000 12.0000 l
h
f
[ 1.00000 0.00000 0.00000 1.00000 0.00000 0.00000 ] defaultmatrix matrix concatmatrix setmatrix
[ 1.00000 0.00000 0.00000 1.00000 0.00000 0.00000 ] defaultmatrix matrix concatmatrix setmatrix
[ 1.00000 0.00000 0.00000 1.00000 172.773 54.9489 ] concat
0.00000 0.00000 .607843 RG
newpath
.328125 6.50000 m
1.07812 6.43750 l
1.13021 6.79167 1.25521 7.05990 1.45312 7.24219  c
1.65104 7.42448 1.89062 7.51562 2.17188 7.51562  c
2.51562 7.51562 2.80469 7.38802 3.03906 7.13281  c
3.27344 6.87760 3.39062 6.54167 3.39062 6.12500  c
3.39062 5.71875 3.27604 5.40104 3.04688 5.17188  c
2.81771 4.94271 2.52083 4.82812 2.15625 4.82812  c
1.93750 4.82812 1.73698 4.87760 1.55469 4.97656  c
1.37240 5.07552 1.22917 5.20833 1.12500 5.37500  c
.453125 5.29688 l
1.01562 2.34375 l
3.85938 2.34375 l
3.85938 3.01562 l
1.57812 3.01562 l
1.26562 4.56250 l
1.60938 4.32292 1.96875 4.20312 2.34375 4.20312  c
2.84375 4.20312 3.26562 4.37500 3.60938 4.71875  c
3.95312 5.06250 4.12500 5.51042 4.12500 6.06250  c
4.12500 6.57292 3.97396 7.02083 3.67188 7.40625  c
3.30729 7.86458 2.80729 8.09375 2.17188 8.09375  c
1.65104 8.09375 1.22656 7.94792 .898438 7.65625  c
.570312 7.36458 .380208 6.97917 .328125 6.50000  c
h
f
[ 1.00000 0.00000 0.00000 1.00000 0.00000 0.00000 ] defaultmatrix matrix concatmatrix setmatrix
[ 1.00000 0.00000 0.00000 1.00000 0.00000 0.00000 ] defaultmatrix matrix concatmatrix setmatrix
.200000 .200000 .200000 RG
0.00000 0.00000 .607843 RG
1.00000 1.00000 1.00000 RG
.200000 .200000 .200000 RG
1.00000 1.00000 1.00000 RG
newpath
234.589 55.0270 m
233.230 55.0270 232.129 56.1288 232.129 57.4879  c
232.129 62.4098 l
232.129 63.7689 233.230 64.8707 234.589 64.8707  c
235.855 64.8707 l
237.214 64.8707 238.316 63.7689 238.316 62.4098  c
238.316 57.4879 l
238.316 56.1288 237.214 55.0270 235.855 55.0270  c
h
f
.200000 .200000 .200000 RG
[ 1.00000 0.00000 0.00000 1.00000 231.722 52.4489 ] concat
newpath
.875000 12.0000 m
.875000 4.12500 l
1.92188 4.12500 l
1.92188 7.35938 l
6.01562 7.35938 l
6.01562 4.12500 l
7.06250 4.12500 l
7.06250 12.0000 l
6.01562 12.0000 l
6.01562 8.28125 l
1.92188 8.28125 l
1.92188 12.0000 l
.875000 12.0000 l
h
f
[ 1.00000 0.00000 0.00000 1.00000 0.00000 0.00000 ] defaultmatrix matrix concatmatrix setmatrix
[ 1.00000 0.00000 0.00000 1.00000 0.00000 0.00000 ] defaultmatrix matrix concatmatrix setmatrix
[ 1.00000 0.00000 0.00000 1.00000 226.218 54.9489 ] concat
0.00000 0.00000 .607843 RG
newpath
3.98438 3.67188 m
3.28125 3.73438 l
3.21875 3.45312 3.13021 3.25000 3.01562 3.12500  c
2.82812 2.92708 2.59375 2.82812 2.31250 2.82812  c
2.09375 2.82812 1.89583 2.89062 1.71875 3.01562  c
1.50000 3.17188 1.32812 3.40625 1.20312 3.71875  c
1.07812 4.03125 1.01042 4.47396 1.00000 5.04688  c
1.16667 4.78646 1.37240 4.59375 1.61719 4.46875  c
1.86198 4.34375 2.11979 4.28125 2.39062 4.28125  c
2.85938 4.28125 3.25781 4.45312 3.58594 4.79688  c
3.91406 5.14062 4.07812 5.58854 4.07812 6.14062  c
4.07812 6.49479 4.00260 6.82812 3.85156 7.14062  c
3.70052 7.45312 3.48958 7.69010 3.21875 7.85156  c
2.94792 8.01302 2.64062 8.09375 2.29688 8.09375  c
1.70312 8.09375 1.22135 7.87760 .851562 7.44531  c
.481771 7.01302 .296875 6.30208 .296875 5.31250  c
.296875 4.20833 .505208 3.40625 .921875 2.90625  c
1.27604 2.46875 1.75521 2.25000 2.35938 2.25000  c
2.80729 2.25000 3.17448 2.37500 3.46094 2.62500  c
3.74740 2.87500 3.92188 3.22396 3.98438 3.67188  c
h
1.10938 6.14062 m
1.10938 6.38021 1.16146 6.61198 1.26562 6.83594  c
1.36979 7.05990 1.51302 7.22917 1.69531 7.34375  c
1.87760 7.45833 2.07292 7.51562 2.28125 7.51562  c
2.57292 7.51562 2.82552 7.39583 3.03906 7.15625  c
3.25260 6.91667 3.35938 6.59375 3.35938 6.18750  c
3.35938 5.79167 3.25521 5.47917 3.04688 5.25000  c
2.83854 5.02083 2.57292 4.90625 2.25000 4.90625  c
1.93750 4.90625 1.66927 5.02083 1.44531 5.25000  c
1.22135 5.47917 1.10938 5.77604 1.10938 6.14062  c
h
f
[ 1.00000 0.00000 0.00000 1.00000 0.00000 0.00000 ] defaultmatrix matrix concatmatrix setmatrix
[ 1.00000 0.00000 0.00000 1.00000 0.00000 0.00000 ] defaultmatrix matrix concatmatrix setmatrix
.200000 .200000 .200000 RG
0.00000 0.00000 .607843 RG
1.00000 1.00000 1.00000 RG
.200000 .200000 .200000 RG
1.00000 1.00000 1.00000 RG
newpath
262.333 55.0270 m
260.974 55.0270 259.872 56.1288 259.872 57.4879  c
259.872 62.4098 l
259.872 63.7689 260.974 64.8707 262.333 64.8707  c
263.599 64.8707 l
264.958 64.8707 266.060 63.7689 266.060 62.4098  c
266.060 57.4879 l
266.060 56.1288 264.958 55.0270 263.599 55.0270  c
h
f
.200000 .200000 .200000 RG
[ 1.00000 0.00000 0.00000 1.00000 259.466 52.4489 ] concat
newpath
.875000 12.0000 m
.875000 4.12500 l
1.92188 4.12500 l
1.92188 7.35938 l
6.01562 7.35938 l
6.01562 4.12500 l
7.06250 4.12500 l
7.06250 12.0000 l
6.01562 12.0000 l
6.01562 8.28125 l
1.92188 8.28125 l
1.92188 12.0000 l
.875000 12.0000 l
h
f
[ 1.00000 0.00000 0.00000 1.00000 0.00000 0.00000 ] defaultmatrix matrix concatmatrix setmatrix
[ 1.00000 0.00000 0.00000 1.00000 0.00000 0.00000 ] defaultmatrix matrix concatmatrix setmatrix
[ 1.00000 0.00000 0.00000 1.00000 267.822 54.9489 ] concat
0.00000 0.00000 .607843 RG
newpath
.375000 3.01562 m
.375000 2.34375 l
4.09375 2.34375 l
4.09375 2.89062 l
3.72917 3.27604 3.36719 3.79167 3.00781 4.43750  c
2.64844 5.08333 2.36979 5.74479 2.17188 6.42188  c
2.03646 6.90104 1.94792 7.42708 1.90625 8.00000  c
1.18750 8.00000 l
1.18750 7.55208 1.27344 7.00781 1.44531 6.36719  c
1.61719 5.72656 1.86198 5.10938 2.17969 4.51562  c
2.49740 3.92188 2.83333 3.42188 3.18750 3.01562  c
.375000 3.01562 l
h
f
[ 1.00000 0.00000 0.00000 1.00000 0.00000 0.00000 ] defaultmatrix matrix concatmatrix setmatrix
[ 1.00000 0.00000 0.00000 1.00000 0.00000 0.00000 ] defaultmatrix matrix concatmatrix setmatrix
.200000 .200000 .200000 RG
0.00000 0.00000 .607843 RG
1.00000 1.00000 1.00000 RG
.200000 .200000 .600000 RG
1.00000 1.00000 1.00000 RG
newpath
462.477 68.8881 m
461.118 68.8881 460.016 69.9899 460.016 71.3490  c
460.016 76.2709 l
460.016 77.6300 461.118 78.7318 462.477 78.7318  c
463.759 78.7318 l
465.118 78.7318 466.220 77.6300 466.220 76.2709  c
466.220 71.3490 l
466.220 69.9899 465.118 68.8881 463.759 68.8881  c
h
f
.200000 .200000 .600000 RG
[ 1.00000 0.00000 0.00000 1.00000 459.618 66.3100 ] concat
newpath
.843750 12.0000 m
.843750 4.12500 l
1.90625 4.12500 l
6.04688 10.3125 l
6.04688 4.12500 l
7.04688 4.12500 l
7.04688 12.0000 l
5.96875 12.0000 l
1.84375 5.81250 l
1.84375 12.0000 l
.843750 12.0000 l
h
f
[ 1.00000 0.00000 0.00000 1.00000 0.00000 0.00000 ] defaultmatrix matrix concatmatrix setmatrix
[ 1.00000 0.00000 0.00000 1.00000 0.00000 0.00000 ] defaultmatrix matrix concatmatrix setmatrix
[ 1.00000 0.00000 0.00000 1.00000 464.226 61.0246 ] concat
0.00000 0.00000 .607843 RG
newpath
2.98438 8.00000 m
2.28125 8.00000 l
2.28125 3.51562 l
2.11458 3.68229 1.89323 3.84635 1.61719 4.00781  c
1.34115 4.16927 1.09375 4.28646 .875000 4.35938  c
.875000 3.68750 l
1.27083 3.50000 1.61458 3.27604 1.90625 3.01562  c
2.19792 2.75521 2.40625 2.50000 2.53125 2.25000  c
2.98438 2.25000 l
2.98438 8.00000 l
h
f
[ 1.00000 0.00000 0.00000 1.00000 0.00000 0.00000 ] defaultmatrix matrix concatmatrix setmatrix
[ 1.00000 0.00000 0.00000 1.00000 0.00000 0.00000 ] defaultmatrix matrix concatmatrix setmatrix
.200000 .200000 .600000 RG
0.00000 0.00000 .607843 RG
1.00000 1.00000 1.00000 RG
0.00000 0.00000 0.00000 RG
1.00000 1.00000 1.00000 RG
newpath
448.311 44.7590 m
446.903 44.7590 445.762 45.9001 445.762 47.3078  c
445.762 52.4055 l
445.762 53.8131 446.903 54.9543 448.311 54.9543  c
450.182 54.9543 l
451.589 54.9543 452.730 53.8131 452.730 52.4055  c
452.730 47.3078 l
452.730 45.9001 451.589 44.7590 450.182 44.7590  c
h
f
0.00000 0.00000 0.00000 RG
[ 1.00000 0.00000 0.00000 1.00000 445.746 42.2863 ] concat
newpath
6.46875 9.23438 m
7.51562 9.50000 l
7.29688 10.3542 6.90365 11.0078 6.33594 11.4609  c
5.76823 11.9141 5.07292 12.1406 4.25000 12.1406  c
3.39583 12.1406 2.70312 11.9661 2.17188 11.6172  c
1.64062 11.2682 1.23698 10.7656 .960938 10.1094  c
.684896 9.45312 .546875 8.75000 .546875 8.00000  c
.546875 7.18750 .703125 6.47396 1.01562 5.85938  c
1.32812 5.24479 1.77344 4.77865 2.35156 4.46094  c
2.92969 4.14323 3.56771 3.98438 4.26562 3.98438  c
5.05729 3.98438 5.72135 4.18490 6.25781 4.58594  c
6.79427 4.98698 7.16667 5.55208 7.37500 6.28125  c
6.34375 6.53125 l
6.16667 5.95833 5.90365 5.54167 5.55469 5.28125  c
5.20573 5.02083 4.77083 4.89062 4.25000 4.89062  c
3.63542 4.89062 3.12500 5.03385 2.71875 5.32031  c
2.31250 5.60677 2.02865 5.99479 1.86719 6.48438  c
1.70573 6.97396 1.62500 7.47917 1.62500 8.00000  c
1.62500 8.66667 1.72135 9.25000 1.91406 9.75000  c
2.10677 10.2500 2.40885 10.6250 2.82031 10.8750  c
3.23177 11.1250 3.67708 11.2500 4.15625 11.2500  c
4.73958 11.2500 5.23438 11.0807 5.64062 10.7422  c
6.04688 10.4036 6.32292 9.90104 6.46875 9.23438  c
h
f
[ 1.00000 0.00000 0.00000 1.00000 0.00000 0.00000 ] defaultmatrix matrix concatmatrix setmatrix
[ 1.00000 0.00000 0.00000 1.00000 0.00000 0.00000 ] defaultmatrix matrix concatmatrix setmatrix
[ 1.00000 0.00000 0.00000 1.00000 443.482 52.9604 ] concat
0.00000 0.00000 .607843 RG
newpath
4.03125 7.32812 m
4.03125 8.00000 l
.250000 8.00000 l
.239583 7.83333 .265625 7.67188 .328125 7.51562  c
.421875 7.25521 .575521 7.00000 .789062 6.75000  c
1.00260 6.50000 1.30729 6.20833 1.70312 5.87500  c
2.32812 5.36458 2.75000 4.96094 2.96875 4.66406  c
3.18750 4.36719 3.29688 4.08854 3.29688 3.82812  c
3.29688 3.54688 3.19792 3.30990 3.00000 3.11719  c
2.80208 2.92448 2.54167 2.82812 2.21875 2.82812  c
1.88542 2.82812 1.61719 2.92969 1.41406 3.13281  c
1.21094 3.33594 1.10417 3.61979 1.09375 3.98438  c
.375000 3.90625 l
.427083 3.36458 .614583 2.95312 .937500 2.67188  c
1.26042 2.39062 1.69271 2.25000 2.23438 2.25000  c
2.78646 2.25000 3.22135 2.40104 3.53906 2.70312  c
3.85677 3.00521 4.01562 3.38542 4.01562 3.84375  c
4.01562 4.07292 3.96875 4.29688 3.87500 4.51562  c
3.78125 4.73438 3.62760 4.96615 3.41406 5.21094  c
3.20052 5.45573 2.83854 5.79167 2.32812 6.21875  c
1.91146 6.57292 1.64323 6.81250 1.52344 6.93750  c
1.40365 7.06250 1.30208 7.19271 1.21875 7.32812  c
4.03125 7.32812 l
h
f
[ 1.00000 0.00000 0.00000 1.00000 0.00000 0.00000 ] defaultmatrix matrix concatmatrix setmatrix
[ 1.00000 0.00000 0.00000 1.00000 0.00000 0.00000 ] defaultmatrix matrix concatmatrix setmatrix
0.00000 0.00000 0.00000 RG
0.00000 0.00000 .607843 RG
1.00000 1.00000 1.00000 RG
0.00000 0.00000 0.00000 RG
1.00000 1.00000 1.00000 RG
newpath
420.567 44.7590 m
419.159 44.7590 418.018 45.9001 418.018 47.3078  c
418.018 52.4055 l
418.018 53.8131 419.159 54.9543 420.567 54.9543  c
422.438 54.9543 l
423.846 54.9543 424.987 53.8131 424.987 52.4055  c
424.987 47.3078 l
424.987 45.9001 423.846 44.7590 422.438 44.7590  c
h
f
0.00000 0.00000 0.00000 RG
[ 1.00000 0.00000 0.00000 1.00000 418.002 42.2863 ] concat
newpath
6.46875 9.23438 m
7.51562 9.50000 l
7.29688 10.3542 6.90365 11.0078 6.33594 11.4609  c
5.76823 11.9141 5.07292 12.1406 4.25000 12.1406  c
3.39583 12.1406 2.70312 11.9661 2.17188 11.6172  c
1.64062 11.2682 1.23698 10.7656 .960938 10.1094  c
.684896 9.45312 .546875 8.75000 .546875 8.00000  c
.546875 7.18750 .703125 6.47396 1.01562 5.85938  c
1.32812 5.24479 1.77344 4.77865 2.35156 4.46094  c
2.92969 4.14323 3.56771 3.98438 4.26562 3.98438  c
5.05729 3.98438 5.72135 4.18490 6.25781 4.58594  c
6.79427 4.98698 7.16667 5.55208 7.37500 6.28125  c
6.34375 6.53125 l
6.16667 5.95833 5.90365 5.54167 5.55469 5.28125  c
5.20573 5.02083 4.77083 4.89062 4.25000 4.89062  c
3.63542 4.89062 3.12500 5.03385 2.71875 5.32031  c
2.31250 5.60677 2.02865 5.99479 1.86719 6.48438  c
1.70573 6.97396 1.62500 7.47917 1.62500 8.00000  c
1.62500 8.66667 1.72135 9.25000 1.91406 9.75000  c
2.10677 10.2500 2.40885 10.6250 2.82031 10.8750  c
3.23177 11.1250 3.67708 11.2500 4.15625 11.2500  c
4.73958 11.2500 5.23438 11.0807 5.64062 10.7422  c
6.04688 10.4036 6.32292 9.90104 6.46875 9.23438  c
h
f
[ 1.00000 0.00000 0.00000 1.00000 0.00000 0.00000 ] defaultmatrix matrix concatmatrix setmatrix
[ 1.00000 0.00000 0.00000 1.00000 0.00000 0.00000 ] defaultmatrix matrix concatmatrix setmatrix
[ 1.00000 0.00000 0.00000 1.00000 412.513 44.8566 ] concat
0.00000 0.00000 .607843 RG
newpath
.343750 6.48438 m
1.04688 6.39062 l
1.11979 6.78646 1.25521 7.07292 1.45312 7.25000  c
1.65104 7.42708 1.88542 7.51562 2.15625 7.51562  c
2.48958 7.51562 2.77083 7.40104 3.00000 7.17188  c
3.22917 6.94271 3.34375 6.66146 3.34375 6.32812  c
3.34375 6.00521 3.23698 5.73698 3.02344 5.52344  c
2.80990 5.30990 2.54167 5.20312 2.21875 5.20312  c
2.08333 5.20312 1.91667 5.22917 1.71875 5.28125  c
1.79688 4.67188 l
1.84896 4.67188 1.89062 4.67188 1.92188 4.67188  c
2.21354 4.67188 2.47917 4.59375 2.71875 4.43750  c
2.95833 4.28125 3.07812 4.04167 3.07812 3.71875  c
3.07812 3.45833 2.99219 3.24479 2.82031 3.07812  c
2.64844 2.91146 2.42188 2.82812 2.14062 2.82812  c
1.86979 2.82812 1.64323 2.91406 1.46094 3.08594  c
1.27865 3.25781 1.16146 3.51562 1.10938 3.85938  c
.406250 3.73438 l
.489583 3.26562 .684896 2.90104 .992188 2.64062  c
1.29948 2.38021 1.67708 2.25000 2.12500 2.25000  c
2.43750 2.25000 2.72656 2.31771 2.99219 2.45312  c
3.25781 2.58854 3.46094 2.77083 3.60156 3.00000  c
3.74219 3.22917 3.81250 3.47396 3.81250 3.73438  c
3.81250 3.98438 3.74479 4.21094 3.60938 4.41406  c
3.47396 4.61719 3.27604 4.77604 3.01562 4.89062  c
3.35938 4.97396 3.62500 5.13802 3.81250 5.38281  c
4.00000 5.62760 4.09375 5.93750 4.09375 6.31250  c
4.09375 6.81250 3.91146 7.23698 3.54688 7.58594  c
3.18229 7.93490 2.71875 8.10938 2.15625 8.10938  c
1.65625 8.10938 1.23958 7.95833 .906250 7.65625  c
.572917 7.35417 .385417 6.96354 .343750 6.48438  c
h
f
[ 1.00000 0.00000 0.00000 1.00000 0.00000 0.00000 ] defaultmatrix matrix concatmatrix setmatrix
[ 1.00000 0.00000 0.00000 1.00000 0.00000 0.00000 ] defaultmatrix matrix concatmatrix setmatrix
0.00000 0.00000 0.00000 RG
0.00000 0.00000 .607843 RG
1.00000 1.00000 1.00000 RG
.200000 .200000 .200000 RG
1.00000 1.00000 1.00000 RG
newpath
448.613 92.9171 m
447.254 92.9171 446.152 94.0189 446.152 95.3781  c
446.152 100.300 l
446.152 101.659 447.254 102.761 448.613 102.761  c
449.879 102.761 l
451.238 102.761 452.340 101.659 452.340 100.300  c
452.340 95.3781 l
452.340 94.0189 451.238 92.9171 449.879 92.9171  c
h
f
.200000 .200000 .200000 RG
[ 1.00000 0.00000 0.00000 1.00000 445.746 90.3390 ] concat
newpath
.875000 12.0000 m
.875000 4.12500 l
1.92188 4.12500 l
1.92188 7.35938 l
6.01562 7.35938 l
6.01562 4.12500 l
7.06250 4.12500 l
7.06250 12.0000 l
6.01562 12.0000 l
6.01562 8.28125 l
1.92188 8.28125 l
1.92188 12.0000 l
.875000 12.0000 l
h
f
[ 1.00000 0.00000 0.00000 1.00000 0.00000 0.00000 ] defaultmatrix matrix concatmatrix setmatrix
[ 1.00000 0.00000 0.00000 1.00000 0.00000 0.00000 ] defaultmatrix matrix concatmatrix setmatrix
[ 1.00000 0.00000 0.00000 1.00000 443.618 100.603 ] concat
0.00000 0.00000 .607843 RG
newpath
2.59375 8.00000 m
2.59375 6.62500 l
.109375 6.62500 l
.109375 5.98438 l
2.71875 2.26562 l
3.29688 2.26562 l
3.29688 5.98438 l
4.06250 5.98438 l
4.06250 6.62500 l
3.29688 6.62500 l
3.29688 8.00000 l
2.59375 8.00000 l
h
2.59375 5.98438 m
2.59375 3.40625 l
.796875 5.98438 l
2.59375 5.98438 l
h
f
[ 1.00000 0.00000 0.00000 1.00000 0.00000 0.00000 ] defaultmatrix matrix concatmatrix setmatrix
[ 1.00000 0.00000 0.00000 1.00000 0.00000 0.00000 ] defaultmatrix matrix concatmatrix setmatrix
.200000 .200000 .200000 RG
0.00000 0.00000 .607843 RG
1.00000 1.00000 1.00000 RG
.200000 .200000 .200000 RG
1.00000 1.00000 1.00000 RG
newpath
490.229 68.8881 m
488.870 68.8881 487.768 69.9899 487.768 71.3490  c
487.768 76.2709 l
487.768 77.6300 488.870 78.7318 490.229 78.7318  c
491.495 78.7318 l
492.854 78.7318 493.956 77.6300 493.956 76.2709  c
493.956 71.3490 l
493.956 69.9899 492.854 68.8881 491.495 68.8881  c
h
f
.200000 .200000 .200000 RG
[ 1.00000 0.00000 0.00000 1.00000 487.362 66.3100 ] concat
newpath
.875000 12.0000 m
.875000 4.12500 l
1.92188 4.12500 l
1.92188 7.35938 l
6.01562 7.35938 l
6.01562 4.12500 l
7.06250 4.12500 l
7.06250 12.0000 l
6.01562 12.0000 l
6.01562 8.28125 l
1.92188 8.28125 l
1.92188 12.0000 l
.875000 12.0000 l
h
f
[ 1.00000 0.00000 0.00000 1.00000 0.00000 0.00000 ] defaultmatrix matrix concatmatrix setmatrix
[ 1.00000 0.00000 0.00000 1.00000 0.00000 0.00000 ] defaultmatrix matrix concatmatrix setmatrix
[ 1.00000 0.00000 0.00000 1.00000 495.866 68.8100 ] concat
0.00000 0.00000 .607843 RG
newpath
3.98438 3.67188 m
3.28125 3.73438 l
3.21875 3.45312 3.13021 3.25000 3.01562 3.12500  c
2.82812 2.92708 2.59375 2.82812 2.31250 2.82812  c
2.09375 2.82812 1.89583 2.89062 1.71875 3.01562  c
1.50000 3.17188 1.32812 3.40625 1.20312 3.71875  c
1.07812 4.03125 1.01042 4.47396 1.00000 5.04688  c
1.16667 4.78646 1.37240 4.59375 1.61719 4.46875  c
1.86198 4.34375 2.11979 4.28125 2.39062 4.28125  c
2.85938 4.28125 3.25781 4.45312 3.58594 4.79688  c
3.91406 5.14062 4.07812 5.58854 4.07812 6.14062  c
4.07812 6.49479 4.00260 6.82812 3.85156 7.14062  c
3.70052 7.45312 3.48958 7.69010 3.21875 7.85156  c
2.94792 8.01302 2.64062 8.09375 2.29688 8.09375  c
1.70312 8.09375 1.22135 7.87760 .851562 7.44531  c
.481771 7.01302 .296875 6.30208 .296875 5.31250  c
.296875 4.20833 .505208 3.40625 .921875 2.90625  c
1.27604 2.46875 1.75521 2.25000 2.35938 2.25000  c
2.80729 2.25000 3.17448 2.37500 3.46094 2.62500  c
3.74740 2.87500 3.92188 3.22396 3.98438 3.67188  c
h
1.10938 6.14062 m
1.10938 6.38021 1.16146 6.61198 1.26562 6.83594  c
1.36979 7.05990 1.51302 7.22917 1.69531 7.34375  c
1.87760 7.45833 2.07292 7.51562 2.28125 7.51562  c
2.57292 7.51562 2.82552 7.39583 3.03906 7.15625  c
3.25260 6.91667 3.35938 6.59375 3.35938 6.18750  c
3.35938 5.79167 3.25521 5.47917 3.04688 5.25000  c
2.83854 5.02083 2.57292 4.90625 2.25000 4.90625  c
1.93750 4.90625 1.66927 5.02083 1.44531 5.25000  c
1.22135 5.47917 1.10938 5.77604 1.10938 6.14062  c
h
f
[ 1.00000 0.00000 0.00000 1.00000 0.00000 0.00000 ] defaultmatrix matrix concatmatrix setmatrix
[ 1.00000 0.00000 0.00000 1.00000 0.00000 0.00000 ] defaultmatrix matrix concatmatrix setmatrix
.200000 .200000 .200000 RG
0.00000 0.00000 .607843 RG
1.00000 1.00000 1.00000 RG
.200000 .200000 .200000 RG
1.00000 1.00000 1.00000 RG
newpath
449.583 17.1368 m
448.223 17.1368 447.122 18.2386 447.122 19.5978  c
447.122 24.5196 l
447.122 25.8788 448.223 26.9806 449.583 26.9806  c
450.848 26.9806 l
452.207 26.9806 453.309 25.8788 453.309 24.5196  c
453.309 19.5978 l
453.309 18.2386 452.207 17.1368 450.848 17.1368  c
h
f
.200000 .200000 .200000 RG
[ 1.00000 0.00000 0.00000 1.00000 446.715 14.5587 ] concat
newpath
.875000 12.0000 m
.875000 4.12500 l
1.92188 4.12500 l
1.92188 7.35938 l
6.01562 7.35938 l
6.01562 4.12500 l
7.06250 4.12500 l
7.06250 12.0000 l
6.01562 12.0000 l
6.01562 8.28125 l
1.92188 8.28125 l
1.92188 12.0000 l
.875000 12.0000 l
h
f
[ 1.00000 0.00000 0.00000 1.00000 0.00000 0.00000 ] defaultmatrix matrix concatmatrix setmatrix
[ 1.00000 0.00000 0.00000 1.00000 0.00000 0.00000 ] defaultmatrix matrix concatmatrix setmatrix
[ 1.00000 0.00000 0.00000 1.00000 448.496 10.9246 ] concat
0.00000 0.00000 .607843 RG
newpath
.328125 6.50000 m
1.07812 6.43750 l
1.13021 6.79167 1.25521 7.05990 1.45312 7.24219  c
1.65104 7.42448 1.89062 7.51562 2.17188 7.51562  c
2.51562 7.51562 2.80469 7.38802 3.03906 7.13281  c
3.27344 6.87760 3.39062 6.54167 3.39062 6.12500  c
3.39062 5.71875 3.27604 5.40104 3.04688 5.17188  c
2.81771 4.94271 2.52083 4.82812 2.15625 4.82812  c
1.93750 4.82812 1.73698 4.87760 1.55469 4.97656  c
1.37240 5.07552 1.22917 5.20833 1.12500 5.37500  c
.453125 5.29688 l
1.01562 2.34375 l
3.85938 2.34375 l
3.85938 3.01562 l
1.57812 3.01562 l
1.26562 4.56250 l
1.60938 4.32292 1.96875 4.20312 2.34375 4.20312  c
2.84375 4.20312 3.26562 4.37500 3.60938 4.71875  c
3.95312 5.06250 4.12500 5.51042 4.12500 6.06250  c
4.12500 6.57292 3.97396 7.02083 3.67188 7.40625  c
3.30729 7.86458 2.80729 8.09375 2.17188 8.09375  c
1.65104 8.09375 1.22656 7.94792 .898438 7.65625  c
.570312 7.36458 .380208 6.97917 .328125 6.50000  c
h
f
[ 1.00000 0.00000 0.00000 1.00000 0.00000 0.00000 ] defaultmatrix matrix concatmatrix setmatrix
[ 1.00000 0.00000 0.00000 1.00000 0.00000 0.00000 ] defaultmatrix matrix concatmatrix setmatrix
.200000 .200000 .200000 RG
0.00000 0.00000 .607843 RG
1.00000 1.00000 1.00000 RG
.200000 .200000 .200000 RG
1.00000 1.00000 1.00000 RG
newpath
472.140 30.1620 m
470.781 30.1620 469.679 31.2638 469.679 32.6230  c
469.679 37.5448 l
469.679 38.9040 470.781 40.0058 472.140 40.0058  c
473.405 40.0058 l
474.764 40.0058 475.866 38.9040 475.866 37.5448  c
475.866 32.6230 l
475.866 31.2638 474.764 30.1620 473.405 30.1620  c
h
f
.200000 .200000 .200000 RG
[ 1.00000 0.00000 0.00000 1.00000 469.273 27.5839 ] concat
newpath
.875000 12.0000 m
.875000 4.12500 l
1.92188 4.12500 l
1.92188 7.35938 l
6.01562 7.35938 l
6.01562 4.12500 l
7.06250 4.12500 l
7.06250 12.0000 l
6.01562 12.0000 l
6.01562 8.28125 l
1.92188 8.28125 l
1.92188 12.0000 l
.875000 12.0000 l
h
f
[ 1.00000 0.00000 0.00000 1.00000 0.00000 0.00000 ] defaultmatrix matrix concatmatrix setmatrix
[ 1.00000 0.00000 0.00000 1.00000 0.00000 0.00000 ] defaultmatrix matrix concatmatrix setmatrix
[ 1.00000 0.00000 0.00000 1.00000 476.587 23.9816 ] concat
0.00000 0.00000 .607843 RG
newpath
.375000 3.01562 m
.375000 2.34375 l
4.09375 2.34375 l
4.09375 2.89062 l
3.72917 3.27604 3.36719 3.79167 3.00781 4.43750  c
2.64844 5.08333 2.36979 5.74479 2.17188 6.42188  c
2.03646 6.90104 1.94792 7.42708 1.90625 8.00000  c
1.18750 8.00000 l
1.18750 7.55208 1.27344 7.00781 1.44531 6.36719  c
1.61719 5.72656 1.86198 5.10938 2.17969 4.51562  c
2.49740 3.92188 2.83333 3.42188 3.18750 3.01562  c
.375000 3.01562 l
h
f
[ 1.00000 0.00000 0.00000 1.00000 0.00000 0.00000 ] defaultmatrix matrix concatmatrix setmatrix
[ 1.00000 0.00000 0.00000 1.00000 0.00000 0.00000 ] defaultmatrix matrix concatmatrix setmatrix
.200000 .200000 .200000 RG
0.00000 0.00000 .607843 RG
q
cliprestore
newpath
0.00000 0.00000 m
0.00000 120.000 l
510.000 120.000 l
510.000 0.00000 l
h
W
cliprestore
newpath
0.00000 0.00000 m
0.00000 120.000 l
510.000 120.000 l
510.000 0.00000 l
h
W
Q
cliprestore
103.000 48.0000 13.0000 25.0000 rc
[ .990851 0.00000 0.00000 .990851 .948611 .444212 ] defaultmatrix matrix concatmatrix setmatrix
0.00000 0.00000 0.00000 RG
[ 1.00000 0.00000 0.00000 1.00000 0.00000 0.00000 ] defaultmatrix matrix concatmatrix setmatrix
cliprestore
newpath
0.00000 0.00000 m
0.00000 120.000 l
510.000 120.000 l
510.000 0.00000 l
h
W
0.00000 0.00000 .607843 RG
cliprestore
103.000 48.0000 13.0000 25.0000 rc
[ .990851 0.00000 0.00000 .990851 .948611 .444212 ] defaultmatrix matrix concatmatrix setmatrix
0.00000 0.00000 0.00000 RG
newpath
108.056 65.6947 m
108.056 62.3509 l
104.681 62.3509 l
104.681 60.0384 l
108.056 60.0384 l
108.056 56.6947 l
110.306 56.6947 l
110.306 60.0384 l
113.681 60.0384 l
113.681 62.3509 l
110.306 62.3509 l
110.306 65.6947 l
108.056 65.6947 l
h
f
[ 1.00000 0.00000 0.00000 1.00000 0.00000 0.00000 ] defaultmatrix matrix concatmatrix setmatrix
cliprestore
newpath
0.00000 0.00000 m
0.00000 120.000 l
510.000 120.000 l
510.000 0.00000 l
h
W
0.00000 0.00000 .607843 RG
cliprestore
198.000 48.0000 13.0000 25.0000 rc
[ .990851 0.00000 0.00000 .990851 1.81885 .444212 ] defaultmatrix matrix concatmatrix setmatrix
0.00000 0.00000 0.00000 RG
[ 1.00000 0.00000 0.00000 1.00000 0.00000 0.00000 ] defaultmatrix matrix concatmatrix setmatrix
cliprestore
newpath
0.00000 0.00000 m
0.00000 120.000 l
510.000 120.000 l
510.000 0.00000 l
h
W
0.00000 0.00000 .607843 RG
cliprestore
198.000 48.0000 13.0000 25.0000 rc
[ .990851 0.00000 0.00000 .990851 1.81885 .444212 ] defaultmatrix matrix concatmatrix setmatrix
0.00000 0.00000 0.00000 RG
newpath
203.177 65.6947 m
203.177 62.3509 l
199.802 62.3509 l
199.802 60.0384 l
203.177 60.0384 l
203.177 56.6947 l
205.427 56.6947 l
205.427 60.0384 l
208.802 60.0384 l
208.802 62.3509 l
205.427 62.3509 l
205.427 65.6947 l
203.177 65.6947 l
h
f
[ 1.00000 0.00000 0.00000 1.00000 0.00000 0.00000 ] defaultmatrix matrix concatmatrix setmatrix
cliprestore
newpath
0.00000 0.00000 m
0.00000 120.000 l
510.000 120.000 l
510.000 0.00000 l
h
W
0.00000 0.00000 .607843 RG
q
0.00000 0.00000 0.00000 RG
newpath
372.901 57.5394 m
302.605 58.0837 l
302.614 59.2096 l
372.909 58.6653 l
372.930 61.3676 l
381.912 58.0326 l
372.880 54.8372 l
h
f
Q

%%Trailer
%%EOF
