%!PS-Adobe-3.0 EPSF-3.0
%%BoundingBox: 20 329 575 462
%%Creator: FreeHEP Graphics2D Driver
%%Producer: org.freehep.graphicsio.ps.EPSGraphics2D
%%For: 
%%Title: 
%%LanguageLevel: 3
%%EndComments
%%BeginProlog
100 dict dup begin

%
% File: org/freehep/graphicsio.ps/PSProlog.txt
% Author: Charles Loomis
%

% Redefinitions which save some space in the output file.  These are also
% the same as the PDF operators.
/q {gsave} def
/Q {grestore} def

/n {newpath} def
/m {moveto} def
/l {lineto} def
/c {curveto} def
/h {closepath} def

/re {4 -2 roll moveto
     dup 0 exch rlineto exch 0 rlineto
     neg 0 exch rlineto closepath} def

/f {fill} def
/f* {eofill} def
/F {gsave vg&FC fill grestore} def
/F* {gsave vg&FC eofill grestore} def

/s {closepath stroke} def
/S {stroke} def

/b {closepath gsave vg&FC fill grestore
    gsave stroke grestore newpath} def
/B {gsave vg&FC fill grestore gsave stroke grestore newpath} def
/b* {closepath gsave vg&FC eofill grestore
    gsave stroke grestore newpath} def
/B* {gsave vg&FC eofill grestore gsave stroke grestore newpath} def

/g {1 array astore /vg&fcolor exch def} def
/G {setgray} def
/k {4 array astore /vg&fcolor exch def} def
/K {setcmykcolor} def
/rg {3 array astore /vg&fcolor exch def} def
/RG {setrgbcolor} def

% Initialize the fill color.
0 0 0 rg

/vg&FC {mark vg&fcolor aload pop
        counttomark 1 eq {G} if
        counttomark 3 eq {RG} if
        counttomark 4 eq {K} if
        cleartomark } def

/vg&DFC {/vg&fcolor exch def} def

/vg&C {mark exch aload pop
       counttomark 1 eq {G} if
       counttomark 3 eq {RG} if
       counttomark 4 eq {K} if
       cleartomark } def

/w {setlinewidth} def
/j {setlinejoin} def
/J {setlinecap} def
/M {setmiterlimit} def
/d {setdash} def
/i {setflat} def

/W {clip} def
/W* {eoclip} def

% Setup the default graphics state.
% (black; 1 pt. linewidth; miter join; butt-ends; solid)
/defaultGraphicsState {0 g 1 w 0 j 0 J [] 0 d} def

% Emulation of the rectangle operators for PostScript implementations
% which do not implement all Level 2 features.  This is an INCOMPLETE
% emulation; only the "x y width height rect..." form is emulated.
/*rf {gsave newpath re fill grestore} def
/*rs {gsave newpath re stroke grestore} def
/*rc {newpath re clip} def
/rf  /rectfill where {pop /rectfill}{/*rf} ifelse load def
/rs  /rectstroke where {pop /rectstroke}{/*rs} ifelse load def
/rc  /rectclip where {pop /rectclip}{/*rc} ifelse load def

% Emulation of the selectfont operator.  This includes a 20% increase in
% the fontsize which is necessary to get sizes similar to the Java fonts.
/*sf {exch findfont exch
      dup type /arraytype eq {makefont}{scalefont} ifelse setfont} bind def
/sf /selectfont where {pop {1.2 mul selectfont}}{{1.2 mul *sf}} ifelse def

% Special version of stroke which allows the dash pattern to continue
% across path segments.  (This may be needed for PostScript although
% modern printers seem to do this correctly.)
/vg&stroke {
  currentdash pop length 0 eq
  {stroke}
  {
    currentdash /vg&doffset exch def pop
    flattenpath
    {m vg&resetdash}
    {2 copy
     currentpoint
     3 -1 roll sub dup mul
     3 1 roll sub dup mul
     add sqrt
     3 1 roll l
     currentdash 3 -1 roll add setdash}
     {}
     {h vg&resetdash}
     pathforall
     stroke
     vg&resetdash
  } ifelse
} def
/vg&resetdash {currentdash pop vg&doffset setdash} def

% Initialize variables for safety.
/delta 0 def
/xv 0 def  /yv 0 def  /width 0 def  /height 0 def

% Initialize to portrait INTERNATIONAL (Letter-height, A4-width) page.
/pw 595 def  /ph 791  def  /po true def /ftp false def

% Initialize margins to 20 points.
/ml 20 def  /mr 20 def  /mt 20 def  /mb 20 def

% Temporary matrices.
/smatrix 0 def  /nmatrix 0 def

% set page size (usage: <page width><page height> setpagesize)
/setpagesize {/ph exch def /pw exch def} def

% set page orientation (usage: portrait or landscape)
/portrait {/po true def} def
/landscape {/po false def} def

% force natural size for image (usage: naturalsize)
/naturalsize {/ftp false def} def

% resize image to fill page (usage: fittopage)
/fittopage {/ftp true def} def

% set margins of the page (usage: <left><bottom><top><right> setmargins)
/setmargins {/mr exch def /mt exch def /mb exch def /ml exch def} def

% set the graphic's size (usage: <width><height> setsize)
/setsize {/gh exch def /gw exch def} def

% set the graphic's origin (usage: <x0><y0> setorigin)
/setorigin {/gy exch def /gx exch def} def

% calculate image center
/imagecenter {pw ml sub mr sub 2 div ml add
              ph mt sub mb sub 2 div mb add} def

% calculate the necessary scaling
/imagescale {po {gw}{gh} ifelse pw ml sub mr sub div
             po {gh}{gw} ifelse ph mt sub mb sub div
             2 copy lt {exch} if pop
             ftp not {1 2 copy lt {exch} if pop} if
             1 exch div /sfactor exch def
             /gw gw sfactor mul def /gh gh sfactor mul def} def

% calculate image origin
/imageorigin {pw ml sub mr sub 2 div ml add
              po {gw}{gh} ifelse 2 div sub
              ph mt sub mb sub 2 div mb add
              po {gh}{gw} ifelse 2 div po {add}{sub} ifelse} def

% calculate the clipping origin
/cliporigin  {pw ml sub mr sub 2 div ml add
              po {gw}{gh} ifelse 2 div sub floor
              ph mt sub mb sub 2 div mb add
              po {gh}{gw} ifelse 2 div sub floor} def

% Set the clipping region to the bounding box.
/cliptobounds {cliporigin po {gw}{gh} ifelse 1 add
                          po {gh}{gw} ifelse 1 add rc} def

% set the base transformation matrix (usage: setbasematrix)
/setbasematrix {imageorigin translate
                po {0}{90} ifelse rotate
                sfactor sfactor neg scale
                /defaultmatrix matrix currentmatrix def} def

% The lower-right bias in drawing 1 pt. wide lines.
/bias  {q 0.5 0.5 translate} def
/unbias {Q} def

% Define the composite fonts used to print Unicode strings.
% Undefine particular values in an encoding array.
/vg&undef { {exch dup 3 -1 roll /.notdef put} forall } def
/vg&redef { {3 -1 roll dup 4 2 roll put} forall } def

% usage: key encoding basefontname vg&newbasefont font
/vg&newbasefont {
findfont dup length dict copy
  begin
    currentdict /FID undef
    /Encoding exch def
    dup /FontName exch def
    currentdict
  end
definefont
} def

% usage: key encoding basefontname vg&newskewedbasefont font
/vg&newskewedbasefont {
findfont dup length dict copy
  begin
    currentdict /FID undef
    /Encoding exch def
    dup /FontName exch def
    exch FontMatrix exch matrix concatmatrix /FontMatrix exch def
    currentdict
  end
definefont
} def

% usage: basekey suffix vg&nconcat name
/vg&nconcat {
  2 {dup length string cvs exch} repeat
  dup length 3 -1 roll dup length 3 -1 roll add string
  dup 0 4 -1 roll dup length 5 1 roll putinterval
  dup 4 -2 roll exch putinterval cvn
} def

%usage: fontname vg&skewmatrix matrix
/vg&skewmatrix {
findfont dup /FontInfo known
  {
    /FontInfo get dup /ItalicAngle known
    {
      [ 1 0 4 -1 roll /ItalicAngle get neg dup sin exch cos div 1 0 0 ]
    }
    {pop matrix} ifelse
  }
  {pop matrix} ifelse
} def

% usage: newfontname basefontname vg&newcompositefont --
/vg&newcompositefont {
/vg&fstyle exch def
/vg&bfont exch def
/vg&fname exch def
<<
/FontStyleBits vg&fstyle
/FontType 0
/FontMatrix matrix
/FontName vg&fname
/FMapType 2
/Encoding [ 0 1 255 {pop 6} for ]
          dup 16#00 0 put % Latin
          dup 16#03 1 put % Greek
          dup 16#20 2 put % Punctuation
          dup 16#21 3 put % Arrows
          dup 16#22 4 put % MathOps
          dup 16#27 5 put % Dingbats

/FDepVector [
vg&bfont /-UC-Latin vg&nconcat UCLatinEncoding
vg&bfont vg&newbasefont

vg&bfont vg&skewmatrix
vg&bfont /-UC-Greek vg&nconcat UCGreekEncoding
/Symbol vg&newskewedbasefont

vg&bfont /-UC-Punctuation vg&nconcat UCPunctuationEncoding
vg&bfont vg&newbasefont

/Arrows-UC findfont
/MathOps-UC findfont
/Dingbats-UC findfont
/Undefined-UC findfont ]
>>
vg&fname exch definefont pop
} def

% Null encoding vector (all elements set to .notdef)
/NullEncoding [ 256 {/.notdef} repeat ] def

% Unicode Latin encoding (unicode codes \u0000-\u00ff)
/UCLatinEncoding
  ISOLatin1Encoding dup length array copy
  dup 16#60 /grave put
  [ 16#90 16#91 16#92 16#93 16#94 16#95 16#96
    16#97 16#98 16#9a 16#9b 16#9d 16#9e 16#9f
  ] vg&undef
  def

% Unicode Greek encoding (unicode codes \u0370-\u03ff)
/UCGreekEncoding
  NullEncoding dup length array copy
  << 16#91 /Alpha    16#92 /Beta      16#93 /Gamma    16#94 /Delta
     16#95 /Epsilon  16#96 /Zeta      16#97 /Eta      16#98 /Theta
     16#99 /Iota     16#9a /Kappa     16#9b /Lambda   16#9c /Mu
     16#9d /Nu       16#9e /Xi        16#9f /Omicron  16#a0 /Pi
     16#a1 /Rho      16#a3 /Sigma     16#a4 /Tau      16#a5 /Upsilon
     16#a6 /Phi      16#a7 /Chi       16#a8 /Psi      16#a9 /Omega
     16#b1 /alpha    16#b2 /beta      16#b3 /gamma    16#b4 /delta
     16#b5 /epsilon  16#b6 /zeta      16#b7 /eta      16#b8 /theta
     16#b9 /iota     16#ba /kappa     16#bb /lambda   16#bc /mu
     16#bd /nu       16#be /xi        16#bf /omicron  16#c0 /pi
     16#c1 /rho      16#c2 /sigma1    16#c3 /sigma    16#c4 /tau
     16#c5 /upsilon  16#c6 /phi1      16#c7 /chi      16#c8 /psi
     16#c9 /omega    16#7e /semicolon 16#87 /dotmath  16#d1 /theta1
     16#d2 /Upsilon1 16#d5 /phi       16#d6 /omega1
  >> vg&redef
  def

% Unicode punctuation encoding (unicode codes \u2000-\u206f)
/UCPunctuationEncoding
  NullEncoding dup length array copy
  << 16#10 /hyphen          16#11 /hyphen              16#12 /endash
     16#13 /emdash          16#18 /quoteleft           16#19 /quoteright
     16#1a /quotesinglbase  16#1b /quotesingle         16#1c /quotedblleft
     16#1d /quotedblright   16#1e /quotedblbase        16#1f /quotedbl
     16#20 /dagger          16#21 /daggerdbl           16#22 /bullet
     16#24 /period          16#26 /ellipsis            16#27 /periodcentered
     16#30 /perthousand     16#44 /fraction
     16#70 /zerosuperior    16#74 /foursuperior        16#75 /fivesuperior
     16#76 /sixsuperior     16#77 /sevensuperior       16#78 /eightsuperior
     16#79 /ninesuperior    16#7b /hyphensuperior      16#7d /parenleftsuperior
     16#7e /parenrightsuperior
     16#80 /zeroinferior    16#84 /fourinferior        16#85 /fiveinferior
     16#81 /oneinferior     16#82 /twoinferior         16#83 /threeinferior
     16#86 /sixinferior     16#87 /seveninferior       16#88 /eightinferior
     16#89 /nineinferior    16#8b /hypheninferior      16#8d /parenleftinferior
     16#8e /parenrightinferior
  >> vg&redef
  def

% Unicode mathematical operators encoding (unicode codes \u2200-\u22ff)
/UCMathOpsEncoding
  NullEncoding dup length array copy
  << 16#00 /universal       16#02 /partialdiff         16#03 /existential
     16#05 /emptyset        16#06 /Delta               16#07 /gradient
     16#08 /element         16#09 /notelement          16#0b /suchthat
     16#0f /product         16#11 /summation           16#12 /minus
     16#15 /fraction        16#17 /asteriskmath        16#19 /bullet
     16#1a /radical         16#1d /proportional        16#1e /infinity
     16#20 /angle           16#23 /bar                 16#27 /logicaland
     16#28 /logicalor       16#29 /intersection        16#2a /union
     16#2b /integral        16#34 /therefore           16#36 /colon
     16#3c /similar         16#45 /congruent           16#48 /approxequal
     16#60 /notequal        16#61 /equivalence         16#64 /lessequal
     16#65 /greaterequal    16#82 /propersubset        16#83 /propersuperset
     16#86 /reflexsubset    16#87 /reflexsuperset      16#95 /circleplus
     16#97 /circlemultiply  16#a5 /perpendicular       16#03 /existential
     16#c0 /logicaland      16#c1 /logicalor           16#c2 /intersection
     16#c3 /union           16#c4 /diamond             16#c5 /dotmath
  >> vg&redef
  def

% Unicode arrows encoding (unicode codes \u2190-\u21ff)
% Also includes those "Letterlike" unicode characters
% which are available in the symbol font. (unicode codes \u2100-\u214f)
/UCArrowsEncoding
  NullEncoding dup length array copy
  << 16#11 /Ifraktur        16#1c /Rfraktur            16#22 /trademarkserif
     16#35 /aleph
     16#90 /arrowleft       16#91 /arrowup             16#92 /arrowright
     16#93 /arrowdown       16#94 /arrowboth           16#d0 /arrowdblleft
     16#d1 /arrowdblup      16#d2 /arrowdblright       16#d3 /arrowdbldown
     16#d4 /arrowdblboth
  >> vg&redef
  def

/ZapfDingbats findfont /Encoding get
dup length array copy /UCDingbatsEncoding exch def
16#20 1 16#7f {
  dup 16#20 sub exch
  UCDingbatsEncoding exch get
  UCDingbatsEncoding 3 1 roll put
} for
16#a0 1 16#ff {
  dup 16#40 sub exch
  UCDingbatsEncoding exch get
  UCDingbatsEncoding 3 1 roll put
} for
UCDingbatsEncoding [ 16#c0 1 16#ff {} for ] vg&undef
[ 16#00  16#05 16#0a 16#0b  16#28 16#4c 16#4e  16#53 16#54 16#55  16#57 16#5f
  16#60  16#68 16#69 16#6a  16#6b 16#6c 16#6d  16#6e 16#6f 16#70  16#71 16#72
  16#73  16#74 16#75 16#95  16#96 16#97 16#b0  16#bf
] vg&undef pop

% Define the base fonts which don't change.
/Undefined-UC NullEncoding       /Helvetica    vg&newbasefont pop
/MathOps-UC   UCMathOpsEncoding  /Symbol       vg&newbasefont pop
/Arrows-UC    UCArrowsEncoding   /Symbol       vg&newbasefont pop
/Dingbats-UC  UCDingbatsEncoding /ZapfDingbats vg&newbasefont pop

% Make the SansSerif composite fonts.
/SansSerif /Helvetica 16#00 vg&newcompositefont
/SansSerif-Bold /Helvetica-Bold 16#01 vg&newcompositefont
/SansSerif-Italic /Helvetica-Oblique 16#02 vg&newcompositefont
/SansSerif-BoldItalic /Helvetica-BoldOblique 16#03 vg&newcompositefont

% Make the Serif composite fonts.
/Serif /Times-Roman 16#00 vg&newcompositefont
/Serif-Bold /Times-Bold 16#01 vg&newcompositefont
/Serif-Italic /Times-Italic 16#02 vg&newcompositefont
/Serif-BoldItalic /Times-BoldItalic 16#03 vg&newcompositefont

% Make the Monospaced composite fonts.
/Monospaced /Courier 16#00 vg&newcompositefont
/Monospaced-Bold /Courier-Bold 16#01 vg&newcompositefont
/Monospaced-Italic /Courier-Oblique 16#02 vg&newcompositefont
/Monospaced-BoldItalic /Courier-BoldOblique 16#03 vg&newcompositefont

% Make the Dialog composite fonts.
/Dialog /Helvetica 16#00 vg&newcompositefont
/Dialog-Bold /Helvetica-Bold 16#01 vg&newcompositefont
/Dialog-Italic /Helvetica-Oblique 16#02 vg&newcompositefont
/Dialog-BoldItalic /Helvetica-BoldOblique 16#03 vg&newcompositefont

% Make the DialogInput composite fonts.
/DialogInput /Courier 16#00 vg&newcompositefont
/DialogInput-Bold /Courier-Bold 16#01 vg&newcompositefont
/DialogInput-Italic /Courier-Oblique 16#02 vg&newcompositefont
/DialogInput-BoldItalic /Courier-BoldOblique 16#03 vg&newcompositefont

% Make the Typewriter composite fonts (JDK 1.1 only).
/Typewriter /Courier 16#00 vg&newcompositefont
/Typewriter-Bold /Courier-Bold 16#01 vg&newcompositefont
/Typewriter-Italic /Courier-Oblique 16#02 vg&newcompositefont
/Typewriter-BoldItalic /Courier-BoldOblique 16#03 vg&newcompositefont


/cfontH {
 dup /fontsize exch def /SansSerif exch sf
 /vg&fontstyles [{cfontH} {cfontHB} {cfontHI} {cfontHBI}] def
} def
/cfontHB {
  dup /fontsize exch def /SansSerif-Bold exch sf
 /vg&fontstyles [{cfontH} {cfontHB} {cfontHI} {cfontHBI}] def
} def
/cfontHI {
 dup /fontsize exch def /SansSerif-Italic exch sf
 /vg&fontstyles [{cfontH} {cfontHB} {cfontHI} {cfontHBI}] def
} def
/cfontHBI {
 dup /fontsize exch def /SansSerif-BoldItalic exch sf
 /vg&fontstyles [{cfontH} {cfontHB} {cfontHI} {cfontHBI}] def
} def

/cfontT {
 dup /fontsize exch def /Serif exch sf
 /vg&fontstyles [{cfontT} {cfontTB} {cfontTI} {cfontTBI}] def
} def
/cfontTB {
 dup /fontsize exch def /Serif-Bold exch sf
 /vg&fontstyles [{cfontT} {cfontTB} {cfontTI} {cfontTBI}] def
} def
/cfontTI {
 dup /fontsize exch def /Serif-Italic exch sf
 /vg&fontstyles [{cfontT} {cfontTB} {cfontTI} {cfontTBI}] def
} def
/cfontTBI {
 dup /fontsize exch def /Serif-BoldItalic exch sf
 /vg&fontstyles [{cfontT} {cfontTB} {cfontTI} {cfontTBI}] def
} def

/cfontC {
 dup /fontsize exch def /Typewriter exch sf
 /vg&fontstyles [{cfontC} {cfontCB} {cfontCI} {cfontCBI}] def
} def
/cfontCB {
 dup /fontsize exch def /Typewriter-Bold exch sf
 /vg&fontstyles [{cfontC} {cfontCB} {cfontCI} {cfontCBI}] def
} def
/cfontCI {
 dup /fontsize exch def /Typewriter-Italic exch sf
 /vg&fontstyles [{cfontC} {cfontCB} {cfontCI} {cfontCBI}] def
} def
/cfontCBI {
 dup /fontsize exch def /Typewriter-BoldItalic exch sf
 /vg&fontstyles [{cfontC} {cfontCB} {cfontCI} {cfontCBI}] def
} def

% Darken or lighten the current color.
/darken {0.7 exch exp 3 copy
         q 4 -1 roll vg&C
         currentrgbcolor 3 {4 -2 roll mul} repeat
         3 array astore Q} def

/displayColorMap
<< /Cr   [1.00 0.00 0.00]       /Cg     [0.00 1.00 0.00]
   /Cb   [0.00 0.00 1.00]       /Cc     [1.00 0.00 0.00 0.00]
   /Cm   [0.00 1.00 0.00 0.00]  /Cy     [0.00 0.00 1.00 0.00]
   /Co   [1.00 0.78 0.00]       /Cp     [1.00 0.67 0.67]
   /Cw   [1   ]                 /Cgrl   [0.75]
   /Cgr  [0.50]                 /Cgrd   [0.25]
   /Ck   [0   ]
   /CGr  [1.00 0.00 0.00]       /CGg    [0.00 1.00 0.00]
   /CGb  [0.00 0.00 1.00]       /CGc    [1.00 0.00 0.00 0.00]
   /CGm  [0.00 1.00 0.00 0.00]  /CGy    [0.00 0.00 1.00 0.00]
   /CGo  [1.00 0.78 0.00]       /CGp    [1.00 0.67 0.67]
   /CGw  [1   ]                 /CGgrl  [0.75]
   /CGgr [0.50]                 /CGgrd  [0.25]
   /CGk  [0   ]
   /CIr  [1.00 0.00 0.00]       /CIg    [0.00 1.00 0.00]
   /CIb  [0.00 0.00 1.00]       /CIc    [1.00 0.00 0.00 0.00]
   /CIm  [0.00 1.00 0.00 0.00]  /CIy    [0.00 0.00 1.00 0.00]
   /CIo  [1.00 0.78 0.00]       /CIp    [1.00 0.67 0.67]
   /CIw  [1   ]                 /CIgrl  [0.75]
   /CIgr [0.50]                 /CIgrd  [0.25]
   /CIk  [0   ]
>> def

/printColorMap
<< /Cr   [1.00 0.33 0.33]       /Cg     [0.33 1.00 0.33]
   /Cb   [0.33 0.33 1.00]       /Cc     [1.00 0.00 0.00 0.00]
   /Cm   [0.00 1.00 0.00 0.00]  /Cy     [0.00 0.00 1.00 0.00]
   /Co   [1.00 0.78 0.00]       /Cp     [1.00 0.67 0.67]
   /Cw   [1   ]                 /Cgrl   [0.75]
   /Cgr  [0.50]                 /Cgrd   [0.25]
   /Ck   [0   ]
   /CGr  [1.00 0.33 0.33]       /CGg    [0.33 1.00 0.33]
   /CGb  [0.33 0.33 1.00]       /CGc    [1.00 0.00 0.00 0.00]
   /CGm  [0.00 1.00 0.00 0.00]  /CGy    [0.00 0.00 1.00 0.00]
   /CGo  [1.00 0.78 0.00]       /CGp    [1.00 0.67 0.67]
   /CGw  [1   ]                 /CGgrl  [0.75]
   /CGgr [0.50]                 /CGgrd  [0.25]
   /CGk  [0   ]
   /CIr  [1.00 0.33 0.33]       /CIg    [0.33 1.00 0.33]
   /CIb  [0.33 0.33 1.00]       /CIc    [1.00 0.00 0.00 0.00]
   /CIm  [0.00 1.00 0.00 0.00]  /CIy    [0.00 0.00 1.00 0.00]
   /CIo  [1.00 0.78 0.00]       /CIp    [1.00 0.67 0.67]
   /CIw  [1   ]                 /CIgrl  [0.75]
   /CIgr [0.50]                 /CIgrd  [0.25]
   /CIk  [0   ]
>> def

/grayColorMap
<< /Cr   [0   ]                 /Cg     [0   ]
   /Cb   [0   ]                 /Cc     [0   ]
   /Cm   [0   ]                 /Cy     [0   ]
   /Co   [0   ]                 /Cp     [0   ]
   /Cw   [0   ]                 /Cgrl   [0   ]
   /Cgr  [0   ]                 /Cgrd   [0   ]
   /Ck   [0   ]
   /CGr  [0.75]                 /CGg    [1   ]
   /CGb  [0.50]                 /CGc    [0.75]
   /CGm  [0.50]                 /CGy    [1   ]
   /CGo  [0.75]                 /CGp    [1   ]
   /CGw  [0   ]                 /CGgrl  [0.25]
   /CGgr [0.50]                 /CGgrd  [0.75]
   /CGk  [1   ]
   /CIr  [1   ]                 /CIg    [1   ]
   /CIb  [1   ]                 /CIc    [1   ]
   /CIm  [1   ]                 /CIy    [1   ]
   /CIo  [1   ]                 /CIp    [1   ]
   /CIw  [1   ]                 /CIgrl  [1   ]
   /CIgr [1   ]                 /CIgrd  [1   ]
   /CIk  [1   ]
>> def

/bwColorMap
<< /Cr   [0   ]                 /Cg     [0   ]
   /Cb   [0   ]                 /Cc     [0   ]
   /Cm   [0   ]                 /Cy     [0   ]
   /Co   [0   ]                 /Cp     [0   ]
   /Cw   [0   ]                 /Cgrl   [0   ]
   /Cgr  [0   ]                 /Cgrd   [0   ]
   /Ck   [0   ]
   /CGr  [1   ]                 /CGg    [1   ]
   /CGb  [1   ]                 /CGc    [1   ]
   /CGm  [1   ]                 /CGy    [1   ]
   /CGo  [1   ]                 /CGp    [1   ]
   /CGw  [0   ]                 /CGgrl  [1   ]
   /CGgr [1   ]                 /CGgrd  [1   ]
   /CGk  [1   ]
   /CIr  [1   ]                 /CIg    [1   ]
   /CIb  [1   ]                 /CIc    [1   ]
   /CIm  [1   ]                 /CIy    [1   ]
   /CIo  [1   ]                 /CIp    [1   ]
   /CIw  [1   ]                 /CIgrl  [1   ]
   /CIgr [1   ]                 /CIgrd  [1   ]
   /CIk  [1   ]
>> def

%
% The following routines handle the alignment of and printing of
% tagged strings.
%

% Predefine the bounding box values.
/bbllx 0 def /bblly 0 def /bburx 0 def /bbury 0 def

% This routine pops the first unicode character off of a string and returns
% the remainder of the string, the character code of first character,
% and a "true" if the string was non-zero length.
% <string>      popfirst <remaining string> <true>
% <null string> popfirst <false>
/popfirst {
  dup length 1 gt
    {dup 0 get /vg&fbyte exch def
     dup 1 get /vg&cbyte exch def
     dup length 2 sub 2 exch getinterval true}
    {pop false} ifelse
} def

% This routine shows a single unicode character given the font and
% character codes.
% <font code> <char code> unicharshow --
/unicharshow {
  2 string
  dup 0 5 -1 roll put
  dup 1 4 -1 roll put
  internalshow
} def

% This is an internal routine to alternate between determining the
% bounding box for stringsize and showing the string for recshow.
% <string> internalshow --
/internalshow {show} def

% This is an internal routine to alternate between determining the
% bounding box for stringsize and stroking various ornaments.
% <string> internalstroke --
/internalstroke {S} def

% Sets up internalshow to use the null device to determine string size.
% -- nullinternalshow --
/nullinternalshow {/internalshow {false charpath flattenpath
                                  pathbbox updatebbox} def} def

% Sets up internalstroke to use the null device to determine string size.
% -- nullinternalstroke --
/nullinternalstroke {
 /internalstroke {flattenpath pathbbox updatebbox} def} def

% This routine tests to see if the character code matches the first
% character of a string.
% <char code> <string> testchar <char code> <true or false>
/testchar {exch dup 3 -1 roll 0 get eq} def

% Raise the text baseline for superscripts.
% -- raise --
/raise {
  0 fontsize 2 div rmoveto
  /fontsize fontsize 2 mul 3 div def
  currentfont /FontName get fontsize sf
} def

% Un-raise the text baseline for superscripts.
% -- unraise --
/unraise {
  /fontsize fontsize 1.5 mul def
  0 fontsize 2 div neg rmoveto
} def

% Lower the text baseline for subscripts.
% -- lower --
/lower {
  0 fontsize 3 div neg rmoveto
  /fontsize fontsize 2 mul 3 div def
  currentfont /FontName get fontsize sf
} def

% Un-lower the text baseline for subscripts.
% -- unlower --
/unlower {
  /fontsize fontsize 1.5 mul def
  0 fontsize 3 div rmoveto
} def

% Compare the top two elements on the stack and leave only the
% larger one.
/maxval {2 copy gt {pop} {exch pop} ifelse} def

% Tokenize a string.  Do not use the usual PostScript token because
% parentheses will not be interpreted correctly because of rescanning
% of the string.
/vg&token {/vg&string exch def /vg&index -1 def /vg&level 0 def
0 2 vg&string length 2 sub {
  dup dup 1 add exch vg&string exch get 8 bitshift vg&string 3 -1 roll get or
  dup 16#f0fe eq {pop 1}{16#f0ff eq {-1}{0} ifelse} ifelse
  /vg&level exch vg&level add def
  vg&level 0 eq {/vg&index exch def exit} if pop
} for
vg&index 0 ge {
  vg&string vg&index 2 add dup vg&string length exch sub getinterval
  vg&index 2 gt {vg&string 2 vg&index 2 sub getinterval}{()} ifelse
  true}
{false} ifelse
} bind def

% Recursively show an unicode string.
% <string> recshow --
/recshow {
  popfirst
  {
    % Test to see if this is a string attribute.
    vg&fbyte 16#f0 and 16#e0 eq
    {
      q

      % Font style.
      currentfont dup /FontStyleBits known {/FontStyleBits get}{pop 0} ifelse
      vg&cbyte or vg&fontstyles exch get fontsize exch exec

      vg&token pop recshow currentpoint Q m recshow
    }
    {
      vg&fbyte 16#F8 and 16#F0 eq {

        % Superscript and/or subscript.
        vg&cbyte 16#00 eq {
          vg&token pop exch vg&token pop 3 -1 roll
          q raise recshow unraise currentpoint pop Q exch
          q lower recshow unlower currentpoint pop Q
          maxval currentpoint exch pop m recshow } if

        % Strikeout.
        vg&cbyte 16#01 eq {
          vg&token pop currentpoint 3 -1 roll recshow
          q 0 J vg&underline vg&uthick w
          currentpoint 4 -2 roll fontsize 3 div add moveto
          fontsize 3 div add lineto internalstroke Q
          recshow} if

        % Underline.
        vg&cbyte 16#02 eq {
          vg&token pop currentpoint 3 -1 roll recshow
          q 0 J vg&underline vg&uthick w
          currentpoint 4 -2 roll vg&uoffset add moveto
          vg&uoffset add lineto internalstroke Q
          recshow} if

        % Dashed underline.
        vg&cbyte 16#03 eq {
          vg&token pop currentpoint 3 -1 roll recshow
          q 0 J [ vg&uthick 5 mul vg&uthick 2 mul] 0 d
          vg&underline vg&uthick w
          currentpoint 4 -2 roll vg&uoffset add moveto
          vg&uoffset add lineto internalstroke Q
          recshow} if

        % Dotted underline.
        vg&cbyte 16#04 eq {
          vg&token pop currentpoint 3 -1 roll recshow
          q 1 J [ 0 vg&uthick 3 mul] 0 d
          vg&underline vg&uthick w
          currentpoint 4 -2 roll vg&uoffset add moveto
          vg&uoffset add lineto internalstroke Q
          recshow} if

        % Thick underline.
        vg&cbyte 16#05 eq {
          vg&token pop currentpoint 3 -1 roll recshow
          q 0 J vg&underline vg&uthick 2 mul w
          currentpoint 4 -2 roll vg&uoffset vg&uthick 2 div sub add moveto
          vg&uoffset vg&uthick 2 div sub add lineto internalstroke Q
          recshow} if

        % Gray thick underline.
        vg&cbyte 16#06 eq {
          vg&token pop currentpoint 3 -1 roll recshow
          q 0 J vg&underline vg&uthick 2 mul w 0.5 setgray
          currentpoint 4 -2 roll vg&uoffset vg&uthick 2 div sub add moveto
          vg&uoffset vg&uthick 2 div sub add lineto internalstroke Q
          recshow} if

        % Overbar.
        vg&cbyte 16#07 eq {
          vg&token pop dup stringsize relative 4 1 roll pop pop exch
          3 -1 roll recshow
          q 0 J vg&underline vg&uthick w
          vg&uoffset neg add dup currentpoint pop exch m l internalstroke Q
          recshow} if
      }
      {
        vg&fbyte vg&cbyte unicharshow recshow
      } ifelse
    } ifelse
  } if
} def

% Get the underline position and thickness from the current font.
/vg&underline {

currentfont dup /FontType get 0 eq {/FDepVector get 0 get} if
dup dup /FontInfo known {
  /FontInfo get dup
  dup /UnderlinePosition known {
    /UnderlinePosition get /vg&uoffset exch def
  }
  {
    pop /vg&uoffset 0 def
  } ifelse
  dup /UnderlineThickness known {
    /UnderlineThickness get /vg&uthick exch def
  }
  {
    pop /vg&uthick 0 def
  } ifelse
}
{
  pop /vg&uoffset 0 def /vg&uthick 0 def
} ifelse
/FontMatrix get
currentfont dup /FontType get 0 eq
{/FontMatrix get matrix concatmatrix}{pop} ifelse
dup 0 vg&uoffset 3 -1 roll transform /vg&uoffset exch def pop
0 vg&uthick 3 -1 roll transform /vg&uthick exch def pop
} def

% Make a frame with the coordinates on the stack.
% <llx> <lly> <urx> <ury> frame --
/frame {4 copy m 3 1 roll exch l 4 -2 roll l l h} def

% Resets the accumulated bounding box to a degenerate box at the
% current point.
% -- resetbbox --
/resetbbox {
  currentpoint 2 copy
  /bbury exch def
  /bburx exch def
  /bblly exch def
  /bbllx exch def
} def

% Update the accumulated bounding box.
% <llx'> <lly'> <urx'> <ury'> updatebbox --
/updatebbox {
  dup bbury gt {/bbury exch def} {pop} ifelse
  dup bburx gt {/bburx exch def} {pop} ifelse
  dup bblly lt {/bblly exch def} {pop} ifelse
  dup bbllx lt {/bbllx exch def} {pop} ifelse
} def

% Set the bounding box to the values on the stack.
% <llx'> <lly'> <urx'> <ury'> updatebbox --
/restorebbox {
  /bbury exch def /bburx exch def /bblly exch def /bbllx exch def
} def

% Push the accumulated bounding box onto the stack.
% -- pushbbox <llx> <lly> <urx> <ury>
/pushbbox {bbllx bblly bburx bbury} def

% Make the relative bounding box relative to the currentpoint.
% <llx'> <lly'> <urx'> <ury'> inflate <llx> <lly> <urx> <ury>
/inflate {
  2 {fontsize 0.2 mul add 4 1 roll} repeat
  2 {fontsize 0.2 mul sub 4 1 roll} repeat
} def

% Make the relative bounding box relative to the currentpoint.
% <llx'> <lly'> <urx'> <ury'> relative <llx> <lly> <urx> <ury>
/relative {
  currentpoint 3 -1 roll add 3 1 roll add exch 4 2 roll
  currentpoint 3 -1 roll add 3 1 roll add exch 4 2 roll
} def

% Returns the size of a string appropriate for recshow.
% <string> stringsize <llx> <lly> <urx> <ury>
/stringsize {
  pushbbox /internalshow load /internalstroke load 7 -1 roll
  q
  nulldevice 0 0 m
  nullinternalshow nullinternalstroke
  resetbbox
  recshow
  /internalstroke exch def /internalshow exch def
  pushbbox 8 -4 roll restorebbox
  Q
} def

% Calculate values for string positioning.
/calcval {4 copy
  3 -1 roll sub /widy exch def sub neg /widx exch def
  pop pop /dy exch def /dx exch def} def

% Utilities to position a string.
% First letter (U=upper, C=center, B=baseline, L=lower)
% Second letter (L=left, C=center, R=right)
/align [
{calcval dx neg widy dy add neg rmoveto} % UL
{calcval dx neg widy 2 div dy add neg rmoveto} % CL
{calcval dx neg 0 rmoveto} % BL
{calcval dx neg dy neg rmoveto} % LL
{calcval widx dx add neg widy dy add neg rmoveto} % UR
{calcval widx dx add neg widy 2 div dy add neg rmoveto} % CR
{calcval widx dx add neg 0 rmoveto} % BR
{calcval widx dx add neg dy neg rmoveto} % LR
{calcval widx 2 div dx add neg widy dy add neg rmoveto} % UC
{calcval widx 2 div dx add neg widy 2 div dy add neg rmoveto} % CC
{calcval widx 2 div dx add neg 0 rmoveto} % BC
{calcval widx 2 div dx add neg dy neg rmoveto} % LC
] def

/vg&str {m q 1 -1 scale dup stringsize 4 copy align 11 -1 roll get exec
         q inflate relative frame exch exec Q recshow Q} def

end /procDict exch def
%%EndProlog

%%BeginSetup
save
procDict begin
printColorMap begin
595 791 setpagesize
20 20 20 20 setmargins
0 0 setorigin
525 124 setsize
fittopage
portrait
imagescale
cliptobounds
setbasematrix
/Helvetica 10 sf
defaultGraphicsState
%%EndSetup

0.00000 0.00000 0.00000 RG
[ 1.00000 0.00000 0.00000 1.00000 0.00000 0.00000 ] defaultmatrix matrix concatmatrix setmatrix
cliprestore
1.00000 1.00000 1.00000 RG
newpath
0.00000 0.00000 m
525.000 0.00000 l
525.000 124.000 l
0.00000 124.000 l
0.00000 0.00000 l
h
f
0.00000 0.00000 0.00000 RG
0.00000 0.00000 0.00000 RG
[ 1.00000 0.00000 0.00000 1.00000 0.00000 0.00000 ] defaultmatrix matrix concatmatrix setmatrix
cliprestore
1.00000 1.00000 1.00000 RG
newpath
0.00000 0.00000 m
525.000 0.00000 l
525.000 124.000 l
0.00000 124.000 l
0.00000 0.00000 l
h
f
0.00000 0.00000 0.00000 RG
1.00000 1.00000 1.00000 RG
newpath
0.00000 0.00000 m
525.000 0.00000 l
525.000 124.000 l
0.00000 124.000 l
0.00000 0.00000 l
h
f
cliprestore
0 0 525 124 rc
q
<< /PatternType 2
   /Shading
   << /ShadingType 2
      /ColorSpace /DeviceRGB
      /Coords [31.564435958862305 108.39009094238281 30.363933563232422 108.39009094238281]
      /Function
      << /FunctionType 2
         /Domain [0 1]
         /Range [0 1 0 1 0 1]
         /C0 [0.0 0.0 0.0]
         /C1 [0.2 0.2 0.6]
         /N 1
      >>
      /Extend [true true]
   >>
>>
matrix makepattern setpattern
newpath
39.1362 113.992 m
39.4677 113.992 39.7364 113.724 39.7364 113.392  c
39.7364 113.061 39.4677 112.792 39.1362 112.792  c
22.7922 112.792 l
22.4606 112.792 22.1920 113.061 22.1920 113.392  c
22.1920 113.724 22.4606 113.992 22.7922 113.992  c
h
39.1362 108.990 m
39.4677 108.990 39.7364 108.722 39.7364 108.390  c
39.7364 108.059 39.4677 107.790 39.1362 107.790  c
22.7922 107.790 l
22.4606 107.790 22.1920 108.059 22.1920 108.390  c
22.1920 108.722 22.4606 108.990 22.7922 108.990  c
h
39.1362 103.988 m
39.4677 103.988 39.7364 103.720 39.7364 103.388  c
39.7364 103.056 39.4677 102.788 39.1362 102.788  c
22.7922 102.788 l
22.4606 102.788 22.1920 103.056 22.1920 103.388  c
22.1920 103.720 22.4606 103.988 22.7922 103.988  c
h
f
Q
q
0.00000 0.00000 0.00000 RG
newpath
50.9069 108.990 m
65.2352 108.990 l
65.5668 108.990 65.8355 108.722 65.8355 108.390  c
65.8355 108.059 65.5668 107.790 65.2352 107.790  c
50.9069 107.790 l
50.5753 107.790 50.3067 108.059 50.3067 108.390  c
50.3067 108.722 50.5753 108.990 50.9069 108.990  c
h
f
Q
q
0.00000 0.00000 0.00000 RG
newpath
175.444 107.790 m
161.834 107.790 l
161.503 107.790 161.234 108.059 161.234 108.390  c
161.234 108.722 161.503 108.990 161.834 108.990  c
175.444 108.990 l
175.776 108.990 176.044 108.722 176.044 108.390  c
176.044 108.059 175.776 107.790 175.444 107.790  c
h
f
Q
q
<< /PatternType 2
   /Shading
   << /ShadingType 2
      /ColorSpace /DeviceRGB
      /Coords [356.4237060546875 108.39009094238281 355.22320556640625 108.39009094238281]
      /Function
      << /FunctionType 2
         /Domain [0 1]
         /Range [0 1 0 1 0 1]
         /C0 [0.0 0.0 0.0]
         /C1 [0.2 0.2 0.6]
         /N 1
      >>
      /Extend [true true]
   >>
>>
matrix makepattern setpattern
newpath
363.995 113.992 m
364.327 113.992 364.596 113.724 364.596 113.392  c
364.596 113.061 364.327 112.792 363.995 112.792  c
347.651 112.792 l
347.320 112.792 347.051 113.061 347.051 113.392  c
347.051 113.724 347.320 113.992 347.651 113.992  c
h
363.995 108.990 m
364.327 108.990 364.596 108.722 364.596 108.390  c
364.596 108.059 364.327 107.790 363.995 107.790  c
347.651 107.790 l
347.320 107.790 347.051 108.059 347.051 108.390  c
347.051 108.722 347.320 108.990 347.651 108.990  c
h
363.995 103.988 m
364.327 103.988 364.596 103.720 364.596 103.388  c
364.596 103.056 364.327 102.788 363.995 102.788  c
347.651 102.788 l
347.320 102.788 347.051 103.056 347.051 103.388  c
347.051 103.720 347.320 103.988 347.651 103.988  c
h
f
Q
q
0.00000 0.00000 0.00000 RG
newpath
375.766 108.990 m
391.727 108.990 l
392.059 108.990 392.328 108.722 392.328 108.390  c
392.328 108.059 392.059 107.790 391.727 107.790  c
375.766 107.790 l
375.435 107.790 375.166 108.059 375.166 108.390  c
375.166 108.722 375.435 108.990 375.766 108.990  c
h
f
Q
q
0.00000 0.00000 0.00000 RG
newpath
497.060 107.790 m
485.084 107.790 l
484.752 107.790 484.483 108.059 484.483 108.390  c
484.483 108.722 484.752 108.990 485.084 108.990  c
497.060 108.990 l
497.392 108.990 497.661 108.722 497.661 108.390  c
497.661 108.059 497.392 107.790 497.060 107.790  c
h
f
Q
q
0.00000 0.00000 0.00000 RG
newpath
76.3238 14.3604 m
54.8429 14.3604 l
54.5114 14.3604 54.2427 14.6291 54.2427 14.9606  c
54.2427 15.2922 54.5114 15.5609 54.8429 15.5609  c
76.3238 15.5609 l
76.6554 15.5609 76.9241 15.2922 76.9241 14.9606  c
76.9241 14.6291 76.6554 14.3604 76.3238 14.3604  c
h
f
Q
q
0.00000 0.00000 0.00000 RG
newpath
67.6316 39.9025 m
46.6062 39.9025 l
46.2746 39.9025 46.0060 40.1712 46.0060 40.5028  c
46.0060 40.8344 46.2746 41.1030 46.6062 41.1030  c
67.6316 41.1030 l
67.9632 41.1030 68.2319 40.8344 68.2319 40.5028  c
68.2319 40.1712 67.9632 39.9025 67.6316 39.9025  c
h
f
Q
.200000 .200000 .600000 RG
1.00000 1.00000 1.00000 RG
newpath
16.6490 103.468 m
15.2899 103.468 14.1881 104.570 14.1881 105.929  c
14.1881 110.851 l
14.1881 112.210 15.2899 113.312 16.6490 113.312  c
17.9303 113.312 l
19.2894 113.312 20.3912 112.210 20.3912 110.851  c
20.3912 105.929 l
20.3912 104.570 19.2894 103.468 17.9303 103.468  c
h
f
.200000 .200000 .600000 RG
[ 1.00000 0.00000 0.00000 1.00000 13.7896 100.890 ] concat
newpath
.843750 12.0000 m
.843750 4.12500 l
1.90625 4.12500 l
6.04688 10.3125 l
6.04688 4.12500 l
7.04688 4.12500 l
7.04688 12.0000 l
5.96875 12.0000 l
1.84375 5.81250 l
1.84375 12.0000 l
.843750 12.0000 l
h
f
[ 1.00000 0.00000 0.00000 1.00000 0.00000 0.00000 ] defaultmatrix matrix concatmatrix setmatrix
[ 1.00000 0.00000 0.00000 1.00000 0.00000 0.00000 ] defaultmatrix matrix concatmatrix setmatrix
[ 1.00000 0.00000 0.00000 1.00000 9.25008 103.390 ] concat
0.00000 0.00000 .607843 RG
newpath
2.98438 8.00000 m
2.28125 8.00000 l
2.28125 3.51562 l
2.11458 3.68229 1.89323 3.84635 1.61719 4.00781  c
1.34115 4.16927 1.09375 4.28646 .875000 4.35938  c
.875000 3.68750 l
1.27083 3.50000 1.61458 3.27604 1.90625 3.01562  c
2.19792 2.75521 2.40625 2.50000 2.53125 2.25000  c
2.98438 2.25000 l
2.98438 8.00000 l
h
f
[ 1.00000 0.00000 0.00000 1.00000 0.00000 0.00000 ] defaultmatrix matrix concatmatrix setmatrix
[ 1.00000 0.00000 0.00000 1.00000 0.00000 0.00000 ] defaultmatrix matrix concatmatrix setmatrix
.200000 .200000 .600000 RG
0.00000 0.00000 .607843 RG
1.00000 1.00000 1.00000 RG
0.00000 0.00000 0.00000 RG
1.00000 1.00000 1.00000 RG
newpath
44.0860 103.363 m
42.6783 103.363 41.5372 104.504 41.5372 105.912  c
41.5372 111.009 l
41.5372 112.417 42.6783 113.558 44.0860 113.558  c
45.9571 113.558 l
47.3648 113.558 48.5059 112.417 48.5059 111.009  c
48.5059 105.912 l
48.5059 104.504 47.3648 103.363 45.9571 103.363  c
h
f
0.00000 0.00000 0.00000 RG
[ 1.00000 0.00000 0.00000 1.00000 41.5215 100.890 ] concat
newpath
6.46875 9.23438 m
7.51562 9.50000 l
7.29688 10.3542 6.90365 11.0078 6.33594 11.4609  c
5.76823 11.9141 5.07292 12.1406 4.25000 12.1406  c
3.39583 12.1406 2.70312 11.9661 2.17188 11.6172  c
1.64062 11.2682 1.23698 10.7656 .960938 10.1094  c
.684896 9.45312 .546875 8.75000 .546875 8.00000  c
.546875 7.18750 .703125 6.47396 1.01562 5.85938  c
1.32812 5.24479 1.77344 4.77865 2.35156 4.46094  c
2.92969 4.14323 3.56771 3.98438 4.26562 3.98438  c
5.05729 3.98438 5.72135 4.18490 6.25781 4.58594  c
6.79427 4.98698 7.16667 5.55208 7.37500 6.28125  c
6.34375 6.53125 l
6.16667 5.95833 5.90365 5.54167 5.55469 5.28125  c
5.20573 5.02083 4.77083 4.89062 4.25000 4.89062  c
3.63542 4.89062 3.12500 5.03385 2.71875 5.32031  c
2.31250 5.60677 2.02865 5.99479 1.86719 6.48438  c
1.70573 6.97396 1.62500 7.47917 1.62500 8.00000  c
1.62500 8.66667 1.72135 9.25000 1.91406 9.75000  c
2.10677 10.2500 2.40885 10.6250 2.82031 10.8750  c
3.23177 11.1250 3.67708 11.2500 4.15625 11.2500  c
4.73958 11.2500 5.23438 11.0807 5.64062 10.7422  c
6.04688 10.4036 6.32292 9.90104 6.46875 9.23438  c
h
f
[ 1.00000 0.00000 0.00000 1.00000 0.00000 0.00000 ] defaultmatrix matrix concatmatrix setmatrix
[ 1.00000 0.00000 0.00000 1.00000 0.00000 0.00000 ] defaultmatrix matrix concatmatrix setmatrix
[ 1.00000 0.00000 0.00000 1.00000 43.0215 97.3432 ] concat
0.00000 0.00000 .607843 RG
newpath
4.03125 7.32812 m
4.03125 8.00000 l
.250000 8.00000 l
.239583 7.83333 .265625 7.67188 .328125 7.51562  c
.421875 7.25521 .575521 7.00000 .789062 6.75000  c
1.00260 6.50000 1.30729 6.20833 1.70312 5.87500  c
2.32812 5.36458 2.75000 4.96094 2.96875 4.66406  c
3.18750 4.36719 3.29688 4.08854 3.29688 3.82812  c
3.29688 3.54688 3.19792 3.30990 3.00000 3.11719  c
2.80208 2.92448 2.54167 2.82812 2.21875 2.82812  c
1.88542 2.82812 1.61719 2.92969 1.41406 3.13281  c
1.21094 3.33594 1.10417 3.61979 1.09375 3.98438  c
.375000 3.90625 l
.427083 3.36458 .614583 2.95312 .937500 2.67188  c
1.26042 2.39062 1.69271 2.25000 2.23438 2.25000  c
2.78646 2.25000 3.22135 2.40104 3.53906 2.70312  c
3.85677 3.00521 4.01562 3.38542 4.01562 3.84375  c
4.01562 4.07292 3.96875 4.29688 3.87500 4.51562  c
3.78125 4.73438 3.62760 4.96615 3.41406 5.21094  c
3.20052 5.45573 2.83854 5.79167 2.32812 6.21875  c
1.91146 6.57292 1.64323 6.81250 1.52344 6.93750  c
1.40365 7.06250 1.30208 7.19271 1.21875 7.32812  c
4.03125 7.32812 l
h
f
[ 1.00000 0.00000 0.00000 1.00000 0.00000 0.00000 ] defaultmatrix matrix concatmatrix setmatrix
[ 1.00000 0.00000 0.00000 1.00000 0.00000 0.00000 ] defaultmatrix matrix concatmatrix setmatrix
0.00000 0.00000 0.00000 RG
0.00000 0.00000 .607843 RG
1.00000 1.00000 1.00000 RG
0.00000 0.00000 0.00000 RG
1.00000 1.00000 1.00000 RG
newpath
70.1069 103.449 m
68.7424 103.449 67.6362 104.555 67.6362 105.919  c
67.6362 110.861 l
67.6362 112.225 68.7424 113.331 70.1069 113.331  c
75.3999 113.331 l
76.7644 113.331 77.8706 112.225 77.8706 110.861  c
77.8706 105.919 l
77.8706 104.555 76.7644 103.449 75.3999 103.449  c
h
f
0.00000 0.00000 0.00000 RG
[ 1.00000 0.00000 0.00000 1.00000 66.2534 100.890 ] concat
newpath
.859375 12.0000 m
.859375 4.12500 l
4.35938 4.12500 l
5.05729 4.12500 5.58854 4.19531 5.95312 4.33594  c
6.31771 4.47656 6.60938 4.72656 6.82812 5.08594  c
7.04688 5.44531 7.15625 5.84375 7.15625 6.28125  c
7.15625 6.83333 6.97656 7.30208 6.61719 7.68750  c
6.25781 8.07292 5.69792 8.31771 4.93750 8.42188  c
5.21875 8.54688 5.42708 8.67708 5.56250 8.81250  c
5.87500 9.09375 6.16667 9.44271 6.43750 9.85938  c
7.79688 12.0000 l
6.50000 12.0000 l
5.45312 10.3594 l
5.15104 9.89062 4.90104 9.53125 4.70312 9.28125  c
4.50521 9.03125 4.32812 8.85417 4.17188 8.75000  c
4.01562 8.64583 3.85938 8.57812 3.70312 8.54688  c
3.57812 8.51562 3.38021 8.50000 3.10938 8.50000  c
1.90625 8.50000 l
1.90625 12.0000 l
.859375 12.0000 l
h
1.90625 7.59375 m
4.14062 7.59375 l
4.61979 7.59375 4.99479 7.54688 5.26562 7.45312  c
5.53646 7.35938 5.73958 7.20312 5.87500 6.98438  c
6.01042 6.76562 6.07812 6.53125 6.07812 6.28125  c
6.07812 5.90625 5.94531 5.59896 5.67969 5.35938  c
5.41406 5.11979 4.98958 5.00000 4.40625 5.00000  c
1.90625 5.00000 l
1.90625 7.59375 l
h
12.0376 12.0000 m
11.0688 12.0000 l
11.0688 5.84375 l
10.8397 6.06250 10.5376 6.28385 10.1626 6.50781  c
9.78760 6.73177 9.44906 6.89583 9.14697 7.00000  c
9.14697 6.06250 l
9.68864 5.81250 10.1600 5.50781 10.5610 5.14844  c
10.9621 4.78906 11.2459 4.43750 11.4126 4.09375  c
12.0376 4.09375 l
12.0376 12.0000 l
h
f
[ 1.00000 0.00000 0.00000 1.00000 0.00000 0.00000 ] defaultmatrix matrix concatmatrix setmatrix
[ 1.00000 0.00000 0.00000 1.00000 0.00000 0.00000 ] defaultmatrix matrix concatmatrix setmatrix
[ 1.00000 0.00000 0.00000 1.00000 79.0039 103.390 ] concat
0.00000 0.00000 .607843 RG
newpath
.343750 6.48438 m
1.04688 6.39062 l
1.11979 6.78646 1.25521 7.07292 1.45312 7.25000  c
1.65104 7.42708 1.88542 7.51562 2.15625 7.51562  c
2.48958 7.51562 2.77083 7.40104 3.00000 7.17188  c
3.22917 6.94271 3.34375 6.66146 3.34375 6.32812  c
3.34375 6.00521 3.23698 5.73698 3.02344 5.52344  c
2.80990 5.30990 2.54167 5.20312 2.21875 5.20312  c
2.08333 5.20312 1.91667 5.22917 1.71875 5.28125  c
1.79688 4.67188 l
1.84896 4.67188 1.89062 4.67188 1.92188 4.67188  c
2.21354 4.67188 2.47917 4.59375 2.71875 4.43750  c
2.95833 4.28125 3.07812 4.04167 3.07812 3.71875  c
3.07812 3.45833 2.99219 3.24479 2.82031 3.07812  c
2.64844 2.91146 2.42188 2.82812 2.14062 2.82812  c
1.86979 2.82812 1.64323 2.91406 1.46094 3.08594  c
1.27865 3.25781 1.16146 3.51562 1.10938 3.85938  c
.406250 3.73438 l
.489583 3.26562 .684896 2.90104 .992188 2.64062  c
1.29948 2.38021 1.67708 2.25000 2.12500 2.25000  c
2.43750 2.25000 2.72656 2.31771 2.99219 2.45312  c
3.25781 2.58854 3.46094 2.77083 3.60156 3.00000  c
3.74219 3.22917 3.81250 3.47396 3.81250 3.73438  c
3.81250 3.98438 3.74479 4.21094 3.60938 4.41406  c
3.47396 4.61719 3.27604 4.77604 3.01562 4.89062  c
3.35938 4.97396 3.62500 5.13802 3.81250 5.38281  c
4.00000 5.62760 4.09375 5.93750 4.09375 6.31250  c
4.09375 6.81250 3.91146 7.23698 3.54688 7.58594  c
3.18229 7.93490 2.71875 8.10938 2.15625 8.10938  c
1.65625 8.10938 1.23958 7.95833 .906250 7.65625  c
.572917 7.35417 .385417 6.96354 .343750 6.48438  c
h
f
[ 1.00000 0.00000 0.00000 1.00000 0.00000 0.00000 ] defaultmatrix matrix concatmatrix setmatrix
[ 1.00000 0.00000 0.00000 1.00000 0.00000 0.00000 ] defaultmatrix matrix concatmatrix setmatrix
0.00000 0.00000 0.00000 RG
0.00000 0.00000 .607843 RG
1.00000 1.00000 1.00000 RG
0.00000 0.00000 0.00000 RG
1.00000 1.00000 1.00000 RG
newpath
180.316 103.449 m
178.951 103.449 177.845 104.555 177.845 105.919  c
177.845 110.861 l
177.845 112.225 178.951 113.331 180.316 113.331  c
187.046 113.331 l
188.411 113.331 189.517 112.225 189.517 110.861  c
189.517 105.919 l
189.517 104.555 188.411 103.449 187.046 103.449  c
h
f
0.00000 0.00000 0.00000 RG
[ 1.00000 0.00000 0.00000 1.00000 177.181 100.890 ] concat
newpath
.859375 12.0000 m
.859375 4.12500 l
4.35938 4.12500 l
5.05729 4.12500 5.58854 4.19531 5.95312 4.33594  c
6.31771 4.47656 6.60938 4.72656 6.82812 5.08594  c
7.04688 5.44531 7.15625 5.84375 7.15625 6.28125  c
7.15625 6.83333 6.97656 7.30208 6.61719 7.68750  c
6.25781 8.07292 5.69792 8.31771 4.93750 8.42188  c
5.21875 8.54688 5.42708 8.67708 5.56250 8.81250  c
5.87500 9.09375 6.16667 9.44271 6.43750 9.85938  c
7.79688 12.0000 l
6.50000 12.0000 l
5.45312 10.3594 l
5.15104 9.89062 4.90104 9.53125 4.70312 9.28125  c
4.50521 9.03125 4.32812 8.85417 4.17188 8.75000  c
4.01562 8.64583 3.85938 8.57812 3.70312 8.54688  c
3.57812 8.51562 3.38021 8.50000 3.10938 8.50000  c
1.90625 8.50000 l
1.90625 12.0000 l
.859375 12.0000 l
h
1.90625 7.59375 m
4.14062 7.59375 l
4.61979 7.59375 4.99479 7.54688 5.26562 7.45312  c
5.53646 7.35938 5.73958 7.20312 5.87500 6.98438  c
6.01042 6.76562 6.07812 6.53125 6.07812 6.28125  c
6.07812 5.90625 5.94531 5.59896 5.67969 5.35938  c
5.41406 5.11979 4.98958 5.00000 4.40625 5.00000  c
1.90625 5.00000 l
1.90625 7.59375 l
h
13.4751 11.0781 m
13.4751 12.0000 l
8.27197 12.0000 l
8.27197 11.7708 8.31364 11.5469 8.39697 11.3281  c
8.52197 10.9740 8.73031 10.6250 9.02197 10.2812  c
9.31364 9.93750 9.73551 9.54167 10.2876 9.09375  c
11.1418 8.38542 11.7199 7.82812 12.0220 7.42188  c
12.3241 7.01562 12.4751 6.63021 12.4751 6.26562  c
12.4751 5.88021 12.3397 5.55469 12.0688 5.28906  c
11.7980 5.02344 11.4386 4.89062 10.9907 4.89062  c
10.5324 4.89062 10.1626 5.03125 9.88135 5.31250  c
9.60010 5.59375 9.45947 5.97917 9.45947 6.46875  c
8.45947 6.37500 l
8.53239 5.63542 8.79020 5.07031 9.23291 4.67969  c
9.67562 4.28906 10.2720 4.09375 11.0220 4.09375  c
11.7720 4.09375 12.3683 4.30208 12.8110 4.71875  c
13.2537 5.13542 13.4751 5.65625 13.4751 6.28125  c
13.4751 6.59375 13.4100 6.90365 13.2798 7.21094  c
13.1496 7.51823 12.9360 7.83854 12.6392 8.17188  c
12.3423 8.50521 11.8449 8.96875 11.1470 9.56250  c
10.5636 10.0417 10.1912 10.3698 10.0298 10.5469  c
9.86833 10.7240 9.73031 10.9010 9.61572 11.0781  c
13.4751 11.0781 l
h
f
[ 1.00000 0.00000 0.00000 1.00000 0.00000 0.00000 ] defaultmatrix matrix concatmatrix setmatrix
[ 1.00000 0.00000 0.00000 1.00000 0.00000 0.00000 ] defaultmatrix matrix concatmatrix setmatrix
[ 1.00000 0.00000 0.00000 1.00000 190.919 103.390 ] concat
0.00000 0.00000 .607843 RG
newpath
2.59375 8.00000 m
2.59375 6.62500 l
.109375 6.62500 l
.109375 5.98438 l
2.71875 2.26562 l
3.29688 2.26562 l
3.29688 5.98438 l
4.06250 5.98438 l
4.06250 6.62500 l
3.29688 6.62500 l
3.29688 8.00000 l
2.59375 8.00000 l
h
2.59375 5.98438 m
2.59375 3.40625 l
.796875 5.98438 l
2.59375 5.98438 l
h
f
[ 1.00000 0.00000 0.00000 1.00000 0.00000 0.00000 ] defaultmatrix matrix concatmatrix setmatrix
[ 1.00000 0.00000 0.00000 1.00000 0.00000 0.00000 ] defaultmatrix matrix concatmatrix setmatrix
0.00000 0.00000 0.00000 RG
0.00000 0.00000 .607843 RG
1.00000 1.00000 1.00000 RG
0.00000 0.00000 0.00000 RG
1.00000 1.00000 1.00000 RG
newpath
155.014 103.363 m
153.606 103.363 152.465 104.504 152.465 105.912  c
152.465 111.009 l
152.465 112.417 153.606 113.558 155.014 113.558  c
156.885 113.558 l
158.292 113.558 159.433 112.417 159.433 111.009  c
159.433 105.912 l
159.433 104.504 158.292 103.363 156.885 103.363  c
h
f
0.00000 0.00000 0.00000 RG
[ 1.00000 0.00000 0.00000 1.00000 152.449 100.890 ] concat
newpath
6.46875 9.23438 m
7.51562 9.50000 l
7.29688 10.3542 6.90365 11.0078 6.33594 11.4609  c
5.76823 11.9141 5.07292 12.1406 4.25000 12.1406  c
3.39583 12.1406 2.70312 11.9661 2.17188 11.6172  c
1.64062 11.2682 1.23698 10.7656 .960938 10.1094  c
.684896 9.45312 .546875 8.75000 .546875 8.00000  c
.546875 7.18750 .703125 6.47396 1.01562 5.85938  c
1.32812 5.24479 1.77344 4.77865 2.35156 4.46094  c
2.92969 4.14323 3.56771 3.98438 4.26562 3.98438  c
5.05729 3.98438 5.72135 4.18490 6.25781 4.58594  c
6.79427 4.98698 7.16667 5.55208 7.37500 6.28125  c
6.34375 6.53125 l
6.16667 5.95833 5.90365 5.54167 5.55469 5.28125  c
5.20573 5.02083 4.77083 4.89062 4.25000 4.89062  c
3.63542 4.89062 3.12500 5.03385 2.71875 5.32031  c
2.31250 5.60677 2.02865 5.99479 1.86719 6.48438  c
1.70573 6.97396 1.62500 7.47917 1.62500 8.00000  c
1.62500 8.66667 1.72135 9.25000 1.91406 9.75000  c
2.10677 10.2500 2.40885 10.6250 2.82031 10.8750  c
3.23177 11.1250 3.67708 11.2500 4.15625 11.2500  c
4.73958 11.2500 5.23438 11.0807 5.64062 10.7422  c
6.04688 10.4036 6.32292 9.90104 6.46875 9.23438  c
h
f
[ 1.00000 0.00000 0.00000 1.00000 0.00000 0.00000 ] defaultmatrix matrix concatmatrix setmatrix
[ 1.00000 0.00000 0.00000 1.00000 0.00000 0.00000 ] defaultmatrix matrix concatmatrix setmatrix
[ 1.00000 0.00000 0.00000 1.00000 147.019 103.460 ] concat
0.00000 0.00000 .607843 RG
newpath
.328125 6.50000 m
1.07812 6.43750 l
1.13021 6.79167 1.25521 7.05990 1.45312 7.24219  c
1.65104 7.42448 1.89062 7.51562 2.17188 7.51562  c
2.51562 7.51562 2.80469 7.38802 3.03906 7.13281  c
3.27344 6.87760 3.39062 6.54167 3.39062 6.12500  c
3.39062 5.71875 3.27604 5.40104 3.04688 5.17188  c
2.81771 4.94271 2.52083 4.82812 2.15625 4.82812  c
1.93750 4.82812 1.73698 4.87760 1.55469 4.97656  c
1.37240 5.07552 1.22917 5.20833 1.12500 5.37500  c
.453125 5.29688 l
1.01562 2.34375 l
3.85938 2.34375 l
3.85938 3.01562 l
1.57812 3.01562 l
1.26562 4.56250 l
1.60938 4.32292 1.96875 4.20312 2.34375 4.20312  c
2.84375 4.20312 3.26562 4.37500 3.60938 4.71875  c
3.95312 5.06250 4.12500 5.51042 4.12500 6.06250  c
4.12500 6.57292 3.97396 7.02083 3.67188 7.40625  c
3.30729 7.86458 2.80729 8.09375 2.17188 8.09375  c
1.65104 8.09375 1.22656 7.94792 .898438 7.65625  c
.570312 7.36458 .380208 6.97917 .328125 6.50000  c
h
f
[ 1.00000 0.00000 0.00000 1.00000 0.00000 0.00000 ] defaultmatrix matrix concatmatrix setmatrix
[ 1.00000 0.00000 0.00000 1.00000 0.00000 0.00000 ] defaultmatrix matrix concatmatrix setmatrix
0.00000 0.00000 0.00000 RG
0.00000 0.00000 .607843 RG
1.00000 1.00000 1.00000 RG
.200000 .200000 .600000 RG
1.00000 1.00000 1.00000 RG
newpath
341.508 103.468 m
340.149 103.468 339.047 104.570 339.047 105.929  c
339.047 110.851 l
339.047 112.210 340.149 113.312 341.508 113.312  c
342.790 113.312 l
344.149 113.312 345.250 112.210 345.250 110.851  c
345.250 105.929 l
345.250 104.570 344.149 103.468 342.790 103.468  c
h
f
.200000 .200000 .600000 RG
[ 1.00000 0.00000 0.00000 1.00000 338.649 100.890 ] concat
newpath
.843750 12.0000 m
.843750 4.12500 l
1.90625 4.12500 l
6.04688 10.3125 l
6.04688 4.12500 l
7.04688 4.12500 l
7.04688 12.0000 l
5.96875 12.0000 l
1.84375 5.81250 l
1.84375 12.0000 l
.843750 12.0000 l
h
f
[ 1.00000 0.00000 0.00000 1.00000 0.00000 0.00000 ] defaultmatrix matrix concatmatrix setmatrix
[ 1.00000 0.00000 0.00000 1.00000 0.00000 0.00000 ] defaultmatrix matrix concatmatrix setmatrix
[ 1.00000 0.00000 0.00000 1.00000 334.109 103.390 ] concat
0.00000 0.00000 .607843 RG
newpath
2.98438 8.00000 m
2.28125 8.00000 l
2.28125 3.51562 l
2.11458 3.68229 1.89323 3.84635 1.61719 4.00781  c
1.34115 4.16927 1.09375 4.28646 .875000 4.35938  c
.875000 3.68750 l
1.27083 3.50000 1.61458 3.27604 1.90625 3.01562  c
2.19792 2.75521 2.40625 2.50000 2.53125 2.25000  c
2.98438 2.25000 l
2.98438 8.00000 l
h
f
[ 1.00000 0.00000 0.00000 1.00000 0.00000 0.00000 ] defaultmatrix matrix concatmatrix setmatrix
[ 1.00000 0.00000 0.00000 1.00000 0.00000 0.00000 ] defaultmatrix matrix concatmatrix setmatrix
.200000 .200000 .600000 RG
0.00000 0.00000 .607843 RG
1.00000 1.00000 1.00000 RG
0.00000 0.00000 0.00000 RG
1.00000 1.00000 1.00000 RG
newpath
368.945 103.363 m
367.538 103.363 366.396 104.504 366.396 105.912  c
366.396 111.009 l
366.396 112.417 367.538 113.558 368.945 113.558  c
370.816 113.558 l
372.224 113.558 373.365 112.417 373.365 111.009  c
373.365 105.912 l
373.365 104.504 372.224 103.363 370.816 103.363  c
h
f
0.00000 0.00000 0.00000 RG
[ 1.00000 0.00000 0.00000 1.00000 366.381 100.890 ] concat
newpath
6.46875 9.23438 m
7.51562 9.50000 l
7.29688 10.3542 6.90365 11.0078 6.33594 11.4609  c
5.76823 11.9141 5.07292 12.1406 4.25000 12.1406  c
3.39583 12.1406 2.70312 11.9661 2.17188 11.6172  c
1.64062 11.2682 1.23698 10.7656 .960938 10.1094  c
.684896 9.45312 .546875 8.75000 .546875 8.00000  c
.546875 7.18750 .703125 6.47396 1.01562 5.85938  c
1.32812 5.24479 1.77344 4.77865 2.35156 4.46094  c
2.92969 4.14323 3.56771 3.98438 4.26562 3.98438  c
5.05729 3.98438 5.72135 4.18490 6.25781 4.58594  c
6.79427 4.98698 7.16667 5.55208 7.37500 6.28125  c
6.34375 6.53125 l
6.16667 5.95833 5.90365 5.54167 5.55469 5.28125  c
5.20573 5.02083 4.77083 4.89062 4.25000 4.89062  c
3.63542 4.89062 3.12500 5.03385 2.71875 5.32031  c
2.31250 5.60677 2.02865 5.99479 1.86719 6.48438  c
1.70573 6.97396 1.62500 7.47917 1.62500 8.00000  c
1.62500 8.66667 1.72135 9.25000 1.91406 9.75000  c
2.10677 10.2500 2.40885 10.6250 2.82031 10.8750  c
3.23177 11.1250 3.67708 11.2500 4.15625 11.2500  c
4.73958 11.2500 5.23438 11.0807 5.64062 10.7422  c
6.04688 10.4036 6.32292 9.90104 6.46875 9.23438  c
h
f
[ 1.00000 0.00000 0.00000 1.00000 0.00000 0.00000 ] defaultmatrix matrix concatmatrix setmatrix
[ 1.00000 0.00000 0.00000 1.00000 0.00000 0.00000 ] defaultmatrix matrix concatmatrix setmatrix
[ 1.00000 0.00000 0.00000 1.00000 367.881 97.3432 ] concat
0.00000 0.00000 .607843 RG
newpath
4.03125 7.32812 m
4.03125 8.00000 l
.250000 8.00000 l
.239583 7.83333 .265625 7.67188 .328125 7.51562  c
.421875 7.25521 .575521 7.00000 .789062 6.75000  c
1.00260 6.50000 1.30729 6.20833 1.70312 5.87500  c
2.32812 5.36458 2.75000 4.96094 2.96875 4.66406  c
3.18750 4.36719 3.29688 4.08854 3.29688 3.82812  c
3.29688 3.54688 3.19792 3.30990 3.00000 3.11719  c
2.80208 2.92448 2.54167 2.82812 2.21875 2.82812  c
1.88542 2.82812 1.61719 2.92969 1.41406 3.13281  c
1.21094 3.33594 1.10417 3.61979 1.09375 3.98438  c
.375000 3.90625 l
.427083 3.36458 .614583 2.95312 .937500 2.67188  c
1.26042 2.39062 1.69271 2.25000 2.23438 2.25000  c
2.78646 2.25000 3.22135 2.40104 3.53906 2.70312  c
3.85677 3.00521 4.01562 3.38542 4.01562 3.84375  c
4.01562 4.07292 3.96875 4.29688 3.87500 4.51562  c
3.78125 4.73438 3.62760 4.96615 3.41406 5.21094  c
3.20052 5.45573 2.83854 5.79167 2.32812 6.21875  c
1.91146 6.57292 1.64323 6.81250 1.52344 6.93750  c
1.40365 7.06250 1.30208 7.19271 1.21875 7.32812  c
4.03125 7.32812 l
h
f
[ 1.00000 0.00000 0.00000 1.00000 0.00000 0.00000 ] defaultmatrix matrix concatmatrix setmatrix
[ 1.00000 0.00000 0.00000 1.00000 0.00000 0.00000 ] defaultmatrix matrix concatmatrix setmatrix
0.00000 0.00000 0.00000 RG
0.00000 0.00000 .607843 RG
1.00000 1.00000 1.00000 RG
0.00000 0.00000 0.00000 RG
1.00000 1.00000 1.00000 RG
newpath
396.677 103.363 m
395.269 103.363 394.128 104.504 394.128 105.912  c
394.128 111.009 l
394.128 112.417 395.269 113.558 396.677 113.558  c
398.548 113.558 l
399.956 113.558 401.097 112.417 401.097 111.009  c
401.097 105.912 l
401.097 104.504 399.956 103.363 398.548 103.363  c
h
f
0.00000 0.00000 0.00000 RG
[ 1.00000 0.00000 0.00000 1.00000 394.113 100.890 ] concat
newpath
6.46875 9.23438 m
7.51562 9.50000 l
7.29688 10.3542 6.90365 11.0078 6.33594 11.4609  c
5.76823 11.9141 5.07292 12.1406 4.25000 12.1406  c
3.39583 12.1406 2.70312 11.9661 2.17188 11.6172  c
1.64062 11.2682 1.23698 10.7656 .960938 10.1094  c
.684896 9.45312 .546875 8.75000 .546875 8.00000  c
.546875 7.18750 .703125 6.47396 1.01562 5.85938  c
1.32812 5.24479 1.77344 4.77865 2.35156 4.46094  c
2.92969 4.14323 3.56771 3.98438 4.26562 3.98438  c
5.05729 3.98438 5.72135 4.18490 6.25781 4.58594  c
6.79427 4.98698 7.16667 5.55208 7.37500 6.28125  c
6.34375 6.53125 l
6.16667 5.95833 5.90365 5.54167 5.55469 5.28125  c
5.20573 5.02083 4.77083 4.89062 4.25000 4.89062  c
3.63542 4.89062 3.12500 5.03385 2.71875 5.32031  c
2.31250 5.60677 2.02865 5.99479 1.86719 6.48438  c
1.70573 6.97396 1.62500 7.47917 1.62500 8.00000  c
1.62500 8.66667 1.72135 9.25000 1.91406 9.75000  c
2.10677 10.2500 2.40885 10.6250 2.82031 10.8750  c
3.23177 11.1250 3.67708 11.2500 4.15625 11.2500  c
4.73958 11.2500 5.23438 11.0807 5.64062 10.7422  c
6.04688 10.4036 6.32292 9.90104 6.46875 9.23438  c
h
f
[ 1.00000 0.00000 0.00000 1.00000 0.00000 0.00000 ] defaultmatrix matrix concatmatrix setmatrix
[ 1.00000 0.00000 0.00000 1.00000 0.00000 0.00000 ] defaultmatrix matrix concatmatrix setmatrix
[ 1.00000 0.00000 0.00000 1.00000 402.543 103.460 ] concat
0.00000 0.00000 .607843 RG
newpath
.328125 6.50000 m
1.07812 6.43750 l
1.13021 6.79167 1.25521 7.05990 1.45312 7.24219  c
1.65104 7.42448 1.89062 7.51562 2.17188 7.51562  c
2.51562 7.51562 2.80469 7.38802 3.03906 7.13281  c
3.27344 6.87760 3.39062 6.54167 3.39062 6.12500  c
3.39062 5.71875 3.27604 5.40104 3.04688 5.17188  c
2.81771 4.94271 2.52083 4.82812 2.15625 4.82812  c
1.93750 4.82812 1.73698 4.87760 1.55469 4.97656  c
1.37240 5.07552 1.22917 5.20833 1.12500 5.37500  c
.453125 5.29688 l
1.01562 2.34375 l
3.85938 2.34375 l
3.85938 3.01562 l
1.57812 3.01562 l
1.26562 4.56250 l
1.60938 4.32292 1.96875 4.20312 2.34375 4.20312  c
2.84375 4.20312 3.26562 4.37500 3.60938 4.71875  c
3.95312 5.06250 4.12500 5.51042 4.12500 6.06250  c
4.12500 6.57292 3.97396 7.02083 3.67188 7.40625  c
3.30729 7.86458 2.80729 8.09375 2.17188 8.09375  c
1.65104 8.09375 1.22656 7.94792 .898438 7.65625  c
.570312 7.36458 .380208 6.97917 .328125 6.50000  c
h
f
[ 1.00000 0.00000 0.00000 1.00000 0.00000 0.00000 ] defaultmatrix matrix concatmatrix setmatrix
[ 1.00000 0.00000 0.00000 1.00000 0.00000 0.00000 ] defaultmatrix matrix concatmatrix setmatrix
0.00000 0.00000 0.00000 RG
0.00000 0.00000 .607843 RG
1.00000 1.00000 1.00000 RG
0.00000 0.00000 0.00000 RG
1.00000 1.00000 1.00000 RG
newpath
501.932 103.449 m
500.568 103.449 499.461 104.555 499.461 105.919  c
499.461 110.861 l
499.461 112.225 500.568 113.331 501.932 113.331  c
507.225 113.331 l
508.590 113.331 509.696 112.225 509.696 110.861  c
509.696 105.919 l
509.696 104.555 508.590 103.449 507.225 103.449  c
h
f
0.00000 0.00000 0.00000 RG
[ 1.00000 0.00000 0.00000 1.00000 498.079 100.890 ] concat
newpath
.859375 12.0000 m
.859375 4.12500 l
4.35938 4.12500 l
5.05729 4.12500 5.58854 4.19531 5.95312 4.33594  c
6.31771 4.47656 6.60938 4.72656 6.82812 5.08594  c
7.04688 5.44531 7.15625 5.84375 7.15625 6.28125  c
7.15625 6.83333 6.97656 7.30208 6.61719 7.68750  c
6.25781 8.07292 5.69792 8.31771 4.93750 8.42188  c
5.21875 8.54688 5.42708 8.67708 5.56250 8.81250  c
5.87500 9.09375 6.16667 9.44271 6.43750 9.85938  c
7.79688 12.0000 l
6.50000 12.0000 l
5.45312 10.3594 l
5.15104 9.89062 4.90104 9.53125 4.70312 9.28125  c
4.50521 9.03125 4.32812 8.85417 4.17188 8.75000  c
4.01562 8.64583 3.85938 8.57812 3.70312 8.54688  c
3.57812 8.51562 3.38021 8.50000 3.10938 8.50000  c
1.90625 8.50000 l
1.90625 12.0000 l
.859375 12.0000 l
h
1.90625 7.59375 m
4.14062 7.59375 l
4.61979 7.59375 4.99479 7.54688 5.26562 7.45312  c
5.53646 7.35938 5.73958 7.20312 5.87500 6.98438  c
6.01042 6.76562 6.07812 6.53125 6.07812 6.28125  c
6.07812 5.90625 5.94531 5.59896 5.67969 5.35938  c
5.41406 5.11979 4.98958 5.00000 4.40625 5.00000  c
1.90625 5.00000 l
1.90625 7.59375 l
h
12.0376 12.0000 m
11.0688 12.0000 l
11.0688 5.84375 l
10.8397 6.06250 10.5376 6.28385 10.1626 6.50781  c
9.78760 6.73177 9.44906 6.89583 9.14697 7.00000  c
9.14697 6.06250 l
9.68864 5.81250 10.1600 5.50781 10.5610 5.14844  c
10.9621 4.78906 11.2459 4.43750 11.4126 4.09375  c
12.0376 4.09375 l
12.0376 12.0000 l
h
f
[ 1.00000 0.00000 0.00000 1.00000 0.00000 0.00000 ] defaultmatrix matrix concatmatrix setmatrix
[ 1.00000 0.00000 0.00000 1.00000 0.00000 0.00000 ] defaultmatrix matrix concatmatrix setmatrix
[ 1.00000 0.00000 0.00000 1.00000 510.829 103.390 ] concat
0.00000 0.00000 .607843 RG
newpath
.343750 6.48438 m
1.04688 6.39062 l
1.11979 6.78646 1.25521 7.07292 1.45312 7.25000  c
1.65104 7.42708 1.88542 7.51562 2.15625 7.51562  c
2.48958 7.51562 2.77083 7.40104 3.00000 7.17188  c
3.22917 6.94271 3.34375 6.66146 3.34375 6.32812  c
3.34375 6.00521 3.23698 5.73698 3.02344 5.52344  c
2.80990 5.30990 2.54167 5.20312 2.21875 5.20312  c
2.08333 5.20312 1.91667 5.22917 1.71875 5.28125  c
1.79688 4.67188 l
1.84896 4.67188 1.89062 4.67188 1.92188 4.67188  c
2.21354 4.67188 2.47917 4.59375 2.71875 4.43750  c
2.95833 4.28125 3.07812 4.04167 3.07812 3.71875  c
3.07812 3.45833 2.99219 3.24479 2.82031 3.07812  c
2.64844 2.91146 2.42188 2.82812 2.14062 2.82812  c
1.86979 2.82812 1.64323 2.91406 1.46094 3.08594  c
1.27865 3.25781 1.16146 3.51562 1.10938 3.85938  c
.406250 3.73438 l
.489583 3.26562 .684896 2.90104 .992188 2.64062  c
1.29948 2.38021 1.67708 2.25000 2.12500 2.25000  c
2.43750 2.25000 2.72656 2.31771 2.99219 2.45312  c
3.25781 2.58854 3.46094 2.77083 3.60156 3.00000  c
3.74219 3.22917 3.81250 3.47396 3.81250 3.73438  c
3.81250 3.98438 3.74479 4.21094 3.60938 4.41406  c
3.47396 4.61719 3.27604 4.77604 3.01562 4.89062  c
3.35938 4.97396 3.62500 5.13802 3.81250 5.38281  c
4.00000 5.62760 4.09375 5.93750 4.09375 6.31250  c
4.09375 6.81250 3.91146 7.23698 3.54688 7.58594  c
3.18229 7.93490 2.71875 8.10938 2.15625 8.10938  c
1.65625 8.10938 1.23958 7.95833 .906250 7.65625  c
.572917 7.35417 .385417 6.96354 .343750 6.48438  c
h
f
[ 1.00000 0.00000 0.00000 1.00000 0.00000 0.00000 ] defaultmatrix matrix concatmatrix setmatrix
[ 1.00000 0.00000 0.00000 1.00000 0.00000 0.00000 ] defaultmatrix matrix concatmatrix setmatrix
0.00000 0.00000 0.00000 RG
0.00000 0.00000 .607843 RG
1.00000 1.00000 1.00000 RG
0.00000 0.00000 0.00000 RG
1.00000 1.00000 1.00000 RG
newpath
473.481 103.449 m
472.117 103.449 471.011 104.555 471.011 105.919  c
471.011 110.861 l
471.011 112.225 472.117 113.331 473.481 113.331  c
480.212 113.331 l
481.576 113.331 482.683 112.225 482.683 110.861  c
482.683 105.919 l
482.683 104.555 481.576 103.449 480.212 103.449  c
h
f
0.00000 0.00000 0.00000 RG
[ 1.00000 0.00000 0.00000 1.00000 470.347 100.890 ] concat
newpath
.859375 12.0000 m
.859375 4.12500 l
4.35938 4.12500 l
5.05729 4.12500 5.58854 4.19531 5.95312 4.33594  c
6.31771 4.47656 6.60938 4.72656 6.82812 5.08594  c
7.04688 5.44531 7.15625 5.84375 7.15625 6.28125  c
7.15625 6.83333 6.97656 7.30208 6.61719 7.68750  c
6.25781 8.07292 5.69792 8.31771 4.93750 8.42188  c
5.21875 8.54688 5.42708 8.67708 5.56250 8.81250  c
5.87500 9.09375 6.16667 9.44271 6.43750 9.85938  c
7.79688 12.0000 l
6.50000 12.0000 l
5.45312 10.3594 l
5.15104 9.89062 4.90104 9.53125 4.70312 9.28125  c
4.50521 9.03125 4.32812 8.85417 4.17188 8.75000  c
4.01562 8.64583 3.85938 8.57812 3.70312 8.54688  c
3.57812 8.51562 3.38021 8.50000 3.10938 8.50000  c
1.90625 8.50000 l
1.90625 12.0000 l
.859375 12.0000 l
h
1.90625 7.59375 m
4.14062 7.59375 l
4.61979 7.59375 4.99479 7.54688 5.26562 7.45312  c
5.53646 7.35938 5.73958 7.20312 5.87500 6.98438  c
6.01042 6.76562 6.07812 6.53125 6.07812 6.28125  c
6.07812 5.90625 5.94531 5.59896 5.67969 5.35938  c
5.41406 5.11979 4.98958 5.00000 4.40625 5.00000  c
1.90625 5.00000 l
1.90625 7.59375 l
h
13.4751 11.0781 m
13.4751 12.0000 l
8.27197 12.0000 l
8.27197 11.7708 8.31364 11.5469 8.39697 11.3281  c
8.52197 10.9740 8.73031 10.6250 9.02197 10.2812  c
9.31364 9.93750 9.73551 9.54167 10.2876 9.09375  c
11.1418 8.38542 11.7199 7.82812 12.0220 7.42188  c
12.3241 7.01562 12.4751 6.63021 12.4751 6.26562  c
12.4751 5.88021 12.3397 5.55469 12.0688 5.28906  c
11.7980 5.02344 11.4386 4.89062 10.9907 4.89062  c
10.5324 4.89062 10.1626 5.03125 9.88135 5.31250  c
9.60010 5.59375 9.45947 5.97917 9.45947 6.46875  c
8.45947 6.37500 l
8.53239 5.63542 8.79020 5.07031 9.23291 4.67969  c
9.67562 4.28906 10.2720 4.09375 11.0220 4.09375  c
11.7720 4.09375 12.3683 4.30208 12.8110 4.71875  c
13.2537 5.13542 13.4751 5.65625 13.4751 6.28125  c
13.4751 6.59375 13.4100 6.90365 13.2798 7.21094  c
13.1496 7.51823 12.9360 7.83854 12.6392 8.17188  c
12.3423 8.50521 11.8449 8.96875 11.1470 9.56250  c
10.5636 10.0417 10.1912 10.3698 10.0298 10.5469  c
9.86833 10.7240 9.73031 10.9010 9.61572 11.0781  c
13.4751 11.0781 l
h
f
[ 1.00000 0.00000 0.00000 1.00000 0.00000 0.00000 ] defaultmatrix matrix concatmatrix setmatrix
[ 1.00000 0.00000 0.00000 1.00000 0.00000 0.00000 ] defaultmatrix matrix concatmatrix setmatrix
[ 1.00000 0.00000 0.00000 1.00000 465.609 103.390 ] concat
0.00000 0.00000 .607843 RG
newpath
2.59375 8.00000 m
2.59375 6.62500 l
.109375 6.62500 l
.109375 5.98438 l
2.71875 2.26562 l
3.29688 2.26562 l
3.29688 5.98438 l
4.06250 5.98438 l
4.06250 6.62500 l
3.29688 6.62500 l
3.29688 8.00000 l
2.59375 8.00000 l
h
2.59375 5.98438 m
2.59375 3.40625 l
.796875 5.98438 l
2.59375 5.98438 l
h
f
[ 1.00000 0.00000 0.00000 1.00000 0.00000 0.00000 ] defaultmatrix matrix concatmatrix setmatrix
[ 1.00000 0.00000 0.00000 1.00000 0.00000 0.00000 ] defaultmatrix matrix concatmatrix setmatrix
0.00000 0.00000 0.00000 RG
0.00000 0.00000 .607843 RG
1.00000 1.00000 1.00000 RG
0.00000 0.00000 0.00000 RG
1.00000 1.00000 1.00000 RG
newpath
81.2248 10.0075 m
79.8441 10.0075 78.7248 11.1268 78.7248 12.5075  c
78.7248 17.5075 l
78.7248 18.8882 79.8441 20.0075 81.2248 20.0075  c
136.862 20.0075 l
138.243 20.0075 139.362 18.8882 139.362 17.5075  c
139.362 12.5075 l
139.362 11.1268 138.243 10.0075 136.862 10.0075  c
h
f
0.00000 0.00000 0.00000 RG
[ 1.00000 0.00000 0.00000 1.00000 81.5436 7.44502 ] concat
newpath
-.218750 12.0000 m
4.25000 4.12500 l
5.48438 4.12500 l
6.78125 12.0000 l
5.76562 12.0000 l
5.37500 9.73438 l
2.20312 9.73438 l
.937500 12.0000 l
-.218750 12.0000 l
h
2.64062 8.92188 m
5.25000 8.92188 l
4.95312 6.95312 l
4.82812 6.16146 4.75521 5.50521 4.73438 4.98438  c
4.54688 5.43229 4.28125 5.96875 3.93750 6.59375  c
2.64062 8.92188 l
h
7.63379 12.0000 m
9.27441 4.12500 l
10.2432 4.12500 l
8.60254 12.0000 l
7.63379 12.0000 l
h
10.1558 12.0000 m
11.8120 4.12500 l
12.7651 4.12500 l
11.7495 9.01562 l
14.5933 6.29688 l
15.8745 6.29688 l
13.4370 8.42188 l
14.9058 12.0000 l
13.8433 12.0000 l
12.7026 9.07812 l
11.5308 10.0938 l
11.1245 12.0000 l
10.1558 12.0000 l
h
19.4995 11.2969 m
19.1558 11.5781 18.8276 11.7865 18.5151 11.9219  c
18.2026 12.0573 17.8693 12.1250 17.5151 12.1250  c
16.9943 12.1250 16.5724 11.9714 16.2495 11.6641  c
15.9266 11.3568 15.7651 10.9583 15.7651 10.4688  c
15.7651 10.1562 15.8381 9.87760 15.9839 9.63281  c
16.1297 9.38802 16.3224 9.19010 16.5620 9.03906  c
16.8016 8.88802 17.0933 8.78125 17.4370 8.71875  c
17.6558 8.67708 18.0698 8.64323 18.6792 8.61719  c
19.2886 8.59115 19.7287 8.52604 19.9995 8.42188  c
20.0724 8.16146 20.1089 7.94271 20.1089 7.76562  c
20.1089 7.53646 20.0256 7.35938 19.8589 7.23438  c
19.6401 7.05729 19.3120 6.96875 18.8745 6.96875  c
18.4683 6.96875 18.1349 7.05729 17.8745 7.23438  c
17.6141 7.41146 17.4266 7.66667 17.3120 8.00000  c
16.3276 7.92188 l
16.5256 7.34896 16.8407 6.91406 17.2729 6.61719  c
17.7052 6.32031 18.2547 6.17188 18.9214 6.17188  c
19.6297 6.17188 20.1870 6.33854 20.5933 6.67188  c
20.9162 6.92188 21.0776 7.25000 21.0776 7.65625  c
21.0776 7.95833 21.0308 8.30729 20.9370 8.70312  c
20.6245 10.1250 l
20.5203 10.5729 20.4683 10.9375 20.4683 11.2188  c
20.4683 11.4062 20.5099 11.6667 20.5933 12.0000  c
19.6089 12.0000 l
19.5568 11.8125 19.5203 11.5781 19.4995 11.2969  c
h
19.8589 9.10938 m
19.7131 9.16146 19.5646 9.20312 19.4136 9.23438  c
19.2625 9.26562 19.0047 9.29688 18.6401 9.32812  c
18.0672 9.38021 17.6662 9.44271 17.4370 9.51562  c
17.2078 9.58854 17.0334 9.71094 16.9136 9.88281  c
16.7938 10.0547 16.7339 10.2396 16.7339 10.4375  c
16.7339 10.7083 16.8276 10.9323 17.0151 11.1094  c
17.2026 11.2865 17.4683 11.3750 17.8120 11.3750  c
18.1349 11.3750 18.4448 11.2891 18.7417 11.1172  c
19.0386 10.9453 19.2729 10.7083 19.4448 10.4062  c
19.6167 10.1042 19.7547 9.67188 19.8589 9.10938  c
h
21.6953 12.0000 m
23.3359 4.12500 l
24.3047 4.12500 l
22.6641 12.0000 l
21.6953 12.0000 l
h
25.5923 5.23438 m
25.8267 4.12500 l
26.7798 4.12500 l
26.5610 5.23438 l
25.5923 5.23438 l
h
24.1704 12.0000 m
25.3579 6.29688 l
26.3423 6.29688 l
25.1392 12.0000 l
24.1704 12.0000 l
h
26.7705 12.0000 m
28.4111 4.12500 l
29.7080 4.12500 l
30.5049 9.23438 l
30.6090 9.90104 30.6768 10.5417 30.7080 11.1562  c
30.9268 10.6250 31.2913 9.90625 31.8018 9.00000  c
34.5674 4.12500 l
35.8799 4.12500 l
34.2393 12.0000 l
33.1924 12.0000 l
34.0205 8.17188 l
34.2080 7.28646 34.4788 6.29167 34.8330 5.18750  c
34.6143 5.70833 34.3382 6.26042 34.0049 6.84375  c
31.0674 12.0000 l
30.0518 12.0000 l
29.2549 6.95312 l
29.1924 6.49479 29.1403 5.95312 29.0986 5.32812  c
29.0153 6.02604 28.9320 6.57812 28.8486 6.98438  c
27.8018 12.0000 l
26.7705 12.0000 l
h
40.0117 10.0625 m
40.9492 10.1562 l
40.8138 10.6250 40.5013 11.0703 40.0117 11.4922  c
39.5221 11.9141 38.9388 12.1250 38.2617 12.1250  c
37.8451 12.1250 37.4596 12.0286 37.1055 11.8359  c
36.7513 11.6432 36.4805 11.3594 36.2930 10.9844  c
36.1055 10.6094 36.0117 10.1875 36.0117 9.71875  c
36.0117 9.09375 36.1576 8.48698 36.4492 7.89844  c
36.7409 7.30990 37.1159 6.87500 37.5742 6.59375  c
38.0326 6.31250 38.5273 6.17188 39.0586 6.17188  c
39.7357 6.17188 40.2773 6.38281 40.6836 6.80469  c
41.0898 7.22656 41.2930 7.80208 41.2930 8.53125  c
41.2930 8.81250 41.2721 9.09896 41.2305 9.39062  c
37.0273 9.39062 l
37.0065 9.50521 36.9961 9.60417 36.9961 9.68750  c
36.9961 10.2188 37.1185 10.6250 37.3633 10.9062  c
37.6081 11.1875 37.9076 11.3281 38.2617 11.3281  c
38.5951 11.3281 38.9232 11.2188 39.2461 11.0000  c
39.5690 10.7812 39.8242 10.4688 40.0117 10.0625  c
h
37.1836 8.64062 m
40.3867 8.64062 l
40.3867 8.54688 40.3867 8.47917 40.3867 8.43750  c
40.3867 7.94792 40.2643 7.57292 40.0195 7.31250  c
39.7747 7.05208 39.4596 6.92188 39.0742 6.92188  c
38.6680 6.92188 38.2930 7.06510 37.9492 7.35156  c
37.6055 7.63802 37.3503 8.06771 37.1836 8.64062  c
h
44.2075 11.2031 m
44.0356 12.0000 l
43.8065 12.0625 43.5825 12.0938 43.3638 12.0938  c
42.9784 12.0938 42.6711 12.0000 42.4419 11.8125  c
42.2752 11.6667 42.1919 11.4688 42.1919 11.2188  c
42.1919 11.0938 42.2336 10.8073 42.3169 10.3594  c
43.0200 7.04688 l
42.2544 7.04688 l
42.4106 6.29688 l
43.1763 6.29688 l
43.4731 4.89062 l
44.5825 4.21875 l
44.1450 6.29688 l
45.0981 6.29688 l
44.9419 7.04688 l
43.9888 7.04688 l
43.3325 10.2031 l
43.2492 10.5990 43.2075 10.8385 43.2075 10.9219  c
43.2075 11.0365 43.2414 11.1250 43.3091 11.1875  c
43.3768 11.2500 43.4836 11.2812 43.6294 11.2812  c
43.8481 11.2812 44.0409 11.2552 44.2075 11.2031  c
h
48.8418 11.2969 m
48.4980 11.5781 48.1699 11.7865 47.8574 11.9219  c
47.5449 12.0573 47.2116 12.1250 46.8574 12.1250  c
46.3366 12.1250 45.9147 11.9714 45.5918 11.6641  c
45.2689 11.3568 45.1074 10.9583 45.1074 10.4688  c
45.1074 10.1562 45.1803 9.87760 45.3262 9.63281  c
45.4720 9.38802 45.6647 9.19010 45.9043 9.03906  c
46.1439 8.88802 46.4355 8.78125 46.7793 8.71875  c
46.9980 8.67708 47.4121 8.64323 48.0215 8.61719  c
48.6309 8.59115 49.0710 8.52604 49.3418 8.42188  c
49.4147 8.16146 49.4512 7.94271 49.4512 7.76562  c
49.4512 7.53646 49.3678 7.35938 49.2012 7.23438  c
48.9824 7.05729 48.6543 6.96875 48.2168 6.96875  c
47.8105 6.96875 47.4772 7.05729 47.2168 7.23438  c
46.9564 7.41146 46.7689 7.66667 46.6543 8.00000  c
45.6699 7.92188 l
45.8678 7.34896 46.1829 6.91406 46.6152 6.61719  c
47.0475 6.32031 47.5970 6.17188 48.2637 6.17188  c
48.9720 6.17188 49.5293 6.33854 49.9355 6.67188  c
50.2585 6.92188 50.4199 7.25000 50.4199 7.65625  c
50.4199 7.95833 50.3730 8.30729 50.2793 8.70312  c
49.9668 10.1250 l
49.8626 10.5729 49.8105 10.9375 49.8105 11.2188  c
49.8105 11.4062 49.8522 11.6667 49.9355 12.0000  c
48.9512 12.0000 l
48.8991 11.8125 48.8626 11.5781 48.8418 11.2969  c
h
49.2012 9.10938 m
49.0553 9.16146 48.9069 9.20312 48.7559 9.23438  c
48.6048 9.26562 48.3470 9.29688 47.9824 9.32812  c
47.4095 9.38021 47.0085 9.44271 46.7793 9.51562  c
46.5501 9.58854 46.3757 9.71094 46.2559 9.88281  c
46.1361 10.0547 46.0762 10.2396 46.0762 10.4375  c
46.0762 10.7083 46.1699 10.9323 46.3574 11.1094  c
46.5449 11.2865 46.8105 11.3750 47.1543 11.3750  c
47.4772 11.3750 47.7871 11.2891 48.0840 11.1172  c
48.3809 10.9453 48.6152 10.7083 48.7871 10.4062  c
48.9590 10.1042 49.0970 9.67188 49.2012 9.10938  c
h
51.0376 12.0000 m
52.6782 4.12500 l
53.6470 4.12500 l
52.0063 12.0000 l
51.0376 12.0000 l
h
f
[ 1.00000 0.00000 0.00000 1.00000 0.00000 0.00000 ] defaultmatrix matrix concatmatrix setmatrix
[ 1.00000 0.00000 0.00000 1.00000 0.00000 0.00000 ] defaultmatrix matrix concatmatrix setmatrix
1.00000 1.00000 1.00000 RG
0.00000 0.00000 0.00000 RG
1.00000 1.00000 1.00000 RG
newpath
73.2065 35.0106 m
71.4536 35.0106 70.0326 36.4316 70.0326 38.1844  c
70.0326 44.5321 l
70.0326 46.2849 71.4536 47.7059 73.2065 47.7059  c
111.237 47.7059 l
112.990 47.7059 114.411 46.2849 114.411 44.5321  c
114.411 38.1844 l
114.411 36.4316 112.990 35.0106 111.237 35.0106  c
h
f
0.00000 0.00000 0.00000 RG
[ 1.00000 0.00000 0.00000 1.00000 71.7217 32.7176 ] concat
newpath
.468750 12.0000 m
2.10938 4.12500 l
3.15625 4.12500 l
2.46875 7.39062 l
6.56250 7.39062 l
7.23438 4.12500 l
8.29688 4.12500 l
6.65625 12.0000 l
5.59375 12.0000 l
6.37500 8.28125 l
2.29688 8.28125 l
1.51562 12.0000 l
.468750 12.0000 l
h
12.1626 11.2969 m
11.8188 11.5781 11.4907 11.7865 11.1782 11.9219  c
10.8657 12.0573 10.5324 12.1250 10.1782 12.1250  c
9.65739 12.1250 9.23551 11.9714 8.91260 11.6641  c
8.58968 11.3568 8.42822 10.9583 8.42822 10.4688  c
8.42822 10.1562 8.50114 9.87760 8.64697 9.63281  c
8.79281 9.38802 8.98551 9.19010 9.22510 9.03906  c
9.46468 8.88802 9.75635 8.78125 10.1001 8.71875  c
10.3188 8.67708 10.7329 8.64323 11.3423 8.61719  c
11.9517 8.59115 12.3918 8.52604 12.6626 8.42188  c
12.7355 8.16146 12.7720 7.94271 12.7720 7.76562  c
12.7720 7.53646 12.6886 7.35938 12.5220 7.23438  c
12.3032 7.05729 11.9751 6.96875 11.5376 6.96875  c
11.1313 6.96875 10.7980 7.05729 10.5376 7.23438  c
10.2772 7.41146 10.0897 7.66667 9.97510 8.00000  c
8.99072 7.92188 l
9.18864 7.34896 9.50374 6.91406 9.93604 6.61719  c
10.3683 6.32031 10.9178 6.17188 11.5845 6.17188  c
12.2928 6.17188 12.8501 6.33854 13.2563 6.67188  c
13.5793 6.92188 13.7407 7.25000 13.7407 7.65625  c
13.7407 7.95833 13.6938 8.30729 13.6001 8.70312  c
13.2876 10.1250 l
13.1834 10.5729 13.1313 10.9375 13.1313 11.2188  c
13.1313 11.4062 13.1730 11.6667 13.2563 12.0000  c
12.2720 12.0000 l
12.2199 11.8125 12.1834 11.5781 12.1626 11.2969  c
h
12.5220 9.10938 m
12.3761 9.16146 12.2277 9.20312 12.0767 9.23438  c
11.9256 9.26562 11.6678 9.29688 11.3032 9.32812  c
10.7303 9.38021 10.3293 9.44271 10.1001 9.51562  c
9.87093 9.58854 9.69645 9.71094 9.57666 9.88281  c
9.45687 10.0547 9.39697 10.2396 9.39697 10.4375  c
9.39697 10.7083 9.49072 10.9323 9.67822 11.1094  c
9.86572 11.2865 10.1313 11.3750 10.4751 11.3750  c
10.7980 11.3750 11.1079 11.2891 11.4048 11.1172  c
11.7017 10.9453 11.9360 10.7083 12.1079 10.4062  c
12.2798 10.1042 12.4178 9.67188 12.5220 9.10938  c
h
14.3584 12.0000 m
15.9990 4.12500 l
16.9678 4.12500 l
15.3271 12.0000 l
14.3584 12.0000 l
h
17.0366 9.82812 m
17.0366 8.72396 17.3647 7.80208 18.0210 7.06250  c
18.5627 6.46875 19.2710 6.17188 20.1460 6.17188  c
20.8335 6.17188 21.3882 6.38542 21.8101 6.81250  c
22.2319 7.23958 22.4429 7.81771 22.4429 8.54688  c
22.4429 9.20312 22.3101 9.81250 22.0444 10.3750  c
21.7788 10.9375 21.4012 11.3698 20.9116 11.6719  c
20.4220 11.9740 19.9116 12.1250 19.3804 12.1250  c
18.9325 12.1250 18.5262 12.0312 18.1616 11.8438  c
17.7970 11.6562 17.5184 11.3880 17.3257 11.0391  c
17.1330 10.6901 17.0366 10.2865 17.0366 9.82812  c
h
18.0210 9.73438 m
18.0210 10.2760 18.1486 10.6849 18.4038 10.9609  c
18.6590 11.2370 18.9845 11.3750 19.3804 11.3750  c
19.5887 11.3750 19.7944 11.3333 19.9976 11.2500  c
20.2007 11.1667 20.3908 11.0391 20.5679 10.8672  c
20.7450 10.6953 20.8960 10.5000 21.0210 10.2812  c
21.1460 10.0625 21.2450 9.82292 21.3179 9.56250  c
21.4325 9.20833 21.4897 8.86979 21.4897 8.54688  c
21.4897 8.02604 21.3595 7.62500 21.0991 7.34375  c
20.8387 7.06250 20.5106 6.92188 20.1147 6.92188  c
19.8127 6.92188 19.5366 6.99479 19.2866 7.14062  c
19.0366 7.28646 18.8101 7.49740 18.6069 7.77344  c
18.4038 8.04948 18.2554 8.37240 18.1616 8.74219  c
18.0679 9.11198 18.0210 9.44271 18.0210 9.73438  c
h
22.9355 12.5156 m
23.9199 12.6094 l
23.9095 12.8281 23.9355 12.9922 23.9980 13.1016  c
24.0605 13.2109 24.1595 13.2969 24.2949 13.3594  c
24.4616 13.4427 24.6855 13.4844 24.9668 13.4844  c
25.5605 13.4844 25.9824 13.3333 26.2324 13.0312  c
26.4095 12.8229 26.5658 12.3750 26.7012 11.6875  c
26.7949 11.2344 l
26.2949 11.7448 25.7585 12.0000 25.1855 12.0000  c
24.6126 12.0000 24.1309 11.7891 23.7402 11.3672  c
23.3496 10.9453 23.1543 10.3438 23.1543 9.56250  c
23.1543 8.91667 23.3079 8.32552 23.6152 7.78906  c
23.9225 7.25260 24.2871 6.84896 24.7090 6.57812  c
25.1309 6.30729 25.5658 6.17188 26.0137 6.17188  c
26.7637 6.17188 27.3418 6.52604 27.7480 7.23438  c
27.9355 6.29688 l
28.8262 6.29688 l
27.6855 11.7969 l
27.5605 12.4010 27.3965 12.8724 27.1934 13.2109  c
26.9902 13.5495 26.7064 13.8125 26.3418 14.0000  c
25.9772 14.1875 25.5553 14.2812 25.0762 14.2812  c
24.6178 14.2812 24.2246 14.2214 23.8965 14.1016  c
23.5684 13.9818 23.3210 13.8099 23.1543 13.5859  c
22.9876 13.3620 22.9043 13.1042 22.9043 12.8125  c
22.9043 12.7188 22.9147 12.6198 22.9355 12.5156  c
h
24.1543 9.46875 m
24.1543 9.86458 24.1908 10.1615 24.2637 10.3594  c
24.3678 10.6302 24.5189 10.8385 24.7168 10.9844  c
24.9147 11.1302 25.1387 11.2031 25.3887 11.2031  c
25.7012 11.2031 26.0163 11.0911 26.3340 10.8672  c
26.6517 10.6432 26.9069 10.2969 27.0996 9.82812  c
27.2923 9.35938 27.3887 8.91146 27.3887 8.48438  c
27.3887 8.01562 27.2585 7.64323 26.9980 7.36719  c
26.7376 7.09115 26.4199 6.95312 26.0449 6.95312  c
25.8053 6.95312 25.5736 7.01562 25.3496 7.14062  c
25.1257 7.26562 24.9199 7.45833 24.7324 7.71875  c
24.5449 7.97917 24.4017 8.29167 24.3027 8.65625  c
24.2038 9.02083 24.1543 9.29167 24.1543 9.46875  c
h
33.3032 10.0625 m
34.2407 10.1562 l
34.1053 10.6250 33.7928 11.0703 33.3032 11.4922  c
32.8136 11.9141 32.2303 12.1250 31.5532 12.1250  c
31.1366 12.1250 30.7511 12.0286 30.3970 11.8359  c
30.0428 11.6432 29.7720 11.3594 29.5845 10.9844  c
29.3970 10.6094 29.3032 10.1875 29.3032 9.71875  c
29.3032 9.09375 29.4491 8.48698 29.7407 7.89844  c
30.0324 7.30990 30.4074 6.87500 30.8657 6.59375  c
31.3241 6.31250 31.8188 6.17188 32.3501 6.17188  c
33.0272 6.17188 33.5688 6.38281 33.9751 6.80469  c
34.3813 7.22656 34.5845 7.80208 34.5845 8.53125  c
34.5845 8.81250 34.5636 9.09896 34.5220 9.39062  c
30.3188 9.39062 l
30.2980 9.50521 30.2876 9.60417 30.2876 9.68750  c
30.2876 10.2188 30.4100 10.6250 30.6548 10.9062  c
30.8996 11.1875 31.1991 11.3281 31.5532 11.3281  c
31.8866 11.3281 32.2147 11.2188 32.5376 11.0000  c
32.8605 10.7812 33.1157 10.4688 33.3032 10.0625  c
h
30.4751 8.64062 m
33.6782 8.64062 l
33.6782 8.54688 33.6782 8.47917 33.6782 8.43750  c
33.6782 7.94792 33.5558 7.57292 33.3110 7.31250  c
33.0662 7.05208 32.7511 6.92188 32.3657 6.92188  c
31.9595 6.92188 31.5845 7.06510 31.2407 7.35156  c
30.8970 7.63802 30.6418 8.06771 30.4751 8.64062  c
h
35.2178 12.0000 m
36.4209 6.29688 l
37.2959 6.29688 l
37.0928 7.29688 l
37.4678 6.90104 37.8219 6.61458 38.1553 6.43750  c
38.4886 6.26042 38.8324 6.17188 39.1865 6.17188  c
39.6449 6.17188 40.0068 6.29688 40.2725 6.54688  c
40.5381 6.79688 40.6709 7.13021 40.6709 7.54688  c
40.6709 7.75521 40.6240 8.08854 40.5303 8.54688  c
39.7959 12.0000 l
38.8271 12.0000 l
39.5928 8.39062 l
39.6657 8.03646 39.7021 7.77604 39.7021 7.60938  c
39.7021 7.42188 39.6370 7.26823 39.5068 7.14844  c
39.3766 7.02865 39.1865 6.96875 38.9365 6.96875  c
38.4365 6.96875 37.9938 7.14844 37.6084 7.50781  c
37.2230 7.86719 36.9365 8.47917 36.7490 9.34375  c
36.2021 12.0000 l
35.2178 12.0000 l
h
f
[ 1.00000 0.00000 0.00000 1.00000 0.00000 0.00000 ] defaultmatrix matrix concatmatrix setmatrix
[ 1.00000 0.00000 0.00000 1.00000 0.00000 0.00000 ] defaultmatrix matrix concatmatrix setmatrix
newpath
29.8125 17.0000 m
29.8125 9.12500 l
33.1562 9.12500 l
34.0000 9.12500 34.6120 9.19531 34.9922 9.33594  c
35.3724 9.47656 35.6771 9.72917 35.9062 10.0938  c
36.1354 10.4583 36.2500 10.8698 36.2500 11.3281  c
36.2500 11.9219 36.0755 12.4115 35.7266 12.7969  c
35.3776 13.1823 34.8594 13.4271 34.1719 13.5312  c
34.5156 13.7292 34.7995 13.9479 35.0234 14.1875  c
35.2474 14.4271 35.5469 14.8542 35.9219 15.4688  c
36.8906 17.0000 l
34.9844 17.0000 l
33.8281 15.2812 l
33.4219 14.6771 33.1432 14.2943 32.9922 14.1328  c
32.8411 13.9714 32.6823 13.8620 32.5156 13.8047  c
32.3490 13.7474 32.0833 13.7188 31.7188 13.7188  c
31.3906 13.7188 l
31.3906 17.0000 l
29.8125 17.0000 l
h
31.3906 12.4531 m
32.5781 12.4531 l
33.3385 12.4531 33.8125 12.4219 34.0000 12.3594  c
34.1875 12.2969 34.3359 12.1875 34.4453 12.0312  c
34.5547 11.8750 34.6094 11.6771 34.6094 11.4375  c
34.6094 11.1667 34.5391 10.9505 34.3984 10.7891  c
34.2578 10.6276 34.0573 10.5260 33.7969 10.4844  c
33.6719 10.4635 33.2865 10.4531 32.6406 10.4531  c
31.3906 10.4531 l
31.3906 12.4531 l
h
41.2720 17.0000 m
39.7563 17.0000 l
39.7563 11.3125 l
39.2147 11.8229 38.5688 12.2031 37.8188 12.4531  c
37.8188 11.0938 l
38.2147 10.9583 38.6418 10.7109 39.1001 10.3516  c
39.5584 9.99219 39.8761 9.57292 40.0532 9.09375  c
41.2720 9.09375 l
41.2720 17.0000 l
h
46.5708 12.6094 m
46.5708 11.2344 l
52.0864 11.2344 l
52.0864 12.6094 l
46.5708 12.6094 l
h
46.5708 15.0000 m
46.5708 13.6094 l
52.0864 13.6094 l
52.0864 15.0000 l
46.5708 15.0000 l
h
f
newpath
21.8125 43.0000 m
21.8125 35.1250 l
25.1562 35.1250 l
26.0000 35.1250 26.6120 35.1953 26.9922 35.3359  c
27.3724 35.4766 27.6771 35.7292 27.9062 36.0938  c
28.1354 36.4583 28.2500 36.8698 28.2500 37.3281  c
28.2500 37.9219 28.0755 38.4115 27.7266 38.7969  c
27.3776 39.1823 26.8594 39.4271 26.1719 39.5312  c
26.5156 39.7292 26.7995 39.9479 27.0234 40.1875  c
27.2474 40.4271 27.5469 40.8542 27.9219 41.4688  c
28.8906 43.0000 l
26.9844 43.0000 l
25.8281 41.2812 l
25.4219 40.6771 25.1432 40.2943 24.9922 40.1328  c
24.8411 39.9714 24.6823 39.8620 24.5156 39.8047  c
24.3490 39.7474 24.0833 39.7188 23.7188 39.7188  c
23.3906 39.7188 l
23.3906 43.0000 l
21.8125 43.0000 l
h
23.3906 38.4531 m
24.5781 38.4531 l
25.3385 38.4531 25.8125 38.4219 26.0000 38.3594  c
26.1875 38.2969 26.3359 38.1875 26.4453 38.0312  c
26.5547 37.8750 26.6094 37.6771 26.6094 37.4375  c
26.6094 37.1667 26.5391 36.9505 26.3984 36.7891  c
26.2578 36.6276 26.0573 36.5260 25.7969 36.4844  c
25.6719 36.4635 25.2865 36.4531 24.6406 36.4531  c
23.3906 36.4531 l
23.3906 38.4531 l
h
34.5063 41.5938 m
34.5063 43.0000 l
29.2251 43.0000 l
29.2772 42.4688 29.4465 41.9661 29.7329 41.4922  c
30.0194 41.0182 30.5845 40.3906 31.4282 39.6094  c
32.1053 38.9740 32.5220 38.5417 32.6782 38.3125  c
32.8866 38.0000 32.9907 37.6927 32.9907 37.3906  c
32.9907 37.0573 32.8996 36.7995 32.7173 36.6172  c
32.5350 36.4349 32.2876 36.3438 31.9751 36.3438  c
31.6626 36.3438 31.4126 36.4401 31.2251 36.6328  c
31.0376 36.8255 30.9282 37.1406 30.8970 37.5781  c
29.3970 37.4219 l
29.4803 36.5885 29.7590 35.9922 30.2329 35.6328  c
30.7069 35.2734 31.2980 35.0938 32.0063 35.0938  c
32.7876 35.0938 33.3996 35.3021 33.8423 35.7188  c
34.2850 36.1354 34.5063 36.6562 34.5063 37.2812  c
34.5063 37.6354 34.4438 37.9740 34.3188 38.2969  c
34.1938 38.6198 33.9907 38.9531 33.7095 39.2969  c
33.5324 39.5365 33.2043 39.8750 32.7251 40.3125  c
32.2459 40.7500 31.9438 41.0391 31.8188 41.1797  c
31.6938 41.3203 31.5897 41.4583 31.5063 41.5938  c
34.5063 41.5938 l
h
38.5708 38.6094 m
38.5708 37.2344 l
44.0864 37.2344 l
44.0864 38.6094 l
38.5708 38.6094 l
h
38.5708 41.0000 m
38.5708 39.6094 l
44.0864 39.6094 l
44.0864 41.0000 l
38.5708 41.0000 l
h
f
newpath
55.4995 6.89967 m
55.3807 6.89967 55.2607 6.93487 55.1559 7.00819  c
54.8842 7.19828 54.8181 7.57245 55.0082 7.84412  c
55.5673 8.64286 l
54.2082 10.5844 l
54.0638 10.7908 54.0638 11.0663 54.2082 11.2727  c
55.5673 13.2143 l
54.2082 15.1559 l
54.0638 15.3623 54.0638 15.6377 54.2082 15.8441  c
55.5673 17.7857 l
54.2082 19.7273 l
54.0638 19.9337 54.0638 20.2092 54.2082 20.4156  c
55.5673 22.3571 l
55.0082 23.1559 l
54.8181 23.4276 54.8842 23.8017 55.1559 23.9918  c
55.2607 24.0651 55.3807 24.1003 55.4995 24.1003  c
55.6888 24.1003 55.8750 24.0110 55.9918 23.8441  c
56.7918 22.7013 l
56.9362 22.4949 56.9362 22.2194 56.7918 22.0130  c
55.4327 20.0714 l
56.7918 18.1298 l
56.9362 17.9235 56.9362 17.6480 56.7918 17.4416  c
55.4327 15.5000 l
56.7918 13.5584 l
56.9362 13.3520 56.9362 13.0765 56.7918 12.8702  c
55.4327 10.9286 l
56.7918 8.98698 l
56.9362 8.78061 56.9362 8.50511 56.7918 8.29874  c
55.9918 7.15588 l
55.8750 6.98898 55.6888 6.89967 55.4995 6.89967  c
h
f
1.00000 w
2 J
0 j
10.0000 M
[ ] 0.00000 d
newpath
47.4995 31.8997 m
47.3807 31.8997 47.2607 31.9349 47.1559 32.0082  c
46.8842 32.1983 46.8181 32.5724 47.0082 32.8441  c
47.6173 33.7143 l
46.1582 35.7987 l
46.0138 36.0051 46.0138 36.2806 46.1582 36.4870  c
47.6173 38.5714 l
46.1582 40.6559 l
46.0138 40.8623 46.0138 41.1377 46.1582 41.3441  c
47.6173 43.4286 l
46.1582 45.5130 l
46.0138 45.7194 46.0138 45.9949 46.1582 46.2013  c
47.6173 48.2857 l
47.0082 49.1559 l
46.8181 49.4276 46.8842 49.8017 47.1559 49.9918  c
47.2607 50.0651 47.3807 50.1003 47.4995 50.1003  c
47.6888 50.1003 47.8750 50.0110 47.9918 49.8441  c
48.8418 48.6298 l
48.9862 48.4235 48.9862 48.1480 48.8418 47.9416  c
47.3827 45.8571 l
47.3827 45.8571 l
48.8418 43.7727 l
48.9862 43.5663 48.9862 43.2908 48.8418 43.0844  c
47.3827 41.0000 l
48.8418 38.9156 l
48.9862 38.7092 48.9862 38.4337 48.8418 38.2273  c
47.3827 36.1429 l
48.8418 34.0584 l
48.9862 33.8520 48.9862 33.5765 48.8418 33.3702  c
47.9918 32.1559 l
47.8750 31.9890 47.6888 31.8997 47.4995 31.8997  c
h
f
1.00000 w
2 J
0 j
10.0000 M
[ ] 0.00000 d
q
cliprestore
newpath
0.00000 0.00000 m
0.00000 124.000 l
525.000 124.000 l
525.000 0.00000 l
h
W
cliprestore
newpath
0.00000 0.00000 m
0.00000 124.000 l
525.000 124.000 l
525.000 0.00000 l
h
W
Q
cliprestore
111.000 96.0000 13.0000 26.0000 rc
[ .990425 0.00000 0.00000 .990425 1.06888 .928818 ] defaultmatrix matrix concatmatrix setmatrix
[ 1.00000 0.00000 0.00000 1.00000 0.00000 0.00000 ] defaultmatrix matrix concatmatrix setmatrix
cliprestore
newpath
0.00000 0.00000 m
0.00000 124.000 l
525.000 124.000 l
525.000 0.00000 l
h
W
cliprestore
111.000 96.0000 13.0000 26.0000 rc
[ .990425 0.00000 0.00000 .990425 1.06888 .928818 ] defaultmatrix matrix concatmatrix setmatrix
newpath
115.997 114.141 m
115.997 110.797 l
112.622 110.797 l
112.622 108.485 l
115.997 108.485 l
115.997 105.141 l
118.247 105.141 l
118.247 108.485 l
121.622 108.485 l
121.622 110.797 l
118.247 110.797 l
118.247 114.141 l
115.997 114.141 l
h
f
[ 1.00000 0.00000 0.00000 1.00000 0.00000 0.00000 ] defaultmatrix matrix concatmatrix setmatrix
cliprestore
newpath
0.00000 0.00000 m
0.00000 124.000 l
525.000 124.000 l
525.000 0.00000 l
h
W
cliprestore
434.000 96.0000 13.0000 26.0000 rc
[ .990425 0.00000 0.00000 .990425 4.16058 .928818 ] defaultmatrix matrix concatmatrix setmatrix
[ 1.00000 0.00000 0.00000 1.00000 0.00000 0.00000 ] defaultmatrix matrix concatmatrix setmatrix
cliprestore
newpath
0.00000 0.00000 m
0.00000 124.000 l
525.000 124.000 l
525.000 0.00000 l
h
W
cliprestore
434.000 96.0000 13.0000 26.0000 rc
[ .990425 0.00000 0.00000 .990425 4.16058 .928818 ] defaultmatrix matrix concatmatrix setmatrix
newpath
438.875 114.141 m
438.875 110.797 l
435.500 110.797 l
435.500 108.485 l
438.875 108.485 l
438.875 105.141 l
441.125 105.141 l
441.125 108.485 l
444.500 108.485 l
444.500 110.797 l
441.125 110.797 l
441.125 114.141 l
438.875 114.141 l
h
f
[ 1.00000 0.00000 0.00000 1.00000 0.00000 0.00000 ] defaultmatrix matrix concatmatrix setmatrix
cliprestore
newpath
0.00000 0.00000 m
0.00000 124.000 l
525.000 124.000 l
525.000 0.00000 l
h
W
q
newpath
293.528 107.827 m
223.298 107.827 l
223.298 108.953 l
293.528 108.953 l
293.528 111.654 l
302.532 108.390 l
293.528 105.126 l
h
f
Q

%%Trailer
%%EOF
