%!PS-Adobe-3.0 EPSF-3.0
%%BoundingBox: 20 336 575 455
%%Creator: FreeHEP Graphics2D Driver
%%Producer: org.freehep.graphicsio.ps.EPSGraphics2D
%%For: 
%%Title: 
%%LanguageLevel: 3
%%EndComments
%%BeginProlog
100 dict dup begin

%
% File: org/freehep/graphicsio.ps/PSProlog.txt
% Author: Charles Loomis
%

% Redefinitions which save some space in the output file.  These are also
% the same as the PDF operators.
/q {gsave} def
/Q {grestore} def

/n {newpath} def
/m {moveto} def
/l {lineto} def
/c {curveto} def
/h {closepath} def

/re {4 -2 roll moveto
     dup 0 exch rlineto exch 0 rlineto
     neg 0 exch rlineto closepath} def

/f {fill} def
/f* {eofill} def
/F {gsave vg&FC fill grestore} def
/F* {gsave vg&FC eofill grestore} def

/s {closepath stroke} def
/S {stroke} def

/b {closepath gsave vg&FC fill grestore
    gsave stroke grestore newpath} def
/B {gsave vg&FC fill grestore gsave stroke grestore newpath} def
/b* {closepath gsave vg&FC eofill grestore
    gsave stroke grestore newpath} def
/B* {gsave vg&FC eofill grestore gsave stroke grestore newpath} def

/g {1 array astore /vg&fcolor exch def} def
/G {setgray} def
/k {4 array astore /vg&fcolor exch def} def
/K {setcmykcolor} def
/rg {3 array astore /vg&fcolor exch def} def
/RG {setrgbcolor} def

% Initialize the fill color.
0 0 0 rg

/vg&FC {mark vg&fcolor aload pop
        counttomark 1 eq {G} if
        counttomark 3 eq {RG} if
        counttomark 4 eq {K} if
        cleartomark } def

/vg&DFC {/vg&fcolor exch def} def

/vg&C {mark exch aload pop
       counttomark 1 eq {G} if
       counttomark 3 eq {RG} if
       counttomark 4 eq {K} if
       cleartomark } def

/w {setlinewidth} def
/j {setlinejoin} def
/J {setlinecap} def
/M {setmiterlimit} def
/d {setdash} def
/i {setflat} def

/W {clip} def
/W* {eoclip} def

% Setup the default graphics state.
% (black; 1 pt. linewidth; miter join; butt-ends; solid)
/defaultGraphicsState {0 g 1 w 0 j 0 J [] 0 d} def

% Emulation of the rectangle operators for PostScript implementations
% which do not implement all Level 2 features.  This is an INCOMPLETE
% emulation; only the "x y width height rect..." form is emulated.
/*rf {gsave newpath re fill grestore} def
/*rs {gsave newpath re stroke grestore} def
/*rc {newpath re clip} def
/rf  /rectfill where {pop /rectfill}{/*rf} ifelse load def
/rs  /rectstroke where {pop /rectstroke}{/*rs} ifelse load def
/rc  /rectclip where {pop /rectclip}{/*rc} ifelse load def

% Emulation of the selectfont operator.  This includes a 20% increase in
% the fontsize which is necessary to get sizes similar to the Java fonts.
/*sf {exch findfont exch
      dup type /arraytype eq {makefont}{scalefont} ifelse setfont} bind def
/sf /selectfont where {pop {1.2 mul selectfont}}{{1.2 mul *sf}} ifelse def

% Special version of stroke which allows the dash pattern to continue
% across path segments.  (This may be needed for PostScript although
% modern printers seem to do this correctly.)
/vg&stroke {
  currentdash pop length 0 eq
  {stroke}
  {
    currentdash /vg&doffset exch def pop
    flattenpath
    {m vg&resetdash}
    {2 copy
     currentpoint
     3 -1 roll sub dup mul
     3 1 roll sub dup mul
     add sqrt
     3 1 roll l
     currentdash 3 -1 roll add setdash}
     {}
     {h vg&resetdash}
     pathforall
     stroke
     vg&resetdash
  } ifelse
} def
/vg&resetdash {currentdash pop vg&doffset setdash} def

% Initialize variables for safety.
/delta 0 def
/xv 0 def  /yv 0 def  /width 0 def  /height 0 def

% Initialize to portrait INTERNATIONAL (Letter-height, A4-width) page.
/pw 595 def  /ph 791  def  /po true def /ftp false def

% Initialize margins to 20 points.
/ml 20 def  /mr 20 def  /mt 20 def  /mb 20 def

% Temporary matrices.
/smatrix 0 def  /nmatrix 0 def

% set page size (usage: <page width><page height> setpagesize)
/setpagesize {/ph exch def /pw exch def} def

% set page orientation (usage: portrait or landscape)
/portrait {/po true def} def
/landscape {/po false def} def

% force natural size for image (usage: naturalsize)
/naturalsize {/ftp false def} def

% resize image to fill page (usage: fittopage)
/fittopage {/ftp true def} def

% set margins of the page (usage: <left><bottom><top><right> setmargins)
/setmargins {/mr exch def /mt exch def /mb exch def /ml exch def} def

% set the graphic's size (usage: <width><height> setsize)
/setsize {/gh exch def /gw exch def} def

% set the graphic's origin (usage: <x0><y0> setorigin)
/setorigin {/gy exch def /gx exch def} def

% calculate image center
/imagecenter {pw ml sub mr sub 2 div ml add
              ph mt sub mb sub 2 div mb add} def

% calculate the necessary scaling
/imagescale {po {gw}{gh} ifelse pw ml sub mr sub div
             po {gh}{gw} ifelse ph mt sub mb sub div
             2 copy lt {exch} if pop
             ftp not {1 2 copy lt {exch} if pop} if
             1 exch div /sfactor exch def
             /gw gw sfactor mul def /gh gh sfactor mul def} def

% calculate image origin
/imageorigin {pw ml sub mr sub 2 div ml add
              po {gw}{gh} ifelse 2 div sub
              ph mt sub mb sub 2 div mb add
              po {gh}{gw} ifelse 2 div po {add}{sub} ifelse} def

% calculate the clipping origin
/cliporigin  {pw ml sub mr sub 2 div ml add
              po {gw}{gh} ifelse 2 div sub floor
              ph mt sub mb sub 2 div mb add
              po {gh}{gw} ifelse 2 div sub floor} def

% Set the clipping region to the bounding box.
/cliptobounds {cliporigin po {gw}{gh} ifelse 1 add
                          po {gh}{gw} ifelse 1 add rc} def

% set the base transformation matrix (usage: setbasematrix)
/setbasematrix {imageorigin translate
                po {0}{90} ifelse rotate
                sfactor sfactor neg scale
                /defaultmatrix matrix currentmatrix def} def

% The lower-right bias in drawing 1 pt. wide lines.
/bias  {q 0.5 0.5 translate} def
/unbias {Q} def

% Define the composite fonts used to print Unicode strings.
% Undefine particular values in an encoding array.
/vg&undef { {exch dup 3 -1 roll /.notdef put} forall } def
/vg&redef { {3 -1 roll dup 4 2 roll put} forall } def

% usage: key encoding basefontname vg&newbasefont font
/vg&newbasefont {
findfont dup length dict copy
  begin
    currentdict /FID undef
    /Encoding exch def
    dup /FontName exch def
    currentdict
  end
definefont
} def

% usage: key encoding basefontname vg&newskewedbasefont font
/vg&newskewedbasefont {
findfont dup length dict copy
  begin
    currentdict /FID undef
    /Encoding exch def
    dup /FontName exch def
    exch FontMatrix exch matrix concatmatrix /FontMatrix exch def
    currentdict
  end
definefont
} def

% usage: basekey suffix vg&nconcat name
/vg&nconcat {
  2 {dup length string cvs exch} repeat
  dup length 3 -1 roll dup length 3 -1 roll add string
  dup 0 4 -1 roll dup length 5 1 roll putinterval
  dup 4 -2 roll exch putinterval cvn
} def

%usage: fontname vg&skewmatrix matrix
/vg&skewmatrix {
findfont dup /FontInfo known
  {
    /FontInfo get dup /ItalicAngle known
    {
      [ 1 0 4 -1 roll /ItalicAngle get neg dup sin exch cos div 1 0 0 ]
    }
    {pop matrix} ifelse
  }
  {pop matrix} ifelse
} def

% usage: newfontname basefontname vg&newcompositefont --
/vg&newcompositefont {
/vg&fstyle exch def
/vg&bfont exch def
/vg&fname exch def
<<
/FontStyleBits vg&fstyle
/FontType 0
/FontMatrix matrix
/FontName vg&fname
/FMapType 2
/Encoding [ 0 1 255 {pop 6} for ]
          dup 16#00 0 put % Latin
          dup 16#03 1 put % Greek
          dup 16#20 2 put % Punctuation
          dup 16#21 3 put % Arrows
          dup 16#22 4 put % MathOps
          dup 16#27 5 put % Dingbats

/FDepVector [
vg&bfont /-UC-Latin vg&nconcat UCLatinEncoding
vg&bfont vg&newbasefont

vg&bfont vg&skewmatrix
vg&bfont /-UC-Greek vg&nconcat UCGreekEncoding
/Symbol vg&newskewedbasefont

vg&bfont /-UC-Punctuation vg&nconcat UCPunctuationEncoding
vg&bfont vg&newbasefont

/Arrows-UC findfont
/MathOps-UC findfont
/Dingbats-UC findfont
/Undefined-UC findfont ]
>>
vg&fname exch definefont pop
} def

% Null encoding vector (all elements set to .notdef)
/NullEncoding [ 256 {/.notdef} repeat ] def

% Unicode Latin encoding (unicode codes \u0000-\u00ff)
/UCLatinEncoding
  ISOLatin1Encoding dup length array copy
  dup 16#60 /grave put
  [ 16#90 16#91 16#92 16#93 16#94 16#95 16#96
    16#97 16#98 16#9a 16#9b 16#9d 16#9e 16#9f
  ] vg&undef
  def

% Unicode Greek encoding (unicode codes \u0370-\u03ff)
/UCGreekEncoding
  NullEncoding dup length array copy
  << 16#91 /Alpha    16#92 /Beta      16#93 /Gamma    16#94 /Delta
     16#95 /Epsilon  16#96 /Zeta      16#97 /Eta      16#98 /Theta
     16#99 /Iota     16#9a /Kappa     16#9b /Lambda   16#9c /Mu
     16#9d /Nu       16#9e /Xi        16#9f /Omicron  16#a0 /Pi
     16#a1 /Rho      16#a3 /Sigma     16#a4 /Tau      16#a5 /Upsilon
     16#a6 /Phi      16#a7 /Chi       16#a8 /Psi      16#a9 /Omega
     16#b1 /alpha    16#b2 /beta      16#b3 /gamma    16#b4 /delta
     16#b5 /epsilon  16#b6 /zeta      16#b7 /eta      16#b8 /theta
     16#b9 /iota     16#ba /kappa     16#bb /lambda   16#bc /mu
     16#bd /nu       16#be /xi        16#bf /omicron  16#c0 /pi
     16#c1 /rho      16#c2 /sigma1    16#c3 /sigma    16#c4 /tau
     16#c5 /upsilon  16#c6 /phi1      16#c7 /chi      16#c8 /psi
     16#c9 /omega    16#7e /semicolon 16#87 /dotmath  16#d1 /theta1
     16#d2 /Upsilon1 16#d5 /phi       16#d6 /omega1
  >> vg&redef
  def

% Unicode punctuation encoding (unicode codes \u2000-\u206f)
/UCPunctuationEncoding
  NullEncoding dup length array copy
  << 16#10 /hyphen          16#11 /hyphen              16#12 /endash
     16#13 /emdash          16#18 /quoteleft           16#19 /quoteright
     16#1a /quotesinglbase  16#1b /quotesingle         16#1c /quotedblleft
     16#1d /quotedblright   16#1e /quotedblbase        16#1f /quotedbl
     16#20 /dagger          16#21 /daggerdbl           16#22 /bullet
     16#24 /period          16#26 /ellipsis            16#27 /periodcentered
     16#30 /perthousand     16#44 /fraction
     16#70 /zerosuperior    16#74 /foursuperior        16#75 /fivesuperior
     16#76 /sixsuperior     16#77 /sevensuperior       16#78 /eightsuperior
     16#79 /ninesuperior    16#7b /hyphensuperior      16#7d /parenleftsuperior
     16#7e /parenrightsuperior
     16#80 /zeroinferior    16#84 /fourinferior        16#85 /fiveinferior
     16#81 /oneinferior     16#82 /twoinferior         16#83 /threeinferior
     16#86 /sixinferior     16#87 /seveninferior       16#88 /eightinferior
     16#89 /nineinferior    16#8b /hypheninferior      16#8d /parenleftinferior
     16#8e /parenrightinferior
  >> vg&redef
  def

% Unicode mathematical operators encoding (unicode codes \u2200-\u22ff)
/UCMathOpsEncoding
  NullEncoding dup length array copy
  << 16#00 /universal       16#02 /partialdiff         16#03 /existential
     16#05 /emptyset        16#06 /Delta               16#07 /gradient
     16#08 /element         16#09 /notelement          16#0b /suchthat
     16#0f /product         16#11 /summation           16#12 /minus
     16#15 /fraction        16#17 /asteriskmath        16#19 /bullet
     16#1a /radical         16#1d /proportional        16#1e /infinity
     16#20 /angle           16#23 /bar                 16#27 /logicaland
     16#28 /logicalor       16#29 /intersection        16#2a /union
     16#2b /integral        16#34 /therefore           16#36 /colon
     16#3c /similar         16#45 /congruent           16#48 /approxequal
     16#60 /notequal        16#61 /equivalence         16#64 /lessequal
     16#65 /greaterequal    16#82 /propersubset        16#83 /propersuperset
     16#86 /reflexsubset    16#87 /reflexsuperset      16#95 /circleplus
     16#97 /circlemultiply  16#a5 /perpendicular       16#03 /existential
     16#c0 /logicaland      16#c1 /logicalor           16#c2 /intersection
     16#c3 /union           16#c4 /diamond             16#c5 /dotmath
  >> vg&redef
  def

% Unicode arrows encoding (unicode codes \u2190-\u21ff)
% Also includes those "Letterlike" unicode characters
% which are available in the symbol font. (unicode codes \u2100-\u214f)
/UCArrowsEncoding
  NullEncoding dup length array copy
  << 16#11 /Ifraktur        16#1c /Rfraktur            16#22 /trademarkserif
     16#35 /aleph
     16#90 /arrowleft       16#91 /arrowup             16#92 /arrowright
     16#93 /arrowdown       16#94 /arrowboth           16#d0 /arrowdblleft
     16#d1 /arrowdblup      16#d2 /arrowdblright       16#d3 /arrowdbldown
     16#d4 /arrowdblboth
  >> vg&redef
  def

/ZapfDingbats findfont /Encoding get
dup length array copy /UCDingbatsEncoding exch def
16#20 1 16#7f {
  dup 16#20 sub exch
  UCDingbatsEncoding exch get
  UCDingbatsEncoding 3 1 roll put
} for
16#a0 1 16#ff {
  dup 16#40 sub exch
  UCDingbatsEncoding exch get
  UCDingbatsEncoding 3 1 roll put
} for
UCDingbatsEncoding [ 16#c0 1 16#ff {} for ] vg&undef
[ 16#00  16#05 16#0a 16#0b  16#28 16#4c 16#4e  16#53 16#54 16#55  16#57 16#5f
  16#60  16#68 16#69 16#6a  16#6b 16#6c 16#6d  16#6e 16#6f 16#70  16#71 16#72
  16#73  16#74 16#75 16#95  16#96 16#97 16#b0  16#bf
] vg&undef pop

% Define the base fonts which don't change.
/Undefined-UC NullEncoding       /Helvetica    vg&newbasefont pop
/MathOps-UC   UCMathOpsEncoding  /Symbol       vg&newbasefont pop
/Arrows-UC    UCArrowsEncoding   /Symbol       vg&newbasefont pop
/Dingbats-UC  UCDingbatsEncoding /ZapfDingbats vg&newbasefont pop

% Make the SansSerif composite fonts.
/SansSerif /Helvetica 16#00 vg&newcompositefont
/SansSerif-Bold /Helvetica-Bold 16#01 vg&newcompositefont
/SansSerif-Italic /Helvetica-Oblique 16#02 vg&newcompositefont
/SansSerif-BoldItalic /Helvetica-BoldOblique 16#03 vg&newcompositefont

% Make the Serif composite fonts.
/Serif /Times-Roman 16#00 vg&newcompositefont
/Serif-Bold /Times-Bold 16#01 vg&newcompositefont
/Serif-Italic /Times-Italic 16#02 vg&newcompositefont
/Serif-BoldItalic /Times-BoldItalic 16#03 vg&newcompositefont

% Make the Monospaced composite fonts.
/Monospaced /Courier 16#00 vg&newcompositefont
/Monospaced-Bold /Courier-Bold 16#01 vg&newcompositefont
/Monospaced-Italic /Courier-Oblique 16#02 vg&newcompositefont
/Monospaced-BoldItalic /Courier-BoldOblique 16#03 vg&newcompositefont

% Make the Dialog composite fonts.
/Dialog /Helvetica 16#00 vg&newcompositefont
/Dialog-Bold /Helvetica-Bold 16#01 vg&newcompositefont
/Dialog-Italic /Helvetica-Oblique 16#02 vg&newcompositefont
/Dialog-BoldItalic /Helvetica-BoldOblique 16#03 vg&newcompositefont

% Make the DialogInput composite fonts.
/DialogInput /Courier 16#00 vg&newcompositefont
/DialogInput-Bold /Courier-Bold 16#01 vg&newcompositefont
/DialogInput-Italic /Courier-Oblique 16#02 vg&newcompositefont
/DialogInput-BoldItalic /Courier-BoldOblique 16#03 vg&newcompositefont

% Make the Typewriter composite fonts (JDK 1.1 only).
/Typewriter /Courier 16#00 vg&newcompositefont
/Typewriter-Bold /Courier-Bold 16#01 vg&newcompositefont
/Typewriter-Italic /Courier-Oblique 16#02 vg&newcompositefont
/Typewriter-BoldItalic /Courier-BoldOblique 16#03 vg&newcompositefont


/cfontH {
 dup /fontsize exch def /SansSerif exch sf
 /vg&fontstyles [{cfontH} {cfontHB} {cfontHI} {cfontHBI}] def
} def
/cfontHB {
  dup /fontsize exch def /SansSerif-Bold exch sf
 /vg&fontstyles [{cfontH} {cfontHB} {cfontHI} {cfontHBI}] def
} def
/cfontHI {
 dup /fontsize exch def /SansSerif-Italic exch sf
 /vg&fontstyles [{cfontH} {cfontHB} {cfontHI} {cfontHBI}] def
} def
/cfontHBI {
 dup /fontsize exch def /SansSerif-BoldItalic exch sf
 /vg&fontstyles [{cfontH} {cfontHB} {cfontHI} {cfontHBI}] def
} def

/cfontT {
 dup /fontsize exch def /Serif exch sf
 /vg&fontstyles [{cfontT} {cfontTB} {cfontTI} {cfontTBI}] def
} def
/cfontTB {
 dup /fontsize exch def /Serif-Bold exch sf
 /vg&fontstyles [{cfontT} {cfontTB} {cfontTI} {cfontTBI}] def
} def
/cfontTI {
 dup /fontsize exch def /Serif-Italic exch sf
 /vg&fontstyles [{cfontT} {cfontTB} {cfontTI} {cfontTBI}] def
} def
/cfontTBI {
 dup /fontsize exch def /Serif-BoldItalic exch sf
 /vg&fontstyles [{cfontT} {cfontTB} {cfontTI} {cfontTBI}] def
} def

/cfontC {
 dup /fontsize exch def /Typewriter exch sf
 /vg&fontstyles [{cfontC} {cfontCB} {cfontCI} {cfontCBI}] def
} def
/cfontCB {
 dup /fontsize exch def /Typewriter-Bold exch sf
 /vg&fontstyles [{cfontC} {cfontCB} {cfontCI} {cfontCBI}] def
} def
/cfontCI {
 dup /fontsize exch def /Typewriter-Italic exch sf
 /vg&fontstyles [{cfontC} {cfontCB} {cfontCI} {cfontCBI}] def
} def
/cfontCBI {
 dup /fontsize exch def /Typewriter-BoldItalic exch sf
 /vg&fontstyles [{cfontC} {cfontCB} {cfontCI} {cfontCBI}] def
} def

% Darken or lighten the current color.
/darken {0.7 exch exp 3 copy
         q 4 -1 roll vg&C
         currentrgbcolor 3 {4 -2 roll mul} repeat
         3 array astore Q} def

/displayColorMap
<< /Cr   [1.00 0.00 0.00]       /Cg     [0.00 1.00 0.00]
   /Cb   [0.00 0.00 1.00]       /Cc     [1.00 0.00 0.00 0.00]
   /Cm   [0.00 1.00 0.00 0.00]  /Cy     [0.00 0.00 1.00 0.00]
   /Co   [1.00 0.78 0.00]       /Cp     [1.00 0.67 0.67]
   /Cw   [1   ]                 /Cgrl   [0.75]
   /Cgr  [0.50]                 /Cgrd   [0.25]
   /Ck   [0   ]
   /CGr  [1.00 0.00 0.00]       /CGg    [0.00 1.00 0.00]
   /CGb  [0.00 0.00 1.00]       /CGc    [1.00 0.00 0.00 0.00]
   /CGm  [0.00 1.00 0.00 0.00]  /CGy    [0.00 0.00 1.00 0.00]
   /CGo  [1.00 0.78 0.00]       /CGp    [1.00 0.67 0.67]
   /CGw  [1   ]                 /CGgrl  [0.75]
   /CGgr [0.50]                 /CGgrd  [0.25]
   /CGk  [0   ]
   /CIr  [1.00 0.00 0.00]       /CIg    [0.00 1.00 0.00]
   /CIb  [0.00 0.00 1.00]       /CIc    [1.00 0.00 0.00 0.00]
   /CIm  [0.00 1.00 0.00 0.00]  /CIy    [0.00 0.00 1.00 0.00]
   /CIo  [1.00 0.78 0.00]       /CIp    [1.00 0.67 0.67]
   /CIw  [1   ]                 /CIgrl  [0.75]
   /CIgr [0.50]                 /CIgrd  [0.25]
   /CIk  [0   ]
>> def

/printColorMap
<< /Cr   [1.00 0.33 0.33]       /Cg     [0.33 1.00 0.33]
   /Cb   [0.33 0.33 1.00]       /Cc     [1.00 0.00 0.00 0.00]
   /Cm   [0.00 1.00 0.00 0.00]  /Cy     [0.00 0.00 1.00 0.00]
   /Co   [1.00 0.78 0.00]       /Cp     [1.00 0.67 0.67]
   /Cw   [1   ]                 /Cgrl   [0.75]
   /Cgr  [0.50]                 /Cgrd   [0.25]
   /Ck   [0   ]
   /CGr  [1.00 0.33 0.33]       /CGg    [0.33 1.00 0.33]
   /CGb  [0.33 0.33 1.00]       /CGc    [1.00 0.00 0.00 0.00]
   /CGm  [0.00 1.00 0.00 0.00]  /CGy    [0.00 0.00 1.00 0.00]
   /CGo  [1.00 0.78 0.00]       /CGp    [1.00 0.67 0.67]
   /CGw  [1   ]                 /CGgrl  [0.75]
   /CGgr [0.50]                 /CGgrd  [0.25]
   /CGk  [0   ]
   /CIr  [1.00 0.33 0.33]       /CIg    [0.33 1.00 0.33]
   /CIb  [0.33 0.33 1.00]       /CIc    [1.00 0.00 0.00 0.00]
   /CIm  [0.00 1.00 0.00 0.00]  /CIy    [0.00 0.00 1.00 0.00]
   /CIo  [1.00 0.78 0.00]       /CIp    [1.00 0.67 0.67]
   /CIw  [1   ]                 /CIgrl  [0.75]
   /CIgr [0.50]                 /CIgrd  [0.25]
   /CIk  [0   ]
>> def

/grayColorMap
<< /Cr   [0   ]                 /Cg     [0   ]
   /Cb   [0   ]                 /Cc     [0   ]
   /Cm   [0   ]                 /Cy     [0   ]
   /Co   [0   ]                 /Cp     [0   ]
   /Cw   [0   ]                 /Cgrl   [0   ]
   /Cgr  [0   ]                 /Cgrd   [0   ]
   /Ck   [0   ]
   /CGr  [0.75]                 /CGg    [1   ]
   /CGb  [0.50]                 /CGc    [0.75]
   /CGm  [0.50]                 /CGy    [1   ]
   /CGo  [0.75]                 /CGp    [1   ]
   /CGw  [0   ]                 /CGgrl  [0.25]
   /CGgr [0.50]                 /CGgrd  [0.75]
   /CGk  [1   ]
   /CIr  [1   ]                 /CIg    [1   ]
   /CIb  [1   ]                 /CIc    [1   ]
   /CIm  [1   ]                 /CIy    [1   ]
   /CIo  [1   ]                 /CIp    [1   ]
   /CIw  [1   ]                 /CIgrl  [1   ]
   /CIgr [1   ]                 /CIgrd  [1   ]
   /CIk  [1   ]
>> def

/bwColorMap
<< /Cr   [0   ]                 /Cg     [0   ]
   /Cb   [0   ]                 /Cc     [0   ]
   /Cm   [0   ]                 /Cy     [0   ]
   /Co   [0   ]                 /Cp     [0   ]
   /Cw   [0   ]                 /Cgrl   [0   ]
   /Cgr  [0   ]                 /Cgrd   [0   ]
   /Ck   [0   ]
   /CGr  [1   ]                 /CGg    [1   ]
   /CGb  [1   ]                 /CGc    [1   ]
   /CGm  [1   ]                 /CGy    [1   ]
   /CGo  [1   ]                 /CGp    [1   ]
   /CGw  [0   ]                 /CGgrl  [1   ]
   /CGgr [1   ]                 /CGgrd  [1   ]
   /CGk  [1   ]
   /CIr  [1   ]                 /CIg    [1   ]
   /CIb  [1   ]                 /CIc    [1   ]
   /CIm  [1   ]                 /CIy    [1   ]
   /CIo  [1   ]                 /CIp    [1   ]
   /CIw  [1   ]                 /CIgrl  [1   ]
   /CIgr [1   ]                 /CIgrd  [1   ]
   /CIk  [1   ]
>> def

%
% The following routines handle the alignment of and printing of
% tagged strings.
%

% Predefine the bounding box values.
/bbllx 0 def /bblly 0 def /bburx 0 def /bbury 0 def

% This routine pops the first unicode character off of a string and returns
% the remainder of the string, the character code of first character,
% and a "true" if the string was non-zero length.
% <string>      popfirst <remaining string> <true>
% <null string> popfirst <false>
/popfirst {
  dup length 1 gt
    {dup 0 get /vg&fbyte exch def
     dup 1 get /vg&cbyte exch def
     dup length 2 sub 2 exch getinterval true}
    {pop false} ifelse
} def

% This routine shows a single unicode character given the font and
% character codes.
% <font code> <char code> unicharshow --
/unicharshow {
  2 string
  dup 0 5 -1 roll put
  dup 1 4 -1 roll put
  internalshow
} def

% This is an internal routine to alternate between determining the
% bounding box for stringsize and showing the string for recshow.
% <string> internalshow --
/internalshow {show} def

% This is an internal routine to alternate between determining the
% bounding box for stringsize and stroking various ornaments.
% <string> internalstroke --
/internalstroke {S} def

% Sets up internalshow to use the null device to determine string size.
% -- nullinternalshow --
/nullinternalshow {/internalshow {false charpath flattenpath
                                  pathbbox updatebbox} def} def

% Sets up internalstroke to use the null device to determine string size.
% -- nullinternalstroke --
/nullinternalstroke {
 /internalstroke {flattenpath pathbbox updatebbox} def} def

% This routine tests to see if the character code matches the first
% character of a string.
% <char code> <string> testchar <char code> <true or false>
/testchar {exch dup 3 -1 roll 0 get eq} def

% Raise the text baseline for superscripts.
% -- raise --
/raise {
  0 fontsize 2 div rmoveto
  /fontsize fontsize 2 mul 3 div def
  currentfont /FontName get fontsize sf
} def

% Un-raise the text baseline for superscripts.
% -- unraise --
/unraise {
  /fontsize fontsize 1.5 mul def
  0 fontsize 2 div neg rmoveto
} def

% Lower the text baseline for subscripts.
% -- lower --
/lower {
  0 fontsize 3 div neg rmoveto
  /fontsize fontsize 2 mul 3 div def
  currentfont /FontName get fontsize sf
} def

% Un-lower the text baseline for subscripts.
% -- unlower --
/unlower {
  /fontsize fontsize 1.5 mul def
  0 fontsize 3 div rmoveto
} def

% Compare the top two elements on the stack and leave only the
% larger one.
/maxval {2 copy gt {pop} {exch pop} ifelse} def

% Tokenize a string.  Do not use the usual PostScript token because
% parentheses will not be interpreted correctly because of rescanning
% of the string.
/vg&token {/vg&string exch def /vg&index -1 def /vg&level 0 def
0 2 vg&string length 2 sub {
  dup dup 1 add exch vg&string exch get 8 bitshift vg&string 3 -1 roll get or
  dup 16#f0fe eq {pop 1}{16#f0ff eq {-1}{0} ifelse} ifelse
  /vg&level exch vg&level add def
  vg&level 0 eq {/vg&index exch def exit} if pop
} for
vg&index 0 ge {
  vg&string vg&index 2 add dup vg&string length exch sub getinterval
  vg&index 2 gt {vg&string 2 vg&index 2 sub getinterval}{()} ifelse
  true}
{false} ifelse
} bind def

% Recursively show an unicode string.
% <string> recshow --
/recshow {
  popfirst
  {
    % Test to see if this is a string attribute.
    vg&fbyte 16#f0 and 16#e0 eq
    {
      q

      % Font style.
      currentfont dup /FontStyleBits known {/FontStyleBits get}{pop 0} ifelse
      vg&cbyte or vg&fontstyles exch get fontsize exch exec

      vg&token pop recshow currentpoint Q m recshow
    }
    {
      vg&fbyte 16#F8 and 16#F0 eq {

        % Superscript and/or subscript.
        vg&cbyte 16#00 eq {
          vg&token pop exch vg&token pop 3 -1 roll
          q raise recshow unraise currentpoint pop Q exch
          q lower recshow unlower currentpoint pop Q
          maxval currentpoint exch pop m recshow } if

        % Strikeout.
        vg&cbyte 16#01 eq {
          vg&token pop currentpoint 3 -1 roll recshow
          q 0 J vg&underline vg&uthick w
          currentpoint 4 -2 roll fontsize 3 div add moveto
          fontsize 3 div add lineto internalstroke Q
          recshow} if

        % Underline.
        vg&cbyte 16#02 eq {
          vg&token pop currentpoint 3 -1 roll recshow
          q 0 J vg&underline vg&uthick w
          currentpoint 4 -2 roll vg&uoffset add moveto
          vg&uoffset add lineto internalstroke Q
          recshow} if

        % Dashed underline.
        vg&cbyte 16#03 eq {
          vg&token pop currentpoint 3 -1 roll recshow
          q 0 J [ vg&uthick 5 mul vg&uthick 2 mul] 0 d
          vg&underline vg&uthick w
          currentpoint 4 -2 roll vg&uoffset add moveto
          vg&uoffset add lineto internalstroke Q
          recshow} if

        % Dotted underline.
        vg&cbyte 16#04 eq {
          vg&token pop currentpoint 3 -1 roll recshow
          q 1 J [ 0 vg&uthick 3 mul] 0 d
          vg&underline vg&uthick w
          currentpoint 4 -2 roll vg&uoffset add moveto
          vg&uoffset add lineto internalstroke Q
          recshow} if

        % Thick underline.
        vg&cbyte 16#05 eq {
          vg&token pop currentpoint 3 -1 roll recshow
          q 0 J vg&underline vg&uthick 2 mul w
          currentpoint 4 -2 roll vg&uoffset vg&uthick 2 div sub add moveto
          vg&uoffset vg&uthick 2 div sub add lineto internalstroke Q
          recshow} if

        % Gray thick underline.
        vg&cbyte 16#06 eq {
          vg&token pop currentpoint 3 -1 roll recshow
          q 0 J vg&underline vg&uthick 2 mul w 0.5 setgray
          currentpoint 4 -2 roll vg&uoffset vg&uthick 2 div sub add moveto
          vg&uoffset vg&uthick 2 div sub add lineto internalstroke Q
          recshow} if

        % Overbar.
        vg&cbyte 16#07 eq {
          vg&token pop dup stringsize relative 4 1 roll pop pop exch
          3 -1 roll recshow
          q 0 J vg&underline vg&uthick w
          vg&uoffset neg add dup currentpoint pop exch m l internalstroke Q
          recshow} if
      }
      {
        vg&fbyte vg&cbyte unicharshow recshow
      } ifelse
    } ifelse
  } if
} def

% Get the underline position and thickness from the current font.
/vg&underline {

currentfont dup /FontType get 0 eq {/FDepVector get 0 get} if
dup dup /FontInfo known {
  /FontInfo get dup
  dup /UnderlinePosition known {
    /UnderlinePosition get /vg&uoffset exch def
  }
  {
    pop /vg&uoffset 0 def
  } ifelse
  dup /UnderlineThickness known {
    /UnderlineThickness get /vg&uthick exch def
  }
  {
    pop /vg&uthick 0 def
  } ifelse
}
{
  pop /vg&uoffset 0 def /vg&uthick 0 def
} ifelse
/FontMatrix get
currentfont dup /FontType get 0 eq
{/FontMatrix get matrix concatmatrix}{pop} ifelse
dup 0 vg&uoffset 3 -1 roll transform /vg&uoffset exch def pop
0 vg&uthick 3 -1 roll transform /vg&uthick exch def pop
} def

% Make a frame with the coordinates on the stack.
% <llx> <lly> <urx> <ury> frame --
/frame {4 copy m 3 1 roll exch l 4 -2 roll l l h} def

% Resets the accumulated bounding box to a degenerate box at the
% current point.
% -- resetbbox --
/resetbbox {
  currentpoint 2 copy
  /bbury exch def
  /bburx exch def
  /bblly exch def
  /bbllx exch def
} def

% Update the accumulated bounding box.
% <llx'> <lly'> <urx'> <ury'> updatebbox --
/updatebbox {
  dup bbury gt {/bbury exch def} {pop} ifelse
  dup bburx gt {/bburx exch def} {pop} ifelse
  dup bblly lt {/bblly exch def} {pop} ifelse
  dup bbllx lt {/bbllx exch def} {pop} ifelse
} def

% Set the bounding box to the values on the stack.
% <llx'> <lly'> <urx'> <ury'> updatebbox --
/restorebbox {
  /bbury exch def /bburx exch def /bblly exch def /bbllx exch def
} def

% Push the accumulated bounding box onto the stack.
% -- pushbbox <llx> <lly> <urx> <ury>
/pushbbox {bbllx bblly bburx bbury} def

% Make the relative bounding box relative to the currentpoint.
% <llx'> <lly'> <urx'> <ury'> inflate <llx> <lly> <urx> <ury>
/inflate {
  2 {fontsize 0.2 mul add 4 1 roll} repeat
  2 {fontsize 0.2 mul sub 4 1 roll} repeat
} def

% Make the relative bounding box relative to the currentpoint.
% <llx'> <lly'> <urx'> <ury'> relative <llx> <lly> <urx> <ury>
/relative {
  currentpoint 3 -1 roll add 3 1 roll add exch 4 2 roll
  currentpoint 3 -1 roll add 3 1 roll add exch 4 2 roll
} def

% Returns the size of a string appropriate for recshow.
% <string> stringsize <llx> <lly> <urx> <ury>
/stringsize {
  pushbbox /internalshow load /internalstroke load 7 -1 roll
  q
  nulldevice 0 0 m
  nullinternalshow nullinternalstroke
  resetbbox
  recshow
  /internalstroke exch def /internalshow exch def
  pushbbox 8 -4 roll restorebbox
  Q
} def

% Calculate values for string positioning.
/calcval {4 copy
  3 -1 roll sub /widy exch def sub neg /widx exch def
  pop pop /dy exch def /dx exch def} def

% Utilities to position a string.
% First letter (U=upper, C=center, B=baseline, L=lower)
% Second letter (L=left, C=center, R=right)
/align [
{calcval dx neg widy dy add neg rmoveto} % UL
{calcval dx neg widy 2 div dy add neg rmoveto} % CL
{calcval dx neg 0 rmoveto} % BL
{calcval dx neg dy neg rmoveto} % LL
{calcval widx dx add neg widy dy add neg rmoveto} % UR
{calcval widx dx add neg widy 2 div dy add neg rmoveto} % CR
{calcval widx dx add neg 0 rmoveto} % BR
{calcval widx dx add neg dy neg rmoveto} % LR
{calcval widx 2 div dx add neg widy dy add neg rmoveto} % UC
{calcval widx 2 div dx add neg widy 2 div dy add neg rmoveto} % CC
{calcval widx 2 div dx add neg 0 rmoveto} % BC
{calcval widx 2 div dx add neg dy neg rmoveto} % LC
] def

/vg&str {m q 1 -1 scale dup stringsize 4 copy align 11 -1 roll get exec
         q inflate relative frame exch exec Q recshow Q} def

end /procDict exch def
%%EndProlog

%%BeginSetup
save
procDict begin
printColorMap begin
595 791 setpagesize
20 20 20 20 setmargins
0 0 setorigin
555 118 setsize
fittopage
portrait
imagescale
cliptobounds
setbasematrix
/Helvetica 10 sf
defaultGraphicsState
%%EndSetup

0.00000 0.00000 0.00000 RG
[ 1.00000 0.00000 0.00000 1.00000 0.00000 0.00000 ] defaultmatrix matrix concatmatrix setmatrix
cliprestore
1.00000 1.00000 1.00000 RG
newpath
0.00000 0.00000 m
555.000 0.00000 l
555.000 118.000 l
0.00000 118.000 l
0.00000 0.00000 l
h
f
0.00000 0.00000 0.00000 RG
0.00000 0.00000 0.00000 RG
[ 1.00000 0.00000 0.00000 1.00000 0.00000 0.00000 ] defaultmatrix matrix concatmatrix setmatrix
cliprestore
1.00000 1.00000 1.00000 RG
newpath
0.00000 0.00000 m
555.000 0.00000 l
555.000 118.000 l
0.00000 118.000 l
0.00000 0.00000 l
h
f
0.00000 0.00000 0.00000 RG
1.00000 1.00000 1.00000 RG
newpath
0.00000 0.00000 m
555.000 0.00000 l
555.000 118.000 l
0.00000 118.000 l
0.00000 0.00000 l
h
f
cliprestore
0 0 555 118 rc
q
<< /PatternType 2
   /Shading
   << /ShadingType 2
      /ColorSpace /DeviceRGB
      /Coords [75.9349365234375 35.73661804199219 74.73413848876953 35.73661804199219]
      /Function
      << /FunctionType 2
         /Domain [0 1]
         /Range [0 1 0 1 0 1]
         /C0 [0.2 0.2 0.2]
         /C1 [1.0 0.0 0.0]
         /N 1
      >>
      /Extend [true true]
   >>
>>
matrix makepattern setpattern
newpath
83.3725 35.1362 m
67.2966 35.1362 l
66.9650 35.1362 66.6962 35.4050 66.6962 35.7366  c
66.6962 36.0683 66.9650 36.3370 67.2966 36.3370  c
83.3725 36.3370 l
83.7041 36.3370 83.9729 36.0683 83.9729 35.7366  c
83.9729 35.4050 83.7041 35.1362 83.3725 35.1362  c
h
f
Q
q
<< /PatternType 2
   /Shading
   << /ShadingType 2
      /ColorSpace /DeviceRGB
      /Coords [53.828975677490234 48.38151168823242 54.42936706542969 47.34158706665039]
      /Function
      << /FunctionType 2
         /Domain [0 1]
         /Range [0 1 0 1 0 1]
         /C0 [0.0 0.0 0.0]
         /C1 [1.0 0.0 0.0]
         /N 1
      >>
      /Extend [true true]
   >>
>>
matrix makepattern setpattern
newpath
51.5480 53.5332 m
57.7503 42.7903 l
57.9161 42.5031 57.8177 42.1360 57.5305 41.9702  c
57.2433 41.8043 56.8762 41.9027 56.7104 42.1899  c
50.5081 52.9328 l
50.3422 53.2200 50.4406 53.5871 50.7278 53.7529  c
51.0151 53.9188 51.3822 53.8204 51.5480 53.5332  c
h
f
Q
q
<< /PatternType 2
   /Shading
   << /ShadingType 2
      /ColorSpace /DeviceRGB
      /Coords [54.484806060791016 72.27276611328125 53.88441467285156 71.23284149169922]
      /Function
      << /FunctionType 2
         /Domain [0 1]
         /Range [0 1 0 1 0 1]
         /C0 [1.0 0.0 0.0]
         /C1 [0.0 0.0 0.0]
         /N 1
      >>
      /Extend [true true]
   >>
>>
matrix makepattern setpattern
newpath
54.6172 78.7063 m
54.7830 78.9935 55.1501 79.0919 55.4374 78.9261  c
55.7246 78.7603 55.8229 78.3931 55.6571 78.1059  c
49.4190 67.3009 l
49.2531 67.0137 48.8860 66.9154 48.5988 67.0812  c
48.3116 67.2470 48.2132 67.6141 48.3790 67.9013  c
h
58.9503 76.2047 m
59.1161 76.4919 59.4832 76.5903 59.7704 76.4244  c
60.0576 76.2586 60.1560 75.8915 59.9902 75.6043  c
53.7520 64.7993 l
53.5862 64.5121 53.2191 64.4137 52.9319 64.5795  c
52.6446 64.7453 52.5463 65.1125 52.7121 65.3997  c
h
f
Q
q
0.00000 0.00000 0.00000 RG
newpath
25.4095 60.3596 m
41.3742 60.3596 l
41.7059 60.3596 41.9746 60.0908 41.9746 59.7592  c
41.9746 59.4275 41.7059 59.1588 41.3742 59.1588  c
25.4095 59.1588 l
25.0779 59.1588 24.8091 59.4275 24.8091 59.7592  c
24.8091 60.0908 25.0779 60.3596 25.4095 60.3596  c
h
f
Q
q
<< /PatternType 2
   /Shading
   << /ShadingType 2
      /ColorSpace /DeviceRGB
      /Coords [199.7839813232422 57.50114440917969 200.8238983154297 56.900718688964844]
      /Function
      << /FunctionType 2
         /Domain [0 1]
         /Range [0 1 0 1 0 1]
         /C0 [1.0 0.0 0.0]
         /C1 [0.0 0.0 0.0]
         /N 1
      >>
      /Extend [true true]
   >>
>>
matrix makepattern setpattern
newpath
194.556 61.2131 m
206.652 54.2287 l
206.940 54.0629 207.038 53.6958 206.872 53.4085  c
206.706 53.1213 206.339 53.0230 206.052 53.1888  c
193.955 60.1732 l
193.668 60.3390 193.570 60.7061 193.736 60.9933  c
193.902 61.2806 194.269 61.3789 194.556 61.2131  c
h
f
Q
q
<< /PatternType 2
   /Shading
   << /ShadingType 2
      /ColorSpace /DeviceRGB
      /Coords [175.3466339111328 56.7914924621582 176.38656616210938 57.391883850097656]
      /Function
      << /FunctionType 2
         /Domain [0 1]
         /Range [0 1 0 1 0 1]
         /C0 [0.2 0.2 0.2]
         /C1 [1.0 0.0 0.0]
         /N 1
      >>
      /Extend [true true]
   >>
>>
matrix makepattern setpattern
newpath
169.328 54.0100 m
181.805 61.2133 l
182.092 61.3791 182.459 61.2808 182.625 60.9935  c
182.791 60.7063 182.692 60.3392 182.405 60.1734  c
169.928 52.9701 l
169.641 52.8042 169.274 52.9026 169.108 53.1898  c
168.942 53.4771 169.041 53.8442 169.328 54.0100  c
h
f
Q
q
<< /PatternType 2
   /Shading
   << /ShadingType 2
      /ColorSpace /DeviceRGB
      /Coords [407.56072998046875 63.998077392578125 406.52081298828125 64.59846496582031]
      /Function
      << /FunctionType 2
         /Domain [0 1]
         /Range [0 1 0 1 0 1]
         /C0 [0.2 0.2 0.2]
         /C1 [1.0 0.0 0.0]
         /N 1
      >>
      /Extend [true true]
   >>
>>
matrix makepattern setpattern
newpath
412.979 60.1766 m
400.502 67.3800 l
400.215 67.5458 400.117 67.9129 400.282 68.2001  c
400.448 68.4874 400.815 68.5857 401.103 68.4199  c
413.579 61.2166 l
413.867 61.0507 413.965 60.6836 413.799 60.3964  c
413.633 60.1092 413.266 60.0108 412.979 60.1766  c
h
f
Q
q
<< /PatternType 2
   /Shading
   << /ShadingType 2
      /ColorSpace /DeviceRGB
      /Coords [381.8933410644531 63.998077392578125 382.93328857421875 64.59846496582031]
      /Function
      << /FunctionType 2
         /Domain [0 1]
         /Range [0 1 0 1 0 1]
         /C0 [0.2 0.2 0.2]
         /C1 [1.0 0.0 0.0]
         /N 1
      >>
      /Extend [true true]
   >>
>>
matrix makepattern setpattern
newpath
375.875 61.2166 m
388.351 68.4199 l
388.639 68.5857 389.006 68.4874 389.172 68.2001  c
389.337 67.9129 389.239 67.5458 388.952 67.3800  c
376.475 60.1766 l
376.188 60.0108 375.821 60.1092 375.655 60.3964  c
375.489 60.6836 375.588 61.0507 375.875 61.2166  c
h
f
Q
q
<< /PatternType 2
   /Shading
   << /ShadingType 2
      /ColorSpace /DeviceRGB
      /Coords [528.4105224609375 35.21747970581055 529.0109252929688 36.257408142089844]
      /Function
      << /FunctionType 2
         /Domain [0 1]
         /Range [0 1 0 1 0 1]
         /C0 [0.0 0.0 0.0]
         /C1 [1.0 0.0 0.0]
         /N 1
      >>
      /Extend [true true]
   >>
>>
matrix makepattern setpattern
newpath
525.082 30.6538 m
531.299 41.4214 l
531.465 41.7087 531.832 41.8070 532.119 41.6412  c
532.406 41.4754 532.505 41.1083 532.339 40.8210  c
526.122 30.0535 l
525.957 29.7662 525.589 29.6679 525.302 29.8337  c
525.015 29.9995 524.917 30.3666 525.082 30.6538  c
h
f
Q
q
<< /PatternType 2
   /Shading
   << /ShadingType 2
      /ColorSpace /DeviceRGB
      /Coords [528.3449096679688 60.39280319213867 528.9453735351562 59.35289764404297]
      /Function
      << /FunctionType 2
         /Domain [0 1]
         /Range [0 1 0 1 0 1]
         /C0 [0.0 0.0 0.0]
         /C1 [1.0 0.0 0.0]
         /N 1
      >>
      /Extend [true true]
   >>
>>
matrix makepattern setpattern
newpath
526.064 65.5437 m
532.266 54.8024 l
532.432 54.5152 532.334 54.1481 532.046 53.9822  c
531.759 53.8164 531.392 53.9148 531.226 54.2020  c
525.024 64.9433 l
524.858 65.2305 524.957 65.5976 525.244 65.7635  c
525.531 65.9293 525.898 65.8309 526.064 65.5437  c
h
f
Q
q
0.00000 0.00000 0.00000 RG
newpath
532.398 88.9657 m
526.122 78.0967 l
525.957 77.8095 525.589 77.7112 525.302 77.8770  c
525.015 78.0428 524.917 78.4099 525.082 78.6971  c
531.358 89.5661 l
531.523 89.8533 531.891 89.9517 532.178 89.7859  c
532.465 89.6200 532.563 89.2529 532.398 88.9657  c
h
f
Q
q
<< /PatternType 2
   /Shading
   << /ShadingType 2
      /ColorSpace /DeviceRGB
      /Coords [507.4481201171875 71.76953887939453 508.6488952636719 71.76953887939453]
      /Function
      << /FunctionType 2
         /Domain [0 1]
         /Range [0 1 0 1 0 1]
         /C0 [1.0 0.0 0.0]
         /C1 [0.0 0.0 0.0]
         /N 1
      >>
      /Extend [true true]
   >>
>>
matrix makepattern setpattern
newpath
500.207 68.6675 m
499.875 68.6675 499.606 68.9362 499.606 69.2678  c
499.606 69.5995 499.875 69.8682 500.207 69.8682  c
515.890 69.8682 l
516.222 69.8682 516.491 69.5995 516.491 69.2678  c
516.491 68.9362 516.222 68.6675 515.890 68.6675  c
h
500.207 73.6708 m
499.875 73.6708 499.606 73.9396 499.606 74.2712  c
499.606 74.6029 499.875 74.8716 500.207 74.8716  c
515.890 74.8716 l
516.222 74.8716 516.491 74.6029 516.491 74.2712  c
516.491 73.9396 516.222 73.6708 515.890 73.6708  c
h
f
Q
1.00000 0.00000 0.00000 RG
1.00000 1.00000 1.00000 RG
newpath
59.9126 30.7093 m
58.5049 30.7093 57.3638 31.8504 57.3638 33.2581  c
57.3638 38.3558 l
57.3638 39.7634 58.5049 40.9046 59.9126 40.9046  c
62.3462 40.9046 l
63.7539 40.9046 64.8950 39.7634 64.8950 38.3558  c
64.8950 33.2581 l
64.8950 31.8504 63.7539 30.7093 62.3462 30.7093  c
h
f
1.00000 0.00000 0.00000 RG
[ 1.00000 0.00000 0.00000 1.00000 57.1294 28.2366 ] concat
newpath
.531250 8.17188 m
.531250 6.85938 .882812 5.83333 1.58594 5.09375  c
2.28906 4.35417 3.19271 3.98438 4.29688 3.98438  c
5.02604 3.98438 5.68229 4.15885 6.26562 4.50781  c
6.84896 4.85677 7.29427 5.34115 7.60156 5.96094  c
7.90885 6.58073 8.06250 7.28646 8.06250 8.07812  c
8.06250 8.86979 7.90104 9.58073 7.57812 10.2109  c
7.25521 10.8411 6.79948 11.3203 6.21094 11.6484  c
5.62240 11.9766 4.98438 12.1406 4.29688 12.1406  c
3.55729 12.1406 2.89583 11.9609 2.31250 11.6016  c
1.72917 11.2422 1.28646 10.7526 .984375 10.1328  c
.682292 9.51302 .531250 8.85938 .531250 8.17188  c
h
1.60938 8.18750 m
1.60938 9.13542 1.86458 9.88281 2.37500 10.4297  c
2.88542 10.9766 3.52604 11.2500 4.29688 11.2500  c
5.07812 11.2500 5.72135 10.9740 6.22656 10.4219  c
6.73177 9.86979 6.98438 9.08333 6.98438 8.06250  c
6.98438 7.42708 6.87760 6.86979 6.66406 6.39062  c
6.45052 5.91146 6.13542 5.54167 5.71875 5.28125  c
5.30208 5.02083 4.83333 4.89062 4.31250 4.89062  c
3.57292 4.89062 2.93750 5.14323 2.40625 5.64844  c
1.87500 6.15365 1.60938 7.00000 1.60938 8.18750  c
h
f
[ 1.00000 0.00000 0.00000 1.00000 0.00000 0.00000 ] defaultmatrix matrix concatmatrix setmatrix
[ 1.00000 0.00000 0.00000 1.00000 0.00000 0.00000 ] defaultmatrix matrix concatmatrix setmatrix
[ 1.00000 0.00000 0.00000 1.00000 55.7527 22.5566 ] concat
0.00000 0.00000 .607843 RG
newpath
2.98438 8.00000 m
2.28125 8.00000 l
2.28125 3.51562 l
2.11458 3.68229 1.89323 3.84635 1.61719 4.00781  c
1.34115 4.16927 1.09375 4.28646 .875000 4.35938  c
.875000 3.68750 l
1.27083 3.50000 1.61458 3.27604 1.90625 3.01562  c
2.19792 2.75521 2.40625 2.50000 2.53125 2.25000  c
2.98438 2.25000 l
2.98438 8.00000 l
h
f
[ 1.00000 0.00000 0.00000 1.00000 0.00000 0.00000 ] defaultmatrix matrix concatmatrix setmatrix
[ 1.00000 0.00000 0.00000 1.00000 0.00000 0.00000 ] defaultmatrix matrix concatmatrix setmatrix
1.00000 0.00000 0.00000 RG
0.00000 0.00000 .607843 RG
1.00000 1.00000 1.00000 RG
1.00000 0.00000 0.00000 RG
1.00000 1.00000 1.00000 RG
newpath
59.9126 78.7544 m
58.5049 78.7544 57.3638 79.8955 57.3638 81.3032  c
57.3638 86.4009 l
57.3638 87.8085 58.5049 88.9497 59.9126 88.9497  c
62.3462 88.9497 l
63.7539 88.9497 64.8950 87.8085 64.8950 86.4009  c
64.8950 81.3032 l
64.8950 79.8955 63.7539 78.7544 62.3462 78.7544  c
h
f
1.00000 0.00000 0.00000 RG
[ 1.00000 0.00000 0.00000 1.00000 57.1294 76.2817 ] concat
newpath
.531250 8.17188 m
.531250 6.85938 .882812 5.83333 1.58594 5.09375  c
2.28906 4.35417 3.19271 3.98438 4.29688 3.98438  c
5.02604 3.98438 5.68229 4.15885 6.26562 4.50781  c
6.84896 4.85677 7.29427 5.34115 7.60156 5.96094  c
7.90885 6.58073 8.06250 7.28646 8.06250 8.07812  c
8.06250 8.86979 7.90104 9.58073 7.57812 10.2109  c
7.25521 10.8411 6.79948 11.3203 6.21094 11.6484  c
5.62240 11.9766 4.98438 12.1406 4.29688 12.1406  c
3.55729 12.1406 2.89583 11.9609 2.31250 11.6016  c
1.72917 11.2422 1.28646 10.7526 .984375 10.1328  c
.682292 9.51302 .531250 8.85938 .531250 8.17188  c
h
1.60938 8.18750 m
1.60938 9.13542 1.86458 9.88281 2.37500 10.4297  c
2.88542 10.9766 3.52604 11.2500 4.29688 11.2500  c
5.07812 11.2500 5.72135 10.9740 6.22656 10.4219  c
6.73177 9.86979 6.98438 9.08333 6.98438 8.06250  c
6.98438 7.42708 6.87760 6.86979 6.66406 6.39062  c
6.45052 5.91146 6.13542 5.54167 5.71875 5.28125  c
5.30208 5.02083 4.83333 4.89062 4.31250 4.89062  c
3.57292 4.89062 2.93750 5.14323 2.40625 5.64844  c
1.87500 6.15365 1.60938 7.00000 1.60938 8.18750  c
h
f
[ 1.00000 0.00000 0.00000 1.00000 0.00000 0.00000 ] defaultmatrix matrix concatmatrix setmatrix
[ 1.00000 0.00000 0.00000 1.00000 0.00000 0.00000 ] defaultmatrix matrix concatmatrix setmatrix
[ 1.00000 0.00000 0.00000 1.00000 62.9787 87.1023 ] concat
0.00000 0.00000 .607843 RG
newpath
4.03125 7.32812 m
4.03125 8.00000 l
.250000 8.00000 l
.239583 7.83333 .265625 7.67188 .328125 7.51562  c
.421875 7.25521 .575521 7.00000 .789062 6.75000  c
1.00260 6.50000 1.30729 6.20833 1.70312 5.87500  c
2.32812 5.36458 2.75000 4.96094 2.96875 4.66406  c
3.18750 4.36719 3.29688 4.08854 3.29688 3.82812  c
3.29688 3.54688 3.19792 3.30990 3.00000 3.11719  c
2.80208 2.92448 2.54167 2.82812 2.21875 2.82812  c
1.88542 2.82812 1.61719 2.92969 1.41406 3.13281  c
1.21094 3.33594 1.10417 3.61979 1.09375 3.98438  c
.375000 3.90625 l
.427083 3.36458 .614583 2.95312 .937500 2.67188  c
1.26042 2.39062 1.69271 2.25000 2.23438 2.25000  c
2.78646 2.25000 3.22135 2.40104 3.53906 2.70312  c
3.85677 3.00521 4.01562 3.38542 4.01562 3.84375  c
4.01562 4.07292 3.96875 4.29688 3.87500 4.51562  c
3.78125 4.73438 3.62760 4.96615 3.41406 5.21094  c
3.20052 5.45573 2.83854 5.79167 2.32812 6.21875  c
1.91146 6.57292 1.64323 6.81250 1.52344 6.93750  c
1.40365 7.06250 1.30208 7.19271 1.21875 7.32812  c
4.03125 7.32812 l
h
f
[ 1.00000 0.00000 0.00000 1.00000 0.00000 0.00000 ] defaultmatrix matrix concatmatrix setmatrix
[ 1.00000 0.00000 0.00000 1.00000 0.00000 0.00000 ] defaultmatrix matrix concatmatrix setmatrix
1.00000 0.00000 0.00000 RG
0.00000 0.00000 .607843 RG
1.00000 1.00000 1.00000 RG
0.00000 0.00000 0.00000 RG
1.00000 1.00000 1.00000 RG
newpath
46.3246 54.7318 m
44.9170 54.7318 43.7758 55.8730 43.7758 57.2806  c
43.7758 62.3783 l
43.7758 63.7860 44.9170 64.9271 46.3246 64.9271  c
48.1957 64.9271 l
49.6034 64.9271 50.7446 63.7860 50.7446 62.3783  c
50.7446 57.2806 l
50.7446 55.8730 49.6034 54.7318 48.1957 54.7318  c
h
f
0.00000 0.00000 0.00000 RG
[ 1.00000 0.00000 0.00000 1.00000 43.7602 52.2592 ] concat
newpath
6.46875 9.23438 m
7.51562 9.50000 l
7.29688 10.3542 6.90365 11.0078 6.33594 11.4609  c
5.76823 11.9141 5.07292 12.1406 4.25000 12.1406  c
3.39583 12.1406 2.70312 11.9661 2.17188 11.6172  c
1.64062 11.2682 1.23698 10.7656 .960938 10.1094  c
.684896 9.45312 .546875 8.75000 .546875 8.00000  c
.546875 7.18750 .703125 6.47396 1.01562 5.85938  c
1.32812 5.24479 1.77344 4.77865 2.35156 4.46094  c
2.92969 4.14323 3.56771 3.98438 4.26562 3.98438  c
5.05729 3.98438 5.72135 4.18490 6.25781 4.58594  c
6.79427 4.98698 7.16667 5.55208 7.37500 6.28125  c
6.34375 6.53125 l
6.16667 5.95833 5.90365 5.54167 5.55469 5.28125  c
5.20573 5.02083 4.77083 4.89062 4.25000 4.89062  c
3.63542 4.89062 3.12500 5.03385 2.71875 5.32031  c
2.31250 5.60677 2.02865 5.99479 1.86719 6.48438  c
1.70573 6.97396 1.62500 7.47917 1.62500 8.00000  c
1.62500 8.66667 1.72135 9.25000 1.91406 9.75000  c
2.10677 10.2500 2.40885 10.6250 2.82031 10.8750  c
3.23177 11.1250 3.67708 11.2500 4.15625 11.2500  c
4.73958 11.2500 5.23438 11.0807 5.64062 10.7422  c
6.04688 10.4036 6.32292 9.90104 6.46875 9.23438  c
h
f
[ 1.00000 0.00000 0.00000 1.00000 0.00000 0.00000 ] defaultmatrix matrix concatmatrix setmatrix
[ 1.00000 0.00000 0.00000 1.00000 0.00000 0.00000 ] defaultmatrix matrix concatmatrix setmatrix
[ 1.00000 0.00000 0.00000 1.00000 52.2490 54.8295 ] concat
0.00000 0.00000 .607843 RG
newpath
.343750 6.48438 m
1.04688 6.39062 l
1.11979 6.78646 1.25521 7.07292 1.45312 7.25000  c
1.65104 7.42708 1.88542 7.51562 2.15625 7.51562  c
2.48958 7.51562 2.77083 7.40104 3.00000 7.17188  c
3.22917 6.94271 3.34375 6.66146 3.34375 6.32812  c
3.34375 6.00521 3.23698 5.73698 3.02344 5.52344  c
2.80990 5.30990 2.54167 5.20312 2.21875 5.20312  c
2.08333 5.20312 1.91667 5.22917 1.71875 5.28125  c
1.79688 4.67188 l
1.84896 4.67188 1.89062 4.67188 1.92188 4.67188  c
2.21354 4.67188 2.47917 4.59375 2.71875 4.43750  c
2.95833 4.28125 3.07812 4.04167 3.07812 3.71875  c
3.07812 3.45833 2.99219 3.24479 2.82031 3.07812  c
2.64844 2.91146 2.42188 2.82812 2.14062 2.82812  c
1.86979 2.82812 1.64323 2.91406 1.46094 3.08594  c
1.27865 3.25781 1.16146 3.51562 1.10938 3.85938  c
.406250 3.73438 l
.489583 3.26562 .684896 2.90104 .992188 2.64062  c
1.29948 2.38021 1.67708 2.25000 2.12500 2.25000  c
2.43750 2.25000 2.72656 2.31771 2.99219 2.45312  c
3.25781 2.58854 3.46094 2.77083 3.60156 3.00000  c
3.74219 3.22917 3.81250 3.47396 3.81250 3.73438  c
3.81250 3.98438 3.74479 4.21094 3.60938 4.41406  c
3.47396 4.61719 3.27604 4.77604 3.01562 4.89062  c
3.35938 4.97396 3.62500 5.13802 3.81250 5.38281  c
4.00000 5.62760 4.09375 5.93750 4.09375 6.31250  c
4.09375 6.81250 3.91146 7.23698 3.54688 7.58594  c
3.18229 7.93490 2.71875 8.10938 2.15625 8.10938  c
1.65625 8.10938 1.23958 7.95833 .906250 7.65625  c
.572917 7.35417 .385417 6.96354 .343750 6.48438  c
h
f
[ 1.00000 0.00000 0.00000 1.00000 0.00000 0.00000 ] defaultmatrix matrix concatmatrix setmatrix
[ 1.00000 0.00000 0.00000 1.00000 0.00000 0.00000 ] defaultmatrix matrix concatmatrix setmatrix
0.00000 0.00000 0.00000 RG
0.00000 0.00000 .607843 RG
1.00000 1.00000 1.00000 RG
0.00000 0.00000 0.00000 RG
1.00000 1.00000 1.00000 RG
newpath
18.5880 54.7318 m
17.1804 54.7318 16.0392 55.8730 16.0392 57.2806  c
16.0392 62.3783 l
16.0392 63.7860 17.1804 64.9271 18.5880 64.9271  c
20.4591 64.9271 l
21.8668 64.9271 23.0080 63.7860 23.0080 62.3783  c
23.0080 57.2806 l
23.0080 55.8730 21.8668 54.7318 20.4591 54.7318  c
h
f
0.00000 0.00000 0.00000 RG
[ 1.00000 0.00000 0.00000 1.00000 16.0236 52.2592 ] concat
newpath
6.46875 9.23438 m
7.51562 9.50000 l
7.29688 10.3542 6.90365 11.0078 6.33594 11.4609  c
5.76823 11.9141 5.07292 12.1406 4.25000 12.1406  c
3.39583 12.1406 2.70312 11.9661 2.17188 11.6172  c
1.64062 11.2682 1.23698 10.7656 .960938 10.1094  c
.684896 9.45312 .546875 8.75000 .546875 8.00000  c
.546875 7.18750 .703125 6.47396 1.01562 5.85938  c
1.32812 5.24479 1.77344 4.77865 2.35156 4.46094  c
2.92969 4.14323 3.56771 3.98438 4.26562 3.98438  c
5.05729 3.98438 5.72135 4.18490 6.25781 4.58594  c
6.79427 4.98698 7.16667 5.55208 7.37500 6.28125  c
6.34375 6.53125 l
6.16667 5.95833 5.90365 5.54167 5.55469 5.28125  c
5.20573 5.02083 4.77083 4.89062 4.25000 4.89062  c
3.63542 4.89062 3.12500 5.03385 2.71875 5.32031  c
2.31250 5.60677 2.02865 5.99479 1.86719 6.48438  c
1.70573 6.97396 1.62500 7.47917 1.62500 8.00000  c
1.62500 8.66667 1.72135 9.25000 1.91406 9.75000  c
2.10677 10.2500 2.40885 10.6250 2.82031 10.8750  c
3.23177 11.1250 3.67708 11.2500 4.15625 11.2500  c
4.73958 11.2500 5.23438 11.0807 5.64062 10.7422  c
6.04688 10.4036 6.32292 9.90104 6.46875 9.23438  c
h
f
[ 1.00000 0.00000 0.00000 1.00000 0.00000 0.00000 ] defaultmatrix matrix concatmatrix setmatrix
[ 1.00000 0.00000 0.00000 1.00000 0.00000 0.00000 ] defaultmatrix matrix concatmatrix setmatrix
[ 1.00000 0.00000 0.00000 1.00000 10.4606 54.8295 ] concat
0.00000 0.00000 .607843 RG
newpath
2.59375 8.00000 m
2.59375 6.62500 l
.109375 6.62500 l
.109375 5.98438 l
2.71875 2.26562 l
3.29688 2.26562 l
3.29688 5.98438 l
4.06250 5.98438 l
4.06250 6.62500 l
3.29688 6.62500 l
3.29688 8.00000 l
2.59375 8.00000 l
h
2.59375 5.98438 m
2.59375 3.40625 l
.796875 5.98438 l
2.59375 5.98438 l
h
f
[ 1.00000 0.00000 0.00000 1.00000 0.00000 0.00000 ] defaultmatrix matrix concatmatrix setmatrix
[ 1.00000 0.00000 0.00000 1.00000 0.00000 0.00000 ] defaultmatrix matrix concatmatrix setmatrix
0.00000 0.00000 0.00000 RG
0.00000 0.00000 .607843 RG
1.00000 1.00000 1.00000 RG
.200000 .200000 .200000 RG
1.00000 1.00000 1.00000 RG
newpath
88.2350 30.8147 m
86.8759 30.8147 85.7741 31.9165 85.7741 33.2757  c
85.7741 38.1976 l
85.7741 39.5567 86.8759 40.6585 88.2350 40.6585  c
89.5006 40.6585 l
90.8598 40.6585 91.9616 39.5567 91.9616 38.1976  c
91.9616 33.2757 l
91.9616 31.9165 90.8598 30.8147 89.5006 30.8147  c
h
f
.200000 .200000 .200000 RG
[ 1.00000 0.00000 0.00000 1.00000 85.3678 28.2366 ] concat
newpath
.875000 12.0000 m
.875000 4.12500 l
1.92188 4.12500 l
1.92188 7.35938 l
6.01562 7.35938 l
6.01562 4.12500 l
7.06250 4.12500 l
7.06250 12.0000 l
6.01562 12.0000 l
6.01562 8.28125 l
1.92188 8.28125 l
1.92188 12.0000 l
.875000 12.0000 l
h
f
[ 1.00000 0.00000 0.00000 1.00000 0.00000 0.00000 ] defaultmatrix matrix concatmatrix setmatrix
[ 1.00000 0.00000 0.00000 1.00000 0.00000 0.00000 ] defaultmatrix matrix concatmatrix setmatrix
[ 1.00000 0.00000 0.00000 1.00000 93.7980 30.7366 ] concat
0.00000 0.00000 .607843 RG
newpath
.328125 6.50000 m
1.07812 6.43750 l
1.13021 6.79167 1.25521 7.05990 1.45312 7.24219  c
1.65104 7.42448 1.89062 7.51562 2.17188 7.51562  c
2.51562 7.51562 2.80469 7.38802 3.03906 7.13281  c
3.27344 6.87760 3.39062 6.54167 3.39062 6.12500  c
3.39062 5.71875 3.27604 5.40104 3.04688 5.17188  c
2.81771 4.94271 2.52083 4.82812 2.15625 4.82812  c
1.93750 4.82812 1.73698 4.87760 1.55469 4.97656  c
1.37240 5.07552 1.22917 5.20833 1.12500 5.37500  c
.453125 5.29688 l
1.01562 2.34375 l
3.85938 2.34375 l
3.85938 3.01562 l
1.57812 3.01562 l
1.26562 4.56250 l
1.60938 4.32292 1.96875 4.20312 2.34375 4.20312  c
2.84375 4.20312 3.26562 4.37500 3.60938 4.71875  c
3.95312 5.06250 4.12500 5.51042 4.12500 6.06250  c
4.12500 6.57292 3.97396 7.02083 3.67188 7.40625  c
3.30729 7.86458 2.80729 8.09375 2.17188 8.09375  c
1.65104 8.09375 1.22656 7.94792 .898438 7.65625  c
.570312 7.36458 .380208 6.97917 .328125 6.50000  c
h
f
[ 1.00000 0.00000 0.00000 1.00000 0.00000 0.00000 ] defaultmatrix matrix concatmatrix setmatrix
[ 1.00000 0.00000 0.00000 1.00000 0.00000 0.00000 ] defaultmatrix matrix concatmatrix setmatrix
.200000 .200000 .200000 RG
0.00000 0.00000 .607843 RG
1.00000 1.00000 1.00000 RG
1.00000 0.00000 0.00000 RG
1.00000 1.00000 1.00000 RG
newpath
186.964 59.1736 m
185.556 59.1736 184.415 60.3147 184.415 61.7224  c
184.415 66.8201 l
184.415 68.2277 185.556 69.3689 186.964 69.3689  c
189.397 69.3689 l
190.805 69.3689 191.946 68.2277 191.946 66.8201  c
191.946 61.7224 l
191.946 60.3147 190.805 59.1736 189.397 59.1736  c
h
f
1.00000 0.00000 0.00000 RG
[ 1.00000 0.00000 0.00000 1.00000 184.180 56.7009 ] concat
newpath
.531250 8.17188 m
.531250 6.85938 .882812 5.83333 1.58594 5.09375  c
2.28906 4.35417 3.19271 3.98438 4.29688 3.98438  c
5.02604 3.98438 5.68229 4.15885 6.26562 4.50781  c
6.84896 4.85677 7.29427 5.34115 7.60156 5.96094  c
7.90885 6.58073 8.06250 7.28646 8.06250 8.07812  c
8.06250 8.86979 7.90104 9.58073 7.57812 10.2109  c
7.25521 10.8411 6.79948 11.3203 6.21094 11.6484  c
5.62240 11.9766 4.98438 12.1406 4.29688 12.1406  c
3.55729 12.1406 2.89583 11.9609 2.31250 11.6016  c
1.72917 11.2422 1.28646 10.7526 .984375 10.1328  c
.682292 9.51302 .531250 8.85938 .531250 8.17188  c
h
1.60938 8.18750 m
1.60938 9.13542 1.86458 9.88281 2.37500 10.4297  c
2.88542 10.9766 3.52604 11.2500 4.29688 11.2500  c
5.07812 11.2500 5.72135 10.9740 6.22656 10.4219  c
6.73177 9.86979 6.98438 9.08333 6.98438 8.06250  c
6.98438 7.42708 6.87760 6.86979 6.66406 6.39062  c
6.45052 5.91146 6.13542 5.54167 5.71875 5.28125  c
5.30208 5.02083 4.83333 4.89062 4.31250 4.89062  c
3.57292 4.89062 2.93750 5.14323 2.40625 5.64844  c
1.87500 6.15365 1.60938 7.00000 1.60938 8.18750  c
h
f
[ 1.00000 0.00000 0.00000 1.00000 0.00000 0.00000 ] defaultmatrix matrix concatmatrix setmatrix
[ 1.00000 0.00000 0.00000 1.00000 0.00000 0.00000 ] defaultmatrix matrix concatmatrix setmatrix
[ 1.00000 0.00000 0.00000 1.00000 186.180 65.3885 ] concat
0.00000 0.00000 .607843 RG
newpath
3.98438 3.67188 m
3.28125 3.73438 l
3.21875 3.45312 3.13021 3.25000 3.01562 3.12500  c
2.82812 2.92708 2.59375 2.82812 2.31250 2.82812  c
2.09375 2.82812 1.89583 2.89062 1.71875 3.01562  c
1.50000 3.17188 1.32812 3.40625 1.20312 3.71875  c
1.07812 4.03125 1.01042 4.47396 1.00000 5.04688  c
1.16667 4.78646 1.37240 4.59375 1.61719 4.46875  c
1.86198 4.34375 2.11979 4.28125 2.39062 4.28125  c
2.85938 4.28125 3.25781 4.45312 3.58594 4.79688  c
3.91406 5.14062 4.07812 5.58854 4.07812 6.14062  c
4.07812 6.49479 4.00260 6.82812 3.85156 7.14062  c
3.70052 7.45312 3.48958 7.69010 3.21875 7.85156  c
2.94792 8.01302 2.64062 8.09375 2.29688 8.09375  c
1.70312 8.09375 1.22135 7.87760 .851562 7.44531  c
.481771 7.01302 .296875 6.30208 .296875 5.31250  c
.296875 4.20833 .505208 3.40625 .921875 2.90625  c
1.27604 2.46875 1.75521 2.25000 2.35938 2.25000  c
2.80729 2.25000 3.17448 2.37500 3.46094 2.62500  c
3.74740 2.87500 3.92188 3.22396 3.98438 3.67188  c
h
1.10938 6.14062 m
1.10938 6.38021 1.16146 6.61198 1.26562 6.83594  c
1.36979 7.05990 1.51302 7.22917 1.69531 7.34375  c
1.87760 7.45833 2.07292 7.51562 2.28125 7.51562  c
2.57292 7.51562 2.82552 7.39583 3.03906 7.15625  c
3.25260 6.91667 3.35938 6.59375 3.35938 6.18750  c
3.35938 5.79167 3.25521 5.47917 3.04688 5.25000  c
2.83854 5.02083 2.57292 4.90625 2.25000 4.90625  c
1.93750 4.90625 1.66927 5.02083 1.44531 5.25000  c
1.22135 5.47917 1.10938 5.77604 1.10938 6.14062  c
h
f
[ 1.00000 0.00000 0.00000 1.00000 0.00000 0.00000 ] defaultmatrix matrix concatmatrix setmatrix
[ 1.00000 0.00000 0.00000 1.00000 0.00000 0.00000 ] defaultmatrix matrix concatmatrix setmatrix
1.00000 0.00000 0.00000 RG
0.00000 0.00000 .607843 RG
1.00000 1.00000 1.00000 RG
.200000 .200000 .200000 RG
1.00000 1.00000 1.00000 RG
newpath
163.525 45.4098 m
162.166 45.4098 161.064 46.5116 161.064 47.8708  c
161.064 52.7926 l
161.064 54.1518 162.166 55.2536 163.525 55.2536  c
164.791 55.2536 l
166.150 55.2536 167.252 54.1518 167.252 52.7926  c
167.252 47.8708 l
167.252 46.5116 166.150 45.4098 164.791 45.4098  c
h
f
.200000 .200000 .200000 RG
[ 1.00000 0.00000 0.00000 1.00000 160.658 42.8317 ] concat
newpath
.875000 12.0000 m
.875000 4.12500 l
1.92188 4.12500 l
1.92188 7.35938 l
6.01562 7.35938 l
6.01562 4.12500 l
7.06250 4.12500 l
7.06250 12.0000 l
6.01562 12.0000 l
6.01562 8.28125 l
1.92188 8.28125 l
1.92188 12.0000 l
.875000 12.0000 l
h
f
[ 1.00000 0.00000 0.00000 1.00000 0.00000 0.00000 ] defaultmatrix matrix concatmatrix setmatrix
[ 1.00000 0.00000 0.00000 1.00000 0.00000 0.00000 ] defaultmatrix matrix concatmatrix setmatrix
[ 1.00000 0.00000 0.00000 1.00000 156.220 39.5744 ] concat
0.00000 0.00000 .607843 RG
newpath
.375000 3.01562 m
.375000 2.34375 l
4.09375 2.34375 l
4.09375 2.89062 l
3.72917 3.27604 3.36719 3.79167 3.00781 4.43750  c
2.64844 5.08333 2.36979 5.74479 2.17188 6.42188  c
2.03646 6.90104 1.94792 7.42708 1.90625 8.00000  c
1.18750 8.00000 l
1.18750 7.55208 1.27344 7.00781 1.44531 6.36719  c
1.61719 5.72656 1.86198 5.10938 2.17969 4.51562  c
2.49740 3.92188 2.83333 3.42188 3.18750 3.01562  c
.375000 3.01562 l
h
f
[ 1.00000 0.00000 0.00000 1.00000 0.00000 0.00000 ] defaultmatrix matrix concatmatrix setmatrix
[ 1.00000 0.00000 0.00000 1.00000 0.00000 0.00000 ] defaultmatrix matrix concatmatrix setmatrix
.200000 .200000 .200000 RG
0.00000 0.00000 .607843 RG
1.00000 1.00000 1.00000 RG
0.00000 0.00000 0.00000 RG
1.00000 1.00000 1.00000 RG
newpath
211.266 45.3044 m
209.858 45.3044 208.717 46.4455 208.717 47.8532  c
208.717 52.9508 l
208.717 54.3585 209.858 55.4997 211.266 55.4997  c
213.137 55.4997 l
214.544 55.4997 215.685 54.3585 215.685 52.9508  c
215.685 47.8532 l
215.685 46.4455 214.544 45.3044 213.137 45.3044  c
h
f
0.00000 0.00000 0.00000 RG
[ 1.00000 0.00000 0.00000 1.00000 208.701 42.8317 ] concat
newpath
6.46875 9.23438 m
7.51562 9.50000 l
7.29688 10.3542 6.90365 11.0078 6.33594 11.4609  c
5.76823 11.9141 5.07292 12.1406 4.25000 12.1406  c
3.39583 12.1406 2.70312 11.9661 2.17188 11.6172  c
1.64062 11.2682 1.23698 10.7656 .960938 10.1094  c
.684896 9.45312 .546875 8.75000 .546875 8.00000  c
.546875 7.18750 .703125 6.47396 1.01562 5.85938  c
1.32812 5.24479 1.77344 4.77865 2.35156 4.46094  c
2.92969 4.14323 3.56771 3.98438 4.26562 3.98438  c
5.05729 3.98438 5.72135 4.18490 6.25781 4.58594  c
6.79427 4.98698 7.16667 5.55208 7.37500 6.28125  c
6.34375 6.53125 l
6.16667 5.95833 5.90365 5.54167 5.55469 5.28125  c
5.20573 5.02083 4.77083 4.89062 4.25000 4.89062  c
3.63542 4.89062 3.12500 5.03385 2.71875 5.32031  c
2.31250 5.60677 2.02865 5.99479 1.86719 6.48438  c
1.70573 6.97396 1.62500 7.47917 1.62500 8.00000  c
1.62500 8.66667 1.72135 9.25000 1.91406 9.75000  c
2.10677 10.2500 2.40885 10.6250 2.82031 10.8750  c
3.23177 11.1250 3.67708 11.2500 4.15625 11.2500  c
4.73958 11.2500 5.23438 11.0807 5.64062 10.7422  c
6.04688 10.4036 6.32292 9.90104 6.46875 9.23438  c
h
f
[ 1.00000 0.00000 0.00000 1.00000 0.00000 0.00000 ] defaultmatrix matrix concatmatrix setmatrix
[ 1.00000 0.00000 0.00000 1.00000 0.00000 0.00000 ] defaultmatrix matrix concatmatrix setmatrix
[ 1.00000 0.00000 0.00000 1.00000 216.267 39.5124 ] concat
0.00000 0.00000 .607843 RG
newpath
1.42188 4.89062 m
1.13021 4.78646 .914062 4.63542 .773438 4.43750  c
.632812 4.23958 .562500 4.00000 .562500 3.71875  c
.562500 3.30208 .710938 2.95312 1.00781 2.67188  c
1.30469 2.39062 1.70312 2.25000 2.20312 2.25000  c
2.70312 2.25000 3.10417 2.39583 3.40625 2.68750  c
3.70833 2.97917 3.85938 3.33333 3.85938 3.75000  c
3.85938 4.01042 3.79167 4.23958 3.65625 4.43750  c
3.52083 4.63542 3.30729 4.78646 3.01562 4.89062  c
3.36979 5.00521 3.63802 5.19010 3.82031 5.44531  c
4.00260 5.70052 4.09375 6.00521 4.09375 6.35938  c
4.09375 6.84896 3.92188 7.26042 3.57812 7.59375  c
3.23438 7.92708 2.78125 8.09375 2.21875 8.09375  c
1.64583 8.09375 1.18750 7.92708 .843750 7.59375  c
.500000 7.26042 .328125 6.84375 .328125 6.34375  c
.328125 5.96875 .421875 5.65625 .609375 5.40625  c
.796875 5.15625 1.06771 4.98438 1.42188 4.89062  c
h
1.28125 3.70312 m
1.28125 3.97396 1.36719 4.19531 1.53906 4.36719  c
1.71094 4.53906 1.93750 4.62500 2.21875 4.62500  c
2.48958 4.62500 2.71094 4.53906 2.88281 4.36719  c
3.05469 4.19531 3.14062 3.98438 3.14062 3.73438  c
3.14062 3.48438 3.05208 3.27083 2.87500 3.09375  c
2.69792 2.91667 2.47396 2.82812 2.20312 2.82812  c
1.94271 2.82812 1.72396 2.91406 1.54688 3.08594  c
1.36979 3.25781 1.28125 3.46354 1.28125 3.70312  c
h
1.04688 6.34375 m
1.04688 6.54167 1.09375 6.73438 1.18750 6.92188  c
1.28125 7.10938 1.42188 7.25521 1.60938 7.35938  c
1.79688 7.46354 2.00000 7.51562 2.21875 7.51562  c
2.55208 7.51562 2.82812 7.40885 3.04688 7.19531  c
3.26562 6.98177 3.37500 6.70833 3.37500 6.37500  c
3.37500 6.03125 3.26302 5.75000 3.03906 5.53125  c
2.81510 5.31250 2.53646 5.20312 2.20312 5.20312  c
1.86979 5.20312 1.59375 5.31250 1.37500 5.53125  c
1.15625 5.75000 1.04688 6.02083 1.04688 6.34375  c
h
f
[ 1.00000 0.00000 0.00000 1.00000 0.00000 0.00000 ] defaultmatrix matrix concatmatrix setmatrix
[ 1.00000 0.00000 0.00000 1.00000 0.00000 0.00000 ] defaultmatrix matrix concatmatrix setmatrix
0.00000 0.00000 0.00000 RG
0.00000 0.00000 .607843 RG
1.00000 1.00000 1.00000 RG
1.00000 0.00000 0.00000 RG
1.00000 1.00000 1.00000 RG
newpath
393.510 66.3802 m
392.103 66.3802 390.961 67.5213 390.961 68.9290  c
390.961 74.0266 l
390.961 75.4343 392.103 76.5755 393.510 76.5755  c
395.944 76.5755 l
397.352 76.5755 398.493 75.4343 398.493 74.0266  c
398.493 68.9290 l
398.493 67.5213 397.352 66.3802 395.944 66.3802  c
h
f
1.00000 0.00000 0.00000 RG
[ 1.00000 0.00000 0.00000 1.00000 390.727 63.9075 ] concat
newpath
.531250 8.17188 m
.531250 6.85938 .882812 5.83333 1.58594 5.09375  c
2.28906 4.35417 3.19271 3.98438 4.29688 3.98438  c
5.02604 3.98438 5.68229 4.15885 6.26562 4.50781  c
6.84896 4.85677 7.29427 5.34115 7.60156 5.96094  c
7.90885 6.58073 8.06250 7.28646 8.06250 8.07812  c
8.06250 8.86979 7.90104 9.58073 7.57812 10.2109  c
7.25521 10.8411 6.79948 11.3203 6.21094 11.6484  c
5.62240 11.9766 4.98438 12.1406 4.29688 12.1406  c
3.55729 12.1406 2.89583 11.9609 2.31250 11.6016  c
1.72917 11.2422 1.28646 10.7526 .984375 10.1328  c
.682292 9.51302 .531250 8.85938 .531250 8.17188  c
h
1.60938 8.18750 m
1.60938 9.13542 1.86458 9.88281 2.37500 10.4297  c
2.88542 10.9766 3.52604 11.2500 4.29688 11.2500  c
5.07812 11.2500 5.72135 10.9740 6.22656 10.4219  c
6.73177 9.86979 6.98438 9.08333 6.98438 8.06250  c
6.98438 7.42708 6.87760 6.86979 6.66406 6.39062  c
6.45052 5.91146 6.13542 5.54167 5.71875 5.28125  c
5.30208 5.02083 4.83333 4.89062 4.31250 4.89062  c
3.57292 4.89062 2.93750 5.14323 2.40625 5.64844  c
1.87500 6.15365 1.60938 7.00000 1.60938 8.18750  c
h
f
[ 1.00000 0.00000 0.00000 1.00000 0.00000 0.00000 ] defaultmatrix matrix concatmatrix setmatrix
[ 1.00000 0.00000 0.00000 1.00000 0.00000 0.00000 ] defaultmatrix matrix concatmatrix setmatrix
[ 1.00000 0.00000 0.00000 1.00000 392.727 72.5950 ] concat
0.00000 0.00000 .607843 RG
newpath
2.98438 8.00000 m
2.28125 8.00000 l
2.28125 3.51562 l
2.11458 3.68229 1.89323 3.84635 1.61719 4.00781  c
1.34115 4.16927 1.09375 4.28646 .875000 4.35938  c
.875000 3.68750 l
1.27083 3.50000 1.61458 3.27604 1.90625 3.01562  c
2.19792 2.75521 2.40625 2.50000 2.53125 2.25000  c
2.98438 2.25000 l
2.98438 8.00000 l
h
f
[ 1.00000 0.00000 0.00000 1.00000 0.00000 0.00000 ] defaultmatrix matrix concatmatrix setmatrix
[ 1.00000 0.00000 0.00000 1.00000 0.00000 0.00000 ] defaultmatrix matrix concatmatrix setmatrix
1.00000 0.00000 0.00000 RG
0.00000 0.00000 .607843 RG
1.00000 1.00000 1.00000 RG
.200000 .200000 .200000 RG
1.00000 1.00000 1.00000 RG
newpath
370.072 52.6164 m
368.713 52.6164 367.611 53.7182 367.611 55.0774  c
367.611 59.9992 l
367.611 61.3584 368.713 62.4602 370.072 62.4602  c
371.337 62.4602 l
372.696 62.4602 373.798 61.3584 373.798 59.9992  c
373.798 55.0774 l
373.798 53.7182 372.696 52.6164 371.337 52.6164  c
h
f
.200000 .200000 .200000 RG
[ 1.00000 0.00000 0.00000 1.00000 367.205 50.0383 ] concat
newpath
.875000 12.0000 m
.875000 4.12500 l
1.92188 4.12500 l
1.92188 7.35938 l
6.01562 7.35938 l
6.01562 4.12500 l
7.06250 4.12500 l
7.06250 12.0000 l
6.01562 12.0000 l
6.01562 8.28125 l
1.92188 8.28125 l
1.92188 12.0000 l
.875000 12.0000 l
h
f
[ 1.00000 0.00000 0.00000 1.00000 0.00000 0.00000 ] defaultmatrix matrix concatmatrix setmatrix
[ 1.00000 0.00000 0.00000 1.00000 0.00000 0.00000 ] defaultmatrix matrix concatmatrix setmatrix
[ 1.00000 0.00000 0.00000 1.00000 362.767 46.7810 ] concat
0.00000 0.00000 .607843 RG
newpath
.375000 3.01562 m
.375000 2.34375 l
4.09375 2.34375 l
4.09375 2.89062 l
3.72917 3.27604 3.36719 3.79167 3.00781 4.43750  c
2.64844 5.08333 2.36979 5.74479 2.17188 6.42188  c
2.03646 6.90104 1.94792 7.42708 1.90625 8.00000  c
1.18750 8.00000 l
1.18750 7.55208 1.27344 7.00781 1.44531 6.36719  c
1.61719 5.72656 1.86198 5.10938 2.17969 4.51562  c
2.49740 3.92188 2.83333 3.42188 3.18750 3.01562  c
.375000 3.01562 l
h
f
[ 1.00000 0.00000 0.00000 1.00000 0.00000 0.00000 ] defaultmatrix matrix concatmatrix setmatrix
[ 1.00000 0.00000 0.00000 1.00000 0.00000 0.00000 ] defaultmatrix matrix concatmatrix setmatrix
.200000 .200000 .200000 RG
0.00000 0.00000 .607843 RG
1.00000 1.00000 1.00000 RG
.200000 .200000 .200000 RG
1.00000 1.00000 1.00000 RG
newpath
418.117 52.6164 m
416.758 52.6164 415.656 53.7182 415.656 55.0774  c
415.656 59.9992 l
415.656 61.3584 416.758 62.4602 418.117 62.4602  c
419.382 62.4602 l
420.742 62.4602 421.843 61.3584 421.843 59.9992  c
421.843 55.0774 l
421.843 53.7182 420.742 52.6164 419.382 52.6164  c
h
f
.200000 .200000 .200000 RG
[ 1.00000 0.00000 0.00000 1.00000 415.250 50.0383 ] concat
newpath
.875000 12.0000 m
.875000 4.12500 l
1.92188 4.12500 l
1.92188 7.35938 l
6.01562 7.35938 l
6.01562 4.12500 l
7.06250 4.12500 l
7.06250 12.0000 l
6.01562 12.0000 l
6.01562 8.28125 l
1.92188 8.28125 l
1.92188 12.0000 l
.875000 12.0000 l
h
f
[ 1.00000 0.00000 0.00000 1.00000 0.00000 0.00000 ] defaultmatrix matrix concatmatrix setmatrix
[ 1.00000 0.00000 0.00000 1.00000 0.00000 0.00000 ] defaultmatrix matrix concatmatrix setmatrix
[ 1.00000 0.00000 0.00000 1.00000 422.751 46.7480 ] concat
0.00000 0.00000 .607843 RG
newpath
.328125 6.50000 m
1.07812 6.43750 l
1.13021 6.79167 1.25521 7.05990 1.45312 7.24219  c
1.65104 7.42448 1.89062 7.51562 2.17188 7.51562  c
2.51562 7.51562 2.80469 7.38802 3.03906 7.13281  c
3.27344 6.87760 3.39062 6.54167 3.39062 6.12500  c
3.39062 5.71875 3.27604 5.40104 3.04688 5.17188  c
2.81771 4.94271 2.52083 4.82812 2.15625 4.82812  c
1.93750 4.82812 1.73698 4.87760 1.55469 4.97656  c
1.37240 5.07552 1.22917 5.20833 1.12500 5.37500  c
.453125 5.29688 l
1.01562 2.34375 l
3.85938 2.34375 l
3.85938 3.01562 l
1.57812 3.01562 l
1.26562 4.56250 l
1.60938 4.32292 1.96875 4.20312 2.34375 4.20312  c
2.84375 4.20312 3.26562 4.37500 3.60938 4.71875  c
3.95312 5.06250 4.12500 5.51042 4.12500 6.06250  c
4.12500 6.57292 3.97396 7.02083 3.67188 7.40625  c
3.30729 7.86458 2.80729 8.09375 2.17188 8.09375  c
1.65104 8.09375 1.22656 7.94792 .898438 7.65625  c
.570312 7.36458 .380208 6.97917 .328125 6.50000  c
h
f
[ 1.00000 0.00000 0.00000 1.00000 0.00000 0.00000 ] defaultmatrix matrix concatmatrix setmatrix
[ 1.00000 0.00000 0.00000 1.00000 0.00000 0.00000 ] defaultmatrix matrix concatmatrix setmatrix
.200000 .200000 .200000 RG
0.00000 0.00000 .607843 RG
1.00000 1.00000 1.00000 RG
1.00000 0.00000 0.00000 RG
1.00000 1.00000 1.00000 RG
newpath
534.429 42.7214 m
533.021 42.7214 531.880 43.8626 531.880 45.2703  c
531.880 50.3679 l
531.880 51.7756 533.021 52.9168 534.429 52.9168  c
536.862 52.9168 l
538.270 52.9168 539.411 51.7756 539.411 50.3679  c
539.411 45.2703 l
539.411 43.8626 538.270 42.7214 536.862 42.7214  c
h
f
1.00000 0.00000 0.00000 RG
[ 1.00000 0.00000 0.00000 1.00000 531.645 40.2488 ] concat
newpath
.531250 8.17188 m
.531250 6.85938 .882812 5.83333 1.58594 5.09375  c
2.28906 4.35417 3.19271 3.98438 4.29688 3.98438  c
5.02604 3.98438 5.68229 4.15885 6.26562 4.50781  c
6.84896 4.85677 7.29427 5.34115 7.60156 5.96094  c
7.90885 6.58073 8.06250 7.28646 8.06250 8.07812  c
8.06250 8.86979 7.90104 9.58073 7.57812 10.2109  c
7.25521 10.8411 6.79948 11.3203 6.21094 11.6484  c
5.62240 11.9766 4.98438 12.1406 4.29688 12.1406  c
3.55729 12.1406 2.89583 11.9609 2.31250 11.6016  c
1.72917 11.2422 1.28646 10.7526 .984375 10.1328  c
.682292 9.51302 .531250 8.85938 .531250 8.17188  c
h
1.60938 8.18750 m
1.60938 9.13542 1.86458 9.88281 2.37500 10.4297  c
2.88542 10.9766 3.52604 11.2500 4.29688 11.2500  c
5.07812 11.2500 5.72135 10.9740 6.22656 10.4219  c
6.73177 9.86979 6.98438 9.08333 6.98438 8.06250  c
6.98438 7.42708 6.87760 6.86979 6.66406 6.39062  c
6.45052 5.91146 6.13542 5.54167 5.71875 5.28125  c
5.30208 5.02083 4.83333 4.89062 4.31250 4.89062  c
3.57292 4.89062 2.93750 5.14323 2.40625 5.64844  c
1.87500 6.15365 1.60938 7.00000 1.60938 8.18750  c
h
f
[ 1.00000 0.00000 0.00000 1.00000 0.00000 0.00000 ] defaultmatrix matrix concatmatrix setmatrix
[ 1.00000 0.00000 0.00000 1.00000 0.00000 0.00000 ] defaultmatrix matrix concatmatrix setmatrix
[ 1.00000 0.00000 0.00000 1.00000 540.650 42.8193 ] concat
0.00000 0.00000 .607843 RG
newpath
3.98438 3.67188 m
3.28125 3.73438 l
3.21875 3.45312 3.13021 3.25000 3.01562 3.12500  c
2.82812 2.92708 2.59375 2.82812 2.31250 2.82812  c
2.09375 2.82812 1.89583 2.89062 1.71875 3.01562  c
1.50000 3.17188 1.32812 3.40625 1.20312 3.71875  c
1.07812 4.03125 1.01042 4.47396 1.00000 5.04688  c
1.16667 4.78646 1.37240 4.59375 1.61719 4.46875  c
1.86198 4.34375 2.11979 4.28125 2.39062 4.28125  c
2.85938 4.28125 3.25781 4.45312 3.58594 4.79688  c
3.91406 5.14062 4.07812 5.58854 4.07812 6.14062  c
4.07812 6.49479 4.00260 6.82812 3.85156 7.14062  c
3.70052 7.45312 3.48958 7.69010 3.21875 7.85156  c
2.94792 8.01302 2.64062 8.09375 2.29688 8.09375  c
1.70312 8.09375 1.22135 7.87760 .851562 7.44531  c
.481771 7.01302 .296875 6.30208 .296875 5.31250  c
.296875 4.20833 .505208 3.40625 .921875 2.90625  c
1.27604 2.46875 1.75521 2.25000 2.35938 2.25000  c
2.80729 2.25000 3.17448 2.37500 3.46094 2.62500  c
3.74740 2.87500 3.92188 3.22396 3.98438 3.67188  c
h
1.10938 6.14062 m
1.10938 6.38021 1.16146 6.61198 1.26562 6.83594  c
1.36979 7.05990 1.51302 7.22917 1.69531 7.34375  c
1.87760 7.45833 2.07292 7.51562 2.28125 7.51562  c
2.57292 7.51562 2.82552 7.39583 3.03906 7.15625  c
3.25260 6.91667 3.35938 6.59375 3.35938 6.18750  c
3.35938 5.79167 3.25521 5.47917 3.04688 5.25000  c
2.83854 5.02083 2.57292 4.90625 2.25000 4.90625  c
1.93750 4.90625 1.66927 5.02083 1.44531 5.25000  c
1.22135 5.47917 1.10938 5.77604 1.10938 6.14062  c
h
f
[ 1.00000 0.00000 0.00000 1.00000 0.00000 0.00000 ] defaultmatrix matrix concatmatrix setmatrix
[ 1.00000 0.00000 0.00000 1.00000 0.00000 0.00000 ] defaultmatrix matrix concatmatrix setmatrix
1.00000 0.00000 0.00000 RG
0.00000 0.00000 .607843 RG
1.00000 1.00000 1.00000 RG
0.00000 0.00000 0.00000 RG
1.00000 1.00000 1.00000 RG
newpath
520.841 18.6989 m
519.433 18.6989 518.292 19.8401 518.292 21.2477  c
518.292 26.3454 l
518.292 27.7531 519.433 28.8942 520.841 28.8942  c
522.712 28.8942 l
524.119 28.8942 525.261 27.7531 525.261 26.3454  c
525.261 21.2477 l
525.261 19.8401 524.119 18.6989 522.712 18.6989  c
h
f
0.00000 0.00000 0.00000 RG
[ 1.00000 0.00000 0.00000 1.00000 518.276 16.2262 ] concat
newpath
6.46875 9.23438 m
7.51562 9.50000 l
7.29688 10.3542 6.90365 11.0078 6.33594 11.4609  c
5.76823 11.9141 5.07292 12.1406 4.25000 12.1406  c
3.39583 12.1406 2.70312 11.9661 2.17188 11.6172  c
1.64062 11.2682 1.23698 10.7656 .960938 10.1094  c
.684896 9.45312 .546875 8.75000 .546875 8.00000  c
.546875 7.18750 .703125 6.47396 1.01562 5.85938  c
1.32812 5.24479 1.77344 4.77865 2.35156 4.46094  c
2.92969 4.14323 3.56771 3.98438 4.26562 3.98438  c
5.05729 3.98438 5.72135 4.18490 6.25781 4.58594  c
6.79427 4.98698 7.16667 5.55208 7.37500 6.28125  c
6.34375 6.53125 l
6.16667 5.95833 5.90365 5.54167 5.55469 5.28125  c
5.20573 5.02083 4.77083 4.89062 4.25000 4.89062  c
3.63542 4.89062 3.12500 5.03385 2.71875 5.32031  c
2.31250 5.60677 2.02865 5.99479 1.86719 6.48438  c
1.70573 6.97396 1.62500 7.47917 1.62500 8.00000  c
1.62500 8.66667 1.72135 9.25000 1.91406 9.75000  c
2.10677 10.2500 2.40885 10.6250 2.82031 10.8750  c
3.23177 11.1250 3.67708 11.2500 4.15625 11.2500  c
4.73958 11.2500 5.23438 11.0807 5.64062 10.7422  c
6.04688 10.4036 6.32292 9.90104 6.46875 9.23438  c
h
f
[ 1.00000 0.00000 0.00000 1.00000 0.00000 0.00000 ] defaultmatrix matrix concatmatrix setmatrix
[ 1.00000 0.00000 0.00000 1.00000 0.00000 0.00000 ] defaultmatrix matrix concatmatrix setmatrix
[ 1.00000 0.00000 0.00000 1.00000 516.015 10.6735 ] concat
0.00000 0.00000 .607843 RG
newpath
1.42188 4.89062 m
1.13021 4.78646 .914062 4.63542 .773438 4.43750  c
.632812 4.23958 .562500 4.00000 .562500 3.71875  c
.562500 3.30208 .710938 2.95312 1.00781 2.67188  c
1.30469 2.39062 1.70312 2.25000 2.20312 2.25000  c
2.70312 2.25000 3.10417 2.39583 3.40625 2.68750  c
3.70833 2.97917 3.85938 3.33333 3.85938 3.75000  c
3.85938 4.01042 3.79167 4.23958 3.65625 4.43750  c
3.52083 4.63542 3.30729 4.78646 3.01562 4.89062  c
3.36979 5.00521 3.63802 5.19010 3.82031 5.44531  c
4.00260 5.70052 4.09375 6.00521 4.09375 6.35938  c
4.09375 6.84896 3.92188 7.26042 3.57812 7.59375  c
3.23438 7.92708 2.78125 8.09375 2.21875 8.09375  c
1.64583 8.09375 1.18750 7.92708 .843750 7.59375  c
.500000 7.26042 .328125 6.84375 .328125 6.34375  c
.328125 5.96875 .421875 5.65625 .609375 5.40625  c
.796875 5.15625 1.06771 4.98438 1.42188 4.89062  c
h
1.28125 3.70312 m
1.28125 3.97396 1.36719 4.19531 1.53906 4.36719  c
1.71094 4.53906 1.93750 4.62500 2.21875 4.62500  c
2.48958 4.62500 2.71094 4.53906 2.88281 4.36719  c
3.05469 4.19531 3.14062 3.98438 3.14062 3.73438  c
3.14062 3.48438 3.05208 3.27083 2.87500 3.09375  c
2.69792 2.91667 2.47396 2.82812 2.20312 2.82812  c
1.94271 2.82812 1.72396 2.91406 1.54688 3.08594  c
1.36979 3.25781 1.28125 3.46354 1.28125 3.70312  c
h
1.04688 6.34375 m
1.04688 6.54167 1.09375 6.73438 1.18750 6.92188  c
1.28125 7.10938 1.42188 7.25521 1.60938 7.35938  c
1.79688 7.46354 2.00000 7.51562 2.21875 7.51562  c
2.55208 7.51562 2.82812 7.40885 3.04688 7.19531  c
3.26562 6.98177 3.37500 6.70833 3.37500 6.37500  c
3.37500 6.03125 3.26302 5.75000 3.03906 5.53125  c
2.81510 5.31250 2.53646 5.20312 2.20312 5.20312  c
1.86979 5.20312 1.59375 5.31250 1.37500 5.53125  c
1.15625 5.75000 1.04688 6.02083 1.04688 6.34375  c
h
f
[ 1.00000 0.00000 0.00000 1.00000 0.00000 0.00000 ] defaultmatrix matrix concatmatrix setmatrix
[ 1.00000 0.00000 0.00000 1.00000 0.00000 0.00000 ] defaultmatrix matrix concatmatrix setmatrix
0.00000 0.00000 0.00000 RG
0.00000 0.00000 .607843 RG
1.00000 1.00000 1.00000 RG
0.00000 0.00000 0.00000 RG
1.00000 1.00000 1.00000 RG
newpath
520.841 66.7422 m
519.433 66.7422 518.292 67.8833 518.292 69.2910  c
518.292 74.3887 l
518.292 75.7964 519.433 76.9375 520.841 76.9375  c
522.712 76.9375 l
524.119 76.9375 525.261 75.7964 525.261 74.3887  c
525.261 69.2910 l
525.261 67.8833 524.119 66.7422 522.712 66.7422  c
h
f
0.00000 0.00000 0.00000 RG
[ 1.00000 0.00000 0.00000 1.00000 518.276 64.2695 ] concat
newpath
6.46875 9.23438 m
7.51562 9.50000 l
7.29688 10.3542 6.90365 11.0078 6.33594 11.4609  c
5.76823 11.9141 5.07292 12.1406 4.25000 12.1406  c
3.39583 12.1406 2.70312 11.9661 2.17188 11.6172  c
1.64062 11.2682 1.23698 10.7656 .960938 10.1094  c
.684896 9.45312 .546875 8.75000 .546875 8.00000  c
.546875 7.18750 .703125 6.47396 1.01562 5.85938  c
1.32812 5.24479 1.77344 4.77865 2.35156 4.46094  c
2.92969 4.14323 3.56771 3.98438 4.26562 3.98438  c
5.05729 3.98438 5.72135 4.18490 6.25781 4.58594  c
6.79427 4.98698 7.16667 5.55208 7.37500 6.28125  c
6.34375 6.53125 l
6.16667 5.95833 5.90365 5.54167 5.55469 5.28125  c
5.20573 5.02083 4.77083 4.89062 4.25000 4.89062  c
3.63542 4.89062 3.12500 5.03385 2.71875 5.32031  c
2.31250 5.60677 2.02865 5.99479 1.86719 6.48438  c
1.70573 6.97396 1.62500 7.47917 1.62500 8.00000  c
1.62500 8.66667 1.72135 9.25000 1.91406 9.75000  c
2.10677 10.2500 2.40885 10.6250 2.82031 10.8750  c
3.23177 11.1250 3.67708 11.2500 4.15625 11.2500  c
4.73958 11.2500 5.23438 11.0807 5.64062 10.7422  c
6.04688 10.4036 6.32292 9.90104 6.46875 9.23438  c
h
f
[ 1.00000 0.00000 0.00000 1.00000 0.00000 0.00000 ] defaultmatrix matrix concatmatrix setmatrix
[ 1.00000 0.00000 0.00000 1.00000 0.00000 0.00000 ] defaultmatrix matrix concatmatrix setmatrix
[ 1.00000 0.00000 0.00000 1.00000 516.023 58.7168 ] concat
0.00000 0.00000 .607843 RG
newpath
.343750 6.48438 m
1.04688 6.39062 l
1.11979 6.78646 1.25521 7.07292 1.45312 7.25000  c
1.65104 7.42708 1.88542 7.51562 2.15625 7.51562  c
2.48958 7.51562 2.77083 7.40104 3.00000 7.17188  c
3.22917 6.94271 3.34375 6.66146 3.34375 6.32812  c
3.34375 6.00521 3.23698 5.73698 3.02344 5.52344  c
2.80990 5.30990 2.54167 5.20312 2.21875 5.20312  c
2.08333 5.20312 1.91667 5.22917 1.71875 5.28125  c
1.79688 4.67188 l
1.84896 4.67188 1.89062 4.67188 1.92188 4.67188  c
2.21354 4.67188 2.47917 4.59375 2.71875 4.43750  c
2.95833 4.28125 3.07812 4.04167 3.07812 3.71875  c
3.07812 3.45833 2.99219 3.24479 2.82031 3.07812  c
2.64844 2.91146 2.42188 2.82812 2.14062 2.82812  c
1.86979 2.82812 1.64323 2.91406 1.46094 3.08594  c
1.27865 3.25781 1.16146 3.51562 1.10938 3.85938  c
.406250 3.73438 l
.489583 3.26562 .684896 2.90104 .992188 2.64062  c
1.29948 2.38021 1.67708 2.25000 2.12500 2.25000  c
2.43750 2.25000 2.72656 2.31771 2.99219 2.45312  c
3.25781 2.58854 3.46094 2.77083 3.60156 3.00000  c
3.74219 3.22917 3.81250 3.47396 3.81250 3.73438  c
3.81250 3.98438 3.74479 4.21094 3.60938 4.41406  c
3.47396 4.61719 3.27604 4.77604 3.01562 4.89062  c
3.35938 4.97396 3.62500 5.13802 3.81250 5.38281  c
4.00000 5.62760 4.09375 5.93750 4.09375 6.31250  c
4.09375 6.81250 3.91146 7.23698 3.54688 7.58594  c
3.18229 7.93490 2.71875 8.10938 2.15625 8.10938  c
1.65625 8.10938 1.23958 7.95833 .906250 7.65625  c
.572917 7.35417 .385417 6.96354 .343750 6.48438  c
h
f
[ 1.00000 0.00000 0.00000 1.00000 0.00000 0.00000 ] defaultmatrix matrix concatmatrix setmatrix
[ 1.00000 0.00000 0.00000 1.00000 0.00000 0.00000 ] defaultmatrix matrix concatmatrix setmatrix
0.00000 0.00000 0.00000 RG
0.00000 0.00000 .607843 RG
1.00000 1.00000 1.00000 RG
0.00000 0.00000 0.00000 RG
1.00000 1.00000 1.00000 RG
newpath
534.710 90.7647 m
533.302 90.7647 532.161 91.9059 532.161 93.3136  c
532.161 98.4112 l
532.161 99.8189 533.302 100.960 534.710 100.960  c
536.581 100.960 l
537.989 100.960 539.130 99.8189 539.130 98.4112  c
539.130 93.3136 l
539.130 91.9059 537.989 90.7647 536.581 90.7647  c
h
f
0.00000 0.00000 0.00000 RG
[ 1.00000 0.00000 0.00000 1.00000 532.145 88.2921 ] concat
newpath
6.46875 9.23438 m
7.51562 9.50000 l
7.29688 10.3542 6.90365 11.0078 6.33594 11.4609  c
5.76823 11.9141 5.07292 12.1406 4.25000 12.1406  c
3.39583 12.1406 2.70312 11.9661 2.17188 11.6172  c
1.64062 11.2682 1.23698 10.7656 .960938 10.1094  c
.684896 9.45312 .546875 8.75000 .546875 8.00000  c
.546875 7.18750 .703125 6.47396 1.01562 5.85938  c
1.32812 5.24479 1.77344 4.77865 2.35156 4.46094  c
2.92969 4.14323 3.56771 3.98438 4.26562 3.98438  c
5.05729 3.98438 5.72135 4.18490 6.25781 4.58594  c
6.79427 4.98698 7.16667 5.55208 7.37500 6.28125  c
6.34375 6.53125 l
6.16667 5.95833 5.90365 5.54167 5.55469 5.28125  c
5.20573 5.02083 4.77083 4.89062 4.25000 4.89062  c
3.63542 4.89062 3.12500 5.03385 2.71875 5.32031  c
2.31250 5.60677 2.02865 5.99479 1.86719 6.48438  c
1.70573 6.97396 1.62500 7.47917 1.62500 8.00000  c
1.62500 8.66667 1.72135 9.25000 1.91406 9.75000  c
2.10677 10.2500 2.40885 10.6250 2.82031 10.8750  c
3.23177 11.1250 3.67708 11.2500 4.15625 11.2500  c
4.73958 11.2500 5.23438 11.0807 5.64062 10.7422  c
6.04688 10.4036 6.32292 9.90104 6.46875 9.23438  c
h
f
[ 1.00000 0.00000 0.00000 1.00000 0.00000 0.00000 ] defaultmatrix matrix concatmatrix setmatrix
[ 1.00000 0.00000 0.00000 1.00000 0.00000 0.00000 ] defaultmatrix matrix concatmatrix setmatrix
[ 1.00000 0.00000 0.00000 1.00000 537.461 98.9496 ] concat
0.00000 0.00000 .607843 RG
newpath
2.59375 8.00000 m
2.59375 6.62500 l
.109375 6.62500 l
.109375 5.98438 l
2.71875 2.26562 l
3.29688 2.26562 l
3.29688 5.98438 l
4.06250 5.98438 l
4.06250 6.62500 l
3.29688 6.62500 l
3.29688 8.00000 l
2.59375 8.00000 l
h
2.59375 5.98438 m
2.59375 3.40625 l
.796875 5.98438 l
2.59375 5.98438 l
h
f
[ 1.00000 0.00000 0.00000 1.00000 0.00000 0.00000 ] defaultmatrix matrix concatmatrix setmatrix
[ 1.00000 0.00000 0.00000 1.00000 0.00000 0.00000 ] defaultmatrix matrix concatmatrix setmatrix
0.00000 0.00000 0.00000 RG
0.00000 0.00000 .607843 RG
1.00000 1.00000 1.00000 RG
1.00000 0.00000 0.00000 RG
1.00000 1.00000 1.00000 RG
newpath
492.823 66.7422 m
491.415 66.7422 490.274 67.8833 490.274 69.2910  c
490.274 74.3887 l
490.274 75.7964 491.415 76.9375 492.823 76.9375  c
495.256 76.9375 l
496.664 76.9375 497.805 75.7964 497.805 74.3887  c
497.805 69.2910 l
497.805 67.8833 496.664 66.7422 495.256 66.7422  c
h
f
1.00000 0.00000 0.00000 RG
[ 1.00000 0.00000 0.00000 1.00000 490.040 64.2695 ] concat
newpath
.531250 8.17188 m
.531250 6.85938 .882812 5.83333 1.58594 5.09375  c
2.28906 4.35417 3.19271 3.98438 4.29688 3.98438  c
5.02604 3.98438 5.68229 4.15885 6.26562 4.50781  c
6.84896 4.85677 7.29427 5.34115 7.60156 5.96094  c
7.90885 6.58073 8.06250 7.28646 8.06250 8.07812  c
8.06250 8.86979 7.90104 9.58073 7.57812 10.2109  c
7.25521 10.8411 6.79948 11.3203 6.21094 11.6484  c
5.62240 11.9766 4.98438 12.1406 4.29688 12.1406  c
3.55729 12.1406 2.89583 11.9609 2.31250 11.6016  c
1.72917 11.2422 1.28646 10.7526 .984375 10.1328  c
.682292 9.51302 .531250 8.85938 .531250 8.17188  c
h
1.60938 8.18750 m
1.60938 9.13542 1.86458 9.88281 2.37500 10.4297  c
2.88542 10.9766 3.52604 11.2500 4.29688 11.2500  c
5.07812 11.2500 5.72135 10.9740 6.22656 10.4219  c
6.73177 9.86979 6.98438 9.08333 6.98438 8.06250  c
6.98438 7.42708 6.87760 6.86979 6.66406 6.39062  c
6.45052 5.91146 6.13542 5.54167 5.71875 5.28125  c
5.30208 5.02083 4.83333 4.89062 4.31250 4.89062  c
3.57292 4.89062 2.93750 5.14323 2.40625 5.64844  c
1.87500 6.15365 1.60938 7.00000 1.60938 8.18750  c
h
f
[ 1.00000 0.00000 0.00000 1.00000 0.00000 0.00000 ] defaultmatrix matrix concatmatrix setmatrix
[ 1.00000 0.00000 0.00000 1.00000 0.00000 0.00000 ] defaultmatrix matrix concatmatrix setmatrix
[ 1.00000 0.00000 0.00000 1.00000 485.055 66.8398 ] concat
0.00000 0.00000 .607843 RG
newpath
4.03125 7.32812 m
4.03125 8.00000 l
.250000 8.00000 l
.239583 7.83333 .265625 7.67188 .328125 7.51562  c
.421875 7.25521 .575521 7.00000 .789062 6.75000  c
1.00260 6.50000 1.30729 6.20833 1.70312 5.87500  c
2.32812 5.36458 2.75000 4.96094 2.96875 4.66406  c
3.18750 4.36719 3.29688 4.08854 3.29688 3.82812  c
3.29688 3.54688 3.19792 3.30990 3.00000 3.11719  c
2.80208 2.92448 2.54167 2.82812 2.21875 2.82812  c
1.88542 2.82812 1.61719 2.92969 1.41406 3.13281  c
1.21094 3.33594 1.10417 3.61979 1.09375 3.98438  c
.375000 3.90625 l
.427083 3.36458 .614583 2.95312 .937500 2.67188  c
1.26042 2.39062 1.69271 2.25000 2.23438 2.25000  c
2.78646 2.25000 3.22135 2.40104 3.53906 2.70312  c
3.85677 3.00521 4.01562 3.38542 4.01562 3.84375  c
4.01562 4.07292 3.96875 4.29688 3.87500 4.51562  c
3.78125 4.73438 3.62760 4.96615 3.41406 5.21094  c
3.20052 5.45573 2.83854 5.79167 2.32812 6.21875  c
1.91146 6.57292 1.64323 6.81250 1.52344 6.93750  c
1.40365 7.06250 1.30208 7.19271 1.21875 7.32812  c
4.03125 7.32812 l
h
f
[ 1.00000 0.00000 0.00000 1.00000 0.00000 0.00000 ] defaultmatrix matrix concatmatrix setmatrix
[ 1.00000 0.00000 0.00000 1.00000 0.00000 0.00000 ] defaultmatrix matrix concatmatrix setmatrix
1.00000 0.00000 0.00000 RG
0.00000 0.00000 .607843 RG
q
cliprestore
newpath
0.00000 0.00000 m
0.00000 118.000 l
555.000 118.000 l
555.000 0.00000 l
h
W
cliprestore
newpath
0.00000 0.00000 m
0.00000 118.000 l
555.000 118.000 l
555.000 0.00000 l
h
W
Q
cliprestore
123.000 43.0000 13.0000 25.0000 rc
[ .990669 0.00000 0.00000 .990669 1.15504 .406466 ] defaultmatrix matrix concatmatrix setmatrix
0.00000 0.00000 0.00000 RG
[ 1.00000 0.00000 0.00000 1.00000 0.00000 0.00000 ] defaultmatrix matrix concatmatrix setmatrix
cliprestore
newpath
0.00000 0.00000 m
0.00000 118.000 l
555.000 118.000 l
555.000 0.00000 l
h
W
0.00000 0.00000 .607843 RG
cliprestore
123.000 43.0000 13.0000 25.0000 rc
[ .990669 0.00000 0.00000 .990669 1.15504 .406466 ] defaultmatrix matrix concatmatrix setmatrix
0.00000 0.00000 0.00000 RG
newpath
128.158 60.7026 m
128.158 57.3589 l
124.783 57.3589 l
124.783 55.0464 l
128.158 55.0464 l
128.158 51.7026 l
130.408 51.7026 l
130.408 55.0464 l
133.783 55.0464 l
133.783 57.3589 l
130.408 57.3589 l
130.408 60.7026 l
128.158 60.7026 l
h
f
[ 1.00000 0.00000 0.00000 1.00000 0.00000 0.00000 ] defaultmatrix matrix concatmatrix setmatrix
cliprestore
newpath
0.00000 0.00000 m
0.00000 118.000 l
555.000 118.000 l
555.000 0.00000 l
h
W
0.00000 0.00000 .607843 RG
cliprestore
453.000 50.0000 13.0000 25.0000 rc
[ .990669 0.00000 0.00000 .990669 4.23308 .473709 ] defaultmatrix matrix concatmatrix setmatrix
0.00000 0.00000 0.00000 RG
[ 1.00000 0.00000 0.00000 1.00000 0.00000 0.00000 ] defaultmatrix matrix concatmatrix setmatrix
cliprestore
newpath
0.00000 0.00000 m
0.00000 118.000 l
555.000 118.000 l
555.000 0.00000 l
h
W
0.00000 0.00000 .607843 RG
cliprestore
453.000 50.0000 13.0000 25.0000 rc
[ .990669 0.00000 0.00000 .990669 4.23308 .473709 ] defaultmatrix matrix concatmatrix setmatrix
0.00000 0.00000 0.00000 RG
newpath
458.039 67.9092 m
458.039 64.5655 l
454.664 64.5655 l
454.664 62.2530 l
458.039 62.2530 l
458.039 58.9092 l
460.289 58.9092 l
460.289 62.2530 l
463.664 62.2530 l
463.664 64.5655 l
460.289 64.5655 l
460.289 67.9092 l
458.039 67.9092 l
h
f
[ 1.00000 0.00000 0.00000 1.00000 0.00000 0.00000 ] defaultmatrix matrix concatmatrix setmatrix
cliprestore
newpath
0.00000 0.00000 m
0.00000 118.000 l
555.000 118.000 l
555.000 0.00000 l
h
W
0.00000 0.00000 .607843 RG
q
0.00000 0.00000 0.00000 RG
newpath
322.014 58.6260 m
251.727 57.2527 l
251.705 58.3782 l
321.992 59.7516 l
321.940 62.4529 l
331.008 59.3647 l
322.067 55.9247 l
h
f
Q

%%Trailer
%%EOF
