%!PS-Adobe-3.0 EPSF-3.0
%%BoundingBox: 20 211 575 580
%%Creator: FreeHEP Graphics2D Driver
%%Producer: org.freehep.graphicsio.ps.EPSGraphics2D
%%For: 
%%Title: 
%%LanguageLevel: 3
%%EndComments
%%BeginProlog
100 dict dup begin

%
% File: org/freehep/graphicsio.ps/PSProlog.txt
% Author: Charles Loomis
%

% Redefinitions which save some space in the output file.  These are also
% the same as the PDF operators.
/q {gsave} def
/Q {grestore} def

/n {newpath} def
/m {moveto} def
/l {lineto} def
/c {curveto} def
/h {closepath} def

/re {4 -2 roll moveto
     dup 0 exch rlineto exch 0 rlineto
     neg 0 exch rlineto closepath} def

/f {fill} def
/f* {eofill} def
/F {gsave vg&FC fill grestore} def
/F* {gsave vg&FC eofill grestore} def

/s {closepath stroke} def
/S {stroke} def

/b {closepath gsave vg&FC fill grestore
    gsave stroke grestore newpath} def
/B {gsave vg&FC fill grestore gsave stroke grestore newpath} def
/b* {closepath gsave vg&FC eofill grestore
    gsave stroke grestore newpath} def
/B* {gsave vg&FC eofill grestore gsave stroke grestore newpath} def

/g {1 array astore /vg&fcolor exch def} def
/G {setgray} def
/k {4 array astore /vg&fcolor exch def} def
/K {setcmykcolor} def
/rg {3 array astore /vg&fcolor exch def} def
/RG {setrgbcolor} def

% Initialize the fill color.
0 0 0 rg

/vg&FC {mark vg&fcolor aload pop
        counttomark 1 eq {G} if
        counttomark 3 eq {RG} if
        counttomark 4 eq {K} if
        cleartomark } def

/vg&DFC {/vg&fcolor exch def} def

/vg&C {mark exch aload pop
       counttomark 1 eq {G} if
       counttomark 3 eq {RG} if
       counttomark 4 eq {K} if
       cleartomark } def

/w {setlinewidth} def
/j {setlinejoin} def
/J {setlinecap} def
/M {setmiterlimit} def
/d {setdash} def
/i {setflat} def

/W {clip} def
/W* {eoclip} def

% Setup the default graphics state.
% (black; 1 pt. linewidth; miter join; butt-ends; solid)
/defaultGraphicsState {0 g 1 w 0 j 0 J [] 0 d} def

% Emulation of the rectangle operators for PostScript implementations
% which do not implement all Level 2 features.  This is an INCOMPLETE
% emulation; only the "x y width height rect..." form is emulated.
/*rf {gsave newpath re fill grestore} def
/*rs {gsave newpath re stroke grestore} def
/*rc {newpath re clip} def
/rf  /rectfill where {pop /rectfill}{/*rf} ifelse load def
/rs  /rectstroke where {pop /rectstroke}{/*rs} ifelse load def
/rc  /rectclip where {pop /rectclip}{/*rc} ifelse load def

% Emulation of the selectfont operator.  This includes a 20% increase in
% the fontsize which is necessary to get sizes similar to the Java fonts.
/*sf {exch findfont exch
      dup type /arraytype eq {makefont}{scalefont} ifelse setfont} bind def
/sf /selectfont where {pop {1.2 mul selectfont}}{{1.2 mul *sf}} ifelse def

% Special version of stroke which allows the dash pattern to continue
% across path segments.  (This may be needed for PostScript although
% modern printers seem to do this correctly.)
/vg&stroke {
  currentdash pop length 0 eq
  {stroke}
  {
    currentdash /vg&doffset exch def pop
    flattenpath
    {m vg&resetdash}
    {2 copy
     currentpoint
     3 -1 roll sub dup mul
     3 1 roll sub dup mul
     add sqrt
     3 1 roll l
     currentdash 3 -1 roll add setdash}
     {}
     {h vg&resetdash}
     pathforall
     stroke
     vg&resetdash
  } ifelse
} def
/vg&resetdash {currentdash pop vg&doffset setdash} def

% Initialize variables for safety.
/delta 0 def
/xv 0 def  /yv 0 def  /width 0 def  /height 0 def

% Initialize to portrait INTERNATIONAL (Letter-height, A4-width) page.
/pw 595 def  /ph 791  def  /po true def /ftp false def

% Initialize margins to 20 points.
/ml 20 def  /mr 20 def  /mt 20 def  /mb 20 def

% Temporary matrices.
/smatrix 0 def  /nmatrix 0 def

% set page size (usage: <page width><page height> setpagesize)
/setpagesize {/ph exch def /pw exch def} def

% set page orientation (usage: portrait or landscape)
/portrait {/po true def} def
/landscape {/po false def} def

% force natural size for image (usage: naturalsize)
/naturalsize {/ftp false def} def

% resize image to fill page (usage: fittopage)
/fittopage {/ftp true def} def

% set margins of the page (usage: <left><bottom><top><right> setmargins)
/setmargins {/mr exch def /mt exch def /mb exch def /ml exch def} def

% set the graphic's size (usage: <width><height> setsize)
/setsize {/gh exch def /gw exch def} def

% set the graphic's origin (usage: <x0><y0> setorigin)
/setorigin {/gy exch def /gx exch def} def

% calculate image center
/imagecenter {pw ml sub mr sub 2 div ml add
              ph mt sub mb sub 2 div mb add} def

% calculate the necessary scaling
/imagescale {po {gw}{gh} ifelse pw ml sub mr sub div
             po {gh}{gw} ifelse ph mt sub mb sub div
             2 copy lt {exch} if pop
             ftp not {1 2 copy lt {exch} if pop} if
             1 exch div /sfactor exch def
             /gw gw sfactor mul def /gh gh sfactor mul def} def

% calculate image origin
/imageorigin {pw ml sub mr sub 2 div ml add
              po {gw}{gh} ifelse 2 div sub
              ph mt sub mb sub 2 div mb add
              po {gh}{gw} ifelse 2 div po {add}{sub} ifelse} def

% calculate the clipping origin
/cliporigin  {pw ml sub mr sub 2 div ml add
              po {gw}{gh} ifelse 2 div sub floor
              ph mt sub mb sub 2 div mb add
              po {gh}{gw} ifelse 2 div sub floor} def

% Set the clipping region to the bounding box.
/cliptobounds {cliporigin po {gw}{gh} ifelse 1 add
                          po {gh}{gw} ifelse 1 add rc} def

% set the base transformation matrix (usage: setbasematrix)
/setbasematrix {imageorigin translate
                po {0}{90} ifelse rotate
                sfactor sfactor neg scale
                /defaultmatrix matrix currentmatrix def} def

% The lower-right bias in drawing 1 pt. wide lines.
/bias  {q 0.5 0.5 translate} def
/unbias {Q} def

% Define the composite fonts used to print Unicode strings.
% Undefine particular values in an encoding array.
/vg&undef { {exch dup 3 -1 roll /.notdef put} forall } def
/vg&redef { {3 -1 roll dup 4 2 roll put} forall } def

% usage: key encoding basefontname vg&newbasefont font
/vg&newbasefont {
findfont dup length dict copy
  begin
    currentdict /FID undef
    /Encoding exch def
    dup /FontName exch def
    currentdict
  end
definefont
} def

% usage: key encoding basefontname vg&newskewedbasefont font
/vg&newskewedbasefont {
findfont dup length dict copy
  begin
    currentdict /FID undef
    /Encoding exch def
    dup /FontName exch def
    exch FontMatrix exch matrix concatmatrix /FontMatrix exch def
    currentdict
  end
definefont
} def

% usage: basekey suffix vg&nconcat name
/vg&nconcat {
  2 {dup length string cvs exch} repeat
  dup length 3 -1 roll dup length 3 -1 roll add string
  dup 0 4 -1 roll dup length 5 1 roll putinterval
  dup 4 -2 roll exch putinterval cvn
} def

%usage: fontname vg&skewmatrix matrix
/vg&skewmatrix {
findfont dup /FontInfo known
  {
    /FontInfo get dup /ItalicAngle known
    {
      [ 1 0 4 -1 roll /ItalicAngle get neg dup sin exch cos div 1 0 0 ]
    }
    {pop matrix} ifelse
  }
  {pop matrix} ifelse
} def

% usage: newfontname basefontname vg&newcompositefont --
/vg&newcompositefont {
/vg&fstyle exch def
/vg&bfont exch def
/vg&fname exch def
<<
/FontStyleBits vg&fstyle
/FontType 0
/FontMatrix matrix
/FontName vg&fname
/FMapType 2
/Encoding [ 0 1 255 {pop 6} for ]
          dup 16#00 0 put % Latin
          dup 16#03 1 put % Greek
          dup 16#20 2 put % Punctuation
          dup 16#21 3 put % Arrows
          dup 16#22 4 put % MathOps
          dup 16#27 5 put % Dingbats

/FDepVector [
vg&bfont /-UC-Latin vg&nconcat UCLatinEncoding
vg&bfont vg&newbasefont

vg&bfont vg&skewmatrix
vg&bfont /-UC-Greek vg&nconcat UCGreekEncoding
/Symbol vg&newskewedbasefont

vg&bfont /-UC-Punctuation vg&nconcat UCPunctuationEncoding
vg&bfont vg&newbasefont

/Arrows-UC findfont
/MathOps-UC findfont
/Dingbats-UC findfont
/Undefined-UC findfont ]
>>
vg&fname exch definefont pop
} def

% Null encoding vector (all elements set to .notdef)
/NullEncoding [ 256 {/.notdef} repeat ] def

% Unicode Latin encoding (unicode codes \u0000-\u00ff)
/UCLatinEncoding
  ISOLatin1Encoding dup length array copy
  dup 16#60 /grave put
  [ 16#90 16#91 16#92 16#93 16#94 16#95 16#96
    16#97 16#98 16#9a 16#9b 16#9d 16#9e 16#9f
  ] vg&undef
  def

% Unicode Greek encoding (unicode codes \u0370-\u03ff)
/UCGreekEncoding
  NullEncoding dup length array copy
  << 16#91 /Alpha    16#92 /Beta      16#93 /Gamma    16#94 /Delta
     16#95 /Epsilon  16#96 /Zeta      16#97 /Eta      16#98 /Theta
     16#99 /Iota     16#9a /Kappa     16#9b /Lambda   16#9c /Mu
     16#9d /Nu       16#9e /Xi        16#9f /Omicron  16#a0 /Pi
     16#a1 /Rho      16#a3 /Sigma     16#a4 /Tau      16#a5 /Upsilon
     16#a6 /Phi      16#a7 /Chi       16#a8 /Psi      16#a9 /Omega
     16#b1 /alpha    16#b2 /beta      16#b3 /gamma    16#b4 /delta
     16#b5 /epsilon  16#b6 /zeta      16#b7 /eta      16#b8 /theta
     16#b9 /iota     16#ba /kappa     16#bb /lambda   16#bc /mu
     16#bd /nu       16#be /xi        16#bf /omicron  16#c0 /pi
     16#c1 /rho      16#c2 /sigma1    16#c3 /sigma    16#c4 /tau
     16#c5 /upsilon  16#c6 /phi1      16#c7 /chi      16#c8 /psi
     16#c9 /omega    16#7e /semicolon 16#87 /dotmath  16#d1 /theta1
     16#d2 /Upsilon1 16#d5 /phi       16#d6 /omega1
  >> vg&redef
  def

% Unicode punctuation encoding (unicode codes \u2000-\u206f)
/UCPunctuationEncoding
  NullEncoding dup length array copy
  << 16#10 /hyphen          16#11 /hyphen              16#12 /endash
     16#13 /emdash          16#18 /quoteleft           16#19 /quoteright
     16#1a /quotesinglbase  16#1b /quotesingle         16#1c /quotedblleft
     16#1d /quotedblright   16#1e /quotedblbase        16#1f /quotedbl
     16#20 /dagger          16#21 /daggerdbl           16#22 /bullet
     16#24 /period          16#26 /ellipsis            16#27 /periodcentered
     16#30 /perthousand     16#44 /fraction
     16#70 /zerosuperior    16#74 /foursuperior        16#75 /fivesuperior
     16#76 /sixsuperior     16#77 /sevensuperior       16#78 /eightsuperior
     16#79 /ninesuperior    16#7b /hyphensuperior      16#7d /parenleftsuperior
     16#7e /parenrightsuperior
     16#80 /zeroinferior    16#84 /fourinferior        16#85 /fiveinferior
     16#81 /oneinferior     16#82 /twoinferior         16#83 /threeinferior
     16#86 /sixinferior     16#87 /seveninferior       16#88 /eightinferior
     16#89 /nineinferior    16#8b /hypheninferior      16#8d /parenleftinferior
     16#8e /parenrightinferior
  >> vg&redef
  def

% Unicode mathematical operators encoding (unicode codes \u2200-\u22ff)
/UCMathOpsEncoding
  NullEncoding dup length array copy
  << 16#00 /universal       16#02 /partialdiff         16#03 /existential
     16#05 /emptyset        16#06 /Delta               16#07 /gradient
     16#08 /element         16#09 /notelement          16#0b /suchthat
     16#0f /product         16#11 /summation           16#12 /minus
     16#15 /fraction        16#17 /asteriskmath        16#19 /bullet
     16#1a /radical         16#1d /proportional        16#1e /infinity
     16#20 /angle           16#23 /bar                 16#27 /logicaland
     16#28 /logicalor       16#29 /intersection        16#2a /union
     16#2b /integral        16#34 /therefore           16#36 /colon
     16#3c /similar         16#45 /congruent           16#48 /approxequal
     16#60 /notequal        16#61 /equivalence         16#64 /lessequal
     16#65 /greaterequal    16#82 /propersubset        16#83 /propersuperset
     16#86 /reflexsubset    16#87 /reflexsuperset      16#95 /circleplus
     16#97 /circlemultiply  16#a5 /perpendicular       16#03 /existential
     16#c0 /logicaland      16#c1 /logicalor           16#c2 /intersection
     16#c3 /union           16#c4 /diamond             16#c5 /dotmath
  >> vg&redef
  def

% Unicode arrows encoding (unicode codes \u2190-\u21ff)
% Also includes those "Letterlike" unicode characters
% which are available in the symbol font. (unicode codes \u2100-\u214f)
/UCArrowsEncoding
  NullEncoding dup length array copy
  << 16#11 /Ifraktur        16#1c /Rfraktur            16#22 /trademarkserif
     16#35 /aleph
     16#90 /arrowleft       16#91 /arrowup             16#92 /arrowright
     16#93 /arrowdown       16#94 /arrowboth           16#d0 /arrowdblleft
     16#d1 /arrowdblup      16#d2 /arrowdblright       16#d3 /arrowdbldown
     16#d4 /arrowdblboth
  >> vg&redef
  def

/ZapfDingbats findfont /Encoding get
dup length array copy /UCDingbatsEncoding exch def
16#20 1 16#7f {
  dup 16#20 sub exch
  UCDingbatsEncoding exch get
  UCDingbatsEncoding 3 1 roll put
} for
16#a0 1 16#ff {
  dup 16#40 sub exch
  UCDingbatsEncoding exch get
  UCDingbatsEncoding 3 1 roll put
} for
UCDingbatsEncoding [ 16#c0 1 16#ff {} for ] vg&undef
[ 16#00  16#05 16#0a 16#0b  16#28 16#4c 16#4e  16#53 16#54 16#55  16#57 16#5f
  16#60  16#68 16#69 16#6a  16#6b 16#6c 16#6d  16#6e 16#6f 16#70  16#71 16#72
  16#73  16#74 16#75 16#95  16#96 16#97 16#b0  16#bf
] vg&undef pop

% Define the base fonts which don't change.
/Undefined-UC NullEncoding       /Helvetica    vg&newbasefont pop
/MathOps-UC   UCMathOpsEncoding  /Symbol       vg&newbasefont pop
/Arrows-UC    UCArrowsEncoding   /Symbol       vg&newbasefont pop
/Dingbats-UC  UCDingbatsEncoding /ZapfDingbats vg&newbasefont pop

% Make the SansSerif composite fonts.
/SansSerif /Helvetica 16#00 vg&newcompositefont
/SansSerif-Bold /Helvetica-Bold 16#01 vg&newcompositefont
/SansSerif-Italic /Helvetica-Oblique 16#02 vg&newcompositefont
/SansSerif-BoldItalic /Helvetica-BoldOblique 16#03 vg&newcompositefont

% Make the Serif composite fonts.
/Serif /Times-Roman 16#00 vg&newcompositefont
/Serif-Bold /Times-Bold 16#01 vg&newcompositefont
/Serif-Italic /Times-Italic 16#02 vg&newcompositefont
/Serif-BoldItalic /Times-BoldItalic 16#03 vg&newcompositefont

% Make the Monospaced composite fonts.
/Monospaced /Courier 16#00 vg&newcompositefont
/Monospaced-Bold /Courier-Bold 16#01 vg&newcompositefont
/Monospaced-Italic /Courier-Oblique 16#02 vg&newcompositefont
/Monospaced-BoldItalic /Courier-BoldOblique 16#03 vg&newcompositefont

% Make the Dialog composite fonts.
/Dialog /Helvetica 16#00 vg&newcompositefont
/Dialog-Bold /Helvetica-Bold 16#01 vg&newcompositefont
/Dialog-Italic /Helvetica-Oblique 16#02 vg&newcompositefont
/Dialog-BoldItalic /Helvetica-BoldOblique 16#03 vg&newcompositefont

% Make the DialogInput composite fonts.
/DialogInput /Courier 16#00 vg&newcompositefont
/DialogInput-Bold /Courier-Bold 16#01 vg&newcompositefont
/DialogInput-Italic /Courier-Oblique 16#02 vg&newcompositefont
/DialogInput-BoldItalic /Courier-BoldOblique 16#03 vg&newcompositefont

% Make the Typewriter composite fonts (JDK 1.1 only).
/Typewriter /Courier 16#00 vg&newcompositefont
/Typewriter-Bold /Courier-Bold 16#01 vg&newcompositefont
/Typewriter-Italic /Courier-Oblique 16#02 vg&newcompositefont
/Typewriter-BoldItalic /Courier-BoldOblique 16#03 vg&newcompositefont


/cfontH {
 dup /fontsize exch def /SansSerif exch sf
 /vg&fontstyles [{cfontH} {cfontHB} {cfontHI} {cfontHBI}] def
} def
/cfontHB {
  dup /fontsize exch def /SansSerif-Bold exch sf
 /vg&fontstyles [{cfontH} {cfontHB} {cfontHI} {cfontHBI}] def
} def
/cfontHI {
 dup /fontsize exch def /SansSerif-Italic exch sf
 /vg&fontstyles [{cfontH} {cfontHB} {cfontHI} {cfontHBI}] def
} def
/cfontHBI {
 dup /fontsize exch def /SansSerif-BoldItalic exch sf
 /vg&fontstyles [{cfontH} {cfontHB} {cfontHI} {cfontHBI}] def
} def

/cfontT {
 dup /fontsize exch def /Serif exch sf
 /vg&fontstyles [{cfontT} {cfontTB} {cfontTI} {cfontTBI}] def
} def
/cfontTB {
 dup /fontsize exch def /Serif-Bold exch sf
 /vg&fontstyles [{cfontT} {cfontTB} {cfontTI} {cfontTBI}] def
} def
/cfontTI {
 dup /fontsize exch def /Serif-Italic exch sf
 /vg&fontstyles [{cfontT} {cfontTB} {cfontTI} {cfontTBI}] def
} def
/cfontTBI {
 dup /fontsize exch def /Serif-BoldItalic exch sf
 /vg&fontstyles [{cfontT} {cfontTB} {cfontTI} {cfontTBI}] def
} def

/cfontC {
 dup /fontsize exch def /Typewriter exch sf
 /vg&fontstyles [{cfontC} {cfontCB} {cfontCI} {cfontCBI}] def
} def
/cfontCB {
 dup /fontsize exch def /Typewriter-Bold exch sf
 /vg&fontstyles [{cfontC} {cfontCB} {cfontCI} {cfontCBI}] def
} def
/cfontCI {
 dup /fontsize exch def /Typewriter-Italic exch sf
 /vg&fontstyles [{cfontC} {cfontCB} {cfontCI} {cfontCBI}] def
} def
/cfontCBI {
 dup /fontsize exch def /Typewriter-BoldItalic exch sf
 /vg&fontstyles [{cfontC} {cfontCB} {cfontCI} {cfontCBI}] def
} def

% Darken or lighten the current color.
/darken {0.7 exch exp 3 copy
         q 4 -1 roll vg&C
         currentrgbcolor 3 {4 -2 roll mul} repeat
         3 array astore Q} def

/displayColorMap
<< /Cr   [1.00 0.00 0.00]       /Cg     [0.00 1.00 0.00]
   /Cb   [0.00 0.00 1.00]       /Cc     [1.00 0.00 0.00 0.00]
   /Cm   [0.00 1.00 0.00 0.00]  /Cy     [0.00 0.00 1.00 0.00]
   /Co   [1.00 0.78 0.00]       /Cp     [1.00 0.67 0.67]
   /Cw   [1   ]                 /Cgrl   [0.75]
   /Cgr  [0.50]                 /Cgrd   [0.25]
   /Ck   [0   ]
   /CGr  [1.00 0.00 0.00]       /CGg    [0.00 1.00 0.00]
   /CGb  [0.00 0.00 1.00]       /CGc    [1.00 0.00 0.00 0.00]
   /CGm  [0.00 1.00 0.00 0.00]  /CGy    [0.00 0.00 1.00 0.00]
   /CGo  [1.00 0.78 0.00]       /CGp    [1.00 0.67 0.67]
   /CGw  [1   ]                 /CGgrl  [0.75]
   /CGgr [0.50]                 /CGgrd  [0.25]
   /CGk  [0   ]
   /CIr  [1.00 0.00 0.00]       /CIg    [0.00 1.00 0.00]
   /CIb  [0.00 0.00 1.00]       /CIc    [1.00 0.00 0.00 0.00]
   /CIm  [0.00 1.00 0.00 0.00]  /CIy    [0.00 0.00 1.00 0.00]
   /CIo  [1.00 0.78 0.00]       /CIp    [1.00 0.67 0.67]
   /CIw  [1   ]                 /CIgrl  [0.75]
   /CIgr [0.50]                 /CIgrd  [0.25]
   /CIk  [0   ]
>> def

/printColorMap
<< /Cr   [1.00 0.33 0.33]       /Cg     [0.33 1.00 0.33]
   /Cb   [0.33 0.33 1.00]       /Cc     [1.00 0.00 0.00 0.00]
   /Cm   [0.00 1.00 0.00 0.00]  /Cy     [0.00 0.00 1.00 0.00]
   /Co   [1.00 0.78 0.00]       /Cp     [1.00 0.67 0.67]
   /Cw   [1   ]                 /Cgrl   [0.75]
   /Cgr  [0.50]                 /Cgrd   [0.25]
   /Ck   [0   ]
   /CGr  [1.00 0.33 0.33]       /CGg    [0.33 1.00 0.33]
   /CGb  [0.33 0.33 1.00]       /CGc    [1.00 0.00 0.00 0.00]
   /CGm  [0.00 1.00 0.00 0.00]  /CGy    [0.00 0.00 1.00 0.00]
   /CGo  [1.00 0.78 0.00]       /CGp    [1.00 0.67 0.67]
   /CGw  [1   ]                 /CGgrl  [0.75]
   /CGgr [0.50]                 /CGgrd  [0.25]
   /CGk  [0   ]
   /CIr  [1.00 0.33 0.33]       /CIg    [0.33 1.00 0.33]
   /CIb  [0.33 0.33 1.00]       /CIc    [1.00 0.00 0.00 0.00]
   /CIm  [0.00 1.00 0.00 0.00]  /CIy    [0.00 0.00 1.00 0.00]
   /CIo  [1.00 0.78 0.00]       /CIp    [1.00 0.67 0.67]
   /CIw  [1   ]                 /CIgrl  [0.75]
   /CIgr [0.50]                 /CIgrd  [0.25]
   /CIk  [0   ]
>> def

/grayColorMap
<< /Cr   [0   ]                 /Cg     [0   ]
   /Cb   [0   ]                 /Cc     [0   ]
   /Cm   [0   ]                 /Cy     [0   ]
   /Co   [0   ]                 /Cp     [0   ]
   /Cw   [0   ]                 /Cgrl   [0   ]
   /Cgr  [0   ]                 /Cgrd   [0   ]
   /Ck   [0   ]
   /CGr  [0.75]                 /CGg    [1   ]
   /CGb  [0.50]                 /CGc    [0.75]
   /CGm  [0.50]                 /CGy    [1   ]
   /CGo  [0.75]                 /CGp    [1   ]
   /CGw  [0   ]                 /CGgrl  [0.25]
   /CGgr [0.50]                 /CGgrd  [0.75]
   /CGk  [1   ]
   /CIr  [1   ]                 /CIg    [1   ]
   /CIb  [1   ]                 /CIc    [1   ]
   /CIm  [1   ]                 /CIy    [1   ]
   /CIo  [1   ]                 /CIp    [1   ]
   /CIw  [1   ]                 /CIgrl  [1   ]
   /CIgr [1   ]                 /CIgrd  [1   ]
   /CIk  [1   ]
>> def

/bwColorMap
<< /Cr   [0   ]                 /Cg     [0   ]
   /Cb   [0   ]                 /Cc     [0   ]
   /Cm   [0   ]                 /Cy     [0   ]
   /Co   [0   ]                 /Cp     [0   ]
   /Cw   [0   ]                 /Cgrl   [0   ]
   /Cgr  [0   ]                 /Cgrd   [0   ]
   /Ck   [0   ]
   /CGr  [1   ]                 /CGg    [1   ]
   /CGb  [1   ]                 /CGc    [1   ]
   /CGm  [1   ]                 /CGy    [1   ]
   /CGo  [1   ]                 /CGp    [1   ]
   /CGw  [0   ]                 /CGgrl  [1   ]
   /CGgr [1   ]                 /CGgrd  [1   ]
   /CGk  [1   ]
   /CIr  [1   ]                 /CIg    [1   ]
   /CIb  [1   ]                 /CIc    [1   ]
   /CIm  [1   ]                 /CIy    [1   ]
   /CIo  [1   ]                 /CIp    [1   ]
   /CIw  [1   ]                 /CIgrl  [1   ]
   /CIgr [1   ]                 /CIgrd  [1   ]
   /CIk  [1   ]
>> def

%
% The following routines handle the alignment of and printing of
% tagged strings.
%

% Predefine the bounding box values.
/bbllx 0 def /bblly 0 def /bburx 0 def /bbury 0 def

% This routine pops the first unicode character off of a string and returns
% the remainder of the string, the character code of first character,
% and a "true" if the string was non-zero length.
% <string>      popfirst <remaining string> <true>
% <null string> popfirst <false>
/popfirst {
  dup length 1 gt
    {dup 0 get /vg&fbyte exch def
     dup 1 get /vg&cbyte exch def
     dup length 2 sub 2 exch getinterval true}
    {pop false} ifelse
} def

% This routine shows a single unicode character given the font and
% character codes.
% <font code> <char code> unicharshow --
/unicharshow {
  2 string
  dup 0 5 -1 roll put
  dup 1 4 -1 roll put
  internalshow
} def

% This is an internal routine to alternate between determining the
% bounding box for stringsize and showing the string for recshow.
% <string> internalshow --
/internalshow {show} def

% This is an internal routine to alternate between determining the
% bounding box for stringsize and stroking various ornaments.
% <string> internalstroke --
/internalstroke {S} def

% Sets up internalshow to use the null device to determine string size.
% -- nullinternalshow --
/nullinternalshow {/internalshow {false charpath flattenpath
                                  pathbbox updatebbox} def} def

% Sets up internalstroke to use the null device to determine string size.
% -- nullinternalstroke --
/nullinternalstroke {
 /internalstroke {flattenpath pathbbox updatebbox} def} def

% This routine tests to see if the character code matches the first
% character of a string.
% <char code> <string> testchar <char code> <true or false>
/testchar {exch dup 3 -1 roll 0 get eq} def

% Raise the text baseline for superscripts.
% -- raise --
/raise {
  0 fontsize 2 div rmoveto
  /fontsize fontsize 2 mul 3 div def
  currentfont /FontName get fontsize sf
} def

% Un-raise the text baseline for superscripts.
% -- unraise --
/unraise {
  /fontsize fontsize 1.5 mul def
  0 fontsize 2 div neg rmoveto
} def

% Lower the text baseline for subscripts.
% -- lower --
/lower {
  0 fontsize 3 div neg rmoveto
  /fontsize fontsize 2 mul 3 div def
  currentfont /FontName get fontsize sf
} def

% Un-lower the text baseline for subscripts.
% -- unlower --
/unlower {
  /fontsize fontsize 1.5 mul def
  0 fontsize 3 div rmoveto
} def

% Compare the top two elements on the stack and leave only the
% larger one.
/maxval {2 copy gt {pop} {exch pop} ifelse} def

% Tokenize a string.  Do not use the usual PostScript token because
% parentheses will not be interpreted correctly because of rescanning
% of the string.
/vg&token {/vg&string exch def /vg&index -1 def /vg&level 0 def
0 2 vg&string length 2 sub {
  dup dup 1 add exch vg&string exch get 8 bitshift vg&string 3 -1 roll get or
  dup 16#f0fe eq {pop 1}{16#f0ff eq {-1}{0} ifelse} ifelse
  /vg&level exch vg&level add def
  vg&level 0 eq {/vg&index exch def exit} if pop
} for
vg&index 0 ge {
  vg&string vg&index 2 add dup vg&string length exch sub getinterval
  vg&index 2 gt {vg&string 2 vg&index 2 sub getinterval}{()} ifelse
  true}
{false} ifelse
} bind def

% Recursively show an unicode string.
% <string> recshow --
/recshow {
  popfirst
  {
    % Test to see if this is a string attribute.
    vg&fbyte 16#f0 and 16#e0 eq
    {
      q

      % Font style.
      currentfont dup /FontStyleBits known {/FontStyleBits get}{pop 0} ifelse
      vg&cbyte or vg&fontstyles exch get fontsize exch exec

      vg&token pop recshow currentpoint Q m recshow
    }
    {
      vg&fbyte 16#F8 and 16#F0 eq {

        % Superscript and/or subscript.
        vg&cbyte 16#00 eq {
          vg&token pop exch vg&token pop 3 -1 roll
          q raise recshow unraise currentpoint pop Q exch
          q lower recshow unlower currentpoint pop Q
          maxval currentpoint exch pop m recshow } if

        % Strikeout.
        vg&cbyte 16#01 eq {
          vg&token pop currentpoint 3 -1 roll recshow
          q 0 J vg&underline vg&uthick w
          currentpoint 4 -2 roll fontsize 3 div add moveto
          fontsize 3 div add lineto internalstroke Q
          recshow} if

        % Underline.
        vg&cbyte 16#02 eq {
          vg&token pop currentpoint 3 -1 roll recshow
          q 0 J vg&underline vg&uthick w
          currentpoint 4 -2 roll vg&uoffset add moveto
          vg&uoffset add lineto internalstroke Q
          recshow} if

        % Dashed underline.
        vg&cbyte 16#03 eq {
          vg&token pop currentpoint 3 -1 roll recshow
          q 0 J [ vg&uthick 5 mul vg&uthick 2 mul] 0 d
          vg&underline vg&uthick w
          currentpoint 4 -2 roll vg&uoffset add moveto
          vg&uoffset add lineto internalstroke Q
          recshow} if

        % Dotted underline.
        vg&cbyte 16#04 eq {
          vg&token pop currentpoint 3 -1 roll recshow
          q 1 J [ 0 vg&uthick 3 mul] 0 d
          vg&underline vg&uthick w
          currentpoint 4 -2 roll vg&uoffset add moveto
          vg&uoffset add lineto internalstroke Q
          recshow} if

        % Thick underline.
        vg&cbyte 16#05 eq {
          vg&token pop currentpoint 3 -1 roll recshow
          q 0 J vg&underline vg&uthick 2 mul w
          currentpoint 4 -2 roll vg&uoffset vg&uthick 2 div sub add moveto
          vg&uoffset vg&uthick 2 div sub add lineto internalstroke Q
          recshow} if

        % Gray thick underline.
        vg&cbyte 16#06 eq {
          vg&token pop currentpoint 3 -1 roll recshow
          q 0 J vg&underline vg&uthick 2 mul w 0.5 setgray
          currentpoint 4 -2 roll vg&uoffset vg&uthick 2 div sub add moveto
          vg&uoffset vg&uthick 2 div sub add lineto internalstroke Q
          recshow} if

        % Overbar.
        vg&cbyte 16#07 eq {
          vg&token pop dup stringsize relative 4 1 roll pop pop exch
          3 -1 roll recshow
          q 0 J vg&underline vg&uthick w
          vg&uoffset neg add dup currentpoint pop exch m l internalstroke Q
          recshow} if
      }
      {
        vg&fbyte vg&cbyte unicharshow recshow
      } ifelse
    } ifelse
  } if
} def

% Get the underline position and thickness from the current font.
/vg&underline {

currentfont dup /FontType get 0 eq {/FDepVector get 0 get} if
dup dup /FontInfo known {
  /FontInfo get dup
  dup /UnderlinePosition known {
    /UnderlinePosition get /vg&uoffset exch def
  }
  {
    pop /vg&uoffset 0 def
  } ifelse
  dup /UnderlineThickness known {
    /UnderlineThickness get /vg&uthick exch def
  }
  {
    pop /vg&uthick 0 def
  } ifelse
}
{
  pop /vg&uoffset 0 def /vg&uthick 0 def
} ifelse
/FontMatrix get
currentfont dup /FontType get 0 eq
{/FontMatrix get matrix concatmatrix}{pop} ifelse
dup 0 vg&uoffset 3 -1 roll transform /vg&uoffset exch def pop
0 vg&uthick 3 -1 roll transform /vg&uthick exch def pop
} def

% Make a frame with the coordinates on the stack.
% <llx> <lly> <urx> <ury> frame --
/frame {4 copy m 3 1 roll exch l 4 -2 roll l l h} def

% Resets the accumulated bounding box to a degenerate box at the
% current point.
% -- resetbbox --
/resetbbox {
  currentpoint 2 copy
  /bbury exch def
  /bburx exch def
  /bblly exch def
  /bbllx exch def
} def

% Update the accumulated bounding box.
% <llx'> <lly'> <urx'> <ury'> updatebbox --
/updatebbox {
  dup bbury gt {/bbury exch def} {pop} ifelse
  dup bburx gt {/bburx exch def} {pop} ifelse
  dup bblly lt {/bblly exch def} {pop} ifelse
  dup bbllx lt {/bbllx exch def} {pop} ifelse
} def

% Set the bounding box to the values on the stack.
% <llx'> <lly'> <urx'> <ury'> updatebbox --
/restorebbox {
  /bbury exch def /bburx exch def /bblly exch def /bbllx exch def
} def

% Push the accumulated bounding box onto the stack.
% -- pushbbox <llx> <lly> <urx> <ury>
/pushbbox {bbllx bblly bburx bbury} def

% Make the relative bounding box relative to the currentpoint.
% <llx'> <lly'> <urx'> <ury'> inflate <llx> <lly> <urx> <ury>
/inflate {
  2 {fontsize 0.2 mul add 4 1 roll} repeat
  2 {fontsize 0.2 mul sub 4 1 roll} repeat
} def

% Make the relative bounding box relative to the currentpoint.
% <llx'> <lly'> <urx'> <ury'> relative <llx> <lly> <urx> <ury>
/relative {
  currentpoint 3 -1 roll add 3 1 roll add exch 4 2 roll
  currentpoint 3 -1 roll add 3 1 roll add exch 4 2 roll
} def

% Returns the size of a string appropriate for recshow.
% <string> stringsize <llx> <lly> <urx> <ury>
/stringsize {
  pushbbox /internalshow load /internalstroke load 7 -1 roll
  q
  nulldevice 0 0 m
  nullinternalshow nullinternalstroke
  resetbbox
  recshow
  /internalstroke exch def /internalshow exch def
  pushbbox 8 -4 roll restorebbox
  Q
} def

% Calculate values for string positioning.
/calcval {4 copy
  3 -1 roll sub /widy exch def sub neg /widx exch def
  pop pop /dy exch def /dx exch def} def

% Utilities to position a string.
% First letter (U=upper, C=center, B=baseline, L=lower)
% Second letter (L=left, C=center, R=right)
/align [
{calcval dx neg widy dy add neg rmoveto} % UL
{calcval dx neg widy 2 div dy add neg rmoveto} % CL
{calcval dx neg 0 rmoveto} % BL
{calcval dx neg dy neg rmoveto} % LL
{calcval widx dx add neg widy dy add neg rmoveto} % UR
{calcval widx dx add neg widy 2 div dy add neg rmoveto} % CR
{calcval widx dx add neg 0 rmoveto} % BR
{calcval widx dx add neg dy neg rmoveto} % LR
{calcval widx 2 div dx add neg widy dy add neg rmoveto} % UC
{calcval widx 2 div dx add neg widy 2 div dy add neg rmoveto} % CC
{calcval widx 2 div dx add neg 0 rmoveto} % BC
{calcval widx 2 div dx add neg dy neg rmoveto} % LC
] def

/vg&str {m q 1 -1 scale dup stringsize 4 copy align 11 -1 roll get exec
         q inflate relative frame exch exec Q recshow Q} def

end /procDict exch def
%%EndProlog

%%BeginSetup
save
procDict begin
printColorMap begin
595 791 setpagesize
20 20 20 20 setmargins
0 0 setorigin
317 210 setsize
fittopage
portrait
imagescale
cliptobounds
setbasematrix
/Helvetica 10 sf
defaultGraphicsState
%%EndSetup

0.00000 0.00000 0.00000 RG
[ 1.00000 0.00000 0.00000 1.00000 0.00000 0.00000 ] defaultmatrix matrix concatmatrix setmatrix
cliprestore
1.00000 1.00000 1.00000 RG
newpath
0.00000 0.00000 m
317.000 0.00000 l
317.000 210.000 l
0.00000 210.000 l
0.00000 0.00000 l
h
f
0.00000 0.00000 0.00000 RG
0.00000 0.00000 0.00000 RG
[ 1.00000 0.00000 0.00000 1.00000 0.00000 0.00000 ] defaultmatrix matrix concatmatrix setmatrix
cliprestore
1.00000 1.00000 1.00000 RG
newpath
0.00000 0.00000 m
317.000 0.00000 l
317.000 210.000 l
0.00000 210.000 l
0.00000 0.00000 l
h
f
0.00000 0.00000 0.00000 RG
1.00000 1.00000 1.00000 RG
newpath
0.00000 0.00000 m
317.000 0.00000 l
317.000 210.000 l
0.00000 210.000 l
0.00000 0.00000 l
h
f
cliprestore
0 0 317 210 rc
q
0.00000 0.00000 0.00000 RG
newpath
130.640 180.847 m
117.025 180.847 l
116.693 180.847 116.424 181.116 116.424 181.448  c
116.424 181.779 116.693 182.048 117.025 182.048  c
130.640 182.048 l
130.971 182.048 131.240 181.779 131.240 181.448  c
131.240 181.116 130.971 180.847 130.640 180.847  c
h
f
Q
q
<< /PatternType 2
   /Shading
   << /ShadingType 2
      /ColorSpace /DeviceRGB
      /Coords [285.6371765136719 184.66807556152344 284.4363708496094 184.66807556152344]
      /Function
      << /FunctionType 2
         /Domain [0 1]
         /Range [0 1 0 1 0 1]
         /C0 [0.0 0.0 0.0]
         /C1 [0.0 0.4 0.0]
         /N 1
      >>
      /Extend [true true]
   >>
>>
matrix makepattern setpattern
newpath
291.622 184.068 m
278.452 184.068 l
278.120 184.068 277.852 184.336 277.852 184.668  c
277.852 185.000 278.120 185.268 278.452 185.268  c
291.622 185.268 l
291.953 185.268 292.222 185.000 292.222 184.668  c
292.222 184.336 291.953 184.068 291.622 184.068  c
h
f
Q
q
<< /PatternType 2
   /Shading
   << /ShadingType 2
      /ColorSpace /DeviceRGB
      /Coords [262.4786071777344 172.0403289794922 263.0790100097656 173.0802459716797]
      /Function
      << /FunctionType 2
         /Domain [0 1]
         /Range [0 1 0 1 0 1]
         /C0 [0.0 0.0 0.0]
         /C1 [0.0 0.4 0.0]
         /N 1
      >>
      /Extend [true true]
   >>
>>
matrix makepattern setpattern
newpath
259.588 168.234 m
264.930 177.487 l
265.095 177.774 265.463 177.872 265.750 177.706  c
266.037 177.540 266.135 177.173 265.970 176.886  c
260.628 167.634 l
260.462 167.347 260.095 167.248 259.808 167.414  c
259.521 167.580 259.422 167.947 259.588 168.234  c
h
f
Q
q
0.00000 0.00000 0.00000 RG
newpath
134.887 14.9119 m
113.856 14.9119 l
113.524 14.9119 113.255 15.1807 113.255 15.5123  c
113.255 15.8440 113.524 16.1127 113.856 16.1127  c
134.887 16.1127 l
135.219 16.1127 135.488 15.8440 135.488 15.5123  c
135.488 15.1807 135.219 14.9119 134.887 14.9119  c
h
f
Q
0.00000 .400000 0.00000 RG
[ 1.00000 0.00000 0.00000 1.00000 9.65601 175.434 ] concat
newpath
.812500 12.0000 m
.812500 4.12500 l
2.39062 4.12500 l
4.25000 9.70312 l
4.41667 10.2240 4.54167 10.6094 4.62500 10.8594  c
4.71875 10.5781 4.85938 10.1615 5.04688 9.60938  c
6.92188 4.12500 l
8.32812 4.12500 l
8.32812 12.0000 l
7.32812 12.0000 l
7.32812 5.40625 l
5.03125 12.0000 l
4.09375 12.0000 l
1.82812 5.29688 l
1.82812 12.0000 l
.812500 12.0000 l
h
9.70996 12.4688 m
10.6475 12.6094 l
10.6891 12.9010 10.7985 13.1146 10.9756 13.2500  c
11.2152 13.4271 11.5433 13.5156 11.9600 13.5156  c
12.4079 13.5156 12.7542 13.4271 12.9990 13.2500  c
13.2438 13.0729 13.4079 12.8229 13.4912 12.5000  c
13.5433 12.3021 13.5693 11.8854 13.5693 11.2500  c
13.1423 11.7500 12.6110 12.0000 11.9756 12.0000  c
11.1943 12.0000 10.5902 11.7161 10.1631 11.1484  c
9.73600 10.5807 9.52246 9.90104 9.52246 9.10938  c
9.52246 8.56771 9.62142 8.06771 9.81934 7.60938  c
10.0173 7.15104 10.3011 6.79688 10.6709 6.54688  c
11.0407 6.29688 11.4808 6.17188 11.9912 6.17188  c
12.6579 6.17188 13.2100 6.44271 13.6475 6.98438  c
13.6475 6.29688 l
14.5381 6.29688 l
14.5381 11.2188 l
14.5381 12.1146 14.4495 12.7474 14.2725 13.1172  c
14.0954 13.4870 13.8089 13.7786 13.4131 13.9922  c
13.0173 14.2057 12.5329 14.3125 11.9600 14.3125  c
11.2829 14.3125 10.7360 14.1589 10.3193 13.8516  c
9.90267 13.5443 9.69954 13.0833 9.70996 12.4688  c
h
10.5068 9.04688 m
10.5068 9.79688 10.6553 10.3438 10.9521 10.6875  c
11.2490 11.0312 11.6214 11.2031 12.0693 11.2031  c
12.5173 11.2031 12.8923 11.0312 13.1943 10.6875  c
13.4964 10.3438 13.6475 9.80729 13.6475 9.07812  c
13.6475 8.38021 13.4912 7.85417 13.1787 7.50000  c
12.8662 7.14583 12.4912 6.96875 12.0537 6.96875  c
11.6266 6.96875 11.2620 7.14323 10.9600 7.49219  c
10.6579 7.84115 10.5068 8.35938 10.5068 9.04688  c
h
f
[ 1.00000 0.00000 0.00000 1.00000 0.00000 0.00000 ] defaultmatrix matrix concatmatrix setmatrix
[ 1.00000 0.00000 0.00000 1.00000 0.00000 0.00000 ] defaultmatrix matrix concatmatrix setmatrix
[ 1.00000 0.00000 0.00000 1.00000 14.6560 188.848 ] concat
0.00000 0.00000 .607843 RG
newpath
.343750 6.48438 m
1.04688 6.39062 l
1.11979 6.78646 1.25521 7.07292 1.45312 7.25000  c
1.65104 7.42708 1.88542 7.51562 2.15625 7.51562  c
2.48958 7.51562 2.77083 7.40104 3.00000 7.17188  c
3.22917 6.94271 3.34375 6.66146 3.34375 6.32812  c
3.34375 6.00521 3.23698 5.73698 3.02344 5.52344  c
2.80990 5.30990 2.54167 5.20312 2.21875 5.20312  c
2.08333 5.20312 1.91667 5.22917 1.71875 5.28125  c
1.79688 4.67188 l
1.84896 4.67188 1.89062 4.67188 1.92188 4.67188  c
2.21354 4.67188 2.47917 4.59375 2.71875 4.43750  c
2.95833 4.28125 3.07812 4.04167 3.07812 3.71875  c
3.07812 3.45833 2.99219 3.24479 2.82031 3.07812  c
2.64844 2.91146 2.42188 2.82812 2.14062 2.82812  c
1.86979 2.82812 1.64323 2.91406 1.46094 3.08594  c
1.27865 3.25781 1.16146 3.51562 1.10938 3.85938  c
.406250 3.73438 l
.489583 3.26562 .684896 2.90104 .992188 2.64062  c
1.29948 2.38021 1.67708 2.25000 2.12500 2.25000  c
2.43750 2.25000 2.72656 2.31771 2.99219 2.45312  c
3.25781 2.58854 3.46094 2.77083 3.60156 3.00000  c
3.74219 3.22917 3.81250 3.47396 3.81250 3.73438  c
3.81250 3.98438 3.74479 4.21094 3.60938 4.41406  c
3.47396 4.61719 3.27604 4.77604 3.01562 4.89062  c
3.35938 4.97396 3.62500 5.13802 3.81250 5.38281  c
4.00000 5.62760 4.09375 5.93750 4.09375 6.31250  c
4.09375 6.81250 3.91146 7.23698 3.54688 7.58594  c
3.18229 7.93490 2.71875 8.10938 2.15625 8.10938  c
1.65625 8.10938 1.23958 7.95833 .906250 7.65625  c
.572917 7.35417 .385417 6.96354 .343750 6.48438  c
h
f
[ 1.00000 0.00000 0.00000 1.00000 0.00000 0.00000 ] defaultmatrix matrix concatmatrix setmatrix
[ 1.00000 0.00000 0.00000 1.00000 0.00000 0.00000 ] defaultmatrix matrix concatmatrix setmatrix
0.00000 .400000 0.00000 RG
0.00000 0.00000 .607843 RG
1.00000 1.00000 1.00000 RG
0.00000 0.00000 0.00000 RG
1.00000 1.00000 1.00000 RG
newpath
135.590 176.420 m
134.182 176.420 133.041 177.561 133.041 178.969  c
133.041 184.067 l
133.041 185.474 134.182 186.616 135.590 186.616  c
137.461 186.616 l
138.869 186.616 140.010 185.474 140.010 184.067  c
140.010 178.969 l
140.010 177.561 138.869 176.420 137.461 176.420  c
h
f
0.00000 0.00000 0.00000 RG
[ 1.00000 0.00000 0.00000 1.00000 133.026 173.948 ] concat
newpath
6.46875 9.23438 m
7.51562 9.50000 l
7.29688 10.3542 6.90365 11.0078 6.33594 11.4609  c
5.76823 11.9141 5.07292 12.1406 4.25000 12.1406  c
3.39583 12.1406 2.70312 11.9661 2.17188 11.6172  c
1.64062 11.2682 1.23698 10.7656 .960938 10.1094  c
.684896 9.45312 .546875 8.75000 .546875 8.00000  c
.546875 7.18750 .703125 6.47396 1.01562 5.85938  c
1.32812 5.24479 1.77344 4.77865 2.35156 4.46094  c
2.92969 4.14323 3.56771 3.98438 4.26562 3.98438  c
5.05729 3.98438 5.72135 4.18490 6.25781 4.58594  c
6.79427 4.98698 7.16667 5.55208 7.37500 6.28125  c
6.34375 6.53125 l
6.16667 5.95833 5.90365 5.54167 5.55469 5.28125  c
5.20573 5.02083 4.77083 4.89062 4.25000 4.89062  c
3.63542 4.89062 3.12500 5.03385 2.71875 5.32031  c
2.31250 5.60677 2.02865 5.99479 1.86719 6.48438  c
1.70573 6.97396 1.62500 7.47917 1.62500 8.00000  c
1.62500 8.66667 1.72135 9.25000 1.91406 9.75000  c
2.10677 10.2500 2.40885 10.6250 2.82031 10.8750  c
3.23177 11.1250 3.67708 11.2500 4.15625 11.2500  c
4.73958 11.2500 5.23438 11.0807 5.64062 10.7422  c
6.04688 10.4036 6.32292 9.90104 6.46875 9.23438  c
h
f
[ 1.00000 0.00000 0.00000 1.00000 0.00000 0.00000 ] defaultmatrix matrix concatmatrix setmatrix
[ 1.00000 0.00000 0.00000 1.00000 0.00000 0.00000 ] defaultmatrix matrix concatmatrix setmatrix
[ 1.00000 0.00000 0.00000 1.00000 141.511 176.518 ] concat
0.00000 0.00000 .607843 RG
newpath
4.03125 7.32812 m
4.03125 8.00000 l
.250000 8.00000 l
.239583 7.83333 .265625 7.67188 .328125 7.51562  c
.421875 7.25521 .575521 7.00000 .789062 6.75000  c
1.00260 6.50000 1.30729 6.20833 1.70312 5.87500  c
2.32812 5.36458 2.75000 4.96094 2.96875 4.66406  c
3.18750 4.36719 3.29688 4.08854 3.29688 3.82812  c
3.29688 3.54688 3.19792 3.30990 3.00000 3.11719  c
2.80208 2.92448 2.54167 2.82812 2.21875 2.82812  c
1.88542 2.82812 1.61719 2.92969 1.41406 3.13281  c
1.21094 3.33594 1.10417 3.61979 1.09375 3.98438  c
.375000 3.90625 l
.427083 3.36458 .614583 2.95312 .937500 2.67188  c
1.26042 2.39062 1.69271 2.25000 2.23438 2.25000  c
2.78646 2.25000 3.22135 2.40104 3.53906 2.70312  c
3.85677 3.00521 4.01562 3.38542 4.01562 3.84375  c
4.01562 4.07292 3.96875 4.29688 3.87500 4.51562  c
3.78125 4.73438 3.62760 4.96615 3.41406 5.21094  c
3.20052 5.45573 2.83854 5.79167 2.32812 6.21875  c
1.91146 6.57292 1.64323 6.81250 1.52344 6.93750  c
1.40365 7.06250 1.30208 7.19271 1.21875 7.32812  c
4.03125 7.32812 l
h
f
[ 1.00000 0.00000 0.00000 1.00000 0.00000 0.00000 ] defaultmatrix matrix concatmatrix setmatrix
[ 1.00000 0.00000 0.00000 1.00000 0.00000 0.00000 ] defaultmatrix matrix concatmatrix setmatrix
0.00000 0.00000 0.00000 RG
0.00000 0.00000 .607843 RG
1.00000 1.00000 1.00000 RG
0.00000 0.00000 0.00000 RG
1.00000 1.00000 1.00000 RG
newpath
105.422 176.506 m
104.057 176.506 102.951 177.612 102.951 178.977  c
102.951 183.918 l
102.951 185.283 104.057 186.389 105.422 186.389  c
112.152 186.389 l
113.517 186.389 114.623 185.283 114.623 183.918  c
114.623 178.977 l
114.623 177.612 113.517 176.506 112.152 176.506  c
h
f
0.00000 0.00000 0.00000 RG
[ 1.00000 0.00000 0.00000 1.00000 102.287 173.948 ] concat
newpath
.859375 12.0000 m
.859375 4.12500 l
4.35938 4.12500 l
5.05729 4.12500 5.58854 4.19531 5.95312 4.33594  c
6.31771 4.47656 6.60938 4.72656 6.82812 5.08594  c
7.04688 5.44531 7.15625 5.84375 7.15625 6.28125  c
7.15625 6.83333 6.97656 7.30208 6.61719 7.68750  c
6.25781 8.07292 5.69792 8.31771 4.93750 8.42188  c
5.21875 8.54688 5.42708 8.67708 5.56250 8.81250  c
5.87500 9.09375 6.16667 9.44271 6.43750 9.85938  c
7.79688 12.0000 l
6.50000 12.0000 l
5.45312 10.3594 l
5.15104 9.89062 4.90104 9.53125 4.70312 9.28125  c
4.50521 9.03125 4.32812 8.85417 4.17188 8.75000  c
4.01562 8.64583 3.85938 8.57812 3.70312 8.54688  c
3.57812 8.51562 3.38021 8.50000 3.10938 8.50000  c
1.90625 8.50000 l
1.90625 12.0000 l
.859375 12.0000 l
h
1.90625 7.59375 m
4.14062 7.59375 l
4.61979 7.59375 4.99479 7.54688 5.26562 7.45312  c
5.53646 7.35938 5.73958 7.20312 5.87500 6.98438  c
6.01042 6.76562 6.07812 6.53125 6.07812 6.28125  c
6.07812 5.90625 5.94531 5.59896 5.67969 5.35938  c
5.41406 5.11979 4.98958 5.00000 4.40625 5.00000  c
1.90625 5.00000 l
1.90625 7.59375 l
h
13.4751 11.0781 m
13.4751 12.0000 l
8.27197 12.0000 l
8.27197 11.7708 8.31364 11.5469 8.39697 11.3281  c
8.52197 10.9740 8.73031 10.6250 9.02197 10.2812  c
9.31364 9.93750 9.73551 9.54167 10.2876 9.09375  c
11.1418 8.38542 11.7199 7.82812 12.0220 7.42188  c
12.3241 7.01562 12.4751 6.63021 12.4751 6.26562  c
12.4751 5.88021 12.3397 5.55469 12.0688 5.28906  c
11.7980 5.02344 11.4386 4.89062 10.9907 4.89062  c
10.5324 4.89062 10.1626 5.03125 9.88135 5.31250  c
9.60010 5.59375 9.45947 5.97917 9.45947 6.46875  c
8.45947 6.37500 l
8.53239 5.63542 8.79020 5.07031 9.23291 4.67969  c
9.67562 4.28906 10.2720 4.09375 11.0220 4.09375  c
11.7720 4.09375 12.3683 4.30208 12.8110 4.71875  c
13.2537 5.13542 13.4751 5.65625 13.4751 6.28125  c
13.4751 6.59375 13.4100 6.90365 13.2798 7.21094  c
13.1496 7.51823 12.9360 7.83854 12.6392 8.17188  c
12.3423 8.50521 11.8449 8.96875 11.1470 9.56250  c
10.5636 10.0417 10.1912 10.3698 10.0298 10.5469  c
9.86833 10.7240 9.73031 10.9010 9.61572 11.0781  c
13.4751 11.0781 l
h
f
[ 1.00000 0.00000 0.00000 1.00000 0.00000 0.00000 ] defaultmatrix matrix concatmatrix setmatrix
[ 1.00000 0.00000 0.00000 1.00000 0.00000 0.00000 ] defaultmatrix matrix concatmatrix setmatrix
[ 1.00000 0.00000 0.00000 1.00000 98.5961 176.448 ] concat
0.00000 0.00000 .607843 RG
newpath
2.98438 8.00000 m
2.28125 8.00000 l
2.28125 3.51562 l
2.11458 3.68229 1.89323 3.84635 1.61719 4.00781  c
1.34115 4.16927 1.09375 4.28646 .875000 4.35938  c
.875000 3.68750 l
1.27083 3.50000 1.61458 3.27604 1.90625 3.01562  c
2.19792 2.75521 2.40625 2.50000 2.53125 2.25000  c
2.98438 2.25000 l
2.98438 8.00000 l
h
f
[ 1.00000 0.00000 0.00000 1.00000 0.00000 0.00000 ] defaultmatrix matrix concatmatrix setmatrix
[ 1.00000 0.00000 0.00000 1.00000 0.00000 0.00000 ] defaultmatrix matrix concatmatrix setmatrix
0.00000 0.00000 0.00000 RG
0.00000 0.00000 .607843 RG
1.00000 1.00000 1.00000 RG
0.00000 0.00000 0.00000 RG
1.00000 1.00000 1.00000 RG
newpath
296.572 179.641 m
295.164 179.641 294.023 180.782 294.023 182.190  c
294.023 187.287 l
294.023 188.695 295.164 189.836 296.572 189.836  c
298.443 189.836 l
299.851 189.836 300.992 188.695 300.992 187.287  c
300.992 182.190 l
300.992 180.782 299.851 179.641 298.443 179.641  c
h
f
0.00000 0.00000 0.00000 RG
[ 1.00000 0.00000 0.00000 1.00000 294.008 177.168 ] concat
newpath
6.46875 9.23438 m
7.51562 9.50000 l
7.29688 10.3542 6.90365 11.0078 6.33594 11.4609  c
5.76823 11.9141 5.07292 12.1406 4.25000 12.1406  c
3.39583 12.1406 2.70312 11.9661 2.17188 11.6172  c
1.64062 11.2682 1.23698 10.7656 .960938 10.1094  c
.684896 9.45312 .546875 8.75000 .546875 8.00000  c
.546875 7.18750 .703125 6.47396 1.01562 5.85938  c
1.32812 5.24479 1.77344 4.77865 2.35156 4.46094  c
2.92969 4.14323 3.56771 3.98438 4.26562 3.98438  c
5.05729 3.98438 5.72135 4.18490 6.25781 4.58594  c
6.79427 4.98698 7.16667 5.55208 7.37500 6.28125  c
6.34375 6.53125 l
6.16667 5.95833 5.90365 5.54167 5.55469 5.28125  c
5.20573 5.02083 4.77083 4.89062 4.25000 4.89062  c
3.63542 4.89062 3.12500 5.03385 2.71875 5.32031  c
2.31250 5.60677 2.02865 5.99479 1.86719 6.48438  c
1.70573 6.97396 1.62500 7.47917 1.62500 8.00000  c
1.62500 8.66667 1.72135 9.25000 1.91406 9.75000  c
2.10677 10.2500 2.40885 10.6250 2.82031 10.8750  c
3.23177 11.1250 3.67708 11.2500 4.15625 11.2500  c
4.73958 11.2500 5.23438 11.0807 5.64062 10.7422  c
6.04688 10.4036 6.32292 9.90104 6.46875 9.23438  c
h
f
[ 1.00000 0.00000 0.00000 1.00000 0.00000 0.00000 ] defaultmatrix matrix concatmatrix setmatrix
[ 1.00000 0.00000 0.00000 1.00000 0.00000 0.00000 ] defaultmatrix matrix concatmatrix setmatrix
[ 1.00000 0.00000 0.00000 1.00000 302.492 179.738 ] concat
0.00000 0.00000 .607843 RG
newpath
4.03125 7.32812 m
4.03125 8.00000 l
.250000 8.00000 l
.239583 7.83333 .265625 7.67188 .328125 7.51562  c
.421875 7.25521 .575521 7.00000 .789062 6.75000  c
1.00260 6.50000 1.30729 6.20833 1.70312 5.87500  c
2.32812 5.36458 2.75000 4.96094 2.96875 4.66406  c
3.18750 4.36719 3.29688 4.08854 3.29688 3.82812  c
3.29688 3.54688 3.19792 3.30990 3.00000 3.11719  c
2.80208 2.92448 2.54167 2.82812 2.21875 2.82812  c
1.88542 2.82812 1.61719 2.92969 1.41406 3.13281  c
1.21094 3.33594 1.10417 3.61979 1.09375 3.98438  c
.375000 3.90625 l
.427083 3.36458 .614583 2.95312 .937500 2.67188  c
1.26042 2.39062 1.69271 2.25000 2.23438 2.25000  c
2.78646 2.25000 3.22135 2.40104 3.53906 2.70312  c
3.85677 3.00521 4.01562 3.38542 4.01562 3.84375  c
4.01562 4.07292 3.96875 4.29688 3.87500 4.51562  c
3.78125 4.73438 3.62760 4.96615 3.41406 5.21094  c
3.20052 5.45573 2.83854 5.79167 2.32812 6.21875  c
1.91146 6.57292 1.64323 6.81250 1.52344 6.93750  c
1.40365 7.06250 1.30208 7.19271 1.21875 7.32812  c
4.03125 7.32812 l
h
f
[ 1.00000 0.00000 0.00000 1.00000 0.00000 0.00000 ] defaultmatrix matrix concatmatrix setmatrix
[ 1.00000 0.00000 0.00000 1.00000 0.00000 0.00000 ] defaultmatrix matrix concatmatrix setmatrix
0.00000 0.00000 0.00000 RG
0.00000 0.00000 .607843 RG
1.00000 1.00000 1.00000 RG
0.00000 0.00000 0.00000 RG
1.00000 1.00000 1.00000 RG
newpath
252.535 155.704 m
251.170 155.704 250.064 156.810 250.064 158.175  c
250.064 163.116 l
250.064 164.481 251.170 165.587 252.535 165.587  c
259.265 165.587 l
260.630 165.587 261.736 164.481 261.736 163.116  c
261.736 158.175 l
261.736 156.810 260.630 155.704 259.265 155.704  c
h
f
0.00000 0.00000 0.00000 RG
[ 1.00000 0.00000 0.00000 1.00000 249.400 153.146 ] concat
newpath
.859375 12.0000 m
.859375 4.12500 l
4.35938 4.12500 l
5.05729 4.12500 5.58854 4.19531 5.95312 4.33594  c
6.31771 4.47656 6.60938 4.72656 6.82812 5.08594  c
7.04688 5.44531 7.15625 5.84375 7.15625 6.28125  c
7.15625 6.83333 6.97656 7.30208 6.61719 7.68750  c
6.25781 8.07292 5.69792 8.31771 4.93750 8.42188  c
5.21875 8.54688 5.42708 8.67708 5.56250 8.81250  c
5.87500 9.09375 6.16667 9.44271 6.43750 9.85938  c
7.79688 12.0000 l
6.50000 12.0000 l
5.45312 10.3594 l
5.15104 9.89062 4.90104 9.53125 4.70312 9.28125  c
4.50521 9.03125 4.32812 8.85417 4.17188 8.75000  c
4.01562 8.64583 3.85938 8.57812 3.70312 8.54688  c
3.57812 8.51562 3.38021 8.50000 3.10938 8.50000  c
1.90625 8.50000 l
1.90625 12.0000 l
.859375 12.0000 l
h
1.90625 7.59375 m
4.14062 7.59375 l
4.61979 7.59375 4.99479 7.54688 5.26562 7.45312  c
5.53646 7.35938 5.73958 7.20312 5.87500 6.98438  c
6.01042 6.76562 6.07812 6.53125 6.07812 6.28125  c
6.07812 5.90625 5.94531 5.59896 5.67969 5.35938  c
5.41406 5.11979 4.98958 5.00000 4.40625 5.00000  c
1.90625 5.00000 l
1.90625 7.59375 l
h
13.4751 11.0781 m
13.4751 12.0000 l
8.27197 12.0000 l
8.27197 11.7708 8.31364 11.5469 8.39697 11.3281  c
8.52197 10.9740 8.73031 10.6250 9.02197 10.2812  c
9.31364 9.93750 9.73551 9.54167 10.2876 9.09375  c
11.1418 8.38542 11.7199 7.82812 12.0220 7.42188  c
12.3241 7.01562 12.4751 6.63021 12.4751 6.26562  c
12.4751 5.88021 12.3397 5.55469 12.0688 5.28906  c
11.7980 5.02344 11.4386 4.89062 10.9907 4.89062  c
10.5324 4.89062 10.1626 5.03125 9.88135 5.31250  c
9.60010 5.59375 9.45947 5.97917 9.45947 6.46875  c
8.45947 6.37500 l
8.53239 5.63542 8.79020 5.07031 9.23291 4.67969  c
9.67562 4.28906 10.2720 4.09375 11.0220 4.09375  c
11.7720 4.09375 12.3683 4.30208 12.8110 4.71875  c
13.2537 5.13542 13.4751 5.65625 13.4751 6.28125  c
13.4751 6.59375 13.4100 6.90365 13.2798 7.21094  c
13.1496 7.51823 12.9360 7.83854 12.6392 8.17188  c
12.3423 8.50521 11.8449 8.96875 11.1470 9.56250  c
10.5636 10.0417 10.1912 10.3698 10.0298 10.5469  c
9.86833 10.7240 9.73031 10.9010 9.61572 11.0781  c
13.4751 11.0781 l
h
f
[ 1.00000 0.00000 0.00000 1.00000 0.00000 0.00000 ] defaultmatrix matrix concatmatrix setmatrix
[ 1.00000 0.00000 0.00000 1.00000 0.00000 0.00000 ] defaultmatrix matrix concatmatrix setmatrix
[ 1.00000 0.00000 0.00000 1.00000 250.230 146.888 ] concat
0.00000 0.00000 .607843 RG
newpath
2.98438 8.00000 m
2.28125 8.00000 l
2.28125 3.51562 l
2.11458 3.68229 1.89323 3.84635 1.61719 4.00781  c
1.34115 4.16927 1.09375 4.28646 .875000 4.35938  c
.875000 3.68750 l
1.27083 3.50000 1.61458 3.27604 1.90625 3.01562  c
2.19792 2.75521 2.40625 2.50000 2.53125 2.25000  c
2.98438 2.25000 l
2.98438 8.00000 l
h
f
[ 1.00000 0.00000 0.00000 1.00000 0.00000 0.00000 ] defaultmatrix matrix concatmatrix setmatrix
[ 1.00000 0.00000 0.00000 1.00000 0.00000 0.00000 ] defaultmatrix matrix concatmatrix setmatrix
0.00000 0.00000 0.00000 RG
0.00000 0.00000 .607843 RG
1.00000 1.00000 1.00000 RG
0.00000 .400000 0.00000 RG
1.00000 1.00000 1.00000 RG
newpath
266.671 179.457 m
264.913 179.457 263.488 180.882 263.488 182.641  c
263.488 189.008 l
263.488 190.766 264.913 192.192 266.671 192.192  c
272.867 192.192 l
274.625 192.192 276.050 190.766 276.050 189.008  c
276.050 182.641 l
276.050 180.882 274.625 179.457 272.867 179.457  c
h
f
0.00000 .400000 0.00000 RG
[ 1.00000 0.00000 0.00000 1.00000 262.769 177.168 ] concat
newpath
.812500 12.0000 m
.812500 4.12500 l
2.39062 4.12500 l
4.25000 9.70312 l
4.41667 10.2240 4.54167 10.6094 4.62500 10.8594  c
4.71875 10.5781 4.85938 10.1615 5.04688 9.60938  c
6.92188 4.12500 l
8.32812 4.12500 l
8.32812 12.0000 l
7.32812 12.0000 l
7.32812 5.40625 l
5.03125 12.0000 l
4.09375 12.0000 l
1.82812 5.29688 l
1.82812 12.0000 l
.812500 12.0000 l
h
9.70996 12.4688 m
10.6475 12.6094 l
10.6891 12.9010 10.7985 13.1146 10.9756 13.2500  c
11.2152 13.4271 11.5433 13.5156 11.9600 13.5156  c
12.4079 13.5156 12.7542 13.4271 12.9990 13.2500  c
13.2438 13.0729 13.4079 12.8229 13.4912 12.5000  c
13.5433 12.3021 13.5693 11.8854 13.5693 11.2500  c
13.1423 11.7500 12.6110 12.0000 11.9756 12.0000  c
11.1943 12.0000 10.5902 11.7161 10.1631 11.1484  c
9.73600 10.5807 9.52246 9.90104 9.52246 9.10938  c
9.52246 8.56771 9.62142 8.06771 9.81934 7.60938  c
10.0173 7.15104 10.3011 6.79688 10.6709 6.54688  c
11.0407 6.29688 11.4808 6.17188 11.9912 6.17188  c
12.6579 6.17188 13.2100 6.44271 13.6475 6.98438  c
13.6475 6.29688 l
14.5381 6.29688 l
14.5381 11.2188 l
14.5381 12.1146 14.4495 12.7474 14.2725 13.1172  c
14.0954 13.4870 13.8089 13.7786 13.4131 13.9922  c
13.0173 14.2057 12.5329 14.3125 11.9600 14.3125  c
11.2829 14.3125 10.7360 14.1589 10.3193 13.8516  c
9.90267 13.5443 9.69954 13.0833 9.70996 12.4688  c
h
10.5068 9.04688 m
10.5068 9.79688 10.6553 10.3438 10.9521 10.6875  c
11.2490 11.0312 11.6214 11.2031 12.0693 11.2031  c
12.5173 11.2031 12.8923 11.0312 13.1943 10.6875  c
13.4964 10.3438 13.6475 9.80729 13.6475 9.07812  c
13.6475 8.38021 13.4912 7.85417 13.1787 7.50000  c
12.8662 7.14583 12.4912 6.96875 12.0537 6.96875  c
11.6266 6.96875 11.2620 7.14323 10.9600 7.49219  c
10.6579 7.84115 10.5068 8.35938 10.5068 9.04688  c
h
f
[ 1.00000 0.00000 0.00000 1.00000 0.00000 0.00000 ] defaultmatrix matrix concatmatrix setmatrix
[ 1.00000 0.00000 0.00000 1.00000 0.00000 0.00000 ] defaultmatrix matrix concatmatrix setmatrix
[ 1.00000 0.00000 0.00000 1.00000 262.907 190.869 ] concat
0.00000 0.00000 .607843 RG
newpath
.343750 6.48438 m
1.04688 6.39062 l
1.11979 6.78646 1.25521 7.07292 1.45312 7.25000  c
1.65104 7.42708 1.88542 7.51562 2.15625 7.51562  c
2.48958 7.51562 2.77083 7.40104 3.00000 7.17188  c
3.22917 6.94271 3.34375 6.66146 3.34375 6.32812  c
3.34375 6.00521 3.23698 5.73698 3.02344 5.52344  c
2.80990 5.30990 2.54167 5.20312 2.21875 5.20312  c
2.08333 5.20312 1.91667 5.22917 1.71875 5.28125  c
1.79688 4.67188 l
1.84896 4.67188 1.89062 4.67188 1.92188 4.67188  c
2.21354 4.67188 2.47917 4.59375 2.71875 4.43750  c
2.95833 4.28125 3.07812 4.04167 3.07812 3.71875  c
3.07812 3.45833 2.99219 3.24479 2.82031 3.07812  c
2.64844 2.91146 2.42188 2.82812 2.14062 2.82812  c
1.86979 2.82812 1.64323 2.91406 1.46094 3.08594  c
1.27865 3.25781 1.16146 3.51562 1.10938 3.85938  c
.406250 3.73438 l
.489583 3.26562 .684896 2.90104 .992188 2.64062  c
1.29948 2.38021 1.67708 2.25000 2.12500 2.25000  c
2.43750 2.25000 2.72656 2.31771 2.99219 2.45312  c
3.25781 2.58854 3.46094 2.77083 3.60156 3.00000  c
3.74219 3.22917 3.81250 3.47396 3.81250 3.73438  c
3.81250 3.98438 3.74479 4.21094 3.60938 4.41406  c
3.47396 4.61719 3.27604 4.77604 3.01562 4.89062  c
3.35938 4.97396 3.62500 5.13802 3.81250 5.38281  c
4.00000 5.62760 4.09375 5.93750 4.09375 6.31250  c
4.09375 6.81250 3.91146 7.23698 3.54688 7.58594  c
3.18229 7.93490 2.71875 8.10938 2.15625 8.10938  c
1.65625 8.10938 1.23958 7.95833 .906250 7.65625  c
.572917 7.35417 .385417 6.96354 .343750 6.48438  c
h
f
[ 1.00000 0.00000 0.00000 1.00000 0.00000 0.00000 ] defaultmatrix matrix concatmatrix setmatrix
[ 1.00000 0.00000 0.00000 1.00000 0.00000 0.00000 ] defaultmatrix matrix concatmatrix setmatrix
0.00000 .400000 0.00000 RG
0.00000 0.00000 .607843 RG
1.00000 1.00000 1.00000 RG
0.00000 0.00000 0.00000 RG
1.00000 1.00000 1.00000 RG
newpath
140.463 10.0201 m
138.710 10.0201 137.289 11.4411 137.289 13.1940  c
137.289 19.5416 l
137.289 21.2945 138.710 22.7154 140.463 22.7154  c
178.493 22.7154 l
180.246 22.7154 181.667 21.2945 181.667 19.5416  c
181.667 13.1940 l
181.667 11.4411 180.246 10.0201 178.493 10.0201  c
h
f
0.00000 0.00000 0.00000 RG
[ 1.00000 0.00000 0.00000 1.00000 138.978 7.72716 ] concat
newpath
.468750 12.0000 m
2.10938 4.12500 l
3.15625 4.12500 l
2.46875 7.39062 l
6.56250 7.39062 l
7.23438 4.12500 l
8.29688 4.12500 l
6.65625 12.0000 l
5.59375 12.0000 l
6.37500 8.28125 l
2.29688 8.28125 l
1.51562 12.0000 l
.468750 12.0000 l
h
12.1626 11.2969 m
11.8188 11.5781 11.4907 11.7865 11.1782 11.9219  c
10.8657 12.0573 10.5324 12.1250 10.1782 12.1250  c
9.65739 12.1250 9.23551 11.9714 8.91260 11.6641  c
8.58968 11.3568 8.42822 10.9583 8.42822 10.4688  c
8.42822 10.1562 8.50114 9.87760 8.64697 9.63281  c
8.79281 9.38802 8.98551 9.19010 9.22510 9.03906  c
9.46468 8.88802 9.75635 8.78125 10.1001 8.71875  c
10.3188 8.67708 10.7329 8.64323 11.3423 8.61719  c
11.9517 8.59115 12.3918 8.52604 12.6626 8.42188  c
12.7355 8.16146 12.7720 7.94271 12.7720 7.76562  c
12.7720 7.53646 12.6886 7.35938 12.5220 7.23438  c
12.3032 7.05729 11.9751 6.96875 11.5376 6.96875  c
11.1313 6.96875 10.7980 7.05729 10.5376 7.23438  c
10.2772 7.41146 10.0897 7.66667 9.97510 8.00000  c
8.99072 7.92188 l
9.18864 7.34896 9.50374 6.91406 9.93604 6.61719  c
10.3683 6.32031 10.9178 6.17188 11.5845 6.17188  c
12.2928 6.17188 12.8501 6.33854 13.2563 6.67188  c
13.5793 6.92188 13.7407 7.25000 13.7407 7.65625  c
13.7407 7.95833 13.6938 8.30729 13.6001 8.70312  c
13.2876 10.1250 l
13.1834 10.5729 13.1313 10.9375 13.1313 11.2188  c
13.1313 11.4062 13.1730 11.6667 13.2563 12.0000  c
12.2720 12.0000 l
12.2199 11.8125 12.1834 11.5781 12.1626 11.2969  c
h
12.5220 9.10938 m
12.3761 9.16146 12.2277 9.20312 12.0767 9.23438  c
11.9256 9.26562 11.6678 9.29688 11.3032 9.32812  c
10.7303 9.38021 10.3293 9.44271 10.1001 9.51562  c
9.87093 9.58854 9.69645 9.71094 9.57666 9.88281  c
9.45687 10.0547 9.39697 10.2396 9.39697 10.4375  c
9.39697 10.7083 9.49072 10.9323 9.67822 11.1094  c
9.86572 11.2865 10.1313 11.3750 10.4751 11.3750  c
10.7980 11.3750 11.1079 11.2891 11.4048 11.1172  c
11.7017 10.9453 11.9360 10.7083 12.1079 10.4062  c
12.2798 10.1042 12.4178 9.67188 12.5220 9.10938  c
h
14.3584 12.0000 m
15.9990 4.12500 l
16.9678 4.12500 l
15.3271 12.0000 l
14.3584 12.0000 l
h
17.0366 9.82812 m
17.0366 8.72396 17.3647 7.80208 18.0210 7.06250  c
18.5627 6.46875 19.2710 6.17188 20.1460 6.17188  c
20.8335 6.17188 21.3882 6.38542 21.8101 6.81250  c
22.2319 7.23958 22.4429 7.81771 22.4429 8.54688  c
22.4429 9.20312 22.3101 9.81250 22.0444 10.3750  c
21.7788 10.9375 21.4012 11.3698 20.9116 11.6719  c
20.4220 11.9740 19.9116 12.1250 19.3804 12.1250  c
18.9325 12.1250 18.5262 12.0312 18.1616 11.8438  c
17.7970 11.6562 17.5184 11.3880 17.3257 11.0391  c
17.1330 10.6901 17.0366 10.2865 17.0366 9.82812  c
h
18.0210 9.73438 m
18.0210 10.2760 18.1486 10.6849 18.4038 10.9609  c
18.6590 11.2370 18.9845 11.3750 19.3804 11.3750  c
19.5887 11.3750 19.7944 11.3333 19.9976 11.2500  c
20.2007 11.1667 20.3908 11.0391 20.5679 10.8672  c
20.7450 10.6953 20.8960 10.5000 21.0210 10.2812  c
21.1460 10.0625 21.2450 9.82292 21.3179 9.56250  c
21.4325 9.20833 21.4897 8.86979 21.4897 8.54688  c
21.4897 8.02604 21.3595 7.62500 21.0991 7.34375  c
20.8387 7.06250 20.5106 6.92188 20.1147 6.92188  c
19.8127 6.92188 19.5366 6.99479 19.2866 7.14062  c
19.0366 7.28646 18.8101 7.49740 18.6069 7.77344  c
18.4038 8.04948 18.2554 8.37240 18.1616 8.74219  c
18.0679 9.11198 18.0210 9.44271 18.0210 9.73438  c
h
22.9355 12.5156 m
23.9199 12.6094 l
23.9095 12.8281 23.9355 12.9922 23.9980 13.1016  c
24.0605 13.2109 24.1595 13.2969 24.2949 13.3594  c
24.4616 13.4427 24.6855 13.4844 24.9668 13.4844  c
25.5605 13.4844 25.9824 13.3333 26.2324 13.0312  c
26.4095 12.8229 26.5658 12.3750 26.7012 11.6875  c
26.7949 11.2344 l
26.2949 11.7448 25.7585 12.0000 25.1855 12.0000  c
24.6126 12.0000 24.1309 11.7891 23.7402 11.3672  c
23.3496 10.9453 23.1543 10.3438 23.1543 9.56250  c
23.1543 8.91667 23.3079 8.32552 23.6152 7.78906  c
23.9225 7.25260 24.2871 6.84896 24.7090 6.57812  c
25.1309 6.30729 25.5658 6.17188 26.0137 6.17188  c
26.7637 6.17188 27.3418 6.52604 27.7480 7.23438  c
27.9355 6.29688 l
28.8262 6.29688 l
27.6855 11.7969 l
27.5605 12.4010 27.3965 12.8724 27.1934 13.2109  c
26.9902 13.5495 26.7064 13.8125 26.3418 14.0000  c
25.9772 14.1875 25.5553 14.2812 25.0762 14.2812  c
24.6178 14.2812 24.2246 14.2214 23.8965 14.1016  c
23.5684 13.9818 23.3210 13.8099 23.1543 13.5859  c
22.9876 13.3620 22.9043 13.1042 22.9043 12.8125  c
22.9043 12.7188 22.9147 12.6198 22.9355 12.5156  c
h
24.1543 9.46875 m
24.1543 9.86458 24.1908 10.1615 24.2637 10.3594  c
24.3678 10.6302 24.5189 10.8385 24.7168 10.9844  c
24.9147 11.1302 25.1387 11.2031 25.3887 11.2031  c
25.7012 11.2031 26.0163 11.0911 26.3340 10.8672  c
26.6517 10.6432 26.9069 10.2969 27.0996 9.82812  c
27.2923 9.35938 27.3887 8.91146 27.3887 8.48438  c
27.3887 8.01562 27.2585 7.64323 26.9980 7.36719  c
26.7376 7.09115 26.4199 6.95312 26.0449 6.95312  c
25.8053 6.95312 25.5736 7.01562 25.3496 7.14062  c
25.1257 7.26562 24.9199 7.45833 24.7324 7.71875  c
24.5449 7.97917 24.4017 8.29167 24.3027 8.65625  c
24.2038 9.02083 24.1543 9.29167 24.1543 9.46875  c
h
33.3032 10.0625 m
34.2407 10.1562 l
34.1053 10.6250 33.7928 11.0703 33.3032 11.4922  c
32.8136 11.9141 32.2303 12.1250 31.5532 12.1250  c
31.1366 12.1250 30.7511 12.0286 30.3970 11.8359  c
30.0428 11.6432 29.7720 11.3594 29.5845 10.9844  c
29.3970 10.6094 29.3032 10.1875 29.3032 9.71875  c
29.3032 9.09375 29.4491 8.48698 29.7407 7.89844  c
30.0324 7.30990 30.4074 6.87500 30.8657 6.59375  c
31.3241 6.31250 31.8188 6.17188 32.3501 6.17188  c
33.0272 6.17188 33.5688 6.38281 33.9751 6.80469  c
34.3813 7.22656 34.5845 7.80208 34.5845 8.53125  c
34.5845 8.81250 34.5636 9.09896 34.5220 9.39062  c
30.3188 9.39062 l
30.2980 9.50521 30.2876 9.60417 30.2876 9.68750  c
30.2876 10.2188 30.4100 10.6250 30.6548 10.9062  c
30.8996 11.1875 31.1991 11.3281 31.5532 11.3281  c
31.8866 11.3281 32.2147 11.2188 32.5376 11.0000  c
32.8605 10.7812 33.1157 10.4688 33.3032 10.0625  c
h
30.4751 8.64062 m
33.6782 8.64062 l
33.6782 8.54688 33.6782 8.47917 33.6782 8.43750  c
33.6782 7.94792 33.5558 7.57292 33.3110 7.31250  c
33.0662 7.05208 32.7511 6.92188 32.3657 6.92188  c
31.9595 6.92188 31.5845 7.06510 31.2407 7.35156  c
30.8970 7.63802 30.6418 8.06771 30.4751 8.64062  c
h
35.2178 12.0000 m
36.4209 6.29688 l
37.2959 6.29688 l
37.0928 7.29688 l
37.4678 6.90104 37.8219 6.61458 38.1553 6.43750  c
38.4886 6.26042 38.8324 6.17188 39.1865 6.17188  c
39.6449 6.17188 40.0068 6.29688 40.2725 6.54688  c
40.5381 6.79688 40.6709 7.13021 40.6709 7.54688  c
40.6709 7.75521 40.6240 8.08854 40.5303 8.54688  c
39.7959 12.0000 l
38.8271 12.0000 l
39.5928 8.39062 l
39.6657 8.03646 39.7021 7.77604 39.7021 7.60938  c
39.7021 7.42188 39.6370 7.26823 39.5068 7.14844  c
39.3766 7.02865 39.1865 6.96875 38.9365 6.96875  c
38.4365 6.96875 37.9938 7.14844 37.6084 7.50781  c
37.2230 7.86719 36.9365 8.47917 36.7490 9.34375  c
36.2021 12.0000 l
35.2178 12.0000 l
h
f
[ 1.00000 0.00000 0.00000 1.00000 0.00000 0.00000 ] defaultmatrix matrix concatmatrix setmatrix
[ 1.00000 0.00000 0.00000 1.00000 0.00000 0.00000 ] defaultmatrix matrix concatmatrix setmatrix
newpath
88.8125 18.0000 m
88.8125 10.1250 l
92.1562 10.1250 l
93.0000 10.1250 93.6120 10.1953 93.9922 10.3359  c
94.3724 10.4766 94.6771 10.7292 94.9062 11.0938  c
95.1354 11.4583 95.2500 11.8698 95.2500 12.3281  c
95.2500 12.9219 95.0755 13.4115 94.7266 13.7969  c
94.3776 14.1823 93.8594 14.4271 93.1719 14.5312  c
93.5156 14.7292 93.7995 14.9479 94.0234 15.1875  c
94.2474 15.4271 94.5469 15.8542 94.9219 16.4688  c
95.8906 18.0000 l
93.9844 18.0000 l
92.8281 16.2812 l
92.4219 15.6771 92.1432 15.2943 91.9922 15.1328  c
91.8411 14.9714 91.6823 14.8620 91.5156 14.8047  c
91.3490 14.7474 91.0833 14.7188 90.7188 14.7188  c
90.3906 14.7188 l
90.3906 18.0000 l
88.8125 18.0000 l
h
90.3906 13.4531 m
91.5781 13.4531 l
92.3385 13.4531 92.8125 13.4219 93.0000 13.3594  c
93.1875 13.2969 93.3359 13.1875 93.4453 13.0312  c
93.5547 12.8750 93.6094 12.6771 93.6094 12.4375  c
93.6094 12.1667 93.5391 11.9505 93.3984 11.7891  c
93.2578 11.6276 93.0573 11.5260 92.7969 11.4844  c
92.6719 11.4635 92.2865 11.4531 91.6406 11.4531  c
90.3906 11.4531 l
90.3906 13.4531 l
h
101.506 16.5938 m
101.506 18.0000 l
96.2251 18.0000 l
96.2772 17.4688 96.4465 16.9661 96.7329 16.4922  c
97.0194 16.0182 97.5845 15.3906 98.4282 14.6094  c
99.1053 13.9740 99.5220 13.5417 99.6782 13.3125  c
99.8866 13.0000 99.9907 12.6927 99.9907 12.3906  c
99.9907 12.0573 99.8996 11.7995 99.7173 11.6172  c
99.5350 11.4349 99.2876 11.3438 98.9751 11.3438  c
98.6626 11.3438 98.4126 11.4401 98.2251 11.6328  c
98.0376 11.8255 97.9282 12.1406 97.8970 12.5781  c
96.3970 12.4219 l
96.4803 11.5885 96.7590 10.9922 97.2329 10.6328  c
97.7069 10.2734 98.2980 10.0938 99.0063 10.0938  c
99.7876 10.0938 100.400 10.3021 100.842 10.7188  c
101.285 11.1354 101.506 11.6562 101.506 12.2812  c
101.506 12.6354 101.444 12.9740 101.319 13.2969  c
101.194 13.6198 100.991 13.9531 100.709 14.2969  c
100.532 14.5365 100.204 14.8750 99.7251 15.3125  c
99.2459 15.7500 98.9438 16.0391 98.8188 16.1797  c
98.6938 16.3203 98.5897 16.4583 98.5063 16.5938  c
101.506 16.5938 l
h
105.571 13.6094 m
105.571 12.2344 l
111.086 12.2344 l
111.086 13.6094 l
105.571 13.6094 l
h
105.571 16.0000 m
105.571 14.6094 l
111.086 14.6094 l
111.086 16.0000 l
105.571 16.0000 l
h
f
newpath
114.500 6.89952 m
114.381 6.89952 114.261 6.93474 114.156 7.00807  c
113.884 7.19821 113.818 7.57246 114.008 7.84420  c
114.617 8.71429 l
113.158 10.7987 l
113.014 11.0051 113.014 11.2806 113.158 11.4871  c
114.617 13.5714 l
113.158 15.6558 l
113.014 15.8622 113.014 16.1378 113.158 16.3442  c
114.617 18.4286 l
113.158 20.5129 l
113.014 20.7194 113.014 20.9949 113.158 21.2013  c
114.617 23.2857 l
114.008 24.1558 l
113.818 24.4275 113.884 24.8018 114.156 24.9919  c
114.261 25.0653 114.381 25.1005 114.500 25.1005  c
114.689 25.1005 114.875 25.0111 114.992 24.8442  c
115.842 23.6299 l
115.986 23.4235 115.986 23.1479 115.842 22.9415  c
114.383 20.8571 l
115.842 18.7728 l
115.986 18.5664 115.986 18.2908 115.842 18.0844  c
114.383 16.0000 l
115.842 13.9156 l
115.986 13.7092 115.986 13.4336 115.842 13.2272  c
114.383 11.1429 l
115.842 9.05849 l
115.986 8.85207 115.986 8.57650 115.842 8.37008  c
114.992 7.15580 l
114.875 6.98886 114.689 6.89952 114.500 6.89952  c
h
f
1.00000 w
2 J
0 j
10.0000 M
[ ] 0.00000 d
q
cliprestore
newpath
0.00000 0.00000 m
0.00000 210.000 l
317.000 210.000 l
317.000 0.00000 l
h
W
cliprestore
newpath
0.00000 0.00000 m
0.00000 210.000 l
317.000 210.000 l
317.000 0.00000 l
h
W
Q
cliprestore
60.0000 170.000 12.0000 26.0000 rc
[ .990658 0.00000 0.00000 .990658 .560508 1.59650 ] defaultmatrix matrix concatmatrix setmatrix
[ 1.00000 0.00000 0.00000 1.00000 0.00000 0.00000 ] defaultmatrix matrix concatmatrix setmatrix
cliprestore
newpath
0.00000 0.00000 m
0.00000 210.000 l
317.000 210.000 l
317.000 0.00000 l
h
W
cliprestore
60.0000 170.000 12.0000 26.0000 rc
[ .990658 0.00000 0.00000 .990658 .560508 1.59650 ] defaultmatrix matrix concatmatrix setmatrix
newpath
64.3678 188.036 m
64.3678 184.692 l
60.9928 184.692 l
60.9928 182.380 l
64.3678 182.380 l
64.3678 179.036 l
66.6178 179.036 l
66.6178 182.380 l
69.9928 182.380 l
69.9928 184.692 l
66.6178 184.692 l
66.6178 188.036 l
64.3678 188.036 l
h
f
[ 1.00000 0.00000 0.00000 1.00000 0.00000 0.00000 ] defaultmatrix matrix concatmatrix setmatrix
cliprestore
newpath
0.00000 0.00000 m
0.00000 210.000 l
317.000 210.000 l
317.000 0.00000 l
h
W
q
newpath
217.382 177.707 m
166.451 179.145 l
166.483 180.271 l
217.413 178.833 l
217.490 181.533 l
226.400 178.016 l
217.305 175.007 l
h
f
Q

%%Trailer
%%EOF
