%!PS-Adobe-3.0 EPSF-3.0
%%BoundingBox: 20 299 575 492
%%Creator: FreeHEP Graphics2D Driver
%%Producer: org.freehep.graphicsio.ps.EPSGraphics2D
%%For: 
%%Title: 
%%LanguageLevel: 3
%%EndComments
%%BeginProlog
100 dict dup begin

%
% File: org/freehep/graphicsio.ps/PSProlog.txt
% Author: Charles Loomis
%

% Redefinitions which save some space in the output file.  These are also
% the same as the PDF operators.
/q {gsave} def
/Q {grestore} def

/n {newpath} def
/m {moveto} def
/l {lineto} def
/c {curveto} def
/h {closepath} def

/re {4 -2 roll moveto
     dup 0 exch rlineto exch 0 rlineto
     neg 0 exch rlineto closepath} def

/f {fill} def
/f* {eofill} def
/F {gsave vg&FC fill grestore} def
/F* {gsave vg&FC eofill grestore} def

/s {closepath stroke} def
/S {stroke} def

/b {closepath gsave vg&FC fill grestore
    gsave stroke grestore newpath} def
/B {gsave vg&FC fill grestore gsave stroke grestore newpath} def
/b* {closepath gsave vg&FC eofill grestore
    gsave stroke grestore newpath} def
/B* {gsave vg&FC eofill grestore gsave stroke grestore newpath} def

/g {1 array astore /vg&fcolor exch def} def
/G {setgray} def
/k {4 array astore /vg&fcolor exch def} def
/K {setcmykcolor} def
/rg {3 array astore /vg&fcolor exch def} def
/RG {setrgbcolor} def

% Initialize the fill color.
0 0 0 rg

/vg&FC {mark vg&fcolor aload pop
        counttomark 1 eq {G} if
        counttomark 3 eq {RG} if
        counttomark 4 eq {K} if
        cleartomark } def

/vg&DFC {/vg&fcolor exch def} def

/vg&C {mark exch aload pop
       counttomark 1 eq {G} if
       counttomark 3 eq {RG} if
       counttomark 4 eq {K} if
       cleartomark } def

/w {setlinewidth} def
/j {setlinejoin} def
/J {setlinecap} def
/M {setmiterlimit} def
/d {setdash} def
/i {setflat} def

/W {clip} def
/W* {eoclip} def

% Setup the default graphics state.
% (black; 1 pt. linewidth; miter join; butt-ends; solid)
/defaultGraphicsState {0 g 1 w 0 j 0 J [] 0 d} def

% Emulation of the rectangle operators for PostScript implementations
% which do not implement all Level 2 features.  This is an INCOMPLETE
% emulation; only the "x y width height rect..." form is emulated.
/*rf {gsave newpath re fill grestore} def
/*rs {gsave newpath re stroke grestore} def
/*rc {newpath re clip} def
/rf  /rectfill where {pop /rectfill}{/*rf} ifelse load def
/rs  /rectstroke where {pop /rectstroke}{/*rs} ifelse load def
/rc  /rectclip where {pop /rectclip}{/*rc} ifelse load def

% Emulation of the selectfont operator.  This includes a 20% increase in
% the fontsize which is necessary to get sizes similar to the Java fonts.
/*sf {exch findfont exch
      dup type /arraytype eq {makefont}{scalefont} ifelse setfont} bind def
/sf /selectfont where {pop {1.2 mul selectfont}}{{1.2 mul *sf}} ifelse def

% Special version of stroke which allows the dash pattern to continue
% across path segments.  (This may be needed for PostScript although
% modern printers seem to do this correctly.)
/vg&stroke {
  currentdash pop length 0 eq
  {stroke}
  {
    currentdash /vg&doffset exch def pop
    flattenpath
    {m vg&resetdash}
    {2 copy
     currentpoint
     3 -1 roll sub dup mul
     3 1 roll sub dup mul
     add sqrt
     3 1 roll l
     currentdash 3 -1 roll add setdash}
     {}
     {h vg&resetdash}
     pathforall
     stroke
     vg&resetdash
  } ifelse
} def
/vg&resetdash {currentdash pop vg&doffset setdash} def

% Initialize variables for safety.
/delta 0 def
/xv 0 def  /yv 0 def  /width 0 def  /height 0 def

% Initialize to portrait INTERNATIONAL (Letter-height, A4-width) page.
/pw 595 def  /ph 791  def  /po true def /ftp false def

% Initialize margins to 20 points.
/ml 20 def  /mr 20 def  /mt 20 def  /mb 20 def

% Temporary matrices.
/smatrix 0 def  /nmatrix 0 def

% set page size (usage: <page width><page height> setpagesize)
/setpagesize {/ph exch def /pw exch def} def

% set page orientation (usage: portrait or landscape)
/portrait {/po true def} def
/landscape {/po false def} def

% force natural size for image (usage: naturalsize)
/naturalsize {/ftp false def} def

% resize image to fill page (usage: fittopage)
/fittopage {/ftp true def} def

% set margins of the page (usage: <left><bottom><top><right> setmargins)
/setmargins {/mr exch def /mt exch def /mb exch def /ml exch def} def

% set the graphic's size (usage: <width><height> setsize)
/setsize {/gh exch def /gw exch def} def

% set the graphic's origin (usage: <x0><y0> setorigin)
/setorigin {/gy exch def /gx exch def} def

% calculate image center
/imagecenter {pw ml sub mr sub 2 div ml add
              ph mt sub mb sub 2 div mb add} def

% calculate the necessary scaling
/imagescale {po {gw}{gh} ifelse pw ml sub mr sub div
             po {gh}{gw} ifelse ph mt sub mb sub div
             2 copy lt {exch} if pop
             ftp not {1 2 copy lt {exch} if pop} if
             1 exch div /sfactor exch def
             /gw gw sfactor mul def /gh gh sfactor mul def} def

% calculate image origin
/imageorigin {pw ml sub mr sub 2 div ml add
              po {gw}{gh} ifelse 2 div sub
              ph mt sub mb sub 2 div mb add
              po {gh}{gw} ifelse 2 div po {add}{sub} ifelse} def

% calculate the clipping origin
/cliporigin  {pw ml sub mr sub 2 div ml add
              po {gw}{gh} ifelse 2 div sub floor
              ph mt sub mb sub 2 div mb add
              po {gh}{gw} ifelse 2 div sub floor} def

% Set the clipping region to the bounding box.
/cliptobounds {cliporigin po {gw}{gh} ifelse 1 add
                          po {gh}{gw} ifelse 1 add rc} def

% set the base transformation matrix (usage: setbasematrix)
/setbasematrix {imageorigin translate
                po {0}{90} ifelse rotate
                sfactor sfactor neg scale
                /defaultmatrix matrix currentmatrix def} def

% The lower-right bias in drawing 1 pt. wide lines.
/bias  {q 0.5 0.5 translate} def
/unbias {Q} def

% Define the composite fonts used to print Unicode strings.
% Undefine particular values in an encoding array.
/vg&undef { {exch dup 3 -1 roll /.notdef put} forall } def
/vg&redef { {3 -1 roll dup 4 2 roll put} forall } def

% usage: key encoding basefontname vg&newbasefont font
/vg&newbasefont {
findfont dup length dict copy
  begin
    currentdict /FID undef
    /Encoding exch def
    dup /FontName exch def
    currentdict
  end
definefont
} def

% usage: key encoding basefontname vg&newskewedbasefont font
/vg&newskewedbasefont {
findfont dup length dict copy
  begin
    currentdict /FID undef
    /Encoding exch def
    dup /FontName exch def
    exch FontMatrix exch matrix concatmatrix /FontMatrix exch def
    currentdict
  end
definefont
} def

% usage: basekey suffix vg&nconcat name
/vg&nconcat {
  2 {dup length string cvs exch} repeat
  dup length 3 -1 roll dup length 3 -1 roll add string
  dup 0 4 -1 roll dup length 5 1 roll putinterval
  dup 4 -2 roll exch putinterval cvn
} def

%usage: fontname vg&skewmatrix matrix
/vg&skewmatrix {
findfont dup /FontInfo known
  {
    /FontInfo get dup /ItalicAngle known
    {
      [ 1 0 4 -1 roll /ItalicAngle get neg dup sin exch cos div 1 0 0 ]
    }
    {pop matrix} ifelse
  }
  {pop matrix} ifelse
} def

% usage: newfontname basefontname vg&newcompositefont --
/vg&newcompositefont {
/vg&fstyle exch def
/vg&bfont exch def
/vg&fname exch def
<<
/FontStyleBits vg&fstyle
/FontType 0
/FontMatrix matrix
/FontName vg&fname
/FMapType 2
/Encoding [ 0 1 255 {pop 6} for ]
          dup 16#00 0 put % Latin
          dup 16#03 1 put % Greek
          dup 16#20 2 put % Punctuation
          dup 16#21 3 put % Arrows
          dup 16#22 4 put % MathOps
          dup 16#27 5 put % Dingbats

/FDepVector [
vg&bfont /-UC-Latin vg&nconcat UCLatinEncoding
vg&bfont vg&newbasefont

vg&bfont vg&skewmatrix
vg&bfont /-UC-Greek vg&nconcat UCGreekEncoding
/Symbol vg&newskewedbasefont

vg&bfont /-UC-Punctuation vg&nconcat UCPunctuationEncoding
vg&bfont vg&newbasefont

/Arrows-UC findfont
/MathOps-UC findfont
/Dingbats-UC findfont
/Undefined-UC findfont ]
>>
vg&fname exch definefont pop
} def

% Null encoding vector (all elements set to .notdef)
/NullEncoding [ 256 {/.notdef} repeat ] def

% Unicode Latin encoding (unicode codes \u0000-\u00ff)
/UCLatinEncoding
  ISOLatin1Encoding dup length array copy
  dup 16#60 /grave put
  [ 16#90 16#91 16#92 16#93 16#94 16#95 16#96
    16#97 16#98 16#9a 16#9b 16#9d 16#9e 16#9f
  ] vg&undef
  def

% Unicode Greek encoding (unicode codes \u0370-\u03ff)
/UCGreekEncoding
  NullEncoding dup length array copy
  << 16#91 /Alpha    16#92 /Beta      16#93 /Gamma    16#94 /Delta
     16#95 /Epsilon  16#96 /Zeta      16#97 /Eta      16#98 /Theta
     16#99 /Iota     16#9a /Kappa     16#9b /Lambda   16#9c /Mu
     16#9d /Nu       16#9e /Xi        16#9f /Omicron  16#a0 /Pi
     16#a1 /Rho      16#a3 /Sigma     16#a4 /Tau      16#a5 /Upsilon
     16#a6 /Phi      16#a7 /Chi       16#a8 /Psi      16#a9 /Omega
     16#b1 /alpha    16#b2 /beta      16#b3 /gamma    16#b4 /delta
     16#b5 /epsilon  16#b6 /zeta      16#b7 /eta      16#b8 /theta
     16#b9 /iota     16#ba /kappa     16#bb /lambda   16#bc /mu
     16#bd /nu       16#be /xi        16#bf /omicron  16#c0 /pi
     16#c1 /rho      16#c2 /sigma1    16#c3 /sigma    16#c4 /tau
     16#c5 /upsilon  16#c6 /phi1      16#c7 /chi      16#c8 /psi
     16#c9 /omega    16#7e /semicolon 16#87 /dotmath  16#d1 /theta1
     16#d2 /Upsilon1 16#d5 /phi       16#d6 /omega1
  >> vg&redef
  def

% Unicode punctuation encoding (unicode codes \u2000-\u206f)
/UCPunctuationEncoding
  NullEncoding dup length array copy
  << 16#10 /hyphen          16#11 /hyphen              16#12 /endash
     16#13 /emdash          16#18 /quoteleft           16#19 /quoteright
     16#1a /quotesinglbase  16#1b /quotesingle         16#1c /quotedblleft
     16#1d /quotedblright   16#1e /quotedblbase        16#1f /quotedbl
     16#20 /dagger          16#21 /daggerdbl           16#22 /bullet
     16#24 /period          16#26 /ellipsis            16#27 /periodcentered
     16#30 /perthousand     16#44 /fraction
     16#70 /zerosuperior    16#74 /foursuperior        16#75 /fivesuperior
     16#76 /sixsuperior     16#77 /sevensuperior       16#78 /eightsuperior
     16#79 /ninesuperior    16#7b /hyphensuperior      16#7d /parenleftsuperior
     16#7e /parenrightsuperior
     16#80 /zeroinferior    16#84 /fourinferior        16#85 /fiveinferior
     16#81 /oneinferior     16#82 /twoinferior         16#83 /threeinferior
     16#86 /sixinferior     16#87 /seveninferior       16#88 /eightinferior
     16#89 /nineinferior    16#8b /hypheninferior      16#8d /parenleftinferior
     16#8e /parenrightinferior
  >> vg&redef
  def

% Unicode mathematical operators encoding (unicode codes \u2200-\u22ff)
/UCMathOpsEncoding
  NullEncoding dup length array copy
  << 16#00 /universal       16#02 /partialdiff         16#03 /existential
     16#05 /emptyset        16#06 /Delta               16#07 /gradient
     16#08 /element         16#09 /notelement          16#0b /suchthat
     16#0f /product         16#11 /summation           16#12 /minus
     16#15 /fraction        16#17 /asteriskmath        16#19 /bullet
     16#1a /radical         16#1d /proportional        16#1e /infinity
     16#20 /angle           16#23 /bar                 16#27 /logicaland
     16#28 /logicalor       16#29 /intersection        16#2a /union
     16#2b /integral        16#34 /therefore           16#36 /colon
     16#3c /similar         16#45 /congruent           16#48 /approxequal
     16#60 /notequal        16#61 /equivalence         16#64 /lessequal
     16#65 /greaterequal    16#82 /propersubset        16#83 /propersuperset
     16#86 /reflexsubset    16#87 /reflexsuperset      16#95 /circleplus
     16#97 /circlemultiply  16#a5 /perpendicular       16#03 /existential
     16#c0 /logicaland      16#c1 /logicalor           16#c2 /intersection
     16#c3 /union           16#c4 /diamond             16#c5 /dotmath
  >> vg&redef
  def

% Unicode arrows encoding (unicode codes \u2190-\u21ff)
% Also includes those "Letterlike" unicode characters
% which are available in the symbol font. (unicode codes \u2100-\u214f)
/UCArrowsEncoding
  NullEncoding dup length array copy
  << 16#11 /Ifraktur        16#1c /Rfraktur            16#22 /trademarkserif
     16#35 /aleph
     16#90 /arrowleft       16#91 /arrowup             16#92 /arrowright
     16#93 /arrowdown       16#94 /arrowboth           16#d0 /arrowdblleft
     16#d1 /arrowdblup      16#d2 /arrowdblright       16#d3 /arrowdbldown
     16#d4 /arrowdblboth
  >> vg&redef
  def

/ZapfDingbats findfont /Encoding get
dup length array copy /UCDingbatsEncoding exch def
16#20 1 16#7f {
  dup 16#20 sub exch
  UCDingbatsEncoding exch get
  UCDingbatsEncoding 3 1 roll put
} for
16#a0 1 16#ff {
  dup 16#40 sub exch
  UCDingbatsEncoding exch get
  UCDingbatsEncoding 3 1 roll put
} for
UCDingbatsEncoding [ 16#c0 1 16#ff {} for ] vg&undef
[ 16#00  16#05 16#0a 16#0b  16#28 16#4c 16#4e  16#53 16#54 16#55  16#57 16#5f
  16#60  16#68 16#69 16#6a  16#6b 16#6c 16#6d  16#6e 16#6f 16#70  16#71 16#72
  16#73  16#74 16#75 16#95  16#96 16#97 16#b0  16#bf
] vg&undef pop

% Define the base fonts which don't change.
/Undefined-UC NullEncoding       /Helvetica    vg&newbasefont pop
/MathOps-UC   UCMathOpsEncoding  /Symbol       vg&newbasefont pop
/Arrows-UC    UCArrowsEncoding   /Symbol       vg&newbasefont pop
/Dingbats-UC  UCDingbatsEncoding /ZapfDingbats vg&newbasefont pop

% Make the SansSerif composite fonts.
/SansSerif /Helvetica 16#00 vg&newcompositefont
/SansSerif-Bold /Helvetica-Bold 16#01 vg&newcompositefont
/SansSerif-Italic /Helvetica-Oblique 16#02 vg&newcompositefont
/SansSerif-BoldItalic /Helvetica-BoldOblique 16#03 vg&newcompositefont

% Make the Serif composite fonts.
/Serif /Times-Roman 16#00 vg&newcompositefont
/Serif-Bold /Times-Bold 16#01 vg&newcompositefont
/Serif-Italic /Times-Italic 16#02 vg&newcompositefont
/Serif-BoldItalic /Times-BoldItalic 16#03 vg&newcompositefont

% Make the Monospaced composite fonts.
/Monospaced /Courier 16#00 vg&newcompositefont
/Monospaced-Bold /Courier-Bold 16#01 vg&newcompositefont
/Monospaced-Italic /Courier-Oblique 16#02 vg&newcompositefont
/Monospaced-BoldItalic /Courier-BoldOblique 16#03 vg&newcompositefont

% Make the Dialog composite fonts.
/Dialog /Helvetica 16#00 vg&newcompositefont
/Dialog-Bold /Helvetica-Bold 16#01 vg&newcompositefont
/Dialog-Italic /Helvetica-Oblique 16#02 vg&newcompositefont
/Dialog-BoldItalic /Helvetica-BoldOblique 16#03 vg&newcompositefont

% Make the DialogInput composite fonts.
/DialogInput /Courier 16#00 vg&newcompositefont
/DialogInput-Bold /Courier-Bold 16#01 vg&newcompositefont
/DialogInput-Italic /Courier-Oblique 16#02 vg&newcompositefont
/DialogInput-BoldItalic /Courier-BoldOblique 16#03 vg&newcompositefont

% Make the Typewriter composite fonts (JDK 1.1 only).
/Typewriter /Courier 16#00 vg&newcompositefont
/Typewriter-Bold /Courier-Bold 16#01 vg&newcompositefont
/Typewriter-Italic /Courier-Oblique 16#02 vg&newcompositefont
/Typewriter-BoldItalic /Courier-BoldOblique 16#03 vg&newcompositefont


/cfontH {
 dup /fontsize exch def /SansSerif exch sf
 /vg&fontstyles [{cfontH} {cfontHB} {cfontHI} {cfontHBI}] def
} def
/cfontHB {
  dup /fontsize exch def /SansSerif-Bold exch sf
 /vg&fontstyles [{cfontH} {cfontHB} {cfontHI} {cfontHBI}] def
} def
/cfontHI {
 dup /fontsize exch def /SansSerif-Italic exch sf
 /vg&fontstyles [{cfontH} {cfontHB} {cfontHI} {cfontHBI}] def
} def
/cfontHBI {
 dup /fontsize exch def /SansSerif-BoldItalic exch sf
 /vg&fontstyles [{cfontH} {cfontHB} {cfontHI} {cfontHBI}] def
} def

/cfontT {
 dup /fontsize exch def /Serif exch sf
 /vg&fontstyles [{cfontT} {cfontTB} {cfontTI} {cfontTBI}] def
} def
/cfontTB {
 dup /fontsize exch def /Serif-Bold exch sf
 /vg&fontstyles [{cfontT} {cfontTB} {cfontTI} {cfontTBI}] def
} def
/cfontTI {
 dup /fontsize exch def /Serif-Italic exch sf
 /vg&fontstyles [{cfontT} {cfontTB} {cfontTI} {cfontTBI}] def
} def
/cfontTBI {
 dup /fontsize exch def /Serif-BoldItalic exch sf
 /vg&fontstyles [{cfontT} {cfontTB} {cfontTI} {cfontTBI}] def
} def

/cfontC {
 dup /fontsize exch def /Typewriter exch sf
 /vg&fontstyles [{cfontC} {cfontCB} {cfontCI} {cfontCBI}] def
} def
/cfontCB {
 dup /fontsize exch def /Typewriter-Bold exch sf
 /vg&fontstyles [{cfontC} {cfontCB} {cfontCI} {cfontCBI}] def
} def
/cfontCI {
 dup /fontsize exch def /Typewriter-Italic exch sf
 /vg&fontstyles [{cfontC} {cfontCB} {cfontCI} {cfontCBI}] def
} def
/cfontCBI {
 dup /fontsize exch def /Typewriter-BoldItalic exch sf
 /vg&fontstyles [{cfontC} {cfontCB} {cfontCI} {cfontCBI}] def
} def

% Darken or lighten the current color.
/darken {0.7 exch exp 3 copy
         q 4 -1 roll vg&C
         currentrgbcolor 3 {4 -2 roll mul} repeat
         3 array astore Q} def

/displayColorMap
<< /Cr   [1.00 0.00 0.00]       /Cg     [0.00 1.00 0.00]
   /Cb   [0.00 0.00 1.00]       /Cc     [1.00 0.00 0.00 0.00]
   /Cm   [0.00 1.00 0.00 0.00]  /Cy     [0.00 0.00 1.00 0.00]
   /Co   [1.00 0.78 0.00]       /Cp     [1.00 0.67 0.67]
   /Cw   [1   ]                 /Cgrl   [0.75]
   /Cgr  [0.50]                 /Cgrd   [0.25]
   /Ck   [0   ]
   /CGr  [1.00 0.00 0.00]       /CGg    [0.00 1.00 0.00]
   /CGb  [0.00 0.00 1.00]       /CGc    [1.00 0.00 0.00 0.00]
   /CGm  [0.00 1.00 0.00 0.00]  /CGy    [0.00 0.00 1.00 0.00]
   /CGo  [1.00 0.78 0.00]       /CGp    [1.00 0.67 0.67]
   /CGw  [1   ]                 /CGgrl  [0.75]
   /CGgr [0.50]                 /CGgrd  [0.25]
   /CGk  [0   ]
   /CIr  [1.00 0.00 0.00]       /CIg    [0.00 1.00 0.00]
   /CIb  [0.00 0.00 1.00]       /CIc    [1.00 0.00 0.00 0.00]
   /CIm  [0.00 1.00 0.00 0.00]  /CIy    [0.00 0.00 1.00 0.00]
   /CIo  [1.00 0.78 0.00]       /CIp    [1.00 0.67 0.67]
   /CIw  [1   ]                 /CIgrl  [0.75]
   /CIgr [0.50]                 /CIgrd  [0.25]
   /CIk  [0   ]
>> def

/printColorMap
<< /Cr   [1.00 0.33 0.33]       /Cg     [0.33 1.00 0.33]
   /Cb   [0.33 0.33 1.00]       /Cc     [1.00 0.00 0.00 0.00]
   /Cm   [0.00 1.00 0.00 0.00]  /Cy     [0.00 0.00 1.00 0.00]
   /Co   [1.00 0.78 0.00]       /Cp     [1.00 0.67 0.67]
   /Cw   [1   ]                 /Cgrl   [0.75]
   /Cgr  [0.50]                 /Cgrd   [0.25]
   /Ck   [0   ]
   /CGr  [1.00 0.33 0.33]       /CGg    [0.33 1.00 0.33]
   /CGb  [0.33 0.33 1.00]       /CGc    [1.00 0.00 0.00 0.00]
   /CGm  [0.00 1.00 0.00 0.00]  /CGy    [0.00 0.00 1.00 0.00]
   /CGo  [1.00 0.78 0.00]       /CGp    [1.00 0.67 0.67]
   /CGw  [1   ]                 /CGgrl  [0.75]
   /CGgr [0.50]                 /CGgrd  [0.25]
   /CGk  [0   ]
   /CIr  [1.00 0.33 0.33]       /CIg    [0.33 1.00 0.33]
   /CIb  [0.33 0.33 1.00]       /CIc    [1.00 0.00 0.00 0.00]
   /CIm  [0.00 1.00 0.00 0.00]  /CIy    [0.00 0.00 1.00 0.00]
   /CIo  [1.00 0.78 0.00]       /CIp    [1.00 0.67 0.67]
   /CIw  [1   ]                 /CIgrl  [0.75]
   /CIgr [0.50]                 /CIgrd  [0.25]
   /CIk  [0   ]
>> def

/grayColorMap
<< /Cr   [0   ]                 /Cg     [0   ]
   /Cb   [0   ]                 /Cc     [0   ]
   /Cm   [0   ]                 /Cy     [0   ]
   /Co   [0   ]                 /Cp     [0   ]
   /Cw   [0   ]                 /Cgrl   [0   ]
   /Cgr  [0   ]                 /Cgrd   [0   ]
   /Ck   [0   ]
   /CGr  [0.75]                 /CGg    [1   ]
   /CGb  [0.50]                 /CGc    [0.75]
   /CGm  [0.50]                 /CGy    [1   ]
   /CGo  [0.75]                 /CGp    [1   ]
   /CGw  [0   ]                 /CGgrl  [0.25]
   /CGgr [0.50]                 /CGgrd  [0.75]
   /CGk  [1   ]
   /CIr  [1   ]                 /CIg    [1   ]
   /CIb  [1   ]                 /CIc    [1   ]
   /CIm  [1   ]                 /CIy    [1   ]
   /CIo  [1   ]                 /CIp    [1   ]
   /CIw  [1   ]                 /CIgrl  [1   ]
   /CIgr [1   ]                 /CIgrd  [1   ]
   /CIk  [1   ]
>> def

/bwColorMap
<< /Cr   [0   ]                 /Cg     [0   ]
   /Cb   [0   ]                 /Cc     [0   ]
   /Cm   [0   ]                 /Cy     [0   ]
   /Co   [0   ]                 /Cp     [0   ]
   /Cw   [0   ]                 /Cgrl   [0   ]
   /Cgr  [0   ]                 /Cgrd   [0   ]
   /Ck   [0   ]
   /CGr  [1   ]                 /CGg    [1   ]
   /CGb  [1   ]                 /CGc    [1   ]
   /CGm  [1   ]                 /CGy    [1   ]
   /CGo  [1   ]                 /CGp    [1   ]
   /CGw  [0   ]                 /CGgrl  [1   ]
   /CGgr [1   ]                 /CGgrd  [1   ]
   /CGk  [1   ]
   /CIr  [1   ]                 /CIg    [1   ]
   /CIb  [1   ]                 /CIc    [1   ]
   /CIm  [1   ]                 /CIy    [1   ]
   /CIo  [1   ]                 /CIp    [1   ]
   /CIw  [1   ]                 /CIgrl  [1   ]
   /CIgr [1   ]                 /CIgrd  [1   ]
   /CIk  [1   ]
>> def

%
% The following routines handle the alignment of and printing of
% tagged strings.
%

% Predefine the bounding box values.
/bbllx 0 def /bblly 0 def /bburx 0 def /bbury 0 def

% This routine pops the first unicode character off of a string and returns
% the remainder of the string, the character code of first character,
% and a "true" if the string was non-zero length.
% <string>      popfirst <remaining string> <true>
% <null string> popfirst <false>
/popfirst {
  dup length 1 gt
    {dup 0 get /vg&fbyte exch def
     dup 1 get /vg&cbyte exch def
     dup length 2 sub 2 exch getinterval true}
    {pop false} ifelse
} def

% This routine shows a single unicode character given the font and
% character codes.
% <font code> <char code> unicharshow --
/unicharshow {
  2 string
  dup 0 5 -1 roll put
  dup 1 4 -1 roll put
  internalshow
} def

% This is an internal routine to alternate between determining the
% bounding box for stringsize and showing the string for recshow.
% <string> internalshow --
/internalshow {show} def

% This is an internal routine to alternate between determining the
% bounding box for stringsize and stroking various ornaments.
% <string> internalstroke --
/internalstroke {S} def

% Sets up internalshow to use the null device to determine string size.
% -- nullinternalshow --
/nullinternalshow {/internalshow {false charpath flattenpath
                                  pathbbox updatebbox} def} def

% Sets up internalstroke to use the null device to determine string size.
% -- nullinternalstroke --
/nullinternalstroke {
 /internalstroke {flattenpath pathbbox updatebbox} def} def

% This routine tests to see if the character code matches the first
% character of a string.
% <char code> <string> testchar <char code> <true or false>
/testchar {exch dup 3 -1 roll 0 get eq} def

% Raise the text baseline for superscripts.
% -- raise --
/raise {
  0 fontsize 2 div rmoveto
  /fontsize fontsize 2 mul 3 div def
  currentfont /FontName get fontsize sf
} def

% Un-raise the text baseline for superscripts.
% -- unraise --
/unraise {
  /fontsize fontsize 1.5 mul def
  0 fontsize 2 div neg rmoveto
} def

% Lower the text baseline for subscripts.
% -- lower --
/lower {
  0 fontsize 3 div neg rmoveto
  /fontsize fontsize 2 mul 3 div def
  currentfont /FontName get fontsize sf
} def

% Un-lower the text baseline for subscripts.
% -- unlower --
/unlower {
  /fontsize fontsize 1.5 mul def
  0 fontsize 3 div rmoveto
} def

% Compare the top two elements on the stack and leave only the
% larger one.
/maxval {2 copy gt {pop} {exch pop} ifelse} def

% Tokenize a string.  Do not use the usual PostScript token because
% parentheses will not be interpreted correctly because of rescanning
% of the string.
/vg&token {/vg&string exch def /vg&index -1 def /vg&level 0 def
0 2 vg&string length 2 sub {
  dup dup 1 add exch vg&string exch get 8 bitshift vg&string 3 -1 roll get or
  dup 16#f0fe eq {pop 1}{16#f0ff eq {-1}{0} ifelse} ifelse
  /vg&level exch vg&level add def
  vg&level 0 eq {/vg&index exch def exit} if pop
} for
vg&index 0 ge {
  vg&string vg&index 2 add dup vg&string length exch sub getinterval
  vg&index 2 gt {vg&string 2 vg&index 2 sub getinterval}{()} ifelse
  true}
{false} ifelse
} bind def

% Recursively show an unicode string.
% <string> recshow --
/recshow {
  popfirst
  {
    % Test to see if this is a string attribute.
    vg&fbyte 16#f0 and 16#e0 eq
    {
      q

      % Font style.
      currentfont dup /FontStyleBits known {/FontStyleBits get}{pop 0} ifelse
      vg&cbyte or vg&fontstyles exch get fontsize exch exec

      vg&token pop recshow currentpoint Q m recshow
    }
    {
      vg&fbyte 16#F8 and 16#F0 eq {

        % Superscript and/or subscript.
        vg&cbyte 16#00 eq {
          vg&token pop exch vg&token pop 3 -1 roll
          q raise recshow unraise currentpoint pop Q exch
          q lower recshow unlower currentpoint pop Q
          maxval currentpoint exch pop m recshow } if

        % Strikeout.
        vg&cbyte 16#01 eq {
          vg&token pop currentpoint 3 -1 roll recshow
          q 0 J vg&underline vg&uthick w
          currentpoint 4 -2 roll fontsize 3 div add moveto
          fontsize 3 div add lineto internalstroke Q
          recshow} if

        % Underline.
        vg&cbyte 16#02 eq {
          vg&token pop currentpoint 3 -1 roll recshow
          q 0 J vg&underline vg&uthick w
          currentpoint 4 -2 roll vg&uoffset add moveto
          vg&uoffset add lineto internalstroke Q
          recshow} if

        % Dashed underline.
        vg&cbyte 16#03 eq {
          vg&token pop currentpoint 3 -1 roll recshow
          q 0 J [ vg&uthick 5 mul vg&uthick 2 mul] 0 d
          vg&underline vg&uthick w
          currentpoint 4 -2 roll vg&uoffset add moveto
          vg&uoffset add lineto internalstroke Q
          recshow} if

        % Dotted underline.
        vg&cbyte 16#04 eq {
          vg&token pop currentpoint 3 -1 roll recshow
          q 1 J [ 0 vg&uthick 3 mul] 0 d
          vg&underline vg&uthick w
          currentpoint 4 -2 roll vg&uoffset add moveto
          vg&uoffset add lineto internalstroke Q
          recshow} if

        % Thick underline.
        vg&cbyte 16#05 eq {
          vg&token pop currentpoint 3 -1 roll recshow
          q 0 J vg&underline vg&uthick 2 mul w
          currentpoint 4 -2 roll vg&uoffset vg&uthick 2 div sub add moveto
          vg&uoffset vg&uthick 2 div sub add lineto internalstroke Q
          recshow} if

        % Gray thick underline.
        vg&cbyte 16#06 eq {
          vg&token pop currentpoint 3 -1 roll recshow
          q 0 J vg&underline vg&uthick 2 mul w 0.5 setgray
          currentpoint 4 -2 roll vg&uoffset vg&uthick 2 div sub add moveto
          vg&uoffset vg&uthick 2 div sub add lineto internalstroke Q
          recshow} if

        % Overbar.
        vg&cbyte 16#07 eq {
          vg&token pop dup stringsize relative 4 1 roll pop pop exch
          3 -1 roll recshow
          q 0 J vg&underline vg&uthick w
          vg&uoffset neg add dup currentpoint pop exch m l internalstroke Q
          recshow} if
      }
      {
        vg&fbyte vg&cbyte unicharshow recshow
      } ifelse
    } ifelse
  } if
} def

% Get the underline position and thickness from the current font.
/vg&underline {

currentfont dup /FontType get 0 eq {/FDepVector get 0 get} if
dup dup /FontInfo known {
  /FontInfo get dup
  dup /UnderlinePosition known {
    /UnderlinePosition get /vg&uoffset exch def
  }
  {
    pop /vg&uoffset 0 def
  } ifelse
  dup /UnderlineThickness known {
    /UnderlineThickness get /vg&uthick exch def
  }
  {
    pop /vg&uthick 0 def
  } ifelse
}
{
  pop /vg&uoffset 0 def /vg&uthick 0 def
} ifelse
/FontMatrix get
currentfont dup /FontType get 0 eq
{/FontMatrix get matrix concatmatrix}{pop} ifelse
dup 0 vg&uoffset 3 -1 roll transform /vg&uoffset exch def pop
0 vg&uthick 3 -1 roll transform /vg&uthick exch def pop
} def

% Make a frame with the coordinates on the stack.
% <llx> <lly> <urx> <ury> frame --
/frame {4 copy m 3 1 roll exch l 4 -2 roll l l h} def

% Resets the accumulated bounding box to a degenerate box at the
% current point.
% -- resetbbox --
/resetbbox {
  currentpoint 2 copy
  /bbury exch def
  /bburx exch def
  /bblly exch def
  /bbllx exch def
} def

% Update the accumulated bounding box.
% <llx'> <lly'> <urx'> <ury'> updatebbox --
/updatebbox {
  dup bbury gt {/bbury exch def} {pop} ifelse
  dup bburx gt {/bburx exch def} {pop} ifelse
  dup bblly lt {/bblly exch def} {pop} ifelse
  dup bbllx lt {/bbllx exch def} {pop} ifelse
} def

% Set the bounding box to the values on the stack.
% <llx'> <lly'> <urx'> <ury'> updatebbox --
/restorebbox {
  /bbury exch def /bburx exch def /bblly exch def /bbllx exch def
} def

% Push the accumulated bounding box onto the stack.
% -- pushbbox <llx> <lly> <urx> <ury>
/pushbbox {bbllx bblly bburx bbury} def

% Make the relative bounding box relative to the currentpoint.
% <llx'> <lly'> <urx'> <ury'> inflate <llx> <lly> <urx> <ury>
/inflate {
  2 {fontsize 0.2 mul add 4 1 roll} repeat
  2 {fontsize 0.2 mul sub 4 1 roll} repeat
} def

% Make the relative bounding box relative to the currentpoint.
% <llx'> <lly'> <urx'> <ury'> relative <llx> <lly> <urx> <ury>
/relative {
  currentpoint 3 -1 roll add 3 1 roll add exch 4 2 roll
  currentpoint 3 -1 roll add 3 1 roll add exch 4 2 roll
} def

% Returns the size of a string appropriate for recshow.
% <string> stringsize <llx> <lly> <urx> <ury>
/stringsize {
  pushbbox /internalshow load /internalstroke load 7 -1 roll
  q
  nulldevice 0 0 m
  nullinternalshow nullinternalstroke
  resetbbox
  recshow
  /internalstroke exch def /internalshow exch def
  pushbbox 8 -4 roll restorebbox
  Q
} def

% Calculate values for string positioning.
/calcval {4 copy
  3 -1 roll sub /widy exch def sub neg /widx exch def
  pop pop /dy exch def /dx exch def} def

% Utilities to position a string.
% First letter (U=upper, C=center, B=baseline, L=lower)
% Second letter (L=left, C=center, R=right)
/align [
{calcval dx neg widy dy add neg rmoveto} % UL
{calcval dx neg widy 2 div dy add neg rmoveto} % CL
{calcval dx neg 0 rmoveto} % BL
{calcval dx neg dy neg rmoveto} % LL
{calcval widx dx add neg widy dy add neg rmoveto} % UR
{calcval widx dx add neg widy 2 div dy add neg rmoveto} % CR
{calcval widx dx add neg 0 rmoveto} % BR
{calcval widx dx add neg dy neg rmoveto} % LR
{calcval widx 2 div dx add neg widy dy add neg rmoveto} % UC
{calcval widx 2 div dx add neg widy 2 div dy add neg rmoveto} % CC
{calcval widx 2 div dx add neg 0 rmoveto} % BC
{calcval widx 2 div dx add neg dy neg rmoveto} % LC
] def

/vg&str {m q 1 -1 scale dup stringsize 4 copy align 11 -1 roll get exec
         q inflate relative frame exch exec Q recshow Q} def

end /procDict exch def
%%EndProlog

%%BeginSetup
save
procDict begin
printColorMap begin
595 791 setpagesize
20 20 20 20 setmargins
0 0 setorigin
454 157 setsize
fittopage
portrait
imagescale
cliptobounds
setbasematrix
/Helvetica 10 sf
defaultGraphicsState
%%EndSetup

0.00000 0.00000 0.00000 RG
[ 1.00000 0.00000 0.00000 1.00000 0.00000 0.00000 ] defaultmatrix matrix concatmatrix setmatrix
cliprestore
1.00000 1.00000 1.00000 RG
newpath
0.00000 0.00000 m
454.000 0.00000 l
454.000 157.000 l
0.00000 157.000 l
0.00000 0.00000 l
h
f
0.00000 0.00000 0.00000 RG
0.00000 0.00000 0.00000 RG
[ 1.00000 0.00000 0.00000 1.00000 0.00000 0.00000 ] defaultmatrix matrix concatmatrix setmatrix
cliprestore
1.00000 1.00000 1.00000 RG
newpath
0.00000 0.00000 m
454.000 0.00000 l
454.000 157.000 l
0.00000 157.000 l
0.00000 0.00000 l
h
f
0.00000 0.00000 0.00000 RG
1.00000 1.00000 1.00000 RG
newpath
0.00000 0.00000 m
454.000 0.00000 l
454.000 157.000 l
0.00000 157.000 l
0.00000 0.00000 l
h
f
cliprestore
0 0 454 157 rc
q
<< /PatternType 2
   /Shading
   << /ShadingType 2
      /ColorSpace /DeviceRGB
      /Coords [54.25056457519531 122.68688201904297 53.65055465698242 121.64762115478516]
      /Function
      << /FunctionType 2
         /Domain [0 1]
         /Range [0 1 0 1 0 1]
         /C0 [0.2 0.2 0.2]
         /C1 [0.2 0.2 0.6]
         /N 1
      >>
      /Extend [true true]
   >>
>>
matrix makepattern setpattern
newpath
57.7676 127.579 m
51.1728 116.156 l
51.0071 115.869 50.6402 115.771 50.3532 115.936  c
50.0661 116.102 49.9678 116.469 50.1335 116.756  c
56.7283 128.179 l
56.8940 128.466 57.2609 128.564 57.5480 128.398  c
57.8350 128.232 57.9333 127.866 57.7676 127.579  c
h
f
Q
q
<< /PatternType 2
   /Shading
   << /ShadingType 2
      /ColorSpace /DeviceRGB
      /Coords [54.25056457519531 97.63662719726562 53.65055465698242 98.67588806152344]
      /Function
      << /FunctionType 2
         /Domain [0 1]
         /Range [0 1 0 1 0 1]
         /C0 [0.2 0.2 0.2]
         /C1 [0.2 0.2 0.6]
         /N 1
      >>
      /Extend [true true]
   >>
>>
matrix makepattern setpattern
newpath
56.7283 92.1449 m
50.1335 103.568 l
49.9678 103.855 50.0661 104.222 50.3532 104.387  c
50.6402 104.553 51.0071 104.455 51.1728 104.168  c
57.7676 92.7449 l
57.9333 92.4579 57.8350 92.0910 57.5480 91.9253  c
57.2609 91.7596 56.8940 91.8579 56.7283 92.1449  c
h
f
Q
q
<< /PatternType 2
   /Shading
   << /ShadingType 2
      /ColorSpace /DeviceRGB
      /Coords [32.75033187866211 110.16175079345703 33.95036697387695 110.16175079345703]
      /Function
      << /FunctionType 2
         /Domain [0 1]
         /Range [0 1 0 1 0 1]
         /C0 [0.0 0.0 0.0]
         /C1 [0.2 0.2 0.6]
         /N 1
      >>
      /Extend [true true]
   >>
>>
matrix makepattern setpattern
newpath
25.1830 110.762 m
41.5177 110.762 l
41.8491 110.762 42.1177 110.493 42.1177 110.162  c
42.1177 109.830 41.8491 109.562 41.5177 109.562  c
25.1830 109.562 l
24.8516 109.562 24.5830 109.830 24.5830 110.162  c
24.5830 110.493 24.8516 110.762 25.1830 110.762  c
h
f
Q
q
0.00000 0.00000 0.00000 RG
newpath
152.321 93.0119 m
146.360 103.337 l
146.195 103.624 146.293 103.991 146.580 104.157  c
146.867 104.322 147.234 104.224 147.400 103.937  c
153.361 93.6119 l
153.526 93.3249 153.428 92.9580 153.141 92.7923  c
152.854 92.6265 152.487 92.7248 152.321 93.0119  c
h
f
Q
q
0.00000 0.00000 0.00000 RG
newpath
153.361 126.712 m
147.458 116.488 l
147.292 116.201 146.925 116.102 146.638 116.268  c
146.351 116.434 146.253 116.801 146.419 117.088  c
152.321 127.312 l
152.487 127.599 152.854 127.697 153.141 127.531  c
153.428 127.366 153.526 126.999 153.361 126.712  c
h
f
Q
q
<< /PatternType 2
   /Shading
   << /ShadingType 2
      /ColorSpace /DeviceRGB
      /Coords [128.7940673828125 110.16175079345703 129.9940948486328 110.16175079345703]
      /Function
      << /FunctionType 2
         /Domain [0 1]
         /Range [0 1 0 1 0 1]
         /C0 [1.0 0.0 0.0]
         /C1 [0.0 0.0 0.0]
         /N 1
      >>
      /Extend [true true]
   >>
>>
matrix makepattern setpattern
newpath
121.560 107.062 m
121.228 107.062 120.960 107.330 120.960 107.662  c
120.960 107.993 121.228 108.262 121.560 108.262  c
137.228 108.262 l
137.560 108.262 137.828 107.993 137.828 107.662  c
137.828 107.330 137.560 107.062 137.228 107.062  c
h
121.560 112.062 m
121.228 112.062 120.960 112.330 120.960 112.662  c
120.960 112.993 121.228 113.262 121.560 113.262  c
137.228 113.262 l
137.560 113.262 137.828 112.993 137.828 112.662  c
137.828 112.330 137.560 112.062 137.228 112.062  c
h
f
Q
q
0.00000 0.00000 0.00000 RG
newpath
319.511 93.0119 m
313.550 103.337 l
313.385 103.624 313.483 103.991 313.770 104.157  c
314.057 104.322 314.424 104.224 314.590 103.937  c
320.551 93.6119 l
320.716 93.3249 320.618 92.9580 320.331 92.7923  c
320.044 92.6265 319.677 92.7248 319.511 93.0119  c
h
f
Q
q
0.00000 0.00000 0.00000 RG
newpath
320.551 126.712 m
314.648 116.488 l
314.482 116.201 314.115 116.102 313.828 116.268  c
313.541 116.434 313.443 116.801 313.609 117.088  c
319.511 127.312 l
319.677 127.599 320.044 127.697 320.331 127.531  c
320.618 127.366 320.716 126.999 320.551 126.712  c
h
f
Q
q
<< /PatternType 2
   /Shading
   << /ShadingType 2
      /ColorSpace /DeviceRGB
      /Coords [295.6520080566406 110.16175079345703 296.85205078125 110.16175079345703]
      /Function
      << /FunctionType 2
         /Domain [0 1]
         /Range [0 1 0 1 0 1]
         /C0 [0.2 0.2 0.6]
         /C1 [0.0 0.0 0.0]
         /N 1
      >>
      /Extend [true true]
   >>
>>
matrix makepattern setpattern
newpath
288.086 107.062 m
287.754 107.062 287.486 107.330 287.486 107.662  c
287.486 107.993 287.754 108.262 288.086 108.262  c
304.418 108.262 l
304.750 108.262 305.018 107.993 305.018 107.662  c
305.018 107.330 304.750 107.062 304.418 107.062  c
h
288.086 112.062 m
287.754 112.062 287.486 112.330 287.486 112.662  c
287.486 112.993 287.754 113.262 288.086 113.262  c
304.418 113.262 l
304.750 113.262 305.018 112.993 305.018 112.662  c
305.018 112.330 304.750 112.062 304.418 112.062  c
h
f
Q
q
<< /PatternType 2
   /Shading
   << /ShadingType 2
      /ColorSpace /DeviceRGB
      /Coords [276.0244445800781 121.52337646484375 275.4244384765625 122.56263732910156]
      /Function
      << /FunctionType 2
         /Domain [0 1]
         /Range [0 1 0 1 0 1]
         /C0 [0.2 0.2 0.6]
         /C1 [0.0 0.0 0.0]
         /N 1
      >>
      /Extend [true true]
   >>
>>
matrix makepattern setpattern
newpath
277.761 126.225 m
277.874 126.029 277.868 125.785 277.742 125.594  c
275.104 121.599 l
278.756 121.363 l
278.935 121.352 279.100 121.261 279.205 121.115  c
279.216 121.098 279.227 121.082 279.237 121.064  c
279.316 120.927 279.338 120.764 279.297 120.609  c
278.456 117.470 l
278.456 117.470 l
278.456 117.470 l
278.456 117.470 l
278.456 117.470 l
278.456 117.470 l
279.310 116.906 l
279.390 116.853 279.454 116.784 279.499 116.706  c
279.609 116.515 279.609 116.271 279.480 116.075  c
279.297 115.798 278.925 115.722 278.648 115.905  c
277.434 116.707 l
277.354 116.760 277.290 116.829 277.245 116.908  c
277.167 117.042 277.143 117.206 277.185 117.363  c
277.949 120.213 l
273.995 120.468 l
273.794 120.481 273.613 120.594 273.514 120.767  c
273.508 120.777 273.502 120.788 273.496 120.799  c
273.401 120.990 273.415 121.219 273.533 121.397  c
276.004 125.141 l
270.388 124.332 l
270.145 124.297 269.905 124.413 269.782 124.626  c
269.660 124.838 269.679 125.104 269.831 125.297  c
271.998 128.051 l
272.203 128.312 272.580 128.357 272.841 128.152  c
272.903 128.103 272.952 128.045 272.990 127.981  c
273.109 127.774 273.098 127.508 272.941 127.309  c
271.701 125.733 l
277.156 126.519 l
277.390 126.553 277.621 126.447 277.748 126.247  c
277.753 126.239 277.757 126.232 277.761 126.225  c
h
f
Q
q
<< /PatternType 2
   /Shading
   << /ShadingType 2
      /ColorSpace /DeviceRGB
      /Coords [398.9942321777344 113.13497924804688 400.0334777832031 112.53497314453125]
      /Function
      << /FunctionType 2
         /Domain [0 1]
         /Range [0 1 0 1 0 1]
         /C0 [0.2 0.2 0.2]
         /C1 [1.0 0.0 0.0]
         /N 1
      >>
      /Extend [true true]
   >>
>>
matrix makepattern setpattern
newpath
393.594 116.945 m
406.033 109.764 l
406.320 109.598 406.419 109.231 406.253 108.944  c
406.087 108.657 405.720 108.559 405.433 108.725  c
392.994 115.906 l
392.707 116.072 392.609 116.439 392.775 116.726  c
392.941 117.013 393.307 117.111 393.594 116.945  c
h
f
Q
q
<< /PatternType 2
   /Shading
   << /ShadingType 2
      /ColorSpace /DeviceRGB
      /Coords [424.6701354980469 113.135009765625 423.6308898925781 112.53496551513672]
      /Function
      << /FunctionType 2
         /Domain [0 1]
         /Range [0 1 0 1 0 1]
         /C0 [0.2 0.2 0.2]
         /C1 [1.0 0.0 0.0]
         /N 1
      >>
      /Extend [true true]
   >>
>>
matrix makepattern setpattern
newpath
430.669 115.906 m
418.232 108.725 l
417.945 108.559 417.578 108.657 417.412 108.944  c
417.247 109.232 417.345 109.598 417.632 109.764  c
430.069 116.945 l
430.356 117.111 430.723 117.013 430.889 116.726  c
431.054 116.438 430.956 116.072 430.669 115.906  c
h
f
Q
q
0.00000 0.00000 0.00000 RG
newpath
72.1567 15.2106 m
49.2891 15.2106 l
48.9577 15.2106 48.6891 15.4791 48.6891 15.8106  c
48.6891 16.1420 48.9577 16.4106 49.2891 16.4106  c
72.1567 16.4106 l
72.4881 16.4106 72.7567 16.1420 72.7567 15.8106  c
72.7567 15.4791 72.4881 15.2106 72.1567 15.2106  c
h
f
Q
.200000 .200000 .600000 RG
1.00000 1.00000 1.00000 RG
newpath
46.3787 105.240 m
45.0195 105.240 43.9177 106.342 43.9177 107.701  c
43.9177 112.623 l
43.9177 113.982 45.0195 115.084 46.3787 115.084  c
47.6599 115.084 l
49.0191 115.084 50.1209 113.982 50.1209 112.623  c
50.1209 107.701 l
50.1209 106.342 49.0191 105.240 47.6599 105.240  c
h
f
.200000 .200000 .600000 RG
[ 1.00000 0.00000 0.00000 1.00000 43.5193 102.662 ] concat
newpath
.843750 12.0000 m
.843750 4.12500 l
1.90625 4.12500 l
6.04688 10.3125 l
6.04688 4.12500 l
7.04688 4.12500 l
7.04688 12.0000 l
5.96875 12.0000 l
1.84375 5.81250 l
1.84375 12.0000 l
.843750 12.0000 l
h
f
[ 1.00000 0.00000 0.00000 1.00000 0.00000 0.00000 ] defaultmatrix matrix concatmatrix setmatrix
[ 1.00000 0.00000 0.00000 1.00000 0.00000 0.00000 ] defaultmatrix matrix concatmatrix setmatrix
[ 1.00000 0.00000 0.00000 1.00000 51.0589 105.162 ] concat
0.00000 0.00000 .607843 RG
newpath
2.98438 8.00000 m
2.28125 8.00000 l
2.28125 3.51562 l
2.11458 3.68229 1.89323 3.84635 1.61719 4.00781  c
1.34115 4.16927 1.09375 4.28646 .875000 4.35938  c
.875000 3.68750 l
1.27083 3.50000 1.61458 3.27604 1.90625 3.01562  c
2.19792 2.75521 2.40625 2.50000 2.53125 2.25000  c
2.98438 2.25000 l
2.98438 8.00000 l
h
f
[ 1.00000 0.00000 0.00000 1.00000 0.00000 0.00000 ] defaultmatrix matrix concatmatrix setmatrix
[ 1.00000 0.00000 0.00000 1.00000 0.00000 0.00000 ] defaultmatrix matrix concatmatrix setmatrix
.200000 .200000 .600000 RG
0.00000 0.00000 .607843 RG
1.00000 1.00000 1.00000 RG
.200000 .200000 .200000 RG
1.00000 1.00000 1.00000 RG
newpath
60.2468 81.2327 m
58.8877 81.2327 57.7859 82.3345 57.7859 83.6936  c
57.7859 88.6155 l
57.7859 89.9746 58.8877 91.0764 60.2468 91.0764  c
61.5125 91.0764 l
62.8716 91.0764 63.9734 89.9746 63.9734 88.6155  c
63.9734 83.6936 l
63.9734 82.3345 62.8716 81.2327 61.5125 81.2327  c
h
f
.200000 .200000 .200000 RG
[ 1.00000 0.00000 0.00000 1.00000 57.3796 78.6546 ] concat
newpath
.875000 12.0000 m
.875000 4.12500 l
1.92188 4.12500 l
1.92188 7.35938 l
6.01562 7.35938 l
6.01562 4.12500 l
7.06250 4.12500 l
7.06250 12.0000 l
6.01562 12.0000 l
6.01562 8.28125 l
1.92188 8.28125 l
1.92188 12.0000 l
.875000 12.0000 l
h
f
[ 1.00000 0.00000 0.00000 1.00000 0.00000 0.00000 ] defaultmatrix matrix concatmatrix setmatrix
[ 1.00000 0.00000 0.00000 1.00000 0.00000 0.00000 ] defaultmatrix matrix concatmatrix setmatrix
[ 1.00000 0.00000 0.00000 1.00000 62.4576 73.3742 ] concat
0.00000 0.00000 .607843 RG
newpath
4.03125 7.32812 m
4.03125 8.00000 l
.250000 8.00000 l
.239583 7.83333 .265625 7.67188 .328125 7.51562  c
.421875 7.25521 .575521 7.00000 .789062 6.75000  c
1.00260 6.50000 1.30729 6.20833 1.70312 5.87500  c
2.32812 5.36458 2.75000 4.96094 2.96875 4.66406  c
3.18750 4.36719 3.29688 4.08854 3.29688 3.82812  c
3.29688 3.54688 3.19792 3.30990 3.00000 3.11719  c
2.80208 2.92448 2.54167 2.82812 2.21875 2.82812  c
1.88542 2.82812 1.61719 2.92969 1.41406 3.13281  c
1.21094 3.33594 1.10417 3.61979 1.09375 3.98438  c
.375000 3.90625 l
.427083 3.36458 .614583 2.95312 .937500 2.67188  c
1.26042 2.39062 1.69271 2.25000 2.23438 2.25000  c
2.78646 2.25000 3.22135 2.40104 3.53906 2.70312  c
3.85677 3.00521 4.01562 3.38542 4.01562 3.84375  c
4.01562 4.07292 3.96875 4.29688 3.87500 4.51562  c
3.78125 4.73438 3.62760 4.96615 3.41406 5.21094  c
3.20052 5.45573 2.83854 5.79167 2.32812 6.21875  c
1.91146 6.57292 1.64323 6.81250 1.52344 6.93750  c
1.40365 7.06250 1.30208 7.19271 1.21875 7.32812  c
4.03125 7.32812 l
h
f
[ 1.00000 0.00000 0.00000 1.00000 0.00000 0.00000 ] defaultmatrix matrix concatmatrix setmatrix
[ 1.00000 0.00000 0.00000 1.00000 0.00000 0.00000 ] defaultmatrix matrix concatmatrix setmatrix
.200000 .200000 .200000 RG
0.00000 0.00000 .607843 RG
1.00000 1.00000 1.00000 RG
.200000 .200000 .200000 RG
1.00000 1.00000 1.00000 RG
newpath
60.2468 129.247 m
58.8877 129.247 57.7859 130.349 57.7859 131.708  c
57.7859 136.630 l
57.7859 137.989 58.8877 139.091 60.2468 139.091  c
61.5125 139.091 l
62.8716 139.091 63.9734 137.989 63.9734 136.630  c
63.9734 131.708 l
63.9734 130.349 62.8716 129.247 61.5125 129.247  c
h
f
.200000 .200000 .200000 RG
[ 1.00000 0.00000 0.00000 1.00000 57.3796 126.669 ] concat
newpath
.875000 12.0000 m
.875000 4.12500 l
1.92188 4.12500 l
1.92188 7.35938 l
6.01562 7.35938 l
6.01562 4.12500 l
7.06250 4.12500 l
7.06250 12.0000 l
6.01562 12.0000 l
6.01562 8.28125 l
1.92188 8.28125 l
1.92188 12.0000 l
.875000 12.0000 l
h
f
[ 1.00000 0.00000 0.00000 1.00000 0.00000 0.00000 ] defaultmatrix matrix concatmatrix setmatrix
[ 1.00000 0.00000 0.00000 1.00000 0.00000 0.00000 ] defaultmatrix matrix concatmatrix setmatrix
[ 1.00000 0.00000 0.00000 1.00000 62.4459 136.969 ] concat
0.00000 0.00000 .607843 RG
newpath
.343750 6.48438 m
1.04688 6.39062 l
1.11979 6.78646 1.25521 7.07292 1.45312 7.25000  c
1.65104 7.42708 1.88542 7.51562 2.15625 7.51562  c
2.48958 7.51562 2.77083 7.40104 3.00000 7.17188  c
3.22917 6.94271 3.34375 6.66146 3.34375 6.32812  c
3.34375 6.00521 3.23698 5.73698 3.02344 5.52344  c
2.80990 5.30990 2.54167 5.20312 2.21875 5.20312  c
2.08333 5.20312 1.91667 5.22917 1.71875 5.28125  c
1.79688 4.67188 l
1.84896 4.67188 1.89062 4.67188 1.92188 4.67188  c
2.21354 4.67188 2.47917 4.59375 2.71875 4.43750  c
2.95833 4.28125 3.07812 4.04167 3.07812 3.71875  c
3.07812 3.45833 2.99219 3.24479 2.82031 3.07812  c
2.64844 2.91146 2.42188 2.82812 2.14062 2.82812  c
1.86979 2.82812 1.64323 2.91406 1.46094 3.08594  c
1.27865 3.25781 1.16146 3.51562 1.10938 3.85938  c
.406250 3.73438 l
.489583 3.26562 .684896 2.90104 .992188 2.64062  c
1.29948 2.38021 1.67708 2.25000 2.12500 2.25000  c
2.43750 2.25000 2.72656 2.31771 2.99219 2.45312  c
3.25781 2.58854 3.46094 2.77083 3.60156 3.00000  c
3.74219 3.22917 3.81250 3.47396 3.81250 3.73438  c
3.81250 3.98438 3.74479 4.21094 3.60938 4.41406  c
3.47396 4.61719 3.27604 4.77604 3.01562 4.89062  c
3.35938 4.97396 3.62500 5.13802 3.81250 5.38281  c
4.00000 5.62760 4.09375 5.93750 4.09375 6.31250  c
4.09375 6.81250 3.91146 7.23698 3.54688 7.58594  c
3.18229 7.93490 2.71875 8.10938 2.15625 8.10938  c
1.65625 8.10938 1.23958 7.95833 .906250 7.65625  c
.572917 7.35417 .385417 6.96354 .343750 6.48438  c
h
f
[ 1.00000 0.00000 0.00000 1.00000 0.00000 0.00000 ] defaultmatrix matrix concatmatrix setmatrix
[ 1.00000 0.00000 0.00000 1.00000 0.00000 0.00000 ] defaultmatrix matrix concatmatrix setmatrix
.200000 .200000 .200000 RG
0.00000 0.00000 .607843 RG
1.00000 1.00000 1.00000 RG
0.00000 0.00000 0.00000 RG
1.00000 1.00000 1.00000 RG
newpath
18.3630 105.134 m
16.9554 105.134 15.8142 106.276 15.8142 107.683  c
15.8142 112.781 l
15.8142 114.189 16.9554 115.330 18.3630 115.330  c
20.2341 115.330 l
21.6418 115.330 22.7830 114.189 22.7830 112.781  c
22.7830 107.683 l
22.7830 106.276 21.6418 105.134 20.2341 105.134  c
h
f
0.00000 0.00000 0.00000 RG
[ 1.00000 0.00000 0.00000 1.00000 15.7986 102.662 ] concat
newpath
6.46875 9.23438 m
7.51562 9.50000 l
7.29688 10.3542 6.90365 11.0078 6.33594 11.4609  c
5.76823 11.9141 5.07292 12.1406 4.25000 12.1406  c
3.39583 12.1406 2.70312 11.9661 2.17188 11.6172  c
1.64062 11.2682 1.23698 10.7656 .960938 10.1094  c
.684896 9.45312 .546875 8.75000 .546875 8.00000  c
.546875 7.18750 .703125 6.47396 1.01562 5.85938  c
1.32812 5.24479 1.77344 4.77865 2.35156 4.46094  c
2.92969 4.14323 3.56771 3.98438 4.26562 3.98438  c
5.05729 3.98438 5.72135 4.18490 6.25781 4.58594  c
6.79427 4.98698 7.16667 5.55208 7.37500 6.28125  c
6.34375 6.53125 l
6.16667 5.95833 5.90365 5.54167 5.55469 5.28125  c
5.20573 5.02083 4.77083 4.89062 4.25000 4.89062  c
3.63542 4.89062 3.12500 5.03385 2.71875 5.32031  c
2.31250 5.60677 2.02865 5.99479 1.86719 6.48438  c
1.70573 6.97396 1.62500 7.47917 1.62500 8.00000  c
1.62500 8.66667 1.72135 9.25000 1.91406 9.75000  c
2.10677 10.2500 2.40885 10.6250 2.82031 10.8750  c
3.23177 11.1250 3.67708 11.2500 4.15625 11.2500  c
4.73958 11.2500 5.23438 11.0807 5.64062 10.7422  c
6.04688 10.4036 6.32292 9.90104 6.46875 9.23438  c
h
f
[ 1.00000 0.00000 0.00000 1.00000 0.00000 0.00000 ] defaultmatrix matrix concatmatrix setmatrix
[ 1.00000 0.00000 0.00000 1.00000 0.00000 0.00000 ] defaultmatrix matrix concatmatrix setmatrix
[ 1.00000 0.00000 0.00000 1.00000 10.2356 105.232 ] concat
0.00000 0.00000 .607843 RG
newpath
2.59375 8.00000 m
2.59375 6.62500 l
.109375 6.62500 l
.109375 5.98438 l
2.71875 2.26562 l
3.29688 2.26562 l
3.29688 5.98438 l
4.06250 5.98438 l
4.06250 6.62500 l
3.29688 6.62500 l
3.29688 8.00000 l
2.59375 8.00000 l
h
2.59375 5.98438 m
2.59375 3.40625 l
.796875 5.98438 l
2.59375 5.98438 l
h
f
[ 1.00000 0.00000 0.00000 1.00000 0.00000 0.00000 ] defaultmatrix matrix concatmatrix setmatrix
[ 1.00000 0.00000 0.00000 1.00000 0.00000 0.00000 ] defaultmatrix matrix concatmatrix setmatrix
0.00000 0.00000 0.00000 RG
0.00000 0.00000 .607843 RG
1.00000 1.00000 1.00000 RG
0.00000 0.00000 0.00000 RG
1.00000 1.00000 1.00000 RG
newpath
142.177 105.134 m
140.770 105.134 139.629 106.276 139.629 107.683  c
139.629 112.781 l
139.629 114.189 140.770 115.330 142.177 115.330  c
144.048 115.330 l
145.456 115.330 146.597 114.189 146.597 112.781  c
146.597 107.683 l
146.597 106.276 145.456 105.134 144.048 105.134  c
h
f
0.00000 0.00000 0.00000 RG
[ 1.00000 0.00000 0.00000 1.00000 139.613 102.662 ] concat
newpath
6.46875 9.23438 m
7.51562 9.50000 l
7.29688 10.3542 6.90365 11.0078 6.33594 11.4609  c
5.76823 11.9141 5.07292 12.1406 4.25000 12.1406  c
3.39583 12.1406 2.70312 11.9661 2.17188 11.6172  c
1.64062 11.2682 1.23698 10.7656 .960938 10.1094  c
.684896 9.45312 .546875 8.75000 .546875 8.00000  c
.546875 7.18750 .703125 6.47396 1.01562 5.85938  c
1.32812 5.24479 1.77344 4.77865 2.35156 4.46094  c
2.92969 4.14323 3.56771 3.98438 4.26562 3.98438  c
5.05729 3.98438 5.72135 4.18490 6.25781 4.58594  c
6.79427 4.98698 7.16667 5.55208 7.37500 6.28125  c
6.34375 6.53125 l
6.16667 5.95833 5.90365 5.54167 5.55469 5.28125  c
5.20573 5.02083 4.77083 4.89062 4.25000 4.89062  c
3.63542 4.89062 3.12500 5.03385 2.71875 5.32031  c
2.31250 5.60677 2.02865 5.99479 1.86719 6.48438  c
1.70573 6.97396 1.62500 7.47917 1.62500 8.00000  c
1.62500 8.66667 1.72135 9.25000 1.91406 9.75000  c
2.10677 10.2500 2.40885 10.6250 2.82031 10.8750  c
3.23177 11.1250 3.67708 11.2500 4.15625 11.2500  c
4.73958 11.2500 5.23438 11.0807 5.64062 10.7422  c
6.04688 10.4036 6.32292 9.90104 6.46875 9.23438  c
h
f
[ 1.00000 0.00000 0.00000 1.00000 0.00000 0.00000 ] defaultmatrix matrix concatmatrix setmatrix
[ 1.00000 0.00000 0.00000 1.00000 0.00000 0.00000 ] defaultmatrix matrix concatmatrix setmatrix
[ 1.00000 0.00000 0.00000 1.00000 148.043 105.232 ] concat
0.00000 0.00000 .607843 RG
newpath
.328125 6.50000 m
1.07812 6.43750 l
1.13021 6.79167 1.25521 7.05990 1.45312 7.24219  c
1.65104 7.42448 1.89062 7.51562 2.17188 7.51562  c
2.51562 7.51562 2.80469 7.38802 3.03906 7.13281  c
3.27344 6.87760 3.39062 6.54167 3.39062 6.12500  c
3.39062 5.71875 3.27604 5.40104 3.04688 5.17188  c
2.81771 4.94271 2.52083 4.82812 2.15625 4.82812  c
1.93750 4.82812 1.73698 4.87760 1.55469 4.97656  c
1.37240 5.07552 1.22917 5.20833 1.12500 5.37500  c
.453125 5.29688 l
1.01562 2.34375 l
3.85938 2.34375 l
3.85938 3.01562 l
1.57812 3.01562 l
1.26562 4.56250 l
1.60938 4.32292 1.96875 4.20312 2.34375 4.20312  c
2.84375 4.20312 3.26562 4.37500 3.60938 4.71875  c
3.95312 5.06250 4.12500 5.51042 4.12500 6.06250  c
4.12500 6.57292 3.97396 7.02083 3.67188 7.40625  c
3.30729 7.86458 2.80729 8.09375 2.17188 8.09375  c
1.65104 8.09375 1.22656 7.94792 .898438 7.65625  c
.570312 7.36458 .380208 6.97917 .328125 6.50000  c
h
f
[ 1.00000 0.00000 0.00000 1.00000 0.00000 0.00000 ] defaultmatrix matrix concatmatrix setmatrix
[ 1.00000 0.00000 0.00000 1.00000 0.00000 0.00000 ] defaultmatrix matrix concatmatrix setmatrix
0.00000 0.00000 0.00000 RG
0.00000 0.00000 .607843 RG
1.00000 1.00000 1.00000 RG
0.00000 0.00000 0.00000 RG
1.00000 1.00000 1.00000 RG
newpath
154.327 81.2131 m
152.962 81.2131 151.856 82.3193 151.856 83.6838  c
151.856 88.6253 l
151.856 89.9898 152.962 91.0960 154.327 91.0960  c
159.620 91.0960 l
160.984 91.0960 162.090 89.9898 162.090 88.6253  c
162.090 83.6838 l
162.090 82.3193 160.984 81.2131 159.620 81.2131  c
h
f
0.00000 0.00000 0.00000 RG
[ 1.00000 0.00000 0.00000 1.00000 150.473 78.6546 ] concat
newpath
.859375 12.0000 m
.859375 4.12500 l
4.35938 4.12500 l
5.05729 4.12500 5.58854 4.19531 5.95312 4.33594  c
6.31771 4.47656 6.60938 4.72656 6.82812 5.08594  c
7.04688 5.44531 7.15625 5.84375 7.15625 6.28125  c
7.15625 6.83333 6.97656 7.30208 6.61719 7.68750  c
6.25781 8.07292 5.69792 8.31771 4.93750 8.42188  c
5.21875 8.54688 5.42708 8.67708 5.56250 8.81250  c
5.87500 9.09375 6.16667 9.44271 6.43750 9.85938  c
7.79688 12.0000 l
6.50000 12.0000 l
5.45312 10.3594 l
5.15104 9.89062 4.90104 9.53125 4.70312 9.28125  c
4.50521 9.03125 4.32812 8.85417 4.17188 8.75000  c
4.01562 8.64583 3.85938 8.57812 3.70312 8.54688  c
3.57812 8.51562 3.38021 8.50000 3.10938 8.50000  c
1.90625 8.50000 l
1.90625 12.0000 l
.859375 12.0000 l
h
1.90625 7.59375 m
4.14062 7.59375 l
4.61979 7.59375 4.99479 7.54688 5.26562 7.45312  c
5.53646 7.35938 5.73958 7.20312 5.87500 6.98438  c
6.01042 6.76562 6.07812 6.53125 6.07812 6.28125  c
6.07812 5.90625 5.94531 5.59896 5.67969 5.35938  c
5.41406 5.11979 4.98958 5.00000 4.40625 5.00000  c
1.90625 5.00000 l
1.90625 7.59375 l
h
12.0376 12.0000 m
11.0688 12.0000 l
11.0688 5.84375 l
10.8397 6.06250 10.5376 6.28385 10.1626 6.50781  c
9.78760 6.73177 9.44906 6.89583 9.14697 7.00000  c
9.14697 6.06250 l
9.68864 5.81250 10.1600 5.50781 10.5610 5.14844  c
10.9621 4.78906 11.2459 4.43750 11.4126 4.09375  c
12.0376 4.09375 l
12.0376 12.0000 l
h
f
[ 1.00000 0.00000 0.00000 1.00000 0.00000 0.00000 ] defaultmatrix matrix concatmatrix setmatrix
[ 1.00000 0.00000 0.00000 1.00000 0.00000 0.00000 ] defaultmatrix matrix concatmatrix setmatrix
[ 1.00000 0.00000 0.00000 1.00000 159.026 72.5255 ] concat
0.00000 0.00000 .607843 RG
newpath
3.98438 3.67188 m
3.28125 3.73438 l
3.21875 3.45312 3.13021 3.25000 3.01562 3.12500  c
2.82812 2.92708 2.59375 2.82812 2.31250 2.82812  c
2.09375 2.82812 1.89583 2.89062 1.71875 3.01562  c
1.50000 3.17188 1.32812 3.40625 1.20312 3.71875  c
1.07812 4.03125 1.01042 4.47396 1.00000 5.04688  c
1.16667 4.78646 1.37240 4.59375 1.61719 4.46875  c
1.86198 4.34375 2.11979 4.28125 2.39062 4.28125  c
2.85938 4.28125 3.25781 4.45312 3.58594 4.79688  c
3.91406 5.14062 4.07812 5.58854 4.07812 6.14062  c
4.07812 6.49479 4.00260 6.82812 3.85156 7.14062  c
3.70052 7.45312 3.48958 7.69010 3.21875 7.85156  c
2.94792 8.01302 2.64062 8.09375 2.29688 8.09375  c
1.70312 8.09375 1.22135 7.87760 .851562 7.44531  c
.481771 7.01302 .296875 6.30208 .296875 5.31250  c
.296875 4.20833 .505208 3.40625 .921875 2.90625  c
1.27604 2.46875 1.75521 2.25000 2.35938 2.25000  c
2.80729 2.25000 3.17448 2.37500 3.46094 2.62500  c
3.74740 2.87500 3.92188 3.22396 3.98438 3.67188  c
h
1.10938 6.14062 m
1.10938 6.38021 1.16146 6.61198 1.26562 6.83594  c
1.36979 7.05990 1.51302 7.22917 1.69531 7.34375  c
1.87760 7.45833 2.07292 7.51562 2.28125 7.51562  c
2.57292 7.51562 2.82552 7.39583 3.03906 7.15625  c
3.25260 6.91667 3.35938 6.59375 3.35938 6.18750  c
3.35938 5.79167 3.25521 5.47917 3.04688 5.25000  c
2.83854 5.02083 2.57292 4.90625 2.25000 4.90625  c
1.93750 4.90625 1.66927 5.02083 1.44531 5.25000  c
1.22135 5.47917 1.10938 5.77604 1.10938 6.14062  c
h
f
[ 1.00000 0.00000 0.00000 1.00000 0.00000 0.00000 ] defaultmatrix matrix concatmatrix setmatrix
[ 1.00000 0.00000 0.00000 1.00000 0.00000 0.00000 ] defaultmatrix matrix concatmatrix setmatrix
0.00000 0.00000 0.00000 RG
0.00000 0.00000 .607843 RG
1.00000 1.00000 1.00000 RG
0.00000 0.00000 0.00000 RG
1.00000 1.00000 1.00000 RG
newpath
154.327 129.228 m
152.962 129.228 151.856 130.334 151.856 131.698  c
151.856 136.640 l
151.856 138.004 152.962 139.110 154.327 139.110  c
159.620 139.110 l
160.984 139.110 162.090 138.004 162.090 136.640  c
162.090 131.698 l
162.090 130.334 160.984 129.228 159.620 129.228  c
h
f
0.00000 0.00000 0.00000 RG
[ 1.00000 0.00000 0.00000 1.00000 150.473 126.669 ] concat
newpath
.859375 12.0000 m
.859375 4.12500 l
4.35938 4.12500 l
5.05729 4.12500 5.58854 4.19531 5.95312 4.33594  c
6.31771 4.47656 6.60938 4.72656 6.82812 5.08594  c
7.04688 5.44531 7.15625 5.84375 7.15625 6.28125  c
7.15625 6.83333 6.97656 7.30208 6.61719 7.68750  c
6.25781 8.07292 5.69792 8.31771 4.93750 8.42188  c
5.21875 8.54688 5.42708 8.67708 5.56250 8.81250  c
5.87500 9.09375 6.16667 9.44271 6.43750 9.85938  c
7.79688 12.0000 l
6.50000 12.0000 l
5.45312 10.3594 l
5.15104 9.89062 4.90104 9.53125 4.70312 9.28125  c
4.50521 9.03125 4.32812 8.85417 4.17188 8.75000  c
4.01562 8.64583 3.85938 8.57812 3.70312 8.54688  c
3.57812 8.51562 3.38021 8.50000 3.10938 8.50000  c
1.90625 8.50000 l
1.90625 12.0000 l
.859375 12.0000 l
h
1.90625 7.59375 m
4.14062 7.59375 l
4.61979 7.59375 4.99479 7.54688 5.26562 7.45312  c
5.53646 7.35938 5.73958 7.20312 5.87500 6.98438  c
6.01042 6.76562 6.07812 6.53125 6.07812 6.28125  c
6.07812 5.90625 5.94531 5.59896 5.67969 5.35938  c
5.41406 5.11979 4.98958 5.00000 4.40625 5.00000  c
1.90625 5.00000 l
1.90625 7.59375 l
h
12.0376 12.0000 m
11.0688 12.0000 l
11.0688 5.84375 l
10.8397 6.06250 10.5376 6.28385 10.1626 6.50781  c
9.78760 6.73177 9.44906 6.89583 9.14697 7.00000  c
9.14697 6.06250 l
9.68864 5.81250 10.1600 5.50781 10.5610 5.14844  c
10.9621 4.78906 11.2459 4.43750 11.4126 4.09375  c
12.0376 4.09375 l
12.0376 12.0000 l
h
f
[ 1.00000 0.00000 0.00000 1.00000 0.00000 0.00000 ] defaultmatrix matrix concatmatrix setmatrix
[ 1.00000 0.00000 0.00000 1.00000 0.00000 0.00000 ] defaultmatrix matrix concatmatrix setmatrix
[ 1.00000 0.00000 0.00000 1.00000 159.007 137.721 ] concat
0.00000 0.00000 .607843 RG
newpath
.375000 3.01562 m
.375000 2.34375 l
4.09375 2.34375 l
4.09375 2.89062 l
3.72917 3.27604 3.36719 3.79167 3.00781 4.43750  c
2.64844 5.08333 2.36979 5.74479 2.17188 6.42188  c
2.03646 6.90104 1.94792 7.42708 1.90625 8.00000  c
1.18750 8.00000 l
1.18750 7.55208 1.27344 7.00781 1.44531 6.36719  c
1.61719 5.72656 1.86198 5.10938 2.17969 4.51562  c
2.49740 3.92188 2.83333 3.42188 3.18750 3.01562  c
.375000 3.01562 l
h
f
[ 1.00000 0.00000 0.00000 1.00000 0.00000 0.00000 ] defaultmatrix matrix concatmatrix setmatrix
[ 1.00000 0.00000 0.00000 1.00000 0.00000 0.00000 ] defaultmatrix matrix concatmatrix setmatrix
0.00000 0.00000 0.00000 RG
0.00000 0.00000 .607843 RG
1.00000 1.00000 1.00000 RG
1.00000 0.00000 0.00000 RG
1.00000 1.00000 1.00000 RG
newpath
114.177 105.134 m
112.770 105.134 111.628 106.276 111.628 107.683  c
111.628 112.781 l
111.628 114.189 112.770 115.330 114.177 115.330  c
116.611 115.330 l
118.018 115.330 119.160 114.189 119.160 112.781  c
119.160 107.683 l
119.160 106.276 118.018 105.134 116.611 105.134  c
h
f
1.00000 0.00000 0.00000 RG
[ 1.00000 0.00000 0.00000 1.00000 111.394 102.662 ] concat
newpath
.531250 8.17188 m
.531250 6.85938 .882812 5.83333 1.58594 5.09375  c
2.28906 4.35417 3.19271 3.98438 4.29688 3.98438  c
5.02604 3.98438 5.68229 4.15885 6.26562 4.50781  c
6.84896 4.85677 7.29427 5.34115 7.60156 5.96094  c
7.90885 6.58073 8.06250 7.28646 8.06250 8.07812  c
8.06250 8.86979 7.90104 9.58073 7.57812 10.2109  c
7.25521 10.8411 6.79948 11.3203 6.21094 11.6484  c
5.62240 11.9766 4.98438 12.1406 4.29688 12.1406  c
3.55729 12.1406 2.89583 11.9609 2.31250 11.6016  c
1.72917 11.2422 1.28646 10.7526 .984375 10.1328  c
.682292 9.51302 .531250 8.85938 .531250 8.17188  c
h
1.60938 8.18750 m
1.60938 9.13542 1.86458 9.88281 2.37500 10.4297  c
2.88542 10.9766 3.52604 11.2500 4.29688 11.2500  c
5.07812 11.2500 5.72135 10.9740 6.22656 10.4219  c
6.73177 9.86979 6.98438 9.08333 6.98438 8.06250  c
6.98438 7.42708 6.87760 6.86979 6.66406 6.39062  c
6.45052 5.91146 6.13542 5.54167 5.71875 5.28125  c
5.30208 5.02083 4.83333 4.89062 4.31250 4.89062  c
3.57292 4.89062 2.93750 5.14323 2.40625 5.64844  c
1.87500 6.15365 1.60938 7.00000 1.60938 8.18750  c
h
f
[ 1.00000 0.00000 0.00000 1.00000 0.00000 0.00000 ] defaultmatrix matrix concatmatrix setmatrix
[ 1.00000 0.00000 0.00000 1.00000 0.00000 0.00000 ] defaultmatrix matrix concatmatrix setmatrix
[ 1.00000 0.00000 0.00000 1.00000 106.390 105.232 ] concat
0.00000 0.00000 .607843 RG
newpath
1.42188 4.89062 m
1.13021 4.78646 .914062 4.63542 .773438 4.43750  c
.632812 4.23958 .562500 4.00000 .562500 3.71875  c
.562500 3.30208 .710938 2.95312 1.00781 2.67188  c
1.30469 2.39062 1.70312 2.25000 2.20312 2.25000  c
2.70312 2.25000 3.10417 2.39583 3.40625 2.68750  c
3.70833 2.97917 3.85938 3.33333 3.85938 3.75000  c
3.85938 4.01042 3.79167 4.23958 3.65625 4.43750  c
3.52083 4.63542 3.30729 4.78646 3.01562 4.89062  c
3.36979 5.00521 3.63802 5.19010 3.82031 5.44531  c
4.00260 5.70052 4.09375 6.00521 4.09375 6.35938  c
4.09375 6.84896 3.92188 7.26042 3.57812 7.59375  c
3.23438 7.92708 2.78125 8.09375 2.21875 8.09375  c
1.64583 8.09375 1.18750 7.92708 .843750 7.59375  c
.500000 7.26042 .328125 6.84375 .328125 6.34375  c
.328125 5.96875 .421875 5.65625 .609375 5.40625  c
.796875 5.15625 1.06771 4.98438 1.42188 4.89062  c
h
1.28125 3.70312 m
1.28125 3.97396 1.36719 4.19531 1.53906 4.36719  c
1.71094 4.53906 1.93750 4.62500 2.21875 4.62500  c
2.48958 4.62500 2.71094 4.53906 2.88281 4.36719  c
3.05469 4.19531 3.14062 3.98438 3.14062 3.73438  c
3.14062 3.48438 3.05208 3.27083 2.87500 3.09375  c
2.69792 2.91667 2.47396 2.82812 2.20312 2.82812  c
1.94271 2.82812 1.72396 2.91406 1.54688 3.08594  c
1.36979 3.25781 1.28125 3.46354 1.28125 3.70312  c
h
1.04688 6.34375 m
1.04688 6.54167 1.09375 6.73438 1.18750 6.92188  c
1.28125 7.10938 1.42188 7.25521 1.60938 7.35938  c
1.79688 7.46354 2.00000 7.51562 2.21875 7.51562  c
2.55208 7.51562 2.82812 7.40885 3.04688 7.19531  c
3.26562 6.98177 3.37500 6.70833 3.37500 6.37500  c
3.37500 6.03125 3.26302 5.75000 3.03906 5.53125  c
2.81510 5.31250 2.53646 5.20312 2.20312 5.20312  c
1.86979 5.20312 1.59375 5.31250 1.37500 5.53125  c
1.15625 5.75000 1.04688 6.02083 1.04688 6.34375  c
h
f
[ 1.00000 0.00000 0.00000 1.00000 0.00000 0.00000 ] defaultmatrix matrix concatmatrix setmatrix
[ 1.00000 0.00000 0.00000 1.00000 0.00000 0.00000 ] defaultmatrix matrix concatmatrix setmatrix
1.00000 0.00000 0.00000 RG
0.00000 0.00000 .607843 RG
1.00000 1.00000 1.00000 RG
0.00000 0.00000 0.00000 RG
1.00000 1.00000 1.00000 RG
newpath
309.367 105.134 m
307.960 105.134 306.819 106.276 306.819 107.683  c
306.819 112.781 l
306.819 114.189 307.960 115.330 309.367 115.330  c
311.238 115.330 l
312.646 115.330 313.787 114.189 313.787 112.781  c
313.787 107.683 l
313.787 106.276 312.646 105.134 311.238 105.134  c
h
f
0.00000 0.00000 0.00000 RG
[ 1.00000 0.00000 0.00000 1.00000 306.803 102.662 ] concat
newpath
6.46875 9.23438 m
7.51562 9.50000 l
7.29688 10.3542 6.90365 11.0078 6.33594 11.4609  c
5.76823 11.9141 5.07292 12.1406 4.25000 12.1406  c
3.39583 12.1406 2.70312 11.9661 2.17188 11.6172  c
1.64062 11.2682 1.23698 10.7656 .960938 10.1094  c
.684896 9.45312 .546875 8.75000 .546875 8.00000  c
.546875 7.18750 .703125 6.47396 1.01562 5.85938  c
1.32812 5.24479 1.77344 4.77865 2.35156 4.46094  c
2.92969 4.14323 3.56771 3.98438 4.26562 3.98438  c
5.05729 3.98438 5.72135 4.18490 6.25781 4.58594  c
6.79427 4.98698 7.16667 5.55208 7.37500 6.28125  c
6.34375 6.53125 l
6.16667 5.95833 5.90365 5.54167 5.55469 5.28125  c
5.20573 5.02083 4.77083 4.89062 4.25000 4.89062  c
3.63542 4.89062 3.12500 5.03385 2.71875 5.32031  c
2.31250 5.60677 2.02865 5.99479 1.86719 6.48438  c
1.70573 6.97396 1.62500 7.47917 1.62500 8.00000  c
1.62500 8.66667 1.72135 9.25000 1.91406 9.75000  c
2.10677 10.2500 2.40885 10.6250 2.82031 10.8750  c
3.23177 11.1250 3.67708 11.2500 4.15625 11.2500  c
4.73958 11.2500 5.23438 11.0807 5.64062 10.7422  c
6.04688 10.4036 6.32292 9.90104 6.46875 9.23438  c
h
f
[ 1.00000 0.00000 0.00000 1.00000 0.00000 0.00000 ] defaultmatrix matrix concatmatrix setmatrix
[ 1.00000 0.00000 0.00000 1.00000 0.00000 0.00000 ] defaultmatrix matrix concatmatrix setmatrix
[ 1.00000 0.00000 0.00000 1.00000 315.233 105.232 ] concat
0.00000 0.00000 .607843 RG
newpath
.328125 6.50000 m
1.07812 6.43750 l
1.13021 6.79167 1.25521 7.05990 1.45312 7.24219  c
1.65104 7.42448 1.89062 7.51562 2.17188 7.51562  c
2.51562 7.51562 2.80469 7.38802 3.03906 7.13281  c
3.27344 6.87760 3.39062 6.54167 3.39062 6.12500  c
3.39062 5.71875 3.27604 5.40104 3.04688 5.17188  c
2.81771 4.94271 2.52083 4.82812 2.15625 4.82812  c
1.93750 4.82812 1.73698 4.87760 1.55469 4.97656  c
1.37240 5.07552 1.22917 5.20833 1.12500 5.37500  c
.453125 5.29688 l
1.01562 2.34375 l
3.85938 2.34375 l
3.85938 3.01562 l
1.57812 3.01562 l
1.26562 4.56250 l
1.60938 4.32292 1.96875 4.20312 2.34375 4.20312  c
2.84375 4.20312 3.26562 4.37500 3.60938 4.71875  c
3.95312 5.06250 4.12500 5.51042 4.12500 6.06250  c
4.12500 6.57292 3.97396 7.02083 3.67188 7.40625  c
3.30729 7.86458 2.80729 8.09375 2.17188 8.09375  c
1.65104 8.09375 1.22656 7.94792 .898438 7.65625  c
.570312 7.36458 .380208 6.97917 .328125 6.50000  c
h
f
[ 1.00000 0.00000 0.00000 1.00000 0.00000 0.00000 ] defaultmatrix matrix concatmatrix setmatrix
[ 1.00000 0.00000 0.00000 1.00000 0.00000 0.00000 ] defaultmatrix matrix concatmatrix setmatrix
0.00000 0.00000 0.00000 RG
0.00000 0.00000 .607843 RG
1.00000 1.00000 1.00000 RG
0.00000 0.00000 0.00000 RG
1.00000 1.00000 1.00000 RG
newpath
321.517 81.2131 m
320.152 81.2131 319.046 82.3193 319.046 83.6838  c
319.046 88.6253 l
319.046 89.9898 320.152 91.0960 321.517 91.0960  c
326.810 91.0960 l
328.174 91.0960 329.280 89.9898 329.280 88.6253  c
329.280 83.6838 l
329.280 82.3193 328.174 81.2131 326.810 81.2131  c
h
f
0.00000 0.00000 0.00000 RG
[ 1.00000 0.00000 0.00000 1.00000 317.663 78.6546 ] concat
newpath
.859375 12.0000 m
.859375 4.12500 l
4.35938 4.12500 l
5.05729 4.12500 5.58854 4.19531 5.95312 4.33594  c
6.31771 4.47656 6.60938 4.72656 6.82812 5.08594  c
7.04688 5.44531 7.15625 5.84375 7.15625 6.28125  c
7.15625 6.83333 6.97656 7.30208 6.61719 7.68750  c
6.25781 8.07292 5.69792 8.31771 4.93750 8.42188  c
5.21875 8.54688 5.42708 8.67708 5.56250 8.81250  c
5.87500 9.09375 6.16667 9.44271 6.43750 9.85938  c
7.79688 12.0000 l
6.50000 12.0000 l
5.45312 10.3594 l
5.15104 9.89062 4.90104 9.53125 4.70312 9.28125  c
4.50521 9.03125 4.32812 8.85417 4.17188 8.75000  c
4.01562 8.64583 3.85938 8.57812 3.70312 8.54688  c
3.57812 8.51562 3.38021 8.50000 3.10938 8.50000  c
1.90625 8.50000 l
1.90625 12.0000 l
.859375 12.0000 l
h
1.90625 7.59375 m
4.14062 7.59375 l
4.61979 7.59375 4.99479 7.54688 5.26562 7.45312  c
5.53646 7.35938 5.73958 7.20312 5.87500 6.98438  c
6.01042 6.76562 6.07812 6.53125 6.07812 6.28125  c
6.07812 5.90625 5.94531 5.59896 5.67969 5.35938  c
5.41406 5.11979 4.98958 5.00000 4.40625 5.00000  c
1.90625 5.00000 l
1.90625 7.59375 l
h
12.0376 12.0000 m
11.0688 12.0000 l
11.0688 5.84375 l
10.8397 6.06250 10.5376 6.28385 10.1626 6.50781  c
9.78760 6.73177 9.44906 6.89583 9.14697 7.00000  c
9.14697 6.06250 l
9.68864 5.81250 10.1600 5.50781 10.5610 5.14844  c
10.9621 4.78906 11.2459 4.43750 11.4126 4.09375  c
12.0376 4.09375 l
12.0376 12.0000 l
h
f
[ 1.00000 0.00000 0.00000 1.00000 0.00000 0.00000 ] defaultmatrix matrix concatmatrix setmatrix
[ 1.00000 0.00000 0.00000 1.00000 0.00000 0.00000 ] defaultmatrix matrix concatmatrix setmatrix
[ 1.00000 0.00000 0.00000 1.00000 326.216 72.5255 ] concat
0.00000 0.00000 .607843 RG
newpath
3.98438 3.67188 m
3.28125 3.73438 l
3.21875 3.45312 3.13021 3.25000 3.01562 3.12500  c
2.82812 2.92708 2.59375 2.82812 2.31250 2.82812  c
2.09375 2.82812 1.89583 2.89062 1.71875 3.01562  c
1.50000 3.17188 1.32812 3.40625 1.20312 3.71875  c
1.07812 4.03125 1.01042 4.47396 1.00000 5.04688  c
1.16667 4.78646 1.37240 4.59375 1.61719 4.46875  c
1.86198 4.34375 2.11979 4.28125 2.39062 4.28125  c
2.85938 4.28125 3.25781 4.45312 3.58594 4.79688  c
3.91406 5.14062 4.07812 5.58854 4.07812 6.14062  c
4.07812 6.49479 4.00260 6.82812 3.85156 7.14062  c
3.70052 7.45312 3.48958 7.69010 3.21875 7.85156  c
2.94792 8.01302 2.64062 8.09375 2.29688 8.09375  c
1.70312 8.09375 1.22135 7.87760 .851562 7.44531  c
.481771 7.01302 .296875 6.30208 .296875 5.31250  c
.296875 4.20833 .505208 3.40625 .921875 2.90625  c
1.27604 2.46875 1.75521 2.25000 2.35938 2.25000  c
2.80729 2.25000 3.17448 2.37500 3.46094 2.62500  c
3.74740 2.87500 3.92188 3.22396 3.98438 3.67188  c
h
1.10938 6.14062 m
1.10938 6.38021 1.16146 6.61198 1.26562 6.83594  c
1.36979 7.05990 1.51302 7.22917 1.69531 7.34375  c
1.87760 7.45833 2.07292 7.51562 2.28125 7.51562  c
2.57292 7.51562 2.82552 7.39583 3.03906 7.15625  c
3.25260 6.91667 3.35938 6.59375 3.35938 6.18750  c
3.35938 5.79167 3.25521 5.47917 3.04688 5.25000  c
2.83854 5.02083 2.57292 4.90625 2.25000 4.90625  c
1.93750 4.90625 1.66927 5.02083 1.44531 5.25000  c
1.22135 5.47917 1.10938 5.77604 1.10938 6.14062  c
h
f
[ 1.00000 0.00000 0.00000 1.00000 0.00000 0.00000 ] defaultmatrix matrix concatmatrix setmatrix
[ 1.00000 0.00000 0.00000 1.00000 0.00000 0.00000 ] defaultmatrix matrix concatmatrix setmatrix
0.00000 0.00000 0.00000 RG
0.00000 0.00000 .607843 RG
1.00000 1.00000 1.00000 RG
0.00000 0.00000 0.00000 RG
1.00000 1.00000 1.00000 RG
newpath
321.517 129.228 m
320.152 129.228 319.046 130.334 319.046 131.698  c
319.046 136.640 l
319.046 138.004 320.152 139.110 321.517 139.110  c
326.810 139.110 l
328.174 139.110 329.280 138.004 329.280 136.640  c
329.280 131.698 l
329.280 130.334 328.174 129.228 326.810 129.228  c
h
f
0.00000 0.00000 0.00000 RG
[ 1.00000 0.00000 0.00000 1.00000 317.663 126.669 ] concat
newpath
.859375 12.0000 m
.859375 4.12500 l
4.35938 4.12500 l
5.05729 4.12500 5.58854 4.19531 5.95312 4.33594  c
6.31771 4.47656 6.60938 4.72656 6.82812 5.08594  c
7.04688 5.44531 7.15625 5.84375 7.15625 6.28125  c
7.15625 6.83333 6.97656 7.30208 6.61719 7.68750  c
6.25781 8.07292 5.69792 8.31771 4.93750 8.42188  c
5.21875 8.54688 5.42708 8.67708 5.56250 8.81250  c
5.87500 9.09375 6.16667 9.44271 6.43750 9.85938  c
7.79688 12.0000 l
6.50000 12.0000 l
5.45312 10.3594 l
5.15104 9.89062 4.90104 9.53125 4.70312 9.28125  c
4.50521 9.03125 4.32812 8.85417 4.17188 8.75000  c
4.01562 8.64583 3.85938 8.57812 3.70312 8.54688  c
3.57812 8.51562 3.38021 8.50000 3.10938 8.50000  c
1.90625 8.50000 l
1.90625 12.0000 l
.859375 12.0000 l
h
1.90625 7.59375 m
4.14062 7.59375 l
4.61979 7.59375 4.99479 7.54688 5.26562 7.45312  c
5.53646 7.35938 5.73958 7.20312 5.87500 6.98438  c
6.01042 6.76562 6.07812 6.53125 6.07812 6.28125  c
6.07812 5.90625 5.94531 5.59896 5.67969 5.35938  c
5.41406 5.11979 4.98958 5.00000 4.40625 5.00000  c
1.90625 5.00000 l
1.90625 7.59375 l
h
12.0376 12.0000 m
11.0688 12.0000 l
11.0688 5.84375 l
10.8397 6.06250 10.5376 6.28385 10.1626 6.50781  c
9.78760 6.73177 9.44906 6.89583 9.14697 7.00000  c
9.14697 6.06250 l
9.68864 5.81250 10.1600 5.50781 10.5610 5.14844  c
10.9621 4.78906 11.2459 4.43750 11.4126 4.09375  c
12.0376 4.09375 l
12.0376 12.0000 l
h
f
[ 1.00000 0.00000 0.00000 1.00000 0.00000 0.00000 ] defaultmatrix matrix concatmatrix setmatrix
[ 1.00000 0.00000 0.00000 1.00000 0.00000 0.00000 ] defaultmatrix matrix concatmatrix setmatrix
[ 1.00000 0.00000 0.00000 1.00000 326.197 137.721 ] concat
0.00000 0.00000 .607843 RG
newpath
.375000 3.01562 m
.375000 2.34375 l
4.09375 2.34375 l
4.09375 2.89062 l
3.72917 3.27604 3.36719 3.79167 3.00781 4.43750  c
2.64844 5.08333 2.36979 5.74479 2.17188 6.42188  c
2.03646 6.90104 1.94792 7.42708 1.90625 8.00000  c
1.18750 8.00000 l
1.18750 7.55208 1.27344 7.00781 1.44531 6.36719  c
1.61719 5.72656 1.86198 5.10938 2.17969 4.51562  c
2.49740 3.92188 2.83333 3.42188 3.18750 3.01562  c
.375000 3.01562 l
h
f
[ 1.00000 0.00000 0.00000 1.00000 0.00000 0.00000 ] defaultmatrix matrix concatmatrix setmatrix
[ 1.00000 0.00000 0.00000 1.00000 0.00000 0.00000 ] defaultmatrix matrix concatmatrix setmatrix
0.00000 0.00000 0.00000 RG
0.00000 0.00000 .607843 RG
1.00000 1.00000 1.00000 RG
.200000 .200000 .600000 RG
1.00000 1.00000 1.00000 RG
newpath
281.943 105.240 m
280.584 105.240 279.482 106.342 279.482 107.701  c
279.482 112.623 l
279.482 113.982 280.584 115.084 281.943 115.084  c
283.225 115.084 l
284.584 115.084 285.686 113.982 285.686 112.623  c
285.686 107.701 l
285.686 106.342 284.584 105.240 283.225 105.240  c
h
f
.200000 .200000 .600000 RG
[ 1.00000 0.00000 0.00000 1.00000 279.084 102.662 ] concat
newpath
.843750 12.0000 m
.843750 4.12500 l
1.90625 4.12500 l
6.04688 10.3125 l
6.04688 4.12500 l
7.04688 4.12500 l
7.04688 12.0000 l
5.96875 12.0000 l
1.84375 5.81250 l
1.84375 12.0000 l
.843750 12.0000 l
h
f
[ 1.00000 0.00000 0.00000 1.00000 0.00000 0.00000 ] defaultmatrix matrix concatmatrix setmatrix
[ 1.00000 0.00000 0.00000 1.00000 0.00000 0.00000 ] defaultmatrix matrix concatmatrix setmatrix
[ 1.00000 0.00000 0.00000 1.00000 277.476 97.3763 ] concat
0.00000 0.00000 .607843 RG
newpath
2.98438 8.00000 m
2.28125 8.00000 l
2.28125 3.51562 l
2.11458 3.68229 1.89323 3.84635 1.61719 4.00781  c
1.34115 4.16927 1.09375 4.28646 .875000 4.35938  c
.875000 3.68750 l
1.27083 3.50000 1.61458 3.27604 1.90625 3.01562  c
2.19792 2.75521 2.40625 2.50000 2.53125 2.25000  c
2.98438 2.25000 l
2.98438 8.00000 l
h
f
[ 1.00000 0.00000 0.00000 1.00000 0.00000 0.00000 ] defaultmatrix matrix concatmatrix setmatrix
[ 1.00000 0.00000 0.00000 1.00000 0.00000 0.00000 ] defaultmatrix matrix concatmatrix setmatrix
.200000 .200000 .600000 RG
0.00000 0.00000 .607843 RG
1.00000 1.00000 1.00000 RG
0.00000 0.00000 0.00000 RG
1.00000 1.00000 1.00000 RG
newpath
267.788 129.142 m
266.380 129.142 265.239 130.283 265.239 131.690  c
265.239 136.788 l
265.239 138.196 266.380 139.337 267.788 139.337  c
269.659 139.337 l
271.067 139.337 272.208 138.196 272.208 136.788  c
272.208 131.690 l
272.208 130.283 271.067 129.142 269.659 129.142  c
h
f
0.00000 0.00000 0.00000 RG
[ 1.00000 0.00000 0.00000 1.00000 265.224 126.669 ] concat
newpath
6.46875 9.23438 m
7.51562 9.50000 l
7.29688 10.3542 6.90365 11.0078 6.33594 11.4609  c
5.76823 11.9141 5.07292 12.1406 4.25000 12.1406  c
3.39583 12.1406 2.70312 11.9661 2.17188 11.6172  c
1.64062 11.2682 1.23698 10.7656 .960938 10.1094  c
.684896 9.45312 .546875 8.75000 .546875 8.00000  c
.546875 7.18750 .703125 6.47396 1.01562 5.85938  c
1.32812 5.24479 1.77344 4.77865 2.35156 4.46094  c
2.92969 4.14323 3.56771 3.98438 4.26562 3.98438  c
5.05729 3.98438 5.72135 4.18490 6.25781 4.58594  c
6.79427 4.98698 7.16667 5.55208 7.37500 6.28125  c
6.34375 6.53125 l
6.16667 5.95833 5.90365 5.54167 5.55469 5.28125  c
5.20573 5.02083 4.77083 4.89062 4.25000 4.89062  c
3.63542 4.89062 3.12500 5.03385 2.71875 5.32031  c
2.31250 5.60677 2.02865 5.99479 1.86719 6.48438  c
1.70573 6.97396 1.62500 7.47917 1.62500 8.00000  c
1.62500 8.66667 1.72135 9.25000 1.91406 9.75000  c
2.10677 10.2500 2.40885 10.6250 2.82031 10.8750  c
3.23177 11.1250 3.67708 11.2500 4.15625 11.2500  c
4.73958 11.2500 5.23438 11.0807 5.64062 10.7422  c
6.04688 10.4036 6.32292 9.90104 6.46875 9.23438  c
h
f
[ 1.00000 0.00000 0.00000 1.00000 0.00000 0.00000 ] defaultmatrix matrix concatmatrix setmatrix
[ 1.00000 0.00000 0.00000 1.00000 0.00000 0.00000 ] defaultmatrix matrix concatmatrix setmatrix
[ 1.00000 0.00000 0.00000 1.00000 262.908 137.326 ] concat
0.00000 0.00000 .607843 RG
newpath
2.59375 8.00000 m
2.59375 6.62500 l
.109375 6.62500 l
.109375 5.98438 l
2.71875 2.26562 l
3.29688 2.26562 l
3.29688 5.98438 l
4.06250 5.98438 l
4.06250 6.62500 l
3.29688 6.62500 l
3.29688 8.00000 l
2.59375 8.00000 l
h
2.59375 5.98438 m
2.59375 3.40625 l
.796875 5.98438 l
2.59375 5.98438 l
h
f
[ 1.00000 0.00000 0.00000 1.00000 0.00000 0.00000 ] defaultmatrix matrix concatmatrix setmatrix
[ 1.00000 0.00000 0.00000 1.00000 0.00000 0.00000 ] defaultmatrix matrix concatmatrix setmatrix
0.00000 0.00000 0.00000 RG
0.00000 0.00000 .607843 RG
1.00000 1.00000 1.00000 RG
.200000 .200000 .200000 RG
1.00000 1.00000 1.00000 RG
newpath
387.193 114.661 m
385.833 114.661 384.732 115.763 384.732 117.122  c
384.732 122.044 l
384.732 123.403 385.833 124.505 387.193 124.505  c
388.458 124.505 l
389.817 124.505 390.919 123.403 390.919 122.044  c
390.919 117.122 l
390.919 115.763 389.817 114.661 388.458 114.661  c
h
f
.200000 .200000 .200000 RG
[ 1.00000 0.00000 0.00000 1.00000 384.325 112.083 ] concat
newpath
.875000 12.0000 m
.875000 4.12500 l
1.92188 4.12500 l
1.92188 7.35938 l
6.01562 7.35938 l
6.01562 4.12500 l
7.06250 4.12500 l
7.06250 12.0000 l
6.01562 12.0000 l
6.01562 8.28125 l
1.92188 8.28125 l
1.92188 12.0000 l
.875000 12.0000 l
h
f
[ 1.00000 0.00000 0.00000 1.00000 0.00000 0.00000 ] defaultmatrix matrix concatmatrix setmatrix
[ 1.00000 0.00000 0.00000 1.00000 0.00000 0.00000 ] defaultmatrix matrix concatmatrix setmatrix
[ 1.00000 0.00000 0.00000 1.00000 379.776 120.439 ] concat
0.00000 0.00000 .607843 RG
newpath
4.03125 7.32812 m
4.03125 8.00000 l
.250000 8.00000 l
.239583 7.83333 .265625 7.67188 .328125 7.51562  c
.421875 7.25521 .575521 7.00000 .789062 6.75000  c
1.00260 6.50000 1.30729 6.20833 1.70312 5.87500  c
2.32812 5.36458 2.75000 4.96094 2.96875 4.66406  c
3.18750 4.36719 3.29688 4.08854 3.29688 3.82812  c
3.29688 3.54688 3.19792 3.30990 3.00000 3.11719  c
2.80208 2.92448 2.54167 2.82812 2.21875 2.82812  c
1.88542 2.82812 1.61719 2.92969 1.41406 3.13281  c
1.21094 3.33594 1.10417 3.61979 1.09375 3.98438  c
.375000 3.90625 l
.427083 3.36458 .614583 2.95312 .937500 2.67188  c
1.26042 2.39062 1.69271 2.25000 2.23438 2.25000  c
2.78646 2.25000 3.22135 2.40104 3.53906 2.70312  c
3.85677 3.00521 4.01562 3.38542 4.01562 3.84375  c
4.01562 4.07292 3.96875 4.29688 3.87500 4.51562  c
3.78125 4.73438 3.62760 4.96615 3.41406 5.21094  c
3.20052 5.45573 2.83854 5.79167 2.32812 6.21875  c
1.91146 6.57292 1.64323 6.81250 1.52344 6.93750  c
1.40365 7.06250 1.30208 7.19271 1.21875 7.32812  c
4.03125 7.32812 l
h
f
[ 1.00000 0.00000 0.00000 1.00000 0.00000 0.00000 ] defaultmatrix matrix concatmatrix setmatrix
[ 1.00000 0.00000 0.00000 1.00000 0.00000 0.00000 ] defaultmatrix matrix concatmatrix setmatrix
.200000 .200000 .200000 RG
0.00000 0.00000 .607843 RG
1.00000 1.00000 1.00000 RG
.200000 .200000 .200000 RG
1.00000 1.00000 1.00000 RG
newpath
435.205 114.661 m
433.846 114.661 432.744 115.763 432.744 117.122  c
432.744 122.044 l
432.744 123.403 433.846 124.505 435.205 124.505  c
436.471 124.505 l
437.830 124.505 438.932 123.403 438.932 122.044  c
438.932 117.122 l
438.932 115.763 437.830 114.661 436.471 114.661  c
h
f
.200000 .200000 .200000 RG
[ 1.00000 0.00000 0.00000 1.00000 432.338 112.083 ] concat
newpath
.875000 12.0000 m
.875000 4.12500 l
1.92188 4.12500 l
1.92188 7.35938 l
6.01562 7.35938 l
6.01562 4.12500 l
7.06250 4.12500 l
7.06250 12.0000 l
6.01562 12.0000 l
6.01562 8.28125 l
1.92188 8.28125 l
1.92188 12.0000 l
.875000 12.0000 l
h
f
[ 1.00000 0.00000 0.00000 1.00000 0.00000 0.00000 ] defaultmatrix matrix concatmatrix setmatrix
[ 1.00000 0.00000 0.00000 1.00000 0.00000 0.00000 ] defaultmatrix matrix concatmatrix setmatrix
[ 1.00000 0.00000 0.00000 1.00000 439.890 120.473 ] concat
0.00000 0.00000 .607843 RG
newpath
.343750 6.48438 m
1.04688 6.39062 l
1.11979 6.78646 1.25521 7.07292 1.45312 7.25000  c
1.65104 7.42708 1.88542 7.51562 2.15625 7.51562  c
2.48958 7.51562 2.77083 7.40104 3.00000 7.17188  c
3.22917 6.94271 3.34375 6.66146 3.34375 6.32812  c
3.34375 6.00521 3.23698 5.73698 3.02344 5.52344  c
2.80990 5.30990 2.54167 5.20312 2.21875 5.20312  c
2.08333 5.20312 1.91667 5.22917 1.71875 5.28125  c
1.79688 4.67188 l
1.84896 4.67188 1.89062 4.67188 1.92188 4.67188  c
2.21354 4.67188 2.47917 4.59375 2.71875 4.43750  c
2.95833 4.28125 3.07812 4.04167 3.07812 3.71875  c
3.07812 3.45833 2.99219 3.24479 2.82031 3.07812  c
2.64844 2.91146 2.42188 2.82812 2.14062 2.82812  c
1.86979 2.82812 1.64323 2.91406 1.46094 3.08594  c
1.27865 3.25781 1.16146 3.51562 1.10938 3.85938  c
.406250 3.73438 l
.489583 3.26562 .684896 2.90104 .992188 2.64062  c
1.29948 2.38021 1.67708 2.25000 2.12500 2.25000  c
2.43750 2.25000 2.72656 2.31771 2.99219 2.45312  c
3.25781 2.58854 3.46094 2.77083 3.60156 3.00000  c
3.74219 3.22917 3.81250 3.47396 3.81250 3.73438  c
3.81250 3.98438 3.74479 4.21094 3.60938 4.41406  c
3.47396 4.61719 3.27604 4.77604 3.01562 4.89062  c
3.35938 4.97396 3.62500 5.13802 3.81250 5.38281  c
4.00000 5.62760 4.09375 5.93750 4.09375 6.31250  c
4.09375 6.81250 3.91146 7.23698 3.54688 7.58594  c
3.18229 7.93490 2.71875 8.10938 2.15625 8.10938  c
1.65625 8.10938 1.23958 7.95833 .906250 7.65625  c
.572917 7.35417 .385417 6.96354 .343750 6.48438  c
h
f
[ 1.00000 0.00000 0.00000 1.00000 0.00000 0.00000 ] defaultmatrix matrix concatmatrix setmatrix
[ 1.00000 0.00000 0.00000 1.00000 0.00000 0.00000 ] defaultmatrix matrix concatmatrix setmatrix
.200000 .200000 .200000 RG
0.00000 0.00000 .607843 RG
1.00000 1.00000 1.00000 RG
1.00000 0.00000 0.00000 RG
1.00000 1.00000 1.00000 RG
newpath
410.616 100.695 m
409.208 100.695 408.067 101.837 408.067 103.244  c
408.067 108.342 l
408.067 109.750 409.208 110.891 410.616 110.891  c
413.049 110.891 l
414.457 110.891 415.598 109.750 415.598 108.342  c
415.598 103.244 l
415.598 101.837 414.457 100.695 413.049 100.695  c
h
f
1.00000 0.00000 0.00000 RG
[ 1.00000 0.00000 0.00000 1.00000 407.833 98.2228 ] concat
newpath
.531250 8.17188 m
.531250 6.85938 .882812 5.83333 1.58594 5.09375  c
2.28906 4.35417 3.19271 3.98438 4.29688 3.98438  c
5.02604 3.98438 5.68229 4.15885 6.26562 4.50781  c
6.84896 4.85677 7.29427 5.34115 7.60156 5.96094  c
7.90885 6.58073 8.06250 7.28646 8.06250 8.07812  c
8.06250 8.86979 7.90104 9.58073 7.57812 10.2109  c
7.25521 10.8411 6.79948 11.3203 6.21094 11.6484  c
5.62240 11.9766 4.98438 12.1406 4.29688 12.1406  c
3.55729 12.1406 2.89583 11.9609 2.31250 11.6016  c
1.72917 11.2422 1.28646 10.7526 .984375 10.1328  c
.682292 9.51302 .531250 8.85938 .531250 8.17188  c
h
1.60938 8.18750 m
1.60938 9.13542 1.86458 9.88281 2.37500 10.4297  c
2.88542 10.9766 3.52604 11.2500 4.29688 11.2500  c
5.07812 11.2500 5.72135 10.9740 6.22656 10.4219  c
6.73177 9.86979 6.98438 9.08333 6.98438 8.06250  c
6.98438 7.42708 6.87760 6.86979 6.66406 6.39062  c
6.45052 5.91146 6.13542 5.54167 5.71875 5.28125  c
5.30208 5.02083 4.83333 4.89062 4.31250 4.89062  c
3.57292 4.89062 2.93750 5.14323 2.40625 5.64844  c
1.87500 6.15365 1.60938 7.00000 1.60938 8.18750  c
h
f
[ 1.00000 0.00000 0.00000 1.00000 0.00000 0.00000 ] defaultmatrix matrix concatmatrix setmatrix
[ 1.00000 0.00000 0.00000 1.00000 0.00000 0.00000 ] defaultmatrix matrix concatmatrix setmatrix
[ 1.00000 0.00000 0.00000 1.00000 409.833 94.6759 ] concat
0.00000 0.00000 .607843 RG
newpath
1.42188 4.89062 m
1.13021 4.78646 .914062 4.63542 .773438 4.43750  c
.632812 4.23958 .562500 4.00000 .562500 3.71875  c
.562500 3.30208 .710938 2.95312 1.00781 2.67188  c
1.30469 2.39062 1.70312 2.25000 2.20312 2.25000  c
2.70312 2.25000 3.10417 2.39583 3.40625 2.68750  c
3.70833 2.97917 3.85938 3.33333 3.85938 3.75000  c
3.85938 4.01042 3.79167 4.23958 3.65625 4.43750  c
3.52083 4.63542 3.30729 4.78646 3.01562 4.89062  c
3.36979 5.00521 3.63802 5.19010 3.82031 5.44531  c
4.00260 5.70052 4.09375 6.00521 4.09375 6.35938  c
4.09375 6.84896 3.92188 7.26042 3.57812 7.59375  c
3.23438 7.92708 2.78125 8.09375 2.21875 8.09375  c
1.64583 8.09375 1.18750 7.92708 .843750 7.59375  c
.500000 7.26042 .328125 6.84375 .328125 6.34375  c
.328125 5.96875 .421875 5.65625 .609375 5.40625  c
.796875 5.15625 1.06771 4.98438 1.42188 4.89062  c
h
1.28125 3.70312 m
1.28125 3.97396 1.36719 4.19531 1.53906 4.36719  c
1.71094 4.53906 1.93750 4.62500 2.21875 4.62500  c
2.48958 4.62500 2.71094 4.53906 2.88281 4.36719  c
3.05469 4.19531 3.14062 3.98438 3.14062 3.73438  c
3.14062 3.48438 3.05208 3.27083 2.87500 3.09375  c
2.69792 2.91667 2.47396 2.82812 2.20312 2.82812  c
1.94271 2.82812 1.72396 2.91406 1.54688 3.08594  c
1.36979 3.25781 1.28125 3.46354 1.28125 3.70312  c
h
1.04688 6.34375 m
1.04688 6.54167 1.09375 6.73438 1.18750 6.92188  c
1.28125 7.10938 1.42188 7.25521 1.60938 7.35938  c
1.79688 7.46354 2.00000 7.51562 2.21875 7.51562  c
2.55208 7.51562 2.82812 7.40885 3.04688 7.19531  c
3.26562 6.98177 3.37500 6.70833 3.37500 6.37500  c
3.37500 6.03125 3.26302 5.75000 3.03906 5.53125  c
2.81510 5.31250 2.53646 5.20312 2.20312 5.20312  c
1.86979 5.20312 1.59375 5.31250 1.37500 5.53125  c
1.15625 5.75000 1.04688 6.02083 1.04688 6.34375  c
h
f
[ 1.00000 0.00000 0.00000 1.00000 0.00000 0.00000 ] defaultmatrix matrix concatmatrix setmatrix
[ 1.00000 0.00000 0.00000 1.00000 0.00000 0.00000 ] defaultmatrix matrix concatmatrix setmatrix
1.00000 0.00000 0.00000 RG
0.00000 0.00000 .607843 RG
1.00000 1.00000 1.00000 RG
0.00000 0.00000 0.00000 RG
1.00000 1.00000 1.00000 RG
newpath
77.0098 10.8887 m
75.6550 10.8887 74.5567 11.9905 74.5567 13.3497  c
74.5567 18.2715 l
74.5567 19.6307 75.6550 20.7325 77.0098 20.7325  c
78.3647 20.7325 79.4630 19.6307 79.4630 18.2715  c
79.4630 13.3497 l
79.4630 11.9905 78.3647 10.8887 77.0098 10.8887  c
h
f
0.00000 0.00000 0.00000 RG
[ 1.00000 0.00000 0.00000 1.00000 74.0098 8.31059 ] concat
newpath
.812500 12.0000 m
.812500 4.12500 l
1.84375 4.12500 l
1.84375 11.0781 l
5.71875 11.0781 l
5.71875 12.0000 l
.812500 12.0000 l
h
f
[ 1.00000 0.00000 0.00000 1.00000 0.00000 0.00000 ] defaultmatrix matrix concatmatrix setmatrix
[ 1.00000 0.00000 0.00000 1.00000 0.00000 0.00000 ] defaultmatrix matrix concatmatrix setmatrix
[ 1.00000 0.00000 0.00000 1.00000 84.0221 10.8106 ] concat
0.00000 0.00000 .607843 RG
newpath
.546875 9.59375 m
.546875 2.26562 l
2.09375 2.26562 l
2.09375 2.85938 l
1.25000 2.85938 l
1.25000 9.01562 l
2.09375 9.01562 l
2.09375 9.59375 l
.546875 9.59375 l
h
2.86328 8.00000 m
2.86328 2.26562 l
3.62891 2.26562 l
3.62891 4.62500 l
6.59766 4.62500 l
6.59766 2.26562 l
7.36328 2.26562 l
7.36328 8.00000 l
6.59766 8.00000 l
6.59766 5.29688 l
3.62891 5.29688 l
3.62891 8.00000 l
2.86328 8.00000 l
h
8.71875 4.65625 m
8.71875 3.84375 l
9.51562 3.84375 l
9.51562 4.65625 l
8.71875 4.65625 l
h
8.71875 8.00000 m
8.71875 7.20312 l
9.51562 7.20312 l
9.51562 8.00000 l
9.51562 8.29167 9.46354 8.52865 9.35938 8.71094  c
9.25521 8.89323 9.08854 9.03646 8.85938 9.14062  c
8.67188 8.82812 l
8.81771 8.76562 8.92448 8.67188 8.99219 8.54688  c
9.05990 8.42188 9.09896 8.23958 9.10938 8.00000  c
8.71875 8.00000 l
h
14.9258 5.98438 m
15.6914 6.18750 l
15.5247 6.80208 15.2357 7.27344 14.8242 7.60156  c
14.4128 7.92969 13.9102 8.09375 13.3164 8.09375  c
12.7018 8.09375 12.1992 7.96875 11.8086 7.71875  c
11.4180 7.46875 11.1237 7.10417 10.9258 6.62500  c
10.7279 6.14583 10.6289 5.63542 10.6289 5.09375  c
10.6289 4.50000 10.7409 3.97917 10.9648 3.53125  c
11.1888 3.08333 11.5117 2.74479 11.9336 2.51562  c
12.3555 2.28646 12.8216 2.17188 13.3320 2.17188  c
13.9049 2.17188 14.3867 2.31771 14.7773 2.60938  c
15.1680 2.90104 15.4362 3.31250 15.5820 3.84375  c
14.8477 4.01562 l
14.7122 3.59896 14.5169 3.29688 14.2617 3.10938  c
14.0065 2.92188 13.6914 2.82812 13.3164 2.82812  c
12.8685 2.82812 12.4987 2.93229 12.2070 3.14062  c
11.9154 3.34896 11.7096 3.63021 11.5898 3.98438  c
11.4701 4.33854 11.4102 4.70833 11.4102 5.09375  c
11.4102 5.57292 11.4805 5.99479 11.6211 6.35938  c
11.7617 6.72396 11.9805 6.99740 12.2773 7.17969  c
12.5742 7.36198 12.8997 7.45312 13.2539 7.45312  c
13.6810 7.45312 14.0404 7.33073 14.3320 7.08594  c
14.6237 6.84115 14.8216 6.47396 14.9258 5.98438  c
h
17.7031 9.59375 m
16.1562 9.59375 l
16.1562 9.01562 l
17.0000 9.01562 l
17.0000 2.85938 l
16.1562 2.85938 l
16.1562 2.26562 l
17.7031 2.26562 l
17.7031 9.59375 l
h
f
[ 1.00000 0.00000 0.00000 1.00000 0.00000 0.00000 ] defaultmatrix matrix concatmatrix setmatrix
[ 1.00000 0.00000 0.00000 1.00000 0.00000 0.00000 ] defaultmatrix matrix concatmatrix setmatrix
0.00000 0.00000 0.00000 RG
0.00000 0.00000 .607843 RG
0.00000 0.00000 0.00000 RG
0.00000 0.00000 .607843 RG
0.00000 0.00000 0.00000 RG
newpath
23.8125 18.0000 m
23.8125 10.1250 l
27.1562 10.1250 l
28.0000 10.1250 28.6120 10.1953 28.9922 10.3359  c
29.3724 10.4766 29.6771 10.7292 29.9062 11.0938  c
30.1354 11.4583 30.2500 11.8698 30.2500 12.3281  c
30.2500 12.9219 30.0755 13.4115 29.7266 13.7969  c
29.3776 14.1823 28.8594 14.4271 28.1719 14.5312  c
28.5156 14.7292 28.7995 14.9479 29.0234 15.1875  c
29.2474 15.4271 29.5469 15.8542 29.9219 16.4688  c
30.8906 18.0000 l
28.9844 18.0000 l
27.8281 16.2812 l
27.4219 15.6771 27.1432 15.2943 26.9922 15.1328  c
26.8411 14.9714 26.6823 14.8620 26.5156 14.8047  c
26.3490 14.7474 26.0833 14.7188 25.7188 14.7188  c
25.3906 14.7188 l
25.3906 18.0000 l
23.8125 18.0000 l
h
25.3906 13.4531 m
26.5781 13.4531 l
27.3385 13.4531 27.8125 13.4219 28.0000 13.3594  c
28.1875 13.2969 28.3359 13.1875 28.4453 13.0312  c
28.5547 12.8750 28.6094 12.6771 28.6094 12.4375  c
28.6094 12.1667 28.5391 11.9505 28.3984 11.7891  c
28.2578 11.6276 28.0573 11.5260 27.7969 11.4844  c
27.6719 11.4635 27.2865 11.4531 26.6406 11.4531  c
25.3906 11.4531 l
25.3906 13.4531 l
h
35.2720 18.0000 m
33.7563 18.0000 l
33.7563 12.3125 l
33.2147 12.8229 32.5688 13.2031 31.8188 13.4531  c
31.8188 12.0938 l
32.2147 11.9583 32.6418 11.7109 33.1001 11.3516  c
33.5584 10.9922 33.8761 10.5729 34.0532 10.0938  c
35.2720 10.0938 l
35.2720 18.0000 l
h
40.5708 13.6094 m
40.5708 12.2344 l
46.0864 12.2344 l
46.0864 13.6094 l
40.5708 13.6094 l
h
40.5708 16.0000 m
40.5708 14.6094 l
46.0864 14.6094 l
46.0864 16.0000 l
40.5708 16.0000 l
h
f
newpath
49.4995 7.89990 m
49.3807 7.89990 49.2608 7.93509 49.1560 8.00838  c
48.8844 8.19839 48.8184 8.57242 49.0084 8.84399  c
49.5676 9.64286 l
48.2084 11.5846 l
48.0640 11.7909 48.0640 12.0663 48.2084 12.2726  c
49.5676 14.2143 l
48.2084 16.1560 l
48.0640 16.3623 48.0640 16.6377 48.2084 16.8440  c
49.5676 18.7857 l
48.2084 20.7274 l
48.0640 20.9337 48.0640 21.2091 48.2084 21.4154  c
49.5676 23.3571 l
49.0084 24.1560 l
48.8184 24.4276 48.8844 24.8016 49.1560 24.9916  c
49.2608 25.0649 49.3807 25.1001 49.4995 25.1001  c
49.6887 25.1001 49.8749 25.0108 49.9916 24.8440  c
50.7916 23.7011 l
50.9360 23.4948 50.9360 23.2194 50.7916 23.0132  c
49.4324 21.0714 l
50.7916 19.1297 l
50.9360 18.9234 50.9360 18.6480 50.7916 18.4417  c
49.4324 16.5000 l
50.7916 14.5583 l
50.9360 14.3520 50.9360 14.0766 50.7916 13.8703  c
49.4324 11.9286 l
50.7916 9.98685 l
50.9360 9.78055 50.9360 9.50516 50.7916 9.29887  c
49.9916 8.15601 l
49.8749 7.98918 49.6887 7.89990 49.4995 7.89990  c
h
f
1.00000 w
2 J
0 j
10.0000 M
[ ] 0.00000 d
q
cliprestore
newpath
0.00000 0.00000 m
0.00000 157.000 l
454.000 157.000 l
454.000 0.00000 l
h
W
cliprestore
newpath
0.00000 0.00000 m
0.00000 157.000 l
454.000 157.000 l
454.000 0.00000 l
h
W
Q
cliprestore
85.0000 98.0000 13.0000 25.0000 rc
[ .990036 0.00000 0.00000 .990036 .851031 .984165 ] defaultmatrix matrix concatmatrix setmatrix
[ 1.00000 0.00000 0.00000 1.00000 0.00000 0.00000 ] defaultmatrix matrix concatmatrix setmatrix
cliprestore
newpath
0.00000 0.00000 m
0.00000 157.000 l
454.000 157.000 l
454.000 0.00000 l
h
W
cliprestore
85.0000 98.0000 13.0000 25.0000 rc
[ .990036 0.00000 0.00000 .990036 .851031 .984165 ] defaultmatrix matrix concatmatrix setmatrix
newpath
89.7834 115.917 m
89.7834 112.573 l
86.4084 112.573 l
86.4084 110.261 l
89.7834 110.261 l
89.7834 106.917 l
92.0334 106.917 l
92.0334 110.261 l
95.4084 110.261 l
95.4084 112.573 l
92.0334 112.573 l
92.0334 115.917 l
89.7834 115.917 l
h
f
[ 1.00000 0.00000 0.00000 1.00000 0.00000 0.00000 ] defaultmatrix matrix concatmatrix setmatrix
cliprestore
newpath
0.00000 0.00000 m
0.00000 157.000 l
454.000 157.000 l
454.000 0.00000 l
h
W
cliprestore
353.000 103.000 13.0000 25.0000 rc
[ .990036 0.00000 0.00000 .990036 3.51985 1.03200 ] defaultmatrix matrix concatmatrix setmatrix
[ 1.00000 0.00000 0.00000 1.00000 0.00000 0.00000 ] defaultmatrix matrix concatmatrix setmatrix
cliprestore
newpath
0.00000 0.00000 m
0.00000 157.000 l
454.000 157.000 l
454.000 0.00000 l
h
W
cliprestore
353.000 103.000 13.0000 25.0000 rc
[ .990036 0.00000 0.00000 .990036 3.51985 1.03200 ] defaultmatrix matrix concatmatrix setmatrix
newpath
357.641 120.718 m
357.641 117.375 l
354.266 117.375 l
354.266 115.062 l
357.641 115.062 l
357.641 111.718 l
359.891 111.718 l
359.891 115.062 l
363.266 115.062 l
363.266 117.375 l
359.891 117.375 l
359.891 120.718 l
357.641 120.718 l
h
f
[ 1.00000 0.00000 0.00000 1.00000 0.00000 0.00000 ] defaultmatrix matrix concatmatrix setmatrix
cliprestore
newpath
0.00000 0.00000 m
0.00000 157.000 l
454.000 157.000 l
454.000 0.00000 l
h
W
q
newpath
232.208 112.253 m
185.353 111.346 l
185.331 112.471 l
232.186 113.378 l
232.134 116.077 l
241.196 112.990 l
232.260 109.553 l
h
f
Q

%%Trailer
%%EOF
