%!PS-Adobe-3.0 EPSF-3.0
%%BoundingBox: 20 323 575 468
%%Creator: FreeHEP Graphics2D Driver
%%Producer: org.freehep.graphicsio.ps.EPSGraphics2D
%%For: 
%%Title: 
%%LanguageLevel: 3
%%EndComments
%%BeginProlog
100 dict dup begin

%
% File: org/freehep/graphicsio.ps/PSProlog.txt
% Author: Charles Loomis
%

% Redefinitions which save some space in the output file.  These are also
% the same as the PDF operators.
/q {gsave} def
/Q {grestore} def

/n {newpath} def
/m {moveto} def
/l {lineto} def
/c {curveto} def
/h {closepath} def

/re {4 -2 roll moveto
     dup 0 exch rlineto exch 0 rlineto
     neg 0 exch rlineto closepath} def

/f {fill} def
/f* {eofill} def
/F {gsave vg&FC fill grestore} def
/F* {gsave vg&FC eofill grestore} def

/s {closepath stroke} def
/S {stroke} def

/b {closepath gsave vg&FC fill grestore
    gsave stroke grestore newpath} def
/B {gsave vg&FC fill grestore gsave stroke grestore newpath} def
/b* {closepath gsave vg&FC eofill grestore
    gsave stroke grestore newpath} def
/B* {gsave vg&FC eofill grestore gsave stroke grestore newpath} def

/g {1 array astore /vg&fcolor exch def} def
/G {setgray} def
/k {4 array astore /vg&fcolor exch def} def
/K {setcmykcolor} def
/rg {3 array astore /vg&fcolor exch def} def
/RG {setrgbcolor} def

% Initialize the fill color.
0 0 0 rg

/vg&FC {mark vg&fcolor aload pop
        counttomark 1 eq {G} if
        counttomark 3 eq {RG} if
        counttomark 4 eq {K} if
        cleartomark } def

/vg&DFC {/vg&fcolor exch def} def

/vg&C {mark exch aload pop
       counttomark 1 eq {G} if
       counttomark 3 eq {RG} if
       counttomark 4 eq {K} if
       cleartomark } def

/w {setlinewidth} def
/j {setlinejoin} def
/J {setlinecap} def
/M {setmiterlimit} def
/d {setdash} def
/i {setflat} def

/W {clip} def
/W* {eoclip} def

% Setup the default graphics state.
% (black; 1 pt. linewidth; miter join; butt-ends; solid)
/defaultGraphicsState {0 g 1 w 0 j 0 J [] 0 d} def

% Emulation of the rectangle operators for PostScript implementations
% which do not implement all Level 2 features.  This is an INCOMPLETE
% emulation; only the "x y width height rect..." form is emulated.
/*rf {gsave newpath re fill grestore} def
/*rs {gsave newpath re stroke grestore} def
/*rc {newpath re clip} def
/rf  /rectfill where {pop /rectfill}{/*rf} ifelse load def
/rs  /rectstroke where {pop /rectstroke}{/*rs} ifelse load def
/rc  /rectclip where {pop /rectclip}{/*rc} ifelse load def

% Emulation of the selectfont operator.  This includes a 20% increase in
% the fontsize which is necessary to get sizes similar to the Java fonts.
/*sf {exch findfont exch
      dup type /arraytype eq {makefont}{scalefont} ifelse setfont} bind def
/sf /selectfont where {pop {1.2 mul selectfont}}{{1.2 mul *sf}} ifelse def

% Special version of stroke which allows the dash pattern to continue
% across path segments.  (This may be needed for PostScript although
% modern printers seem to do this correctly.)
/vg&stroke {
  currentdash pop length 0 eq
  {stroke}
  {
    currentdash /vg&doffset exch def pop
    flattenpath
    {m vg&resetdash}
    {2 copy
     currentpoint
     3 -1 roll sub dup mul
     3 1 roll sub dup mul
     add sqrt
     3 1 roll l
     currentdash 3 -1 roll add setdash}
     {}
     {h vg&resetdash}
     pathforall
     stroke
     vg&resetdash
  } ifelse
} def
/vg&resetdash {currentdash pop vg&doffset setdash} def

% Initialize variables for safety.
/delta 0 def
/xv 0 def  /yv 0 def  /width 0 def  /height 0 def

% Initialize to portrait INTERNATIONAL (Letter-height, A4-width) page.
/pw 595 def  /ph 791  def  /po true def /ftp false def

% Initialize margins to 20 points.
/ml 20 def  /mr 20 def  /mt 20 def  /mb 20 def

% Temporary matrices.
/smatrix 0 def  /nmatrix 0 def

% set page size (usage: <page width><page height> setpagesize)
/setpagesize {/ph exch def /pw exch def} def

% set page orientation (usage: portrait or landscape)
/portrait {/po true def} def
/landscape {/po false def} def

% force natural size for image (usage: naturalsize)
/naturalsize {/ftp false def} def

% resize image to fill page (usage: fittopage)
/fittopage {/ftp true def} def

% set margins of the page (usage: <left><bottom><top><right> setmargins)
/setmargins {/mr exch def /mt exch def /mb exch def /ml exch def} def

% set the graphic's size (usage: <width><height> setsize)
/setsize {/gh exch def /gw exch def} def

% set the graphic's origin (usage: <x0><y0> setorigin)
/setorigin {/gy exch def /gx exch def} def

% calculate image center
/imagecenter {pw ml sub mr sub 2 div ml add
              ph mt sub mb sub 2 div mb add} def

% calculate the necessary scaling
/imagescale {po {gw}{gh} ifelse pw ml sub mr sub div
             po {gh}{gw} ifelse ph mt sub mb sub div
             2 copy lt {exch} if pop
             ftp not {1 2 copy lt {exch} if pop} if
             1 exch div /sfactor exch def
             /gw gw sfactor mul def /gh gh sfactor mul def} def

% calculate image origin
/imageorigin {pw ml sub mr sub 2 div ml add
              po {gw}{gh} ifelse 2 div sub
              ph mt sub mb sub 2 div mb add
              po {gh}{gw} ifelse 2 div po {add}{sub} ifelse} def

% calculate the clipping origin
/cliporigin  {pw ml sub mr sub 2 div ml add
              po {gw}{gh} ifelse 2 div sub floor
              ph mt sub mb sub 2 div mb add
              po {gh}{gw} ifelse 2 div sub floor} def

% Set the clipping region to the bounding box.
/cliptobounds {cliporigin po {gw}{gh} ifelse 1 add
                          po {gh}{gw} ifelse 1 add rc} def

% set the base transformation matrix (usage: setbasematrix)
/setbasematrix {imageorigin translate
                po {0}{90} ifelse rotate
                sfactor sfactor neg scale
                /defaultmatrix matrix currentmatrix def} def

% The lower-right bias in drawing 1 pt. wide lines.
/bias  {q 0.5 0.5 translate} def
/unbias {Q} def

% Define the composite fonts used to print Unicode strings.
% Undefine particular values in an encoding array.
/vg&undef { {exch dup 3 -1 roll /.notdef put} forall } def
/vg&redef { {3 -1 roll dup 4 2 roll put} forall } def

% usage: key encoding basefontname vg&newbasefont font
/vg&newbasefont {
findfont dup length dict copy
  begin
    currentdict /FID undef
    /Encoding exch def
    dup /FontName exch def
    currentdict
  end
definefont
} def

% usage: key encoding basefontname vg&newskewedbasefont font
/vg&newskewedbasefont {
findfont dup length dict copy
  begin
    currentdict /FID undef
    /Encoding exch def
    dup /FontName exch def
    exch FontMatrix exch matrix concatmatrix /FontMatrix exch def
    currentdict
  end
definefont
} def

% usage: basekey suffix vg&nconcat name
/vg&nconcat {
  2 {dup length string cvs exch} repeat
  dup length 3 -1 roll dup length 3 -1 roll add string
  dup 0 4 -1 roll dup length 5 1 roll putinterval
  dup 4 -2 roll exch putinterval cvn
} def

%usage: fontname vg&skewmatrix matrix
/vg&skewmatrix {
findfont dup /FontInfo known
  {
    /FontInfo get dup /ItalicAngle known
    {
      [ 1 0 4 -1 roll /ItalicAngle get neg dup sin exch cos div 1 0 0 ]
    }
    {pop matrix} ifelse
  }
  {pop matrix} ifelse
} def

% usage: newfontname basefontname vg&newcompositefont --
/vg&newcompositefont {
/vg&fstyle exch def
/vg&bfont exch def
/vg&fname exch def
<<
/FontStyleBits vg&fstyle
/FontType 0
/FontMatrix matrix
/FontName vg&fname
/FMapType 2
/Encoding [ 0 1 255 {pop 6} for ]
          dup 16#00 0 put % Latin
          dup 16#03 1 put % Greek
          dup 16#20 2 put % Punctuation
          dup 16#21 3 put % Arrows
          dup 16#22 4 put % MathOps
          dup 16#27 5 put % Dingbats

/FDepVector [
vg&bfont /-UC-Latin vg&nconcat UCLatinEncoding
vg&bfont vg&newbasefont

vg&bfont vg&skewmatrix
vg&bfont /-UC-Greek vg&nconcat UCGreekEncoding
/Symbol vg&newskewedbasefont

vg&bfont /-UC-Punctuation vg&nconcat UCPunctuationEncoding
vg&bfont vg&newbasefont

/Arrows-UC findfont
/MathOps-UC findfont
/Dingbats-UC findfont
/Undefined-UC findfont ]
>>
vg&fname exch definefont pop
} def

% Null encoding vector (all elements set to .notdef)
/NullEncoding [ 256 {/.notdef} repeat ] def

% Unicode Latin encoding (unicode codes \u0000-\u00ff)
/UCLatinEncoding
  ISOLatin1Encoding dup length array copy
  dup 16#60 /grave put
  [ 16#90 16#91 16#92 16#93 16#94 16#95 16#96
    16#97 16#98 16#9a 16#9b 16#9d 16#9e 16#9f
  ] vg&undef
  def

% Unicode Greek encoding (unicode codes \u0370-\u03ff)
/UCGreekEncoding
  NullEncoding dup length array copy
  << 16#91 /Alpha    16#92 /Beta      16#93 /Gamma    16#94 /Delta
     16#95 /Epsilon  16#96 /Zeta      16#97 /Eta      16#98 /Theta
     16#99 /Iota     16#9a /Kappa     16#9b /Lambda   16#9c /Mu
     16#9d /Nu       16#9e /Xi        16#9f /Omicron  16#a0 /Pi
     16#a1 /Rho      16#a3 /Sigma     16#a4 /Tau      16#a5 /Upsilon
     16#a6 /Phi      16#a7 /Chi       16#a8 /Psi      16#a9 /Omega
     16#b1 /alpha    16#b2 /beta      16#b3 /gamma    16#b4 /delta
     16#b5 /epsilon  16#b6 /zeta      16#b7 /eta      16#b8 /theta
     16#b9 /iota     16#ba /kappa     16#bb /lambda   16#bc /mu
     16#bd /nu       16#be /xi        16#bf /omicron  16#c0 /pi
     16#c1 /rho      16#c2 /sigma1    16#c3 /sigma    16#c4 /tau
     16#c5 /upsilon  16#c6 /phi1      16#c7 /chi      16#c8 /psi
     16#c9 /omega    16#7e /semicolon 16#87 /dotmath  16#d1 /theta1
     16#d2 /Upsilon1 16#d5 /phi       16#d6 /omega1
  >> vg&redef
  def

% Unicode punctuation encoding (unicode codes \u2000-\u206f)
/UCPunctuationEncoding
  NullEncoding dup length array copy
  << 16#10 /hyphen          16#11 /hyphen              16#12 /endash
     16#13 /emdash          16#18 /quoteleft           16#19 /quoteright
     16#1a /quotesinglbase  16#1b /quotesingle         16#1c /quotedblleft
     16#1d /quotedblright   16#1e /quotedblbase        16#1f /quotedbl
     16#20 /dagger          16#21 /daggerdbl           16#22 /bullet
     16#24 /period          16#26 /ellipsis            16#27 /periodcentered
     16#30 /perthousand     16#44 /fraction
     16#70 /zerosuperior    16#74 /foursuperior        16#75 /fivesuperior
     16#76 /sixsuperior     16#77 /sevensuperior       16#78 /eightsuperior
     16#79 /ninesuperior    16#7b /hyphensuperior      16#7d /parenleftsuperior
     16#7e /parenrightsuperior
     16#80 /zeroinferior    16#84 /fourinferior        16#85 /fiveinferior
     16#81 /oneinferior     16#82 /twoinferior         16#83 /threeinferior
     16#86 /sixinferior     16#87 /seveninferior       16#88 /eightinferior
     16#89 /nineinferior    16#8b /hypheninferior      16#8d /parenleftinferior
     16#8e /parenrightinferior
  >> vg&redef
  def

% Unicode mathematical operators encoding (unicode codes \u2200-\u22ff)
/UCMathOpsEncoding
  NullEncoding dup length array copy
  << 16#00 /universal       16#02 /partialdiff         16#03 /existential
     16#05 /emptyset        16#06 /Delta               16#07 /gradient
     16#08 /element         16#09 /notelement          16#0b /suchthat
     16#0f /product         16#11 /summation           16#12 /minus
     16#15 /fraction        16#17 /asteriskmath        16#19 /bullet
     16#1a /radical         16#1d /proportional        16#1e /infinity
     16#20 /angle           16#23 /bar                 16#27 /logicaland
     16#28 /logicalor       16#29 /intersection        16#2a /union
     16#2b /integral        16#34 /therefore           16#36 /colon
     16#3c /similar         16#45 /congruent           16#48 /approxequal
     16#60 /notequal        16#61 /equivalence         16#64 /lessequal
     16#65 /greaterequal    16#82 /propersubset        16#83 /propersuperset
     16#86 /reflexsubset    16#87 /reflexsuperset      16#95 /circleplus
     16#97 /circlemultiply  16#a5 /perpendicular       16#03 /existential
     16#c0 /logicaland      16#c1 /logicalor           16#c2 /intersection
     16#c3 /union           16#c4 /diamond             16#c5 /dotmath
  >> vg&redef
  def

% Unicode arrows encoding (unicode codes \u2190-\u21ff)
% Also includes those "Letterlike" unicode characters
% which are available in the symbol font. (unicode codes \u2100-\u214f)
/UCArrowsEncoding
  NullEncoding dup length array copy
  << 16#11 /Ifraktur        16#1c /Rfraktur            16#22 /trademarkserif
     16#35 /aleph
     16#90 /arrowleft       16#91 /arrowup             16#92 /arrowright
     16#93 /arrowdown       16#94 /arrowboth           16#d0 /arrowdblleft
     16#d1 /arrowdblup      16#d2 /arrowdblright       16#d3 /arrowdbldown
     16#d4 /arrowdblboth
  >> vg&redef
  def

/ZapfDingbats findfont /Encoding get
dup length array copy /UCDingbatsEncoding exch def
16#20 1 16#7f {
  dup 16#20 sub exch
  UCDingbatsEncoding exch get
  UCDingbatsEncoding 3 1 roll put
} for
16#a0 1 16#ff {
  dup 16#40 sub exch
  UCDingbatsEncoding exch get
  UCDingbatsEncoding 3 1 roll put
} for
UCDingbatsEncoding [ 16#c0 1 16#ff {} for ] vg&undef
[ 16#00  16#05 16#0a 16#0b  16#28 16#4c 16#4e  16#53 16#54 16#55  16#57 16#5f
  16#60  16#68 16#69 16#6a  16#6b 16#6c 16#6d  16#6e 16#6f 16#70  16#71 16#72
  16#73  16#74 16#75 16#95  16#96 16#97 16#b0  16#bf
] vg&undef pop

% Define the base fonts which don't change.
/Undefined-UC NullEncoding       /Helvetica    vg&newbasefont pop
/MathOps-UC   UCMathOpsEncoding  /Symbol       vg&newbasefont pop
/Arrows-UC    UCArrowsEncoding   /Symbol       vg&newbasefont pop
/Dingbats-UC  UCDingbatsEncoding /ZapfDingbats vg&newbasefont pop

% Make the SansSerif composite fonts.
/SansSerif /Helvetica 16#00 vg&newcompositefont
/SansSerif-Bold /Helvetica-Bold 16#01 vg&newcompositefont
/SansSerif-Italic /Helvetica-Oblique 16#02 vg&newcompositefont
/SansSerif-BoldItalic /Helvetica-BoldOblique 16#03 vg&newcompositefont

% Make the Serif composite fonts.
/Serif /Times-Roman 16#00 vg&newcompositefont
/Serif-Bold /Times-Bold 16#01 vg&newcompositefont
/Serif-Italic /Times-Italic 16#02 vg&newcompositefont
/Serif-BoldItalic /Times-BoldItalic 16#03 vg&newcompositefont

% Make the Monospaced composite fonts.
/Monospaced /Courier 16#00 vg&newcompositefont
/Monospaced-Bold /Courier-Bold 16#01 vg&newcompositefont
/Monospaced-Italic /Courier-Oblique 16#02 vg&newcompositefont
/Monospaced-BoldItalic /Courier-BoldOblique 16#03 vg&newcompositefont

% Make the Dialog composite fonts.
/Dialog /Helvetica 16#00 vg&newcompositefont
/Dialog-Bold /Helvetica-Bold 16#01 vg&newcompositefont
/Dialog-Italic /Helvetica-Oblique 16#02 vg&newcompositefont
/Dialog-BoldItalic /Helvetica-BoldOblique 16#03 vg&newcompositefont

% Make the DialogInput composite fonts.
/DialogInput /Courier 16#00 vg&newcompositefont
/DialogInput-Bold /Courier-Bold 16#01 vg&newcompositefont
/DialogInput-Italic /Courier-Oblique 16#02 vg&newcompositefont
/DialogInput-BoldItalic /Courier-BoldOblique 16#03 vg&newcompositefont

% Make the Typewriter composite fonts (JDK 1.1 only).
/Typewriter /Courier 16#00 vg&newcompositefont
/Typewriter-Bold /Courier-Bold 16#01 vg&newcompositefont
/Typewriter-Italic /Courier-Oblique 16#02 vg&newcompositefont
/Typewriter-BoldItalic /Courier-BoldOblique 16#03 vg&newcompositefont


/cfontH {
 dup /fontsize exch def /SansSerif exch sf
 /vg&fontstyles [{cfontH} {cfontHB} {cfontHI} {cfontHBI}] def
} def
/cfontHB {
  dup /fontsize exch def /SansSerif-Bold exch sf
 /vg&fontstyles [{cfontH} {cfontHB} {cfontHI} {cfontHBI}] def
} def
/cfontHI {
 dup /fontsize exch def /SansSerif-Italic exch sf
 /vg&fontstyles [{cfontH} {cfontHB} {cfontHI} {cfontHBI}] def
} def
/cfontHBI {
 dup /fontsize exch def /SansSerif-BoldItalic exch sf
 /vg&fontstyles [{cfontH} {cfontHB} {cfontHI} {cfontHBI}] def
} def

/cfontT {
 dup /fontsize exch def /Serif exch sf
 /vg&fontstyles [{cfontT} {cfontTB} {cfontTI} {cfontTBI}] def
} def
/cfontTB {
 dup /fontsize exch def /Serif-Bold exch sf
 /vg&fontstyles [{cfontT} {cfontTB} {cfontTI} {cfontTBI}] def
} def
/cfontTI {
 dup /fontsize exch def /Serif-Italic exch sf
 /vg&fontstyles [{cfontT} {cfontTB} {cfontTI} {cfontTBI}] def
} def
/cfontTBI {
 dup /fontsize exch def /Serif-BoldItalic exch sf
 /vg&fontstyles [{cfontT} {cfontTB} {cfontTI} {cfontTBI}] def
} def

/cfontC {
 dup /fontsize exch def /Typewriter exch sf
 /vg&fontstyles [{cfontC} {cfontCB} {cfontCI} {cfontCBI}] def
} def
/cfontCB {
 dup /fontsize exch def /Typewriter-Bold exch sf
 /vg&fontstyles [{cfontC} {cfontCB} {cfontCI} {cfontCBI}] def
} def
/cfontCI {
 dup /fontsize exch def /Typewriter-Italic exch sf
 /vg&fontstyles [{cfontC} {cfontCB} {cfontCI} {cfontCBI}] def
} def
/cfontCBI {
 dup /fontsize exch def /Typewriter-BoldItalic exch sf
 /vg&fontstyles [{cfontC} {cfontCB} {cfontCI} {cfontCBI}] def
} def

% Darken or lighten the current color.
/darken {0.7 exch exp 3 copy
         q 4 -1 roll vg&C
         currentrgbcolor 3 {4 -2 roll mul} repeat
         3 array astore Q} def

/displayColorMap
<< /Cr   [1.00 0.00 0.00]       /Cg     [0.00 1.00 0.00]
   /Cb   [0.00 0.00 1.00]       /Cc     [1.00 0.00 0.00 0.00]
   /Cm   [0.00 1.00 0.00 0.00]  /Cy     [0.00 0.00 1.00 0.00]
   /Co   [1.00 0.78 0.00]       /Cp     [1.00 0.67 0.67]
   /Cw   [1   ]                 /Cgrl   [0.75]
   /Cgr  [0.50]                 /Cgrd   [0.25]
   /Ck   [0   ]
   /CGr  [1.00 0.00 0.00]       /CGg    [0.00 1.00 0.00]
   /CGb  [0.00 0.00 1.00]       /CGc    [1.00 0.00 0.00 0.00]
   /CGm  [0.00 1.00 0.00 0.00]  /CGy    [0.00 0.00 1.00 0.00]
   /CGo  [1.00 0.78 0.00]       /CGp    [1.00 0.67 0.67]
   /CGw  [1   ]                 /CGgrl  [0.75]
   /CGgr [0.50]                 /CGgrd  [0.25]
   /CGk  [0   ]
   /CIr  [1.00 0.00 0.00]       /CIg    [0.00 1.00 0.00]
   /CIb  [0.00 0.00 1.00]       /CIc    [1.00 0.00 0.00 0.00]
   /CIm  [0.00 1.00 0.00 0.00]  /CIy    [0.00 0.00 1.00 0.00]
   /CIo  [1.00 0.78 0.00]       /CIp    [1.00 0.67 0.67]
   /CIw  [1   ]                 /CIgrl  [0.75]
   /CIgr [0.50]                 /CIgrd  [0.25]
   /CIk  [0   ]
>> def

/printColorMap
<< /Cr   [1.00 0.33 0.33]       /Cg     [0.33 1.00 0.33]
   /Cb   [0.33 0.33 1.00]       /Cc     [1.00 0.00 0.00 0.00]
   /Cm   [0.00 1.00 0.00 0.00]  /Cy     [0.00 0.00 1.00 0.00]
   /Co   [1.00 0.78 0.00]       /Cp     [1.00 0.67 0.67]
   /Cw   [1   ]                 /Cgrl   [0.75]
   /Cgr  [0.50]                 /Cgrd   [0.25]
   /Ck   [0   ]
   /CGr  [1.00 0.33 0.33]       /CGg    [0.33 1.00 0.33]
   /CGb  [0.33 0.33 1.00]       /CGc    [1.00 0.00 0.00 0.00]
   /CGm  [0.00 1.00 0.00 0.00]  /CGy    [0.00 0.00 1.00 0.00]
   /CGo  [1.00 0.78 0.00]       /CGp    [1.00 0.67 0.67]
   /CGw  [1   ]                 /CGgrl  [0.75]
   /CGgr [0.50]                 /CGgrd  [0.25]
   /CGk  [0   ]
   /CIr  [1.00 0.33 0.33]       /CIg    [0.33 1.00 0.33]
   /CIb  [0.33 0.33 1.00]       /CIc    [1.00 0.00 0.00 0.00]
   /CIm  [0.00 1.00 0.00 0.00]  /CIy    [0.00 0.00 1.00 0.00]
   /CIo  [1.00 0.78 0.00]       /CIp    [1.00 0.67 0.67]
   /CIw  [1   ]                 /CIgrl  [0.75]
   /CIgr [0.50]                 /CIgrd  [0.25]
   /CIk  [0   ]
>> def

/grayColorMap
<< /Cr   [0   ]                 /Cg     [0   ]
   /Cb   [0   ]                 /Cc     [0   ]
   /Cm   [0   ]                 /Cy     [0   ]
   /Co   [0   ]                 /Cp     [0   ]
   /Cw   [0   ]                 /Cgrl   [0   ]
   /Cgr  [0   ]                 /Cgrd   [0   ]
   /Ck   [0   ]
   /CGr  [0.75]                 /CGg    [1   ]
   /CGb  [0.50]                 /CGc    [0.75]
   /CGm  [0.50]                 /CGy    [1   ]
   /CGo  [0.75]                 /CGp    [1   ]
   /CGw  [0   ]                 /CGgrl  [0.25]
   /CGgr [0.50]                 /CGgrd  [0.75]
   /CGk  [1   ]
   /CIr  [1   ]                 /CIg    [1   ]
   /CIb  [1   ]                 /CIc    [1   ]
   /CIm  [1   ]                 /CIy    [1   ]
   /CIo  [1   ]                 /CIp    [1   ]
   /CIw  [1   ]                 /CIgrl  [1   ]
   /CIgr [1   ]                 /CIgrd  [1   ]
   /CIk  [1   ]
>> def

/bwColorMap
<< /Cr   [0   ]                 /Cg     [0   ]
   /Cb   [0   ]                 /Cc     [0   ]
   /Cm   [0   ]                 /Cy     [0   ]
   /Co   [0   ]                 /Cp     [0   ]
   /Cw   [0   ]                 /Cgrl   [0   ]
   /Cgr  [0   ]                 /Cgrd   [0   ]
   /Ck   [0   ]
   /CGr  [1   ]                 /CGg    [1   ]
   /CGb  [1   ]                 /CGc    [1   ]
   /CGm  [1   ]                 /CGy    [1   ]
   /CGo  [1   ]                 /CGp    [1   ]
   /CGw  [0   ]                 /CGgrl  [1   ]
   /CGgr [1   ]                 /CGgrd  [1   ]
   /CGk  [1   ]
   /CIr  [1   ]                 /CIg    [1   ]
   /CIb  [1   ]                 /CIc    [1   ]
   /CIm  [1   ]                 /CIy    [1   ]
   /CIo  [1   ]                 /CIp    [1   ]
   /CIw  [1   ]                 /CIgrl  [1   ]
   /CIgr [1   ]                 /CIgrd  [1   ]
   /CIk  [1   ]
>> def

%
% The following routines handle the alignment of and printing of
% tagged strings.
%

% Predefine the bounding box values.
/bbllx 0 def /bblly 0 def /bburx 0 def /bbury 0 def

% This routine pops the first unicode character off of a string and returns
% the remainder of the string, the character code of first character,
% and a "true" if the string was non-zero length.
% <string>      popfirst <remaining string> <true>
% <null string> popfirst <false>
/popfirst {
  dup length 1 gt
    {dup 0 get /vg&fbyte exch def
     dup 1 get /vg&cbyte exch def
     dup length 2 sub 2 exch getinterval true}
    {pop false} ifelse
} def

% This routine shows a single unicode character given the font and
% character codes.
% <font code> <char code> unicharshow --
/unicharshow {
  2 string
  dup 0 5 -1 roll put
  dup 1 4 -1 roll put
  internalshow
} def

% This is an internal routine to alternate between determining the
% bounding box for stringsize and showing the string for recshow.
% <string> internalshow --
/internalshow {show} def

% This is an internal routine to alternate between determining the
% bounding box for stringsize and stroking various ornaments.
% <string> internalstroke --
/internalstroke {S} def

% Sets up internalshow to use the null device to determine string size.
% -- nullinternalshow --
/nullinternalshow {/internalshow {false charpath flattenpath
                                  pathbbox updatebbox} def} def

% Sets up internalstroke to use the null device to determine string size.
% -- nullinternalstroke --
/nullinternalstroke {
 /internalstroke {flattenpath pathbbox updatebbox} def} def

% This routine tests to see if the character code matches the first
% character of a string.
% <char code> <string> testchar <char code> <true or false>
/testchar {exch dup 3 -1 roll 0 get eq} def

% Raise the text baseline for superscripts.
% -- raise --
/raise {
  0 fontsize 2 div rmoveto
  /fontsize fontsize 2 mul 3 div def
  currentfont /FontName get fontsize sf
} def

% Un-raise the text baseline for superscripts.
% -- unraise --
/unraise {
  /fontsize fontsize 1.5 mul def
  0 fontsize 2 div neg rmoveto
} def

% Lower the text baseline for subscripts.
% -- lower --
/lower {
  0 fontsize 3 div neg rmoveto
  /fontsize fontsize 2 mul 3 div def
  currentfont /FontName get fontsize sf
} def

% Un-lower the text baseline for subscripts.
% -- unlower --
/unlower {
  /fontsize fontsize 1.5 mul def
  0 fontsize 3 div rmoveto
} def

% Compare the top two elements on the stack and leave only the
% larger one.
/maxval {2 copy gt {pop} {exch pop} ifelse} def

% Tokenize a string.  Do not use the usual PostScript token because
% parentheses will not be interpreted correctly because of rescanning
% of the string.
/vg&token {/vg&string exch def /vg&index -1 def /vg&level 0 def
0 2 vg&string length 2 sub {
  dup dup 1 add exch vg&string exch get 8 bitshift vg&string 3 -1 roll get or
  dup 16#f0fe eq {pop 1}{16#f0ff eq {-1}{0} ifelse} ifelse
  /vg&level exch vg&level add def
  vg&level 0 eq {/vg&index exch def exit} if pop
} for
vg&index 0 ge {
  vg&string vg&index 2 add dup vg&string length exch sub getinterval
  vg&index 2 gt {vg&string 2 vg&index 2 sub getinterval}{()} ifelse
  true}
{false} ifelse
} bind def

% Recursively show an unicode string.
% <string> recshow --
/recshow {
  popfirst
  {
    % Test to see if this is a string attribute.
    vg&fbyte 16#f0 and 16#e0 eq
    {
      q

      % Font style.
      currentfont dup /FontStyleBits known {/FontStyleBits get}{pop 0} ifelse
      vg&cbyte or vg&fontstyles exch get fontsize exch exec

      vg&token pop recshow currentpoint Q m recshow
    }
    {
      vg&fbyte 16#F8 and 16#F0 eq {

        % Superscript and/or subscript.
        vg&cbyte 16#00 eq {
          vg&token pop exch vg&token pop 3 -1 roll
          q raise recshow unraise currentpoint pop Q exch
          q lower recshow unlower currentpoint pop Q
          maxval currentpoint exch pop m recshow } if

        % Strikeout.
        vg&cbyte 16#01 eq {
          vg&token pop currentpoint 3 -1 roll recshow
          q 0 J vg&underline vg&uthick w
          currentpoint 4 -2 roll fontsize 3 div add moveto
          fontsize 3 div add lineto internalstroke Q
          recshow} if

        % Underline.
        vg&cbyte 16#02 eq {
          vg&token pop currentpoint 3 -1 roll recshow
          q 0 J vg&underline vg&uthick w
          currentpoint 4 -2 roll vg&uoffset add moveto
          vg&uoffset add lineto internalstroke Q
          recshow} if

        % Dashed underline.
        vg&cbyte 16#03 eq {
          vg&token pop currentpoint 3 -1 roll recshow
          q 0 J [ vg&uthick 5 mul vg&uthick 2 mul] 0 d
          vg&underline vg&uthick w
          currentpoint 4 -2 roll vg&uoffset add moveto
          vg&uoffset add lineto internalstroke Q
          recshow} if

        % Dotted underline.
        vg&cbyte 16#04 eq {
          vg&token pop currentpoint 3 -1 roll recshow
          q 1 J [ 0 vg&uthick 3 mul] 0 d
          vg&underline vg&uthick w
          currentpoint 4 -2 roll vg&uoffset add moveto
          vg&uoffset add lineto internalstroke Q
          recshow} if

        % Thick underline.
        vg&cbyte 16#05 eq {
          vg&token pop currentpoint 3 -1 roll recshow
          q 0 J vg&underline vg&uthick 2 mul w
          currentpoint 4 -2 roll vg&uoffset vg&uthick 2 div sub add moveto
          vg&uoffset vg&uthick 2 div sub add lineto internalstroke Q
          recshow} if

        % Gray thick underline.
        vg&cbyte 16#06 eq {
          vg&token pop currentpoint 3 -1 roll recshow
          q 0 J vg&underline vg&uthick 2 mul w 0.5 setgray
          currentpoint 4 -2 roll vg&uoffset vg&uthick 2 div sub add moveto
          vg&uoffset vg&uthick 2 div sub add lineto internalstroke Q
          recshow} if

        % Overbar.
        vg&cbyte 16#07 eq {
          vg&token pop dup stringsize relative 4 1 roll pop pop exch
          3 -1 roll recshow
          q 0 J vg&underline vg&uthick w
          vg&uoffset neg add dup currentpoint pop exch m l internalstroke Q
          recshow} if
      }
      {
        vg&fbyte vg&cbyte unicharshow recshow
      } ifelse
    } ifelse
  } if
} def

% Get the underline position and thickness from the current font.
/vg&underline {

currentfont dup /FontType get 0 eq {/FDepVector get 0 get} if
dup dup /FontInfo known {
  /FontInfo get dup
  dup /UnderlinePosition known {
    /UnderlinePosition get /vg&uoffset exch def
  }
  {
    pop /vg&uoffset 0 def
  } ifelse
  dup /UnderlineThickness known {
    /UnderlineThickness get /vg&uthick exch def
  }
  {
    pop /vg&uthick 0 def
  } ifelse
}
{
  pop /vg&uoffset 0 def /vg&uthick 0 def
} ifelse
/FontMatrix get
currentfont dup /FontType get 0 eq
{/FontMatrix get matrix concatmatrix}{pop} ifelse
dup 0 vg&uoffset 3 -1 roll transform /vg&uoffset exch def pop
0 vg&uthick 3 -1 roll transform /vg&uthick exch def pop
} def

% Make a frame with the coordinates on the stack.
% <llx> <lly> <urx> <ury> frame --
/frame {4 copy m 3 1 roll exch l 4 -2 roll l l h} def

% Resets the accumulated bounding box to a degenerate box at the
% current point.
% -- resetbbox --
/resetbbox {
  currentpoint 2 copy
  /bbury exch def
  /bburx exch def
  /bblly exch def
  /bbllx exch def
} def

% Update the accumulated bounding box.
% <llx'> <lly'> <urx'> <ury'> updatebbox --
/updatebbox {
  dup bbury gt {/bbury exch def} {pop} ifelse
  dup bburx gt {/bburx exch def} {pop} ifelse
  dup bblly lt {/bblly exch def} {pop} ifelse
  dup bbllx lt {/bbllx exch def} {pop} ifelse
} def

% Set the bounding box to the values on the stack.
% <llx'> <lly'> <urx'> <ury'> updatebbox --
/restorebbox {
  /bbury exch def /bburx exch def /bblly exch def /bbllx exch def
} def

% Push the accumulated bounding box onto the stack.
% -- pushbbox <llx> <lly> <urx> <ury>
/pushbbox {bbllx bblly bburx bbury} def

% Make the relative bounding box relative to the currentpoint.
% <llx'> <lly'> <urx'> <ury'> inflate <llx> <lly> <urx> <ury>
/inflate {
  2 {fontsize 0.2 mul add 4 1 roll} repeat
  2 {fontsize 0.2 mul sub 4 1 roll} repeat
} def

% Make the relative bounding box relative to the currentpoint.
% <llx'> <lly'> <urx'> <ury'> relative <llx> <lly> <urx> <ury>
/relative {
  currentpoint 3 -1 roll add 3 1 roll add exch 4 2 roll
  currentpoint 3 -1 roll add 3 1 roll add exch 4 2 roll
} def

% Returns the size of a string appropriate for recshow.
% <string> stringsize <llx> <lly> <urx> <ury>
/stringsize {
  pushbbox /internalshow load /internalstroke load 7 -1 roll
  q
  nulldevice 0 0 m
  nullinternalshow nullinternalstroke
  resetbbox
  recshow
  /internalstroke exch def /internalshow exch def
  pushbbox 8 -4 roll restorebbox
  Q
} def

% Calculate values for string positioning.
/calcval {4 copy
  3 -1 roll sub /widy exch def sub neg /widx exch def
  pop pop /dy exch def /dx exch def} def

% Utilities to position a string.
% First letter (U=upper, C=center, B=baseline, L=lower)
% Second letter (L=left, C=center, R=right)
/align [
{calcval dx neg widy dy add neg rmoveto} % UL
{calcval dx neg widy 2 div dy add neg rmoveto} % CL
{calcval dx neg 0 rmoveto} % BL
{calcval dx neg dy neg rmoveto} % LL
{calcval widx dx add neg widy dy add neg rmoveto} % UR
{calcval widx dx add neg widy 2 div dy add neg rmoveto} % CR
{calcval widx dx add neg 0 rmoveto} % BR
{calcval widx dx add neg dy neg rmoveto} % LR
{calcval widx 2 div dx add neg widy dy add neg rmoveto} % UC
{calcval widx 2 div dx add neg widy 2 div dy add neg rmoveto} % CC
{calcval widx 2 div dx add neg 0 rmoveto} % BC
{calcval widx 2 div dx add neg dy neg rmoveto} % LC
] def

/vg&str {m q 1 -1 scale dup stringsize 4 copy align 11 -1 roll get exec
         q inflate relative frame exch exec Q recshow Q} def

end /procDict exch def
%%EndProlog

%%BeginSetup
save
procDict begin
printColorMap begin
595 791 setpagesize
20 20 20 20 setmargins
0 0 setorigin
453 118 setsize
fittopage
portrait
imagescale
cliptobounds
setbasematrix
/Helvetica 10 sf
defaultGraphicsState
%%EndSetup

0.00000 0.00000 0.00000 RG
[ 1.00000 0.00000 0.00000 1.00000 0.00000 0.00000 ] defaultmatrix matrix concatmatrix setmatrix
cliprestore
1.00000 1.00000 1.00000 RG
newpath
0.00000 0.00000 m
453.000 0.00000 l
453.000 118.000 l
0.00000 118.000 l
0.00000 0.00000 l
h
f
0.00000 0.00000 0.00000 RG
0.00000 0.00000 0.00000 RG
[ 1.00000 0.00000 0.00000 1.00000 0.00000 0.00000 ] defaultmatrix matrix concatmatrix setmatrix
cliprestore
1.00000 1.00000 1.00000 RG
newpath
0.00000 0.00000 m
453.000 0.00000 l
453.000 118.000 l
0.00000 118.000 l
0.00000 0.00000 l
h
f
0.00000 0.00000 0.00000 RG
1.00000 1.00000 1.00000 RG
newpath
0.00000 0.00000 m
453.000 0.00000 l
453.000 118.000 l
0.00000 118.000 l
0.00000 0.00000 l
h
f
cliprestore
0 0 453 118 rc
q
<< /PatternType 2
   /Shading
   << /ShadingType 2
      /ColorSpace /DeviceRGB
      /Coords [32.73994827270508 47.93143081665039 33.942012786865234 47.93143081665039]
      /Function
      << /FunctionType 2
         /Domain [0 1]
         /Range [0 1 0 1 0 1]
         /C0 [1.0 0.0 0.0]
         /C1 [0.0 0.0 0.0]
         /N 1
      >>
      /Extend [true true]
   >>
>>
matrix makepattern setpattern
newpath
25.4863 44.8261 m
25.1543 44.8261 24.8852 45.0951 24.8852 45.4271  c
24.8852 45.7591 25.1543 46.0281 25.4863 46.0281  c
41.1957 46.0281 l
41.5277 46.0281 41.7967 45.7591 41.7967 45.4271  c
41.7967 45.0951 41.5277 44.8261 41.1957 44.8261  c
h
25.4863 49.8347 m
25.1543 49.8347 24.8852 50.1037 24.8852 50.4358  c
24.8852 50.7678 25.1543 51.0368 25.4863 51.0368  c
41.1957 51.0368 l
41.5277 51.0368 41.7967 50.7678 41.7967 50.4358  c
41.7967 50.1037 41.5277 49.8347 41.1957 49.8347  c
h
f
Q
q
0.00000 0.00000 0.00000 RG
newpath
56.6199 30.2127 m
50.3328 41.1025 l
50.1668 41.3900 50.2653 41.7575 50.5528 41.9235  c
50.8403 42.0895 51.2078 41.9911 51.3738 41.7035  c
57.6610 30.8137 l
57.8270 30.5262 57.7285 30.1587 57.4410 29.9927  c
57.1534 29.8267 56.7859 29.9252 56.6199 30.2127  c
h
f
Q
q
0.00000 0.00000 0.00000 RG
newpath
50.3914 54.8614 m
56.6782 65.7498 l
56.8442 66.0373 57.2117 66.1357 57.4992 65.9697  c
57.7867 65.8037 57.8852 65.4362 57.7192 65.1487  c
51.4324 54.2604 l
51.2664 53.9729 50.8989 53.8744 50.6114 54.0404  c
50.3239 54.2064 50.2254 54.5739 50.3914 54.8614  c
h
f
Q
q
<< /PatternType 2
   /Shading
   << /ShadingType 2
      /ColorSpace /DeviceRGB
      /Coords [53.62868118286133 84.6897964477539 54.229705810546875 83.64877319335938]
      /Function
      << /FunctionType 2
         /Domain [0 1]
         /Range [0 1 0 1 0 1]
         /C0 [0.2 0.2 0.2]
         /C1 [0.0 0.0 0.0]
         /N 1
      >>
      /Extend [true true]
   >>
>>
matrix makepattern setpattern
newpath
51.2384 90.0319 m
57.6610 78.9077 l
57.8270 78.6201 57.7285 78.2526 57.4410 78.0866  c
57.1534 77.9206 56.7859 78.0191 56.6199 78.3066  c
50.1974 89.4309 l
50.0314 89.7184 50.1299 90.0859 50.4174 90.2519  c
50.7050 90.4179 51.0724 90.3195 51.2384 90.0319  c
h
f
Q
q
0.00000 0.00000 0.00000 RG
newpath
173.610 72.6793 m
173.942 72.6793 174.211 72.4103 174.211 72.0783  c
174.211 71.7463 173.942 71.4773 173.610 71.4773  c
157.619 71.4773 l
157.287 71.4773 157.018 71.7463 157.018 72.0783  c
157.018 72.4103 157.287 72.6793 157.619 72.6793  c
h
173.610 67.6707 m
173.942 67.6707 174.211 67.4017 174.211 67.0696  c
174.211 66.7376 173.942 66.4686 173.610 66.4686  c
157.619 66.4686 l
157.287 66.4686 157.018 66.7376 157.018 67.0696  c
157.018 67.4017 157.287 67.6707 157.619 67.6707  c
h
f
Q
q
0.00000 0.00000 0.00000 RG
newpath
141.154 52.4563 m
147.441 63.3461 l
147.607 63.6336 147.974 63.7321 148.262 63.5661  c
148.549 63.4001 148.648 63.0326 148.482 62.7450  c
142.195 51.8552 l
142.029 51.5677 141.661 51.4692 141.374 51.6352  c
141.086 51.8012 140.988 52.1687 141.154 52.4563  c
h
f
Q
q
<< /PatternType 2
   /Shading
   << /ShadingType 2
      /ColorSpace /DeviceRGB
      /Coords [123.5023193359375 45.52610397338867 124.70438385009766 45.52610397338867]
      /Function
      << /FunctionType 2
         /Domain [0 1]
         /Range [0 1 0 1 0 1]
         /C0 [1.0 0.0 0.0]
         /C1 [0.0 0.0 0.0]
         /N 1
      >>
      /Extend [true true]
   >>
>>
matrix makepattern setpattern
newpath
116.249 42.4207 m
115.917 42.4207 115.648 42.6898 115.648 43.0218  c
115.648 43.3538 115.917 43.6228 116.249 43.6228  c
131.958 43.6228 l
132.290 43.6228 132.559 43.3538 132.559 43.0218  c
132.559 42.6898 132.290 42.4207 131.958 42.4207  c
h
116.249 47.4294 m
115.917 47.4294 115.648 47.6984 115.648 48.0304  c
115.648 48.3624 115.917 48.6315 116.249 48.6315  c
131.958 48.6315 l
132.290 48.6315 132.559 48.3624 132.559 48.0304  c
132.559 47.6984 132.290 47.4294 131.958 47.4294  c
h
f
Q
q
0.00000 0.00000 0.00000 RG
newpath
320.696 64.0541 m
333.065 56.9104 l
333.353 56.7444 333.451 56.3768 333.285 56.0893  c
333.119 55.8018 332.752 55.7034 332.464 55.8695  c
320.095 63.0132 l
319.807 63.1793 319.709 63.5468 319.875 63.8343  c
320.041 64.1218 320.408 64.2202 320.696 64.0541  c
h
f
Q
q
0.00000 0.00000 0.00000 RG
newpath
344.166 56.9102 m
356.537 64.0544 l
356.825 64.2204 357.192 64.1220 357.358 63.8345  c
357.524 63.5470 357.426 63.1795 357.138 63.0134  c
344.767 55.8692 l
344.480 55.7032 344.112 55.8016 343.946 56.0891  c
343.780 56.3766 343.879 56.7442 344.166 56.9102  c
h
f
Q
q
<< /PatternType 2
   /Shading
   << /ShadingType 2
      /ColorSpace /DeviceRGB
      /Coords [314.56964111328125 81.45155334472656 314.56964111328125 80.2494888305664]
      /Function
      << /FunctionType 2
         /Domain [0 1]
         /Range [0 1 0 1 0 1]
         /C0 [1.0 0.0 0.0]
         /C1 [0.0 0.0 0.0]
         /N 1
      >>
      /Extend [true true]
   >>
>>
matrix makepattern setpattern
newpath
311.464 87.2308 m
311.464 87.5628 311.733 87.8318 312.065 87.8318  c
312.397 87.8318 312.666 87.5628 312.666 87.2308  c
312.666 74.4703 l
312.666 74.1383 312.397 73.8692 312.065 73.8692  c
311.733 73.8692 311.464 74.1383 311.464 74.4703  c
h
316.473 87.2308 m
316.473 87.5628 316.742 87.8318 317.074 87.8318  c
317.406 87.8318 317.675 87.5628 317.675 87.2308  c
317.675 74.4703 l
317.675 74.1383 317.406 73.8692 317.074 73.8692  c
316.742 73.8692 316.473 74.1383 316.473 74.4703  c
h
f
Q
q
0.00000 0.00000 0.00000 RG
newpath
296.072 56.9102 m
308.443 64.0544 l
308.731 64.2204 309.098 64.1220 309.264 63.8345  c
309.430 63.5470 309.332 63.1795 309.045 63.0134  c
296.673 55.8692 l
296.386 55.7032 296.018 55.8016 295.852 56.0891  c
295.686 56.3766 295.785 56.7442 296.072 56.9102  c
h
f
Q
q
0.00000 0.00000 0.00000 RG
newpath
380.560 55.8720 m
368.189 63.0142 l
367.901 63.1802 367.803 63.5477 367.969 63.8352  c
368.135 64.1227 368.502 64.2212 368.790 64.0552  c
381.161 56.9131 l
381.448 56.7471 381.547 56.3796 381.381 56.0920  c
381.215 55.8045 380.847 55.7060 380.560 55.8720  c
h
f
Q
q
<< /PatternType 2
   /Shading
   << /ShadingType 2
      /ColorSpace /DeviceRGB
      /Coords [386.7114562988281 38.47676086425781 386.7114562988281 39.67882537841797]
      /Function
      << /FunctionType 2
         /Domain [0 1]
         /Range [0 1 0 1 0 1]
         /C0 [0.2 0.2 0.2]
         /C1 [0.0 0.0 0.0]
         /N 1
      >>
      /Extend [true true]
   >>
>>
matrix makepattern setpattern
newpath
386.110 32.5727 m
386.110 45.5829 l
386.110 45.9149 386.379 46.1839 386.711 46.1839  c
387.043 46.1839 387.313 45.9149 387.313 45.5829  c
387.313 32.5727 l
387.313 32.2407 387.043 31.9717 386.711 31.9717  c
386.379 31.9717 386.110 32.2407 386.110 32.5727  c
h
f
Q
q
0.00000 0.00000 0.00000 RG
newpath
405.232 63.0140 m
392.863 55.8723 l
392.576 55.7063 392.208 55.8047 392.042 56.0922  c
391.876 56.3798 391.975 56.7473 392.262 56.9133  c
404.631 64.0550 l
404.919 64.2210 405.286 64.1225 405.452 63.8350  c
405.618 63.5475 405.520 63.1800 405.232 63.0140  c
h
f
Q
q
<< /PatternType 2
   /Shading
   << /ShadingType 2
      /ColorSpace /DeviceRGB
      /Coords [423.1666259765625 59.7338981628418 422.1256103515625 60.334922790527344]
      /Function
      << /FunctionType 2
         /Domain [0 1]
         /Range [0 1 0 1 0 1]
         /C0 [1.0 0.0 0.0]
         /C1 [0.0 0.0 0.0]
         /N 1
      >>
      /Extend [true true]
   >>
>>
matrix makepattern setpattern
newpath
430.072 59.3329 m
430.360 59.1669 430.458 58.7994 430.292 58.5119  c
430.126 58.2243 429.759 58.1259 429.471 58.2919  c
417.725 65.0736 l
417.437 65.2396 417.339 65.6071 417.505 65.8946  c
417.671 66.1821 418.038 66.2806 418.326 66.1146  c
h
427.568 54.9952 m
427.855 54.8292 427.954 54.4617 427.788 54.1742  c
427.622 53.8867 427.254 53.7882 426.967 53.9542  c
415.220 60.7359 l
414.933 60.9019 414.834 61.2694 415.000 61.5570  c
415.166 61.8445 415.534 61.9430 415.821 61.7770  c
h
f
Q
0.00000 0.00000 0.00000 RG
1.00000 1.00000 1.00000 RG
newpath
46.1486 42.9041 m
44.7410 42.9041 43.5998 44.0452 43.5998 45.4529  c
43.5998 50.5506 l
43.5998 51.9583 44.7410 53.0994 46.1486 53.0994  c
48.0197 53.0994 l
49.4274 53.0994 50.5686 51.9583 50.5686 50.5506  c
50.5686 45.4529 l
50.5686 44.0452 49.4274 42.9041 48.0197 42.9041  c
h
f
0.00000 0.00000 0.00000 RG
[ 1.00000 0.00000 0.00000 1.00000 43.5842 40.4314 ] concat
newpath
6.46875 9.23438 m
7.51562 9.50000 l
7.29688 10.3542 6.90365 11.0078 6.33594 11.4609  c
5.76823 11.9141 5.07292 12.1406 4.25000 12.1406  c
3.39583 12.1406 2.70312 11.9661 2.17188 11.6172  c
1.64062 11.2682 1.23698 10.7656 .960938 10.1094  c
.684896 9.45312 .546875 8.75000 .546875 8.00000  c
.546875 7.18750 .703125 6.47396 1.01562 5.85938  c
1.32812 5.24479 1.77344 4.77865 2.35156 4.46094  c
2.92969 4.14323 3.56771 3.98438 4.26562 3.98438  c
5.05729 3.98438 5.72135 4.18490 6.25781 4.58594  c
6.79427 4.98698 7.16667 5.55208 7.37500 6.28125  c
6.34375 6.53125 l
6.16667 5.95833 5.90365 5.54167 5.55469 5.28125  c
5.20573 5.02083 4.77083 4.89062 4.25000 4.89062  c
3.63542 4.89062 3.12500 5.03385 2.71875 5.32031  c
2.31250 5.60677 2.02865 5.99479 1.86719 6.48438  c
1.70573 6.97396 1.62500 7.47917 1.62500 8.00000  c
1.62500 8.66667 1.72135 9.25000 1.91406 9.75000  c
2.10677 10.2500 2.40885 10.6250 2.82031 10.8750  c
3.23177 11.1250 3.67708 11.2500 4.15625 11.2500  c
4.73958 11.2500 5.23438 11.0807 5.64062 10.7422  c
6.04688 10.4036 6.32292 9.90104 6.46875 9.23438  c
h
f
[ 1.00000 0.00000 0.00000 1.00000 0.00000 0.00000 ] defaultmatrix matrix concatmatrix setmatrix
[ 1.00000 0.00000 0.00000 1.00000 0.00000 0.00000 ] defaultmatrix matrix concatmatrix setmatrix
[ 1.00000 0.00000 0.00000 1.00000 41.7922 51.1055 ] concat
0.00000 0.00000 .607843 RG
newpath
2.98438 8.00000 m
2.28125 8.00000 l
2.28125 3.51562 l
2.11458 3.68229 1.89323 3.84635 1.61719 4.00781  c
1.34115 4.16927 1.09375 4.28646 .875000 4.35938  c
.875000 3.68750 l
1.27083 3.50000 1.61458 3.27604 1.90625 3.01562  c
2.19792 2.75521 2.40625 2.50000 2.53125 2.25000  c
2.98438 2.25000 l
2.98438 8.00000 l
h
f
[ 1.00000 0.00000 0.00000 1.00000 0.00000 0.00000 ] defaultmatrix matrix concatmatrix setmatrix
[ 1.00000 0.00000 0.00000 1.00000 0.00000 0.00000 ] defaultmatrix matrix concatmatrix setmatrix
0.00000 0.00000 0.00000 RG
0.00000 0.00000 .607843 RG
1.00000 1.00000 1.00000 RG
0.00000 0.00000 0.00000 RG
1.00000 1.00000 1.00000 RG
newpath
60.0325 18.8562 m
58.6248 18.8562 57.4836 19.9974 57.4836 21.4050  c
57.4836 26.5027 l
57.4836 27.9104 58.6248 29.0515 60.0325 29.0515  c
61.9036 29.0515 l
63.3112 29.0515 64.4524 27.9104 64.4524 26.5027  c
64.4524 21.4050 l
64.4524 19.9974 63.3112 18.8562 61.9036 18.8562  c
h
f
0.00000 0.00000 0.00000 RG
[ 1.00000 0.00000 0.00000 1.00000 57.4680 16.3836 ] concat
newpath
6.46875 9.23438 m
7.51562 9.50000 l
7.29688 10.3542 6.90365 11.0078 6.33594 11.4609  c
5.76823 11.9141 5.07292 12.1406 4.25000 12.1406  c
3.39583 12.1406 2.70312 11.9661 2.17188 11.6172  c
1.64062 11.2682 1.23698 10.7656 .960938 10.1094  c
.684896 9.45312 .546875 8.75000 .546875 8.00000  c
.546875 7.18750 .703125 6.47396 1.01562 5.85938  c
1.32812 5.24479 1.77344 4.77865 2.35156 4.46094  c
2.92969 4.14323 3.56771 3.98438 4.26562 3.98438  c
5.05729 3.98438 5.72135 4.18490 6.25781 4.58594  c
6.79427 4.98698 7.16667 5.55208 7.37500 6.28125  c
6.34375 6.53125 l
6.16667 5.95833 5.90365 5.54167 5.55469 5.28125  c
5.20573 5.02083 4.77083 4.89062 4.25000 4.89062  c
3.63542 4.89062 3.12500 5.03385 2.71875 5.32031  c
2.31250 5.60677 2.02865 5.99479 1.86719 6.48438  c
1.70573 6.97396 1.62500 7.47917 1.62500 8.00000  c
1.62500 8.66667 1.72135 9.25000 1.91406 9.75000  c
2.10677 10.2500 2.40885 10.6250 2.82031 10.8750  c
3.23177 11.1250 3.67708 11.2500 4.15625 11.2500  c
4.73958 11.2500 5.23438 11.0807 5.64062 10.7422  c
6.04688 10.4036 6.32292 9.90104 6.46875 9.23438  c
h
f
[ 1.00000 0.00000 0.00000 1.00000 0.00000 0.00000 ] defaultmatrix matrix concatmatrix setmatrix
[ 1.00000 0.00000 0.00000 1.00000 0.00000 0.00000 ] defaultmatrix matrix concatmatrix setmatrix
[ 1.00000 0.00000 0.00000 1.00000 62.7327 10.8501 ] concat
0.00000 0.00000 .607843 RG
newpath
4.03125 7.32812 m
4.03125 8.00000 l
.250000 8.00000 l
.239583 7.83333 .265625 7.67188 .328125 7.51562  c
.421875 7.25521 .575521 7.00000 .789062 6.75000  c
1.00260 6.50000 1.30729 6.20833 1.70312 5.87500  c
2.32812 5.36458 2.75000 4.96094 2.96875 4.66406  c
3.18750 4.36719 3.29688 4.08854 3.29688 3.82812  c
3.29688 3.54688 3.19792 3.30990 3.00000 3.11719  c
2.80208 2.92448 2.54167 2.82812 2.21875 2.82812  c
1.88542 2.82812 1.61719 2.92969 1.41406 3.13281  c
1.21094 3.33594 1.10417 3.61979 1.09375 3.98438  c
.375000 3.90625 l
.427083 3.36458 .614583 2.95312 .937500 2.67188  c
1.26042 2.39062 1.69271 2.25000 2.23438 2.25000  c
2.78646 2.25000 3.22135 2.40104 3.53906 2.70312  c
3.85677 3.00521 4.01562 3.38542 4.01562 3.84375  c
4.01562 4.07292 3.96875 4.29688 3.87500 4.51562  c
3.78125 4.73438 3.62760 4.96615 3.41406 5.21094  c
3.20052 5.45573 2.83854 5.79167 2.32812 6.21875  c
1.91146 6.57292 1.64323 6.81250 1.52344 6.93750  c
1.40365 7.06250 1.30208 7.19271 1.21875 7.32812  c
4.03125 7.32812 l
h
f
[ 1.00000 0.00000 0.00000 1.00000 0.00000 0.00000 ] defaultmatrix matrix concatmatrix setmatrix
[ 1.00000 0.00000 0.00000 1.00000 0.00000 0.00000 ] defaultmatrix matrix concatmatrix setmatrix
0.00000 0.00000 0.00000 RG
0.00000 0.00000 .607843 RG
1.00000 1.00000 1.00000 RG
0.00000 0.00000 0.00000 RG
1.00000 1.00000 1.00000 RG
newpath
60.0325 66.9502 m
58.6248 66.9502 57.4836 68.0913 57.4836 69.4990  c
57.4836 74.5966 l
57.4836 76.0043 58.6248 77.1455 60.0325 77.1455  c
61.9036 77.1455 l
63.3112 77.1455 64.4524 76.0043 64.4524 74.5966  c
64.4524 69.4990 l
64.4524 68.0913 63.3112 66.9502 61.9036 66.9502  c
h
f
0.00000 0.00000 0.00000 RG
[ 1.00000 0.00000 0.00000 1.00000 57.4680 64.4775 ] concat
newpath
6.46875 9.23438 m
7.51562 9.50000 l
7.29688 10.3542 6.90365 11.0078 6.33594 11.4609  c
5.76823 11.9141 5.07292 12.1406 4.25000 12.1406  c
3.39583 12.1406 2.70312 11.9661 2.17188 11.6172  c
1.64062 11.2682 1.23698 10.7656 .960938 10.1094  c
.684896 9.45312 .546875 8.75000 .546875 8.00000  c
.546875 7.18750 .703125 6.47396 1.01562 5.85938  c
1.32812 5.24479 1.77344 4.77865 2.35156 4.46094  c
2.92969 4.14323 3.56771 3.98438 4.26562 3.98438  c
5.05729 3.98438 5.72135 4.18490 6.25781 4.58594  c
6.79427 4.98698 7.16667 5.55208 7.37500 6.28125  c
6.34375 6.53125 l
6.16667 5.95833 5.90365 5.54167 5.55469 5.28125  c
5.20573 5.02083 4.77083 4.89062 4.25000 4.89062  c
3.63542 4.89062 3.12500 5.03385 2.71875 5.32031  c
2.31250 5.60677 2.02865 5.99479 1.86719 6.48438  c
1.70573 6.97396 1.62500 7.47917 1.62500 8.00000  c
1.62500 8.66667 1.72135 9.25000 1.91406 9.75000  c
2.10677 10.2500 2.40885 10.6250 2.82031 10.8750  c
3.23177 11.1250 3.67708 11.2500 4.15625 11.2500  c
4.73958 11.2500 5.23438 11.0807 5.64062 10.7422  c
6.04688 10.4036 6.32292 9.90104 6.46875 9.23438  c
h
f
[ 1.00000 0.00000 0.00000 1.00000 0.00000 0.00000 ] defaultmatrix matrix concatmatrix setmatrix
[ 1.00000 0.00000 0.00000 1.00000 0.00000 0.00000 ] defaultmatrix matrix concatmatrix setmatrix
[ 1.00000 0.00000 0.00000 1.00000 65.9568 67.0476 ] concat
0.00000 0.00000 .607843 RG
newpath
.343750 6.48438 m
1.04688 6.39062 l
1.11979 6.78646 1.25521 7.07292 1.45312 7.25000  c
1.65104 7.42708 1.88542 7.51562 2.15625 7.51562  c
2.48958 7.51562 2.77083 7.40104 3.00000 7.17188  c
3.22917 6.94271 3.34375 6.66146 3.34375 6.32812  c
3.34375 6.00521 3.23698 5.73698 3.02344 5.52344  c
2.80990 5.30990 2.54167 5.20312 2.21875 5.20312  c
2.08333 5.20312 1.91667 5.22917 1.71875 5.28125  c
1.79688 4.67188 l
1.84896 4.67188 1.89062 4.67188 1.92188 4.67188  c
2.21354 4.67188 2.47917 4.59375 2.71875 4.43750  c
2.95833 4.28125 3.07812 4.04167 3.07812 3.71875  c
3.07812 3.45833 2.99219 3.24479 2.82031 3.07812  c
2.64844 2.91146 2.42188 2.82812 2.14062 2.82812  c
1.86979 2.82812 1.64323 2.91406 1.46094 3.08594  c
1.27865 3.25781 1.16146 3.51562 1.10938 3.85938  c
.406250 3.73438 l
.489583 3.26562 .684896 2.90104 .992188 2.64062  c
1.29948 2.38021 1.67708 2.25000 2.12500 2.25000  c
2.43750 2.25000 2.72656 2.31771 2.99219 2.45312  c
3.25781 2.58854 3.46094 2.77083 3.60156 3.00000  c
3.74219 3.22917 3.81250 3.47396 3.81250 3.73438  c
3.81250 3.98438 3.74479 4.21094 3.60938 4.41406  c
3.47396 4.61719 3.27604 4.77604 3.01562 4.89062  c
3.35938 4.97396 3.62500 5.13802 3.81250 5.38281  c
4.00000 5.62760 4.09375 5.93750 4.09375 6.31250  c
4.09375 6.81250 3.91146 7.23698 3.54688 7.58594  c
3.18229 7.93490 2.71875 8.10938 2.15625 8.10938  c
1.65625 8.10938 1.23958 7.95833 .906250 7.65625  c
.572917 7.35417 .385417 6.96354 .343750 6.48438  c
h
f
[ 1.00000 0.00000 0.00000 1.00000 0.00000 0.00000 ] defaultmatrix matrix concatmatrix setmatrix
[ 1.00000 0.00000 0.00000 1.00000 0.00000 0.00000 ] defaultmatrix matrix concatmatrix setmatrix
0.00000 0.00000 0.00000 RG
0.00000 0.00000 .607843 RG
1.00000 1.00000 1.00000 RG
1.00000 0.00000 0.00000 RG
1.00000 1.00000 1.00000 RG
newpath
18.0997 42.9041 m
16.6921 42.9041 15.5509 44.0452 15.5509 45.4529  c
15.5509 50.5506 l
15.5509 51.9583 16.6921 53.0994 18.0997 53.0994  c
20.5333 53.0994 l
21.9410 53.0994 23.0822 51.9583 23.0822 50.5506  c
23.0822 45.4529 l
23.0822 44.0452 21.9410 42.9041 20.5333 42.9041  c
h
f
1.00000 0.00000 0.00000 RG
[ 1.00000 0.00000 0.00000 1.00000 15.3165 40.4314 ] concat
newpath
.531250 8.17188 m
.531250 6.85938 .882812 5.83333 1.58594 5.09375  c
2.28906 4.35417 3.19271 3.98438 4.29688 3.98438  c
5.02604 3.98438 5.68229 4.15885 6.26562 4.50781  c
6.84896 4.85677 7.29427 5.34115 7.60156 5.96094  c
7.90885 6.58073 8.06250 7.28646 8.06250 8.07812  c
8.06250 8.86979 7.90104 9.58073 7.57812 10.2109  c
7.25521 10.8411 6.79948 11.3203 6.21094 11.6484  c
5.62240 11.9766 4.98438 12.1406 4.29688 12.1406  c
3.55729 12.1406 2.89583 11.9609 2.31250 11.6016  c
1.72917 11.2422 1.28646 10.7526 .984375 10.1328  c
.682292 9.51302 .531250 8.85938 .531250 8.17188  c
h
1.60938 8.18750 m
1.60938 9.13542 1.86458 9.88281 2.37500 10.4297  c
2.88542 10.9766 3.52604 11.2500 4.29688 11.2500  c
5.07812 11.2500 5.72135 10.9740 6.22656 10.4219  c
6.73177 9.86979 6.98438 9.08333 6.98438 8.06250  c
6.98438 7.42708 6.87760 6.86979 6.66406 6.39062  c
6.45052 5.91146 6.13542 5.54167 5.71875 5.28125  c
5.30208 5.02083 4.83333 4.89062 4.31250 4.89062  c
3.57292 4.89062 2.93750 5.14323 2.40625 5.64844  c
1.87500 6.15365 1.60938 7.00000 1.60938 8.18750  c
h
f
[ 1.00000 0.00000 0.00000 1.00000 0.00000 0.00000 ] defaultmatrix matrix concatmatrix setmatrix
[ 1.00000 0.00000 0.00000 1.00000 0.00000 0.00000 ] defaultmatrix matrix concatmatrix setmatrix
[ 1.00000 0.00000 0.00000 1.00000 10.2535 43.0017 ] concat
0.00000 0.00000 .607843 RG
newpath
2.59375 8.00000 m
2.59375 6.62500 l
.109375 6.62500 l
.109375 5.98438 l
2.71875 2.26562 l
3.29688 2.26562 l
3.29688 5.98438 l
4.06250 5.98438 l
4.06250 6.62500 l
3.29688 6.62500 l
3.29688 8.00000 l
2.59375 8.00000 l
h
2.59375 5.98438 m
2.59375 3.40625 l
.796875 5.98438 l
2.59375 5.98438 l
h
f
[ 1.00000 0.00000 0.00000 1.00000 0.00000 0.00000 ] defaultmatrix matrix concatmatrix setmatrix
[ 1.00000 0.00000 0.00000 1.00000 0.00000 0.00000 ] defaultmatrix matrix concatmatrix setmatrix
1.00000 0.00000 0.00000 RG
0.00000 0.00000 .607843 RG
1.00000 1.00000 1.00000 RG
.200000 .200000 .200000 RG
1.00000 1.00000 1.00000 RG
newpath
46.4514 91.1035 m
45.0922 91.1035 43.9904 92.2053 43.9904 93.5644  c
43.9904 98.4863 l
43.9904 99.8454 45.0922 100.947 46.4514 100.947  c
47.7170 100.947 l
49.0761 100.947 50.1779 99.8454 50.1779 98.4863  c
50.1779 93.5644 l
50.1779 92.2053 49.0761 91.1035 47.7170 91.1035  c
h
f
.200000 .200000 .200000 RG
[ 1.00000 0.00000 0.00000 1.00000 43.5842 88.5254 ] concat
newpath
.875000 12.0000 m
.875000 4.12500 l
1.92188 4.12500 l
1.92188 7.35938 l
6.01562 7.35938 l
6.01562 4.12500 l
7.06250 4.12500 l
7.06250 12.0000 l
6.01562 12.0000 l
6.01562 8.28125 l
1.92188 8.28125 l
1.92188 12.0000 l
.875000 12.0000 l
h
f
[ 1.00000 0.00000 0.00000 1.00000 0.00000 0.00000 ] defaultmatrix matrix concatmatrix setmatrix
[ 1.00000 0.00000 0.00000 1.00000 0.00000 0.00000 ] defaultmatrix matrix concatmatrix setmatrix
[ 1.00000 0.00000 0.00000 1.00000 41.5062 98.7671 ] concat
0.00000 0.00000 .607843 RG
newpath
.328125 6.50000 m
1.07812 6.43750 l
1.13021 6.79167 1.25521 7.05990 1.45312 7.24219  c
1.65104 7.42448 1.89062 7.51562 2.17188 7.51562  c
2.51562 7.51562 2.80469 7.38802 3.03906 7.13281  c
3.27344 6.87760 3.39062 6.54167 3.39062 6.12500  c
3.39062 5.71875 3.27604 5.40104 3.04688 5.17188  c
2.81771 4.94271 2.52083 4.82812 2.15625 4.82812  c
1.93750 4.82812 1.73698 4.87760 1.55469 4.97656  c
1.37240 5.07552 1.22917 5.20833 1.12500 5.37500  c
.453125 5.29688 l
1.01562 2.34375 l
3.85938 2.34375 l
3.85938 3.01562 l
1.57812 3.01562 l
1.26562 4.56250 l
1.60938 4.32292 1.96875 4.20312 2.34375 4.20312  c
2.84375 4.20312 3.26562 4.37500 3.60938 4.71875  c
3.95312 5.06250 4.12500 5.51042 4.12500 6.06250  c
4.12500 6.57292 3.97396 7.02083 3.67188 7.40625  c
3.30729 7.86458 2.80729 8.09375 2.17188 8.09375  c
1.65104 8.09375 1.22656 7.94792 .898438 7.65625  c
.570312 7.36458 .380208 6.97917 .328125 6.50000  c
h
f
[ 1.00000 0.00000 0.00000 1.00000 0.00000 0.00000 ] defaultmatrix matrix concatmatrix setmatrix
[ 1.00000 0.00000 0.00000 1.00000 0.00000 0.00000 ] defaultmatrix matrix concatmatrix setmatrix
.200000 .200000 .200000 RG
0.00000 0.00000 .607843 RG
1.00000 1.00000 1.00000 RG
0.00000 0.00000 0.00000 RG
1.00000 1.00000 1.00000 RG
newpath
150.795 64.5466 m
149.387 64.5466 148.246 65.6878 148.246 67.0955  c
148.246 72.1931 l
148.246 73.6008 149.387 74.7419 150.795 74.7419  c
152.666 74.7419 l
154.074 74.7419 155.215 73.6008 155.215 72.1931  c
155.215 67.0955 l
155.215 65.6878 154.074 64.5466 152.666 64.5466  c
h
f
0.00000 0.00000 0.00000 RG
[ 1.00000 0.00000 0.00000 1.00000 148.230 62.0740 ] concat
newpath
6.46875 9.23438 m
7.51562 9.50000 l
7.29688 10.3542 6.90365 11.0078 6.33594 11.4609  c
5.76823 11.9141 5.07292 12.1406 4.25000 12.1406  c
3.39583 12.1406 2.70312 11.9661 2.17188 11.6172  c
1.64062 11.2682 1.23698 10.7656 .960938 10.1094  c
.684896 9.45312 .546875 8.75000 .546875 8.00000  c
.546875 7.18750 .703125 6.47396 1.01562 5.85938  c
1.32812 5.24479 1.77344 4.77865 2.35156 4.46094  c
2.92969 4.14323 3.56771 3.98438 4.26562 3.98438  c
5.05729 3.98438 5.72135 4.18490 6.25781 4.58594  c
6.79427 4.98698 7.16667 5.55208 7.37500 6.28125  c
6.34375 6.53125 l
6.16667 5.95833 5.90365 5.54167 5.55469 5.28125  c
5.20573 5.02083 4.77083 4.89062 4.25000 4.89062  c
3.63542 4.89062 3.12500 5.03385 2.71875 5.32031  c
2.31250 5.60677 2.02865 5.99479 1.86719 6.48438  c
1.70573 6.97396 1.62500 7.47917 1.62500 8.00000  c
1.62500 8.66667 1.72135 9.25000 1.91406 9.75000  c
2.10677 10.2500 2.40885 10.6250 2.82031 10.8750  c
3.23177 11.1250 3.67708 11.2500 4.15625 11.2500  c
4.73958 11.2500 5.23438 11.0807 5.64062 10.7422  c
6.04688 10.4036 6.32292 9.90104 6.46875 9.23438  c
h
f
[ 1.00000 0.00000 0.00000 1.00000 0.00000 0.00000 ] defaultmatrix matrix concatmatrix setmatrix
[ 1.00000 0.00000 0.00000 1.00000 0.00000 0.00000 ] defaultmatrix matrix concatmatrix setmatrix
[ 1.00000 0.00000 0.00000 1.00000 145.970 72.7674 ] concat
0.00000 0.00000 .607843 RG
newpath
3.98438 3.67188 m
3.28125 3.73438 l
3.21875 3.45312 3.13021 3.25000 3.01562 3.12500  c
2.82812 2.92708 2.59375 2.82812 2.31250 2.82812  c
2.09375 2.82812 1.89583 2.89062 1.71875 3.01562  c
1.50000 3.17188 1.32812 3.40625 1.20312 3.71875  c
1.07812 4.03125 1.01042 4.47396 1.00000 5.04688  c
1.16667 4.78646 1.37240 4.59375 1.61719 4.46875  c
1.86198 4.34375 2.11979 4.28125 2.39062 4.28125  c
2.85938 4.28125 3.25781 4.45312 3.58594 4.79688  c
3.91406 5.14062 4.07812 5.58854 4.07812 6.14062  c
4.07812 6.49479 4.00260 6.82812 3.85156 7.14062  c
3.70052 7.45312 3.48958 7.69010 3.21875 7.85156  c
2.94792 8.01302 2.64062 8.09375 2.29688 8.09375  c
1.70312 8.09375 1.22135 7.87760 .851562 7.44531  c
.481771 7.01302 .296875 6.30208 .296875 5.31250  c
.296875 4.20833 .505208 3.40625 .921875 2.90625  c
1.27604 2.46875 1.75521 2.25000 2.35938 2.25000  c
2.80729 2.25000 3.17448 2.37500 3.46094 2.62500  c
3.74740 2.87500 3.92188 3.22396 3.98438 3.67188  c
h
1.10938 6.14062 m
1.10938 6.38021 1.16146 6.61198 1.26562 6.83594  c
1.36979 7.05990 1.51302 7.22917 1.69531 7.34375  c
1.87760 7.45833 2.07292 7.51562 2.28125 7.51562  c
2.57292 7.51562 2.82552 7.39583 3.03906 7.15625  c
3.25260 6.91667 3.35938 6.59375 3.35938 6.18750  c
3.35938 5.79167 3.25521 5.47917 3.04688 5.25000  c
2.83854 5.02083 2.57292 4.90625 2.25000 4.90625  c
1.93750 4.90625 1.66927 5.02083 1.44531 5.25000  c
1.22135 5.47917 1.10938 5.77604 1.10938 6.14062  c
h
f
[ 1.00000 0.00000 0.00000 1.00000 0.00000 0.00000 ] defaultmatrix matrix concatmatrix setmatrix
[ 1.00000 0.00000 0.00000 1.00000 0.00000 0.00000 ] defaultmatrix matrix concatmatrix setmatrix
0.00000 0.00000 0.00000 RG
0.00000 0.00000 .607843 RG
1.00000 1.00000 1.00000 RG
0.00000 0.00000 0.00000 RG
1.00000 1.00000 1.00000 RG
newpath
178.562 64.5466 m
177.155 64.5466 176.014 65.6878 176.014 67.0955  c
176.014 72.1931 l
176.014 73.6008 177.155 74.7419 178.562 74.7419  c
180.434 74.7419 l
181.841 74.7419 182.982 73.6008 182.982 72.1931  c
182.982 67.0955 l
182.982 65.6878 181.841 64.5466 180.434 64.5466  c
h
f
0.00000 0.00000 0.00000 RG
[ 1.00000 0.00000 0.00000 1.00000 175.998 62.0740 ] concat
newpath
6.46875 9.23438 m
7.51562 9.50000 l
7.29688 10.3542 6.90365 11.0078 6.33594 11.4609  c
5.76823 11.9141 5.07292 12.1406 4.25000 12.1406  c
3.39583 12.1406 2.70312 11.9661 2.17188 11.6172  c
1.64062 11.2682 1.23698 10.7656 .960938 10.1094  c
.684896 9.45312 .546875 8.75000 .546875 8.00000  c
.546875 7.18750 .703125 6.47396 1.01562 5.85938  c
1.32812 5.24479 1.77344 4.77865 2.35156 4.46094  c
2.92969 4.14323 3.56771 3.98438 4.26562 3.98438  c
5.05729 3.98438 5.72135 4.18490 6.25781 4.58594  c
6.79427 4.98698 7.16667 5.55208 7.37500 6.28125  c
6.34375 6.53125 l
6.16667 5.95833 5.90365 5.54167 5.55469 5.28125  c
5.20573 5.02083 4.77083 4.89062 4.25000 4.89062  c
3.63542 4.89062 3.12500 5.03385 2.71875 5.32031  c
2.31250 5.60677 2.02865 5.99479 1.86719 6.48438  c
1.70573 6.97396 1.62500 7.47917 1.62500 8.00000  c
1.62500 8.66667 1.72135 9.25000 1.91406 9.75000  c
2.10677 10.2500 2.40885 10.6250 2.82031 10.8750  c
3.23177 11.1250 3.67708 11.2500 4.15625 11.2500  c
4.73958 11.2500 5.23438 11.0807 5.64062 10.7422  c
6.04688 10.4036 6.32292 9.90104 6.46875 9.23438  c
h
f
[ 1.00000 0.00000 0.00000 1.00000 0.00000 0.00000 ] defaultmatrix matrix concatmatrix setmatrix
[ 1.00000 0.00000 0.00000 1.00000 0.00000 0.00000 ] defaultmatrix matrix concatmatrix setmatrix
[ 1.00000 0.00000 0.00000 1.00000 184.354 64.6443 ] concat
0.00000 0.00000 .607843 RG
newpath
.375000 3.01562 m
.375000 2.34375 l
4.09375 2.34375 l
4.09375 2.89062 l
3.72917 3.27604 3.36719 3.79167 3.00781 4.43750  c
2.64844 5.08333 2.36979 5.74479 2.17188 6.42188  c
2.03646 6.90104 1.94792 7.42708 1.90625 8.00000  c
1.18750 8.00000 l
1.18750 7.55208 1.27344 7.00781 1.44531 6.36719  c
1.61719 5.72656 1.86198 5.10938 2.17969 4.51562  c
2.49740 3.92188 2.83333 3.42188 3.18750 3.01562  c
.375000 3.01562 l
h
f
[ 1.00000 0.00000 0.00000 1.00000 0.00000 0.00000 ] defaultmatrix matrix concatmatrix setmatrix
[ 1.00000 0.00000 0.00000 1.00000 0.00000 0.00000 ] defaultmatrix matrix concatmatrix setmatrix
0.00000 0.00000 0.00000 RG
0.00000 0.00000 .607843 RG
1.00000 1.00000 1.00000 RG
0.00000 0.00000 0.00000 RG
1.00000 1.00000 1.00000 RG
newpath
136.911 40.4988 m
135.503 40.4988 134.362 41.6399 134.362 43.0476  c
134.362 48.1452 l
134.362 49.5529 135.503 50.6941 136.911 50.6941  c
138.782 50.6941 l
140.190 50.6941 141.331 49.5529 141.331 48.1452  c
141.331 43.0476 l
141.331 41.6399 140.190 40.4988 138.782 40.4988  c
h
f
0.00000 0.00000 0.00000 RG
[ 1.00000 0.00000 0.00000 1.00000 134.347 38.0261 ] concat
newpath
6.46875 9.23438 m
7.51562 9.50000 l
7.29688 10.3542 6.90365 11.0078 6.33594 11.4609  c
5.76823 11.9141 5.07292 12.1406 4.25000 12.1406  c
3.39583 12.1406 2.70312 11.9661 2.17188 11.6172  c
1.64062 11.2682 1.23698 10.7656 .960938 10.1094  c
.684896 9.45312 .546875 8.75000 .546875 8.00000  c
.546875 7.18750 .703125 6.47396 1.01562 5.85938  c
1.32812 5.24479 1.77344 4.77865 2.35156 4.46094  c
2.92969 4.14323 3.56771 3.98438 4.26562 3.98438  c
5.05729 3.98438 5.72135 4.18490 6.25781 4.58594  c
6.79427 4.98698 7.16667 5.55208 7.37500 6.28125  c
6.34375 6.53125 l
6.16667 5.95833 5.90365 5.54167 5.55469 5.28125  c
5.20573 5.02083 4.77083 4.89062 4.25000 4.89062  c
3.63542 4.89062 3.12500 5.03385 2.71875 5.32031  c
2.31250 5.60677 2.02865 5.99479 1.86719 6.48438  c
1.70573 6.97396 1.62500 7.47917 1.62500 8.00000  c
1.62500 8.66667 1.72135 9.25000 1.91406 9.75000  c
2.10677 10.2500 2.40885 10.6250 2.82031 10.8750  c
3.23177 11.1250 3.67708 11.2500 4.15625 11.2500  c
4.73958 11.2500 5.23438 11.0807 5.64062 10.7422  c
6.04688 10.4036 6.32292 9.90104 6.46875 9.23438  c
h
f
[ 1.00000 0.00000 0.00000 1.00000 0.00000 0.00000 ] defaultmatrix matrix concatmatrix setmatrix
[ 1.00000 0.00000 0.00000 1.00000 0.00000 0.00000 ] defaultmatrix matrix concatmatrix setmatrix
[ 1.00000 0.00000 0.00000 1.00000 139.607 32.4733 ] concat
0.00000 0.00000 .607843 RG
newpath
1.42188 4.89062 m
1.13021 4.78646 .914062 4.63542 .773438 4.43750  c
.632812 4.23958 .562500 4.00000 .562500 3.71875  c
.562500 3.30208 .710938 2.95312 1.00781 2.67188  c
1.30469 2.39062 1.70312 2.25000 2.20312 2.25000  c
2.70312 2.25000 3.10417 2.39583 3.40625 2.68750  c
3.70833 2.97917 3.85938 3.33333 3.85938 3.75000  c
3.85938 4.01042 3.79167 4.23958 3.65625 4.43750  c
3.52083 4.63542 3.30729 4.78646 3.01562 4.89062  c
3.36979 5.00521 3.63802 5.19010 3.82031 5.44531  c
4.00260 5.70052 4.09375 6.00521 4.09375 6.35938  c
4.09375 6.84896 3.92188 7.26042 3.57812 7.59375  c
3.23438 7.92708 2.78125 8.09375 2.21875 8.09375  c
1.64583 8.09375 1.18750 7.92708 .843750 7.59375  c
.500000 7.26042 .328125 6.84375 .328125 6.34375  c
.328125 5.96875 .421875 5.65625 .609375 5.40625  c
.796875 5.15625 1.06771 4.98438 1.42188 4.89062  c
h
1.28125 3.70312 m
1.28125 3.97396 1.36719 4.19531 1.53906 4.36719  c
1.71094 4.53906 1.93750 4.62500 2.21875 4.62500  c
2.48958 4.62500 2.71094 4.53906 2.88281 4.36719  c
3.05469 4.19531 3.14062 3.98438 3.14062 3.73438  c
3.14062 3.48438 3.05208 3.27083 2.87500 3.09375  c
2.69792 2.91667 2.47396 2.82812 2.20312 2.82812  c
1.94271 2.82812 1.72396 2.91406 1.54688 3.08594  c
1.36979 3.25781 1.28125 3.46354 1.28125 3.70312  c
h
1.04688 6.34375 m
1.04688 6.54167 1.09375 6.73438 1.18750 6.92188  c
1.28125 7.10938 1.42188 7.25521 1.60938 7.35938  c
1.79688 7.46354 2.00000 7.51562 2.21875 7.51562  c
2.55208 7.51562 2.82812 7.40885 3.04688 7.19531  c
3.26562 6.98177 3.37500 6.70833 3.37500 6.37500  c
3.37500 6.03125 3.26302 5.75000 3.03906 5.53125  c
2.81510 5.31250 2.53646 5.20312 2.20312 5.20312  c
1.86979 5.20312 1.59375 5.31250 1.37500 5.53125  c
1.15625 5.75000 1.04688 6.02083 1.04688 6.34375  c
h
f
[ 1.00000 0.00000 0.00000 1.00000 0.00000 0.00000 ] defaultmatrix matrix concatmatrix setmatrix
[ 1.00000 0.00000 0.00000 1.00000 0.00000 0.00000 ] defaultmatrix matrix concatmatrix setmatrix
0.00000 0.00000 0.00000 RG
0.00000 0.00000 .607843 RG
1.00000 1.00000 1.00000 RG
1.00000 0.00000 0.00000 RG
1.00000 1.00000 1.00000 RG
newpath
108.862 40.4988 m
107.454 40.4988 106.313 41.6399 106.313 43.0476  c
106.313 48.1452 l
106.313 49.5529 107.454 50.6941 108.862 50.6941  c
111.296 50.6941 l
112.703 50.6941 113.845 49.5529 113.845 48.1452  c
113.845 43.0476 l
113.845 41.6399 112.703 40.4988 111.296 40.4988  c
h
f
1.00000 0.00000 0.00000 RG
[ 1.00000 0.00000 0.00000 1.00000 106.079 38.0261 ] concat
newpath
.531250 8.17188 m
.531250 6.85938 .882812 5.83333 1.58594 5.09375  c
2.28906 4.35417 3.19271 3.98438 4.29688 3.98438  c
5.02604 3.98438 5.68229 4.15885 6.26562 4.50781  c
6.84896 4.85677 7.29427 5.34115 7.60156 5.96094  c
7.90885 6.58073 8.06250 7.28646 8.06250 8.07812  c
8.06250 8.86979 7.90104 9.58073 7.57812 10.2109  c
7.25521 10.8411 6.79948 11.3203 6.21094 11.6484  c
5.62240 11.9766 4.98438 12.1406 4.29688 12.1406  c
3.55729 12.1406 2.89583 11.9609 2.31250 11.6016  c
1.72917 11.2422 1.28646 10.7526 .984375 10.1328  c
.682292 9.51302 .531250 8.85938 .531250 8.17188  c
h
1.60938 8.18750 m
1.60938 9.13542 1.86458 9.88281 2.37500 10.4297  c
2.88542 10.9766 3.52604 11.2500 4.29688 11.2500  c
5.07812 11.2500 5.72135 10.9740 6.22656 10.4219  c
6.73177 9.86979 6.98438 9.08333 6.98438 8.06250  c
6.98438 7.42708 6.87760 6.86979 6.66406 6.39062  c
6.45052 5.91146 6.13542 5.54167 5.71875 5.28125  c
5.30208 5.02083 4.83333 4.89062 4.31250 4.89062  c
3.57292 4.89062 2.93750 5.14323 2.40625 5.64844  c
1.87500 6.15365 1.60938 7.00000 1.60938 8.18750  c
h
f
[ 1.00000 0.00000 0.00000 1.00000 0.00000 0.00000 ] defaultmatrix matrix concatmatrix setmatrix
[ 1.00000 0.00000 0.00000 1.00000 0.00000 0.00000 ] defaultmatrix matrix concatmatrix setmatrix
[ 1.00000 0.00000 0.00000 1.00000 101.082 40.5964 ] concat
0.00000 0.00000 .607843 RG
newpath
.437500 6.67188 m
1.10938 6.60938 l
1.17188 6.93229 1.28385 7.16406 1.44531 7.30469  c
1.60677 7.44531 1.81250 7.51562 2.06250 7.51562  c
2.28125 7.51562 2.47135 7.46615 2.63281 7.36719  c
2.79427 7.26823 2.92708 7.13542 3.03125 6.96875  c
3.13542 6.80208 3.22396 6.57812 3.29688 6.29688  c
3.36979 6.01562 3.40625 5.72917 3.40625 5.43750  c
3.40625 5.40625 3.40104 5.35938 3.39062 5.29688  c
3.25521 5.52604 3.06510 5.71094 2.82031 5.85156  c
2.57552 5.99219 2.31250 6.06250 2.03125 6.06250  c
1.55208 6.06250 1.14844 5.89062 .820312 5.54688  c
.492188 5.20312 .328125 4.75000 .328125 4.18750  c
.328125 3.60417 .500000 3.13542 .843750 2.78125  c
1.18750 2.42708 1.61979 2.25000 2.14062 2.25000  c
2.50521 2.25000 2.84375 2.34896 3.15625 2.54688  c
3.46875 2.74479 3.70312 3.03125 3.85938 3.40625  c
4.01562 3.78125 4.09375 4.31771 4.09375 5.01562  c
4.09375 5.74479 4.01562 6.32812 3.85938 6.76562  c
3.70312 7.20312 3.46875 7.53385 3.15625 7.75781  c
2.84375 7.98177 2.47396 8.09375 2.04688 8.09375  c
1.59896 8.09375 1.23438 7.96875 .953125 7.71875  c
.671875 7.46875 .500000 7.11979 .437500 6.67188  c
h
3.31250 4.14062 m
3.31250 3.74479 3.20573 3.42708 2.99219 3.18750  c
2.77865 2.94792 2.52083 2.82812 2.21875 2.82812  c
1.90625 2.82812 1.63542 2.95573 1.40625 3.21094  c
1.17708 3.46615 1.06250 3.79688 1.06250 4.20312  c
1.06250 4.56771 1.17188 4.86458 1.39062 5.09375  c
1.60938 5.32292 1.88021 5.43750 2.20312 5.43750  c
2.52604 5.43750 2.79167 5.32292 3.00000 5.09375  c
3.20833 4.86458 3.31250 4.54688 3.31250 4.14062  c
h
f
[ 1.00000 0.00000 0.00000 1.00000 0.00000 0.00000 ] defaultmatrix matrix concatmatrix setmatrix
[ 1.00000 0.00000 0.00000 1.00000 0.00000 0.00000 ] defaultmatrix matrix concatmatrix setmatrix
1.00000 0.00000 0.00000 RG
0.00000 0.00000 .607843 RG
1.00000 1.00000 1.00000 RG
0.00000 0.00000 0.00000 RG
1.00000 1.00000 1.00000 RG
newpath
337.680 47.9834 m
336.272 47.9834 335.131 49.1246 335.131 50.5322  c
335.131 55.6299 l
335.131 57.0376 336.272 58.1787 337.680 58.1787  c
339.551 58.1787 l
340.959 58.1787 342.100 57.0376 342.100 55.6299  c
342.100 50.5322 l
342.100 49.1246 340.959 47.9834 339.551 47.9834  c
h
f
0.00000 0.00000 0.00000 RG
[ 1.00000 0.00000 0.00000 1.00000 335.116 45.5107 ] concat
newpath
6.46875 9.23438 m
7.51562 9.50000 l
7.29688 10.3542 6.90365 11.0078 6.33594 11.4609  c
5.76823 11.9141 5.07292 12.1406 4.25000 12.1406  c
3.39583 12.1406 2.70312 11.9661 2.17188 11.6172  c
1.64062 11.2682 1.23698 10.7656 .960938 10.1094  c
.684896 9.45312 .546875 8.75000 .546875 8.00000  c
.546875 7.18750 .703125 6.47396 1.01562 5.85938  c
1.32812 5.24479 1.77344 4.77865 2.35156 4.46094  c
2.92969 4.14323 3.56771 3.98438 4.26562 3.98438  c
5.05729 3.98438 5.72135 4.18490 6.25781 4.58594  c
6.79427 4.98698 7.16667 5.55208 7.37500 6.28125  c
6.34375 6.53125 l
6.16667 5.95833 5.90365 5.54167 5.55469 5.28125  c
5.20573 5.02083 4.77083 4.89062 4.25000 4.89062  c
3.63542 4.89062 3.12500 5.03385 2.71875 5.32031  c
2.31250 5.60677 2.02865 5.99479 1.86719 6.48438  c
1.70573 6.97396 1.62500 7.47917 1.62500 8.00000  c
1.62500 8.66667 1.72135 9.25000 1.91406 9.75000  c
2.10677 10.2500 2.40885 10.6250 2.82031 10.8750  c
3.23177 11.1250 3.67708 11.2500 4.15625 11.2500  c
4.73958 11.2500 5.23438 11.0807 5.64062 10.7422  c
6.04688 10.4036 6.32292 9.90104 6.46875 9.23438  c
h
f
[ 1.00000 0.00000 0.00000 1.00000 0.00000 0.00000 ] defaultmatrix matrix concatmatrix setmatrix
[ 1.00000 0.00000 0.00000 1.00000 0.00000 0.00000 ] defaultmatrix matrix concatmatrix setmatrix
[ 1.00000 0.00000 0.00000 1.00000 336.616 41.9638 ] concat
0.00000 0.00000 .607843 RG
newpath
.343750 6.48438 m
1.04688 6.39062 l
1.11979 6.78646 1.25521 7.07292 1.45312 7.25000  c
1.65104 7.42708 1.88542 7.51562 2.15625 7.51562  c
2.48958 7.51562 2.77083 7.40104 3.00000 7.17188  c
3.22917 6.94271 3.34375 6.66146 3.34375 6.32812  c
3.34375 6.00521 3.23698 5.73698 3.02344 5.52344  c
2.80990 5.30990 2.54167 5.20312 2.21875 5.20312  c
2.08333 5.20312 1.91667 5.22917 1.71875 5.28125  c
1.79688 4.67188 l
1.84896 4.67188 1.89062 4.67188 1.92188 4.67188  c
2.21354 4.67188 2.47917 4.59375 2.71875 4.43750  c
2.95833 4.28125 3.07812 4.04167 3.07812 3.71875  c
3.07812 3.45833 2.99219 3.24479 2.82031 3.07812  c
2.64844 2.91146 2.42188 2.82812 2.14062 2.82812  c
1.86979 2.82812 1.64323 2.91406 1.46094 3.08594  c
1.27865 3.25781 1.16146 3.51562 1.10938 3.85938  c
.406250 3.73438 l
.489583 3.26562 .684896 2.90104 .992188 2.64062  c
1.29948 2.38021 1.67708 2.25000 2.12500 2.25000  c
2.43750 2.25000 2.72656 2.31771 2.99219 2.45312  c
3.25781 2.58854 3.46094 2.77083 3.60156 3.00000  c
3.74219 3.22917 3.81250 3.47396 3.81250 3.73438  c
3.81250 3.98438 3.74479 4.21094 3.60938 4.41406  c
3.47396 4.61719 3.27604 4.77604 3.01562 4.89062  c
3.35938 4.97396 3.62500 5.13802 3.81250 5.38281  c
4.00000 5.62760 4.09375 5.93750 4.09375 6.31250  c
4.09375 6.81250 3.91146 7.23698 3.54688 7.58594  c
3.18229 7.93490 2.71875 8.10938 2.15625 8.10938  c
1.65625 8.10938 1.23958 7.95833 .906250 7.65625  c
.572917 7.35417 .385417 6.96354 .343750 6.48438  c
h
f
[ 1.00000 0.00000 0.00000 1.00000 0.00000 0.00000 ] defaultmatrix matrix concatmatrix setmatrix
[ 1.00000 0.00000 0.00000 1.00000 0.00000 0.00000 ] defaultmatrix matrix concatmatrix setmatrix
0.00000 0.00000 0.00000 RG
0.00000 0.00000 .607843 RG
1.00000 1.00000 1.00000 RG
0.00000 0.00000 0.00000 RG
1.00000 1.00000 1.00000 RG
newpath
313.634 61.8708 m
312.226 61.8708 311.085 63.0120 311.085 64.4197  c
311.085 69.5173 l
311.085 70.9250 312.226 72.0662 313.634 72.0662  c
315.505 72.0662 l
316.913 72.0662 318.054 70.9250 318.054 69.5173  c
318.054 64.4197 l
318.054 63.0120 316.913 61.8708 315.505 61.8708  c
h
f
0.00000 0.00000 0.00000 RG
[ 1.00000 0.00000 0.00000 1.00000 311.070 59.3982 ] concat
newpath
6.46875 9.23438 m
7.51562 9.50000 l
7.29688 10.3542 6.90365 11.0078 6.33594 11.4609  c
5.76823 11.9141 5.07292 12.1406 4.25000 12.1406  c
3.39583 12.1406 2.70312 11.9661 2.17188 11.6172  c
1.64062 11.2682 1.23698 10.7656 .960938 10.1094  c
.684896 9.45312 .546875 8.75000 .546875 8.00000  c
.546875 7.18750 .703125 6.47396 1.01562 5.85938  c
1.32812 5.24479 1.77344 4.77865 2.35156 4.46094  c
2.92969 4.14323 3.56771 3.98438 4.26562 3.98438  c
5.05729 3.98438 5.72135 4.18490 6.25781 4.58594  c
6.79427 4.98698 7.16667 5.55208 7.37500 6.28125  c
6.34375 6.53125 l
6.16667 5.95833 5.90365 5.54167 5.55469 5.28125  c
5.20573 5.02083 4.77083 4.89062 4.25000 4.89062  c
3.63542 4.89062 3.12500 5.03385 2.71875 5.32031  c
2.31250 5.60677 2.02865 5.99479 1.86719 6.48438  c
1.70573 6.97396 1.62500 7.47917 1.62500 8.00000  c
1.62500 8.66667 1.72135 9.25000 1.91406 9.75000  c
2.10677 10.2500 2.40885 10.6250 2.82031 10.8750  c
3.23177 11.1250 3.67708 11.2500 4.15625 11.2500  c
4.73958 11.2500 5.23438 11.0807 5.64062 10.7422  c
6.04688 10.4036 6.32292 9.90104 6.46875 9.23438  c
h
f
[ 1.00000 0.00000 0.00000 1.00000 0.00000 0.00000 ] defaultmatrix matrix concatmatrix setmatrix
[ 1.00000 0.00000 0.00000 1.00000 0.00000 0.00000 ] defaultmatrix matrix concatmatrix setmatrix
[ 1.00000 0.00000 0.00000 1.00000 317.800 67.8241 ] concat
0.00000 0.00000 .607843 RG
newpath
2.98438 8.00000 m
2.28125 8.00000 l
2.28125 3.51562 l
2.11458 3.68229 1.89323 3.84635 1.61719 4.00781  c
1.34115 4.16927 1.09375 4.28646 .875000 4.35938  c
.875000 3.68750 l
1.27083 3.50000 1.61458 3.27604 1.90625 3.01562  c
2.19792 2.75521 2.40625 2.50000 2.53125 2.25000  c
2.98438 2.25000 l
2.98438 8.00000 l
h
f
[ 1.00000 0.00000 0.00000 1.00000 0.00000 0.00000 ] defaultmatrix matrix concatmatrix setmatrix
[ 1.00000 0.00000 0.00000 1.00000 0.00000 0.00000 ] defaultmatrix matrix concatmatrix setmatrix
0.00000 0.00000 0.00000 RG
0.00000 0.00000 .607843 RG
1.00000 1.00000 1.00000 RG
0.00000 0.00000 0.00000 RG
1.00000 1.00000 1.00000 RG
newpath
289.586 47.9834 m
288.179 47.9834 287.037 49.1246 287.037 50.5322  c
287.037 55.6299 l
287.037 57.0376 288.179 58.1787 289.586 58.1787  c
291.457 58.1787 l
292.865 58.1787 294.006 57.0376 294.006 55.6299  c
294.006 50.5322 l
294.006 49.1246 292.865 47.9834 291.457 47.9834  c
h
f
0.00000 0.00000 0.00000 RG
[ 1.00000 0.00000 0.00000 1.00000 287.022 45.5107 ] concat
newpath
6.46875 9.23438 m
7.51562 9.50000 l
7.29688 10.3542 6.90365 11.0078 6.33594 11.4609  c
5.76823 11.9141 5.07292 12.1406 4.25000 12.1406  c
3.39583 12.1406 2.70312 11.9661 2.17188 11.6172  c
1.64062 11.2682 1.23698 10.7656 .960938 10.1094  c
.684896 9.45312 .546875 8.75000 .546875 8.00000  c
.546875 7.18750 .703125 6.47396 1.01562 5.85938  c
1.32812 5.24479 1.77344 4.77865 2.35156 4.46094  c
2.92969 4.14323 3.56771 3.98438 4.26562 3.98438  c
5.05729 3.98438 5.72135 4.18490 6.25781 4.58594  c
6.79427 4.98698 7.16667 5.55208 7.37500 6.28125  c
6.34375 6.53125 l
6.16667 5.95833 5.90365 5.54167 5.55469 5.28125  c
5.20573 5.02083 4.77083 4.89062 4.25000 4.89062  c
3.63542 4.89062 3.12500 5.03385 2.71875 5.32031  c
2.31250 5.60677 2.02865 5.99479 1.86719 6.48438  c
1.70573 6.97396 1.62500 7.47917 1.62500 8.00000  c
1.62500 8.66667 1.72135 9.25000 1.91406 9.75000  c
2.10677 10.2500 2.40885 10.6250 2.82031 10.8750  c
3.23177 11.1250 3.67708 11.2500 4.15625 11.2500  c
4.73958 11.2500 5.23438 11.0807 5.64062 10.7422  c
6.04688 10.4036 6.32292 9.90104 6.46875 9.23438  c
h
f
[ 1.00000 0.00000 0.00000 1.00000 0.00000 0.00000 ] defaultmatrix matrix concatmatrix setmatrix
[ 1.00000 0.00000 0.00000 1.00000 0.00000 0.00000 ] defaultmatrix matrix concatmatrix setmatrix
[ 1.00000 0.00000 0.00000 1.00000 282.473 42.2236 ] concat
0.00000 0.00000 .607843 RG
newpath
4.03125 7.32812 m
4.03125 8.00000 l
.250000 8.00000 l
.239583 7.83333 .265625 7.67188 .328125 7.51562  c
.421875 7.25521 .575521 7.00000 .789062 6.75000  c
1.00260 6.50000 1.30729 6.20833 1.70312 5.87500  c
2.32812 5.36458 2.75000 4.96094 2.96875 4.66406  c
3.18750 4.36719 3.29688 4.08854 3.29688 3.82812  c
3.29688 3.54688 3.19792 3.30990 3.00000 3.11719  c
2.80208 2.92448 2.54167 2.82812 2.21875 2.82812  c
1.88542 2.82812 1.61719 2.92969 1.41406 3.13281  c
1.21094 3.33594 1.10417 3.61979 1.09375 3.98438  c
.375000 3.90625 l
.427083 3.36458 .614583 2.95312 .937500 2.67188  c
1.26042 2.39062 1.69271 2.25000 2.23438 2.25000  c
2.78646 2.25000 3.22135 2.40104 3.53906 2.70312  c
3.85677 3.00521 4.01562 3.38542 4.01562 3.84375  c
4.01562 4.07292 3.96875 4.29688 3.87500 4.51562  c
3.78125 4.73438 3.62760 4.96615 3.41406 5.21094  c
3.20052 5.45573 2.83854 5.79167 2.32812 6.21875  c
1.91146 6.57292 1.64323 6.81250 1.52344 6.93750  c
1.40365 7.06250 1.30208 7.19271 1.21875 7.32812  c
4.03125 7.32812 l
h
f
[ 1.00000 0.00000 0.00000 1.00000 0.00000 0.00000 ] defaultmatrix matrix concatmatrix setmatrix
[ 1.00000 0.00000 0.00000 1.00000 0.00000 0.00000 ] defaultmatrix matrix concatmatrix setmatrix
0.00000 0.00000 0.00000 RG
0.00000 0.00000 .607843 RG
1.00000 1.00000 1.00000 RG
0.00000 0.00000 0.00000 RG
1.00000 1.00000 1.00000 RG
newpath
361.728 61.8708 m
360.320 61.8708 359.179 63.0120 359.179 64.4197  c
359.179 69.5173 l
359.179 70.9250 360.320 72.0662 361.728 72.0662  c
363.599 72.0662 l
365.007 72.0662 366.148 70.9250 366.148 69.5173  c
366.148 64.4197 l
366.148 63.0120 365.007 61.8708 363.599 61.8708  c
h
f
0.00000 0.00000 0.00000 RG
[ 1.00000 0.00000 0.00000 1.00000 359.164 59.3982 ] concat
newpath
6.46875 9.23438 m
7.51562 9.50000 l
7.29688 10.3542 6.90365 11.0078 6.33594 11.4609  c
5.76823 11.9141 5.07292 12.1406 4.25000 12.1406  c
3.39583 12.1406 2.70312 11.9661 2.17188 11.6172  c
1.64062 11.2682 1.23698 10.7656 .960938 10.1094  c
.684896 9.45312 .546875 8.75000 .546875 8.00000  c
.546875 7.18750 .703125 6.47396 1.01562 5.85938  c
1.32812 5.24479 1.77344 4.77865 2.35156 4.46094  c
2.92969 4.14323 3.56771 3.98438 4.26562 3.98438  c
5.05729 3.98438 5.72135 4.18490 6.25781 4.58594  c
6.79427 4.98698 7.16667 5.55208 7.37500 6.28125  c
6.34375 6.53125 l
6.16667 5.95833 5.90365 5.54167 5.55469 5.28125  c
5.20573 5.02083 4.77083 4.89062 4.25000 4.89062  c
3.63542 4.89062 3.12500 5.03385 2.71875 5.32031  c
2.31250 5.60677 2.02865 5.99479 1.86719 6.48438  c
1.70573 6.97396 1.62500 7.47917 1.62500 8.00000  c
1.62500 8.66667 1.72135 9.25000 1.91406 9.75000  c
2.10677 10.2500 2.40885 10.6250 2.82031 10.8750  c
3.23177 11.1250 3.67708 11.2500 4.15625 11.2500  c
4.73958 11.2500 5.23438 11.0807 5.64062 10.7422  c
6.04688 10.4036 6.32292 9.90104 6.46875 9.23438  c
h
f
[ 1.00000 0.00000 0.00000 1.00000 0.00000 0.00000 ] defaultmatrix matrix concatmatrix setmatrix
[ 1.00000 0.00000 0.00000 1.00000 0.00000 0.00000 ] defaultmatrix matrix concatmatrix setmatrix
[ 1.00000 0.00000 0.00000 1.00000 360.663 68.0861 ] concat
0.00000 0.00000 .607843 RG
newpath
.375000 3.01562 m
.375000 2.34375 l
4.09375 2.34375 l
4.09375 2.89062 l
3.72917 3.27604 3.36719 3.79167 3.00781 4.43750  c
2.64844 5.08333 2.36979 5.74479 2.17188 6.42188  c
2.03646 6.90104 1.94792 7.42708 1.90625 8.00000  c
1.18750 8.00000 l
1.18750 7.55208 1.27344 7.00781 1.44531 6.36719  c
1.61719 5.72656 1.86198 5.10938 2.17969 4.51562  c
2.49740 3.92188 2.83333 3.42188 3.18750 3.01562  c
.375000 3.01562 l
h
f
[ 1.00000 0.00000 0.00000 1.00000 0.00000 0.00000 ] defaultmatrix matrix concatmatrix setmatrix
[ 1.00000 0.00000 0.00000 1.00000 0.00000 0.00000 ] defaultmatrix matrix concatmatrix setmatrix
0.00000 0.00000 0.00000 RG
0.00000 0.00000 .607843 RG
1.00000 1.00000 1.00000 RG
0.00000 0.00000 0.00000 RG
1.00000 1.00000 1.00000 RG
newpath
385.776 47.9870 m
384.368 47.9870 383.227 49.1282 383.227 50.5358  c
383.227 55.6335 l
383.227 57.0412 384.368 58.1823 385.776 58.1823  c
387.647 58.1823 l
389.055 58.1823 390.196 57.0412 390.196 55.6335  c
390.196 50.5358 l
390.196 49.1282 389.055 47.9870 387.647 47.9870  c
h
f
0.00000 0.00000 0.00000 RG
[ 1.00000 0.00000 0.00000 1.00000 383.211 45.5144 ] concat
newpath
6.46875 9.23438 m
7.51562 9.50000 l
7.29688 10.3542 6.90365 11.0078 6.33594 11.4609  c
5.76823 11.9141 5.07292 12.1406 4.25000 12.1406  c
3.39583 12.1406 2.70312 11.9661 2.17188 11.6172  c
1.64062 11.2682 1.23698 10.7656 .960938 10.1094  c
.684896 9.45312 .546875 8.75000 .546875 8.00000  c
.546875 7.18750 .703125 6.47396 1.01562 5.85938  c
1.32812 5.24479 1.77344 4.77865 2.35156 4.46094  c
2.92969 4.14323 3.56771 3.98438 4.26562 3.98438  c
5.05729 3.98438 5.72135 4.18490 6.25781 4.58594  c
6.79427 4.98698 7.16667 5.55208 7.37500 6.28125  c
6.34375 6.53125 l
6.16667 5.95833 5.90365 5.54167 5.55469 5.28125  c
5.20573 5.02083 4.77083 4.89062 4.25000 4.89062  c
3.63542 4.89062 3.12500 5.03385 2.71875 5.32031  c
2.31250 5.60677 2.02865 5.99479 1.86719 6.48438  c
1.70573 6.97396 1.62500 7.47917 1.62500 8.00000  c
1.62500 8.66667 1.72135 9.25000 1.91406 9.75000  c
2.10677 10.2500 2.40885 10.6250 2.82031 10.8750  c
3.23177 11.1250 3.67708 11.2500 4.15625 11.2500  c
4.73958 11.2500 5.23438 11.0807 5.64062 10.7422  c
6.04688 10.4036 6.32292 9.90104 6.46875 9.23438  c
h
f
[ 1.00000 0.00000 0.00000 1.00000 0.00000 0.00000 ] defaultmatrix matrix concatmatrix setmatrix
[ 1.00000 0.00000 0.00000 1.00000 0.00000 0.00000 ] defaultmatrix matrix concatmatrix setmatrix
[ 1.00000 0.00000 0.00000 1.00000 390.778 42.1954 ] concat
0.00000 0.00000 .607843 RG
newpath
3.98438 3.67188 m
3.28125 3.73438 l
3.21875 3.45312 3.13021 3.25000 3.01562 3.12500  c
2.82812 2.92708 2.59375 2.82812 2.31250 2.82812  c
2.09375 2.82812 1.89583 2.89062 1.71875 3.01562  c
1.50000 3.17188 1.32812 3.40625 1.20312 3.71875  c
1.07812 4.03125 1.01042 4.47396 1.00000 5.04688  c
1.16667 4.78646 1.37240 4.59375 1.61719 4.46875  c
1.86198 4.34375 2.11979 4.28125 2.39062 4.28125  c
2.85938 4.28125 3.25781 4.45312 3.58594 4.79688  c
3.91406 5.14062 4.07812 5.58854 4.07812 6.14062  c
4.07812 6.49479 4.00260 6.82812 3.85156 7.14062  c
3.70052 7.45312 3.48958 7.69010 3.21875 7.85156  c
2.94792 8.01302 2.64062 8.09375 2.29688 8.09375  c
1.70312 8.09375 1.22135 7.87760 .851562 7.44531  c
.481771 7.01302 .296875 6.30208 .296875 5.31250  c
.296875 4.20833 .505208 3.40625 .921875 2.90625  c
1.27604 2.46875 1.75521 2.25000 2.35938 2.25000  c
2.80729 2.25000 3.17448 2.37500 3.46094 2.62500  c
3.74740 2.87500 3.92188 3.22396 3.98438 3.67188  c
h
1.10938 6.14062 m
1.10938 6.38021 1.16146 6.61198 1.26562 6.83594  c
1.36979 7.05990 1.51302 7.22917 1.69531 7.34375  c
1.87760 7.45833 2.07292 7.51562 2.28125 7.51562  c
2.57292 7.51562 2.82552 7.39583 3.03906 7.15625  c
3.25260 6.91667 3.35938 6.59375 3.35938 6.18750  c
3.35938 5.79167 3.25521 5.47917 3.04688 5.25000  c
2.83854 5.02083 2.57292 4.90625 2.25000 4.90625  c
1.93750 4.90625 1.66927 5.02083 1.44531 5.25000  c
1.22135 5.47917 1.10938 5.77604 1.10938 6.14062  c
h
f
[ 1.00000 0.00000 0.00000 1.00000 0.00000 0.00000 ] defaultmatrix matrix concatmatrix setmatrix
[ 1.00000 0.00000 0.00000 1.00000 0.00000 0.00000 ] defaultmatrix matrix concatmatrix setmatrix
0.00000 0.00000 0.00000 RG
0.00000 0.00000 .607843 RG
1.00000 1.00000 1.00000 RG
0.00000 0.00000 0.00000 RG
1.00000 1.00000 1.00000 RG
newpath
409.822 61.8708 m
408.414 61.8708 407.273 63.0120 407.273 64.4197  c
407.273 69.5173 l
407.273 70.9250 408.414 72.0662 409.822 72.0662  c
411.693 72.0662 l
413.101 72.0662 414.242 70.9250 414.242 69.5173  c
414.242 64.4197 l
414.242 63.0120 413.101 61.8708 411.693 61.8708  c
h
f
0.00000 0.00000 0.00000 RG
[ 1.00000 0.00000 0.00000 1.00000 407.258 59.3982 ] concat
newpath
6.46875 9.23438 m
7.51562 9.50000 l
7.29688 10.3542 6.90365 11.0078 6.33594 11.4609  c
5.76823 11.9141 5.07292 12.1406 4.25000 12.1406  c
3.39583 12.1406 2.70312 11.9661 2.17188 11.6172  c
1.64062 11.2682 1.23698 10.7656 .960938 10.1094  c
.684896 9.45312 .546875 8.75000 .546875 8.00000  c
.546875 7.18750 .703125 6.47396 1.01562 5.85938  c
1.32812 5.24479 1.77344 4.77865 2.35156 4.46094  c
2.92969 4.14323 3.56771 3.98438 4.26562 3.98438  c
5.05729 3.98438 5.72135 4.18490 6.25781 4.58594  c
6.79427 4.98698 7.16667 5.55208 7.37500 6.28125  c
6.34375 6.53125 l
6.16667 5.95833 5.90365 5.54167 5.55469 5.28125  c
5.20573 5.02083 4.77083 4.89062 4.25000 4.89062  c
3.63542 4.89062 3.12500 5.03385 2.71875 5.32031  c
2.31250 5.60677 2.02865 5.99479 1.86719 6.48438  c
1.70573 6.97396 1.62500 7.47917 1.62500 8.00000  c
1.62500 8.66667 1.72135 9.25000 1.91406 9.75000  c
2.10677 10.2500 2.40885 10.6250 2.82031 10.8750  c
3.23177 11.1250 3.67708 11.2500 4.15625 11.2500  c
4.73958 11.2500 5.23438 11.0807 5.64062 10.7422  c
6.04688 10.4036 6.32292 9.90104 6.46875 9.23438  c
h
f
[ 1.00000 0.00000 0.00000 1.00000 0.00000 0.00000 ] defaultmatrix matrix concatmatrix setmatrix
[ 1.00000 0.00000 0.00000 1.00000 0.00000 0.00000 ] defaultmatrix matrix concatmatrix setmatrix
[ 1.00000 0.00000 0.00000 1.00000 408.757 68.0858 ] concat
0.00000 0.00000 .607843 RG
newpath
1.42188 4.89062 m
1.13021 4.78646 .914062 4.63542 .773438 4.43750  c
.632812 4.23958 .562500 4.00000 .562500 3.71875  c
.562500 3.30208 .710938 2.95312 1.00781 2.67188  c
1.30469 2.39062 1.70312 2.25000 2.20312 2.25000  c
2.70312 2.25000 3.10417 2.39583 3.40625 2.68750  c
3.70833 2.97917 3.85938 3.33333 3.85938 3.75000  c
3.85938 4.01042 3.79167 4.23958 3.65625 4.43750  c
3.52083 4.63542 3.30729 4.78646 3.01562 4.89062  c
3.36979 5.00521 3.63802 5.19010 3.82031 5.44531  c
4.00260 5.70052 4.09375 6.00521 4.09375 6.35938  c
4.09375 6.84896 3.92188 7.26042 3.57812 7.59375  c
3.23438 7.92708 2.78125 8.09375 2.21875 8.09375  c
1.64583 8.09375 1.18750 7.92708 .843750 7.59375  c
.500000 7.26042 .328125 6.84375 .328125 6.34375  c
.328125 5.96875 .421875 5.65625 .609375 5.40625  c
.796875 5.15625 1.06771 4.98438 1.42188 4.89062  c
h
1.28125 3.70312 m
1.28125 3.97396 1.36719 4.19531 1.53906 4.36719  c
1.71094 4.53906 1.93750 4.62500 2.21875 4.62500  c
2.48958 4.62500 2.71094 4.53906 2.88281 4.36719  c
3.05469 4.19531 3.14062 3.98438 3.14062 3.73438  c
3.14062 3.48438 3.05208 3.27083 2.87500 3.09375  c
2.69792 2.91667 2.47396 2.82812 2.20312 2.82812  c
1.94271 2.82812 1.72396 2.91406 1.54688 3.08594  c
1.36979 3.25781 1.28125 3.46354 1.28125 3.70312  c
h
1.04688 6.34375 m
1.04688 6.54167 1.09375 6.73438 1.18750 6.92188  c
1.28125 7.10938 1.42188 7.25521 1.60938 7.35938  c
1.79688 7.46354 2.00000 7.51562 2.21875 7.51562  c
2.55208 7.51562 2.82812 7.40885 3.04688 7.19531  c
3.26562 6.98177 3.37500 6.70833 3.37500 6.37500  c
3.37500 6.03125 3.26302 5.75000 3.03906 5.53125  c
2.81510 5.31250 2.53646 5.20312 2.20312 5.20312  c
1.86979 5.20312 1.59375 5.31250 1.37500 5.53125  c
1.15625 5.75000 1.04688 6.02083 1.04688 6.34375  c
h
f
[ 1.00000 0.00000 0.00000 1.00000 0.00000 0.00000 ] defaultmatrix matrix concatmatrix setmatrix
[ 1.00000 0.00000 0.00000 1.00000 0.00000 0.00000 ] defaultmatrix matrix concatmatrix setmatrix
0.00000 0.00000 0.00000 RG
0.00000 0.00000 .607843 RG
1.00000 1.00000 1.00000 RG
.200000 .200000 .200000 RG
1.00000 1.00000 1.00000 RG
newpath
386.079 20.3248 m
384.720 20.3248 383.618 21.4266 383.618 22.7858  c
383.618 27.7076 l
383.618 29.0668 384.720 30.1686 386.079 30.1686  c
387.344 30.1686 l
388.703 30.1686 389.805 29.0668 389.805 27.7076  c
389.805 22.7858 l
389.805 21.4266 388.703 20.3248 387.344 20.3248  c
h
f
.200000 .200000 .200000 RG
[ 1.00000 0.00000 0.00000 1.00000 383.211 17.7467 ] concat
newpath
.875000 12.0000 m
.875000 4.12500 l
1.92188 4.12500 l
1.92188 7.35938 l
6.01562 7.35938 l
6.01562 4.12500 l
7.06250 4.12500 l
7.06250 12.0000 l
6.01562 12.0000 l
6.01562 8.28125 l
1.92188 8.28125 l
1.92188 12.0000 l
.875000 12.0000 l
h
f
[ 1.00000 0.00000 0.00000 1.00000 0.00000 0.00000 ] defaultmatrix matrix concatmatrix setmatrix
[ 1.00000 0.00000 0.00000 1.00000 0.00000 0.00000 ] defaultmatrix matrix concatmatrix setmatrix
[ 1.00000 0.00000 0.00000 1.00000 384.711 14.3404 ] concat
0.00000 0.00000 .607843 RG
newpath
.328125 6.50000 m
1.07812 6.43750 l
1.13021 6.79167 1.25521 7.05990 1.45312 7.24219  c
1.65104 7.42448 1.89062 7.51562 2.17188 7.51562  c
2.51562 7.51562 2.80469 7.38802 3.03906 7.13281  c
3.27344 6.87760 3.39062 6.54167 3.39062 6.12500  c
3.39062 5.71875 3.27604 5.40104 3.04688 5.17188  c
2.81771 4.94271 2.52083 4.82812 2.15625 4.82812  c
1.93750 4.82812 1.73698 4.87760 1.55469 4.97656  c
1.37240 5.07552 1.22917 5.20833 1.12500 5.37500  c
.453125 5.29688 l
1.01562 2.34375 l
3.85938 2.34375 l
3.85938 3.01562 l
1.57812 3.01562 l
1.26562 4.56250 l
1.60938 4.32292 1.96875 4.20312 2.34375 4.20312  c
2.84375 4.20312 3.26562 4.37500 3.60938 4.71875  c
3.95312 5.06250 4.12500 5.51042 4.12500 6.06250  c
4.12500 6.57292 3.97396 7.02083 3.67188 7.40625  c
3.30729 7.86458 2.80729 8.09375 2.17188 8.09375  c
1.65104 8.09375 1.22656 7.94792 .898438 7.65625  c
.570312 7.36458 .380208 6.97917 .328125 6.50000  c
h
f
[ 1.00000 0.00000 0.00000 1.00000 0.00000 0.00000 ] defaultmatrix matrix concatmatrix setmatrix
[ 1.00000 0.00000 0.00000 1.00000 0.00000 0.00000 ] defaultmatrix matrix concatmatrix setmatrix
.200000 .200000 .200000 RG
0.00000 0.00000 .607843 RG
1.00000 1.00000 1.00000 RG
1.00000 0.00000 0.00000 RG
1.00000 1.00000 1.00000 RG
newpath
433.589 47.9870 m
432.181 47.9870 431.040 49.1282 431.040 50.5358  c
431.040 55.6335 l
431.040 57.0412 432.181 58.1823 433.589 58.1823  c
436.022 58.1823 l
437.430 58.1823 438.571 57.0412 438.571 55.6335  c
438.571 50.5358 l
438.571 49.1282 437.430 47.9870 436.022 47.9870  c
h
f
1.00000 0.00000 0.00000 RG
[ 1.00000 0.00000 0.00000 1.00000 430.805 45.5144 ] concat
newpath
.531250 8.17188 m
.531250 6.85938 .882812 5.83333 1.58594 5.09375  c
2.28906 4.35417 3.19271 3.98438 4.29688 3.98438  c
5.02604 3.98438 5.68229 4.15885 6.26562 4.50781  c
6.84896 4.85677 7.29427 5.34115 7.60156 5.96094  c
7.90885 6.58073 8.06250 7.28646 8.06250 8.07812  c
8.06250 8.86979 7.90104 9.58073 7.57812 10.2109  c
7.25521 10.8411 6.79948 11.3203 6.21094 11.6484  c
5.62240 11.9766 4.98438 12.1406 4.29688 12.1406  c
3.55729 12.1406 2.89583 11.9609 2.31250 11.6016  c
1.72917 11.2422 1.28646 10.7526 .984375 10.1328  c
.682292 9.51302 .531250 8.85938 .531250 8.17188  c
h
1.60938 8.18750 m
1.60938 9.13542 1.86458 9.88281 2.37500 10.4297  c
2.88542 10.9766 3.52604 11.2500 4.29688 11.2500  c
5.07812 11.2500 5.72135 10.9740 6.22656 10.4219  c
6.73177 9.86979 6.98438 9.08333 6.98438 8.06250  c
6.98438 7.42708 6.87760 6.86979 6.66406 6.39062  c
6.45052 5.91146 6.13542 5.54167 5.71875 5.28125  c
5.30208 5.02083 4.83333 4.89062 4.31250 4.89062  c
3.57292 4.89062 2.93750 5.14323 2.40625 5.64844  c
1.87500 6.15365 1.60938 7.00000 1.60938 8.18750  c
h
f
[ 1.00000 0.00000 0.00000 1.00000 0.00000 0.00000 ] defaultmatrix matrix concatmatrix setmatrix
[ 1.00000 0.00000 0.00000 1.00000 0.00000 0.00000 ] defaultmatrix matrix concatmatrix setmatrix
[ 1.00000 0.00000 0.00000 1.00000 438.865 42.1954 ] concat
0.00000 0.00000 .607843 RG
newpath
.437500 6.67188 m
1.10938 6.60938 l
1.17188 6.93229 1.28385 7.16406 1.44531 7.30469  c
1.60677 7.44531 1.81250 7.51562 2.06250 7.51562  c
2.28125 7.51562 2.47135 7.46615 2.63281 7.36719  c
2.79427 7.26823 2.92708 7.13542 3.03125 6.96875  c
3.13542 6.80208 3.22396 6.57812 3.29688 6.29688  c
3.36979 6.01562 3.40625 5.72917 3.40625 5.43750  c
3.40625 5.40625 3.40104 5.35938 3.39062 5.29688  c
3.25521 5.52604 3.06510 5.71094 2.82031 5.85156  c
2.57552 5.99219 2.31250 6.06250 2.03125 6.06250  c
1.55208 6.06250 1.14844 5.89062 .820312 5.54688  c
.492188 5.20312 .328125 4.75000 .328125 4.18750  c
.328125 3.60417 .500000 3.13542 .843750 2.78125  c
1.18750 2.42708 1.61979 2.25000 2.14062 2.25000  c
2.50521 2.25000 2.84375 2.34896 3.15625 2.54688  c
3.46875 2.74479 3.70312 3.03125 3.85938 3.40625  c
4.01562 3.78125 4.09375 4.31771 4.09375 5.01562  c
4.09375 5.74479 4.01562 6.32812 3.85938 6.76562  c
3.70312 7.20312 3.46875 7.53385 3.15625 7.75781  c
2.84375 7.98177 2.47396 8.09375 2.04688 8.09375  c
1.59896 8.09375 1.23438 7.96875 .953125 7.71875  c
.671875 7.46875 .500000 7.11979 .437500 6.67188  c
h
3.31250 4.14062 m
3.31250 3.74479 3.20573 3.42708 2.99219 3.18750  c
2.77865 2.94792 2.52083 2.82812 2.21875 2.82812  c
1.90625 2.82812 1.63542 2.95573 1.40625 3.21094  c
1.17708 3.46615 1.06250 3.79688 1.06250 4.20312  c
1.06250 4.56771 1.17188 4.86458 1.39062 5.09375  c
1.60938 5.32292 1.88021 5.43750 2.20312 5.43750  c
2.52604 5.43750 2.79167 5.32292 3.00000 5.09375  c
3.20833 4.86458 3.31250 4.54688 3.31250 4.14062  c
h
f
[ 1.00000 0.00000 0.00000 1.00000 0.00000 0.00000 ] defaultmatrix matrix concatmatrix setmatrix
[ 1.00000 0.00000 0.00000 1.00000 0.00000 0.00000 ] defaultmatrix matrix concatmatrix setmatrix
1.00000 0.00000 0.00000 RG
0.00000 0.00000 .607843 RG
1.00000 1.00000 1.00000 RG
1.00000 0.00000 0.00000 RG
1.00000 1.00000 1.00000 RG
newpath
313.353 89.6349 m
311.945 89.6349 310.804 90.7760 310.804 92.1837  c
310.804 97.2814 l
310.804 98.6891 311.945 99.8302 313.353 99.8302  c
315.786 99.8302 l
317.194 99.8302 318.335 98.6891 318.335 97.2814  c
318.335 92.1837 l
318.335 90.7760 317.194 89.6349 315.786 89.6349  c
h
f
1.00000 0.00000 0.00000 RG
[ 1.00000 0.00000 0.00000 1.00000 310.570 87.1622 ] concat
newpath
.531250 8.17188 m
.531250 6.85938 .882812 5.83333 1.58594 5.09375  c
2.28906 4.35417 3.19271 3.98438 4.29688 3.98438  c
5.02604 3.98438 5.68229 4.15885 6.26562 4.50781  c
6.84896 4.85677 7.29427 5.34115 7.60156 5.96094  c
7.90885 6.58073 8.06250 7.28646 8.06250 8.07812  c
8.06250 8.86979 7.90104 9.58073 7.57812 10.2109  c
7.25521 10.8411 6.79948 11.3203 6.21094 11.6484  c
5.62240 11.9766 4.98438 12.1406 4.29688 12.1406  c
3.55729 12.1406 2.89583 11.9609 2.31250 11.6016  c
1.72917 11.2422 1.28646 10.7526 .984375 10.1328  c
.682292 9.51302 .531250 8.85938 .531250 8.17188  c
h
1.60938 8.18750 m
1.60938 9.13542 1.86458 9.88281 2.37500 10.4297  c
2.88542 10.9766 3.52604 11.2500 4.29688 11.2500  c
5.07812 11.2500 5.72135 10.9740 6.22656 10.4219  c
6.73177 9.86979 6.98438 9.08333 6.98438 8.06250  c
6.98438 7.42708 6.87760 6.86979 6.66406 6.39062  c
6.45052 5.91146 6.13542 5.54167 5.71875 5.28125  c
5.30208 5.02083 4.83333 4.89062 4.31250 4.89062  c
3.57292 4.89062 2.93750 5.14323 2.40625 5.64844  c
1.87500 6.15365 1.60938 7.00000 1.60938 8.18750  c
h
f
[ 1.00000 0.00000 0.00000 1.00000 0.00000 0.00000 ] defaultmatrix matrix concatmatrix setmatrix
[ 1.00000 0.00000 0.00000 1.00000 0.00000 0.00000 ] defaultmatrix matrix concatmatrix setmatrix
[ 1.00000 0.00000 0.00000 1.00000 312.570 95.8497 ] concat
0.00000 0.00000 .607843 RG
newpath
2.59375 8.00000 m
2.59375 6.62500 l
.109375 6.62500 l
.109375 5.98438 l
2.71875 2.26562 l
3.29688 2.26562 l
3.29688 5.98438 l
4.06250 5.98438 l
4.06250 6.62500 l
3.29688 6.62500 l
3.29688 8.00000 l
2.59375 8.00000 l
h
2.59375 5.98438 m
2.59375 3.40625 l
.796875 5.98438 l
2.59375 5.98438 l
h
f
[ 1.00000 0.00000 0.00000 1.00000 0.00000 0.00000 ] defaultmatrix matrix concatmatrix setmatrix
[ 1.00000 0.00000 0.00000 1.00000 0.00000 0.00000 ] defaultmatrix matrix concatmatrix setmatrix
1.00000 0.00000 0.00000 RG
0.00000 0.00000 .607843 RG
q
cliprestore
newpath
0.00000 0.00000 m
0.00000 118.000 l
453.000 118.000 l
453.000 0.00000 l
h
W
cliprestore
newpath
0.00000 0.00000 m
0.00000 118.000 l
453.000 118.000 l
453.000 0.00000 l
h
W
Q
cliprestore
82.0000 45.0000 13.0000 26.0000 rc
[ .991714 0.00000 0.00000 .991714 .686078 .382375 ] defaultmatrix matrix concatmatrix setmatrix
0.00000 0.00000 0.00000 RG
[ 1.00000 0.00000 0.00000 1.00000 0.00000 0.00000 ] defaultmatrix matrix concatmatrix setmatrix
cliprestore
newpath
0.00000 0.00000 m
0.00000 118.000 l
453.000 118.000 l
453.000 0.00000 l
h
W
0.00000 0.00000 .607843 RG
cliprestore
82.0000 45.0000 13.0000 26.0000 rc
[ .991714 0.00000 0.00000 .991714 .686078 .382375 ] defaultmatrix matrix concatmatrix setmatrix
0.00000 0.00000 0.00000 RG
newpath
87.1654 63.2859 m
87.1654 59.9421 l
83.7904 59.9421 l
83.7904 57.6296 l
87.1654 57.6296 l
87.1654 54.2859 l
89.4154 54.2859 l
89.4154 57.6296 l
92.7904 57.6296 l
92.7904 59.9421 l
89.4154 59.9421 l
89.4154 63.2859 l
87.1654 63.2859 l
h
f
[ 1.00000 0.00000 0.00000 1.00000 0.00000 0.00000 ] defaultmatrix matrix concatmatrix setmatrix
cliprestore
newpath
0.00000 0.00000 m
0.00000 118.000 l
453.000 118.000 l
453.000 0.00000 l
h
W
0.00000 0.00000 .607843 RG
q
0.00000 0.00000 0.00000 RG
newpath
253.745 57.9761 m
207.301 57.6945 l
207.294 58.8215 l
253.738 59.1030 l
253.722 61.8077 l
262.757 58.5942 l
253.762 55.2715 l
h
f
Q

%%Trailer
%%EOF
