%!PS-Adobe-3.0 EPSF-3.0
%%BoundingBox: 20 305 575 486
%%Creator: FreeHEP Graphics2D Driver
%%Producer: org.freehep.graphicsio.ps.EPSGraphics2D
%%For: 
%%Title: 
%%LanguageLevel: 3
%%EndComments
%%BeginProlog
100 dict dup begin

%
% File: org/freehep/graphicsio.ps/PSProlog.txt
% Author: Charles Loomis
%

% Redefinitions which save some space in the output file.  These are also
% the same as the PDF operators.
/q {gsave} def
/Q {grestore} def

/n {newpath} def
/m {moveto} def
/l {lineto} def
/c {curveto} def
/h {closepath} def

/re {4 -2 roll moveto
     dup 0 exch rlineto exch 0 rlineto
     neg 0 exch rlineto closepath} def

/f {fill} def
/f* {eofill} def
/F {gsave vg&FC fill grestore} def
/F* {gsave vg&FC eofill grestore} def

/s {closepath stroke} def
/S {stroke} def

/b {closepath gsave vg&FC fill grestore
    gsave stroke grestore newpath} def
/B {gsave vg&FC fill grestore gsave stroke grestore newpath} def
/b* {closepath gsave vg&FC eofill grestore
    gsave stroke grestore newpath} def
/B* {gsave vg&FC eofill grestore gsave stroke grestore newpath} def

/g {1 array astore /vg&fcolor exch def} def
/G {setgray} def
/k {4 array astore /vg&fcolor exch def} def
/K {setcmykcolor} def
/rg {3 array astore /vg&fcolor exch def} def
/RG {setrgbcolor} def

% Initialize the fill color.
0 0 0 rg

/vg&FC {mark vg&fcolor aload pop
        counttomark 1 eq {G} if
        counttomark 3 eq {RG} if
        counttomark 4 eq {K} if
        cleartomark } def

/vg&DFC {/vg&fcolor exch def} def

/vg&C {mark exch aload pop
       counttomark 1 eq {G} if
       counttomark 3 eq {RG} if
       counttomark 4 eq {K} if
       cleartomark } def

/w {setlinewidth} def
/j {setlinejoin} def
/J {setlinecap} def
/M {setmiterlimit} def
/d {setdash} def
/i {setflat} def

/W {clip} def
/W* {eoclip} def

% Setup the default graphics state.
% (black; 1 pt. linewidth; miter join; butt-ends; solid)
/defaultGraphicsState {0 g 1 w 0 j 0 J [] 0 d} def

% Emulation of the rectangle operators for PostScript implementations
% which do not implement all Level 2 features.  This is an INCOMPLETE
% emulation; only the "x y width height rect..." form is emulated.
/*rf {gsave newpath re fill grestore} def
/*rs {gsave newpath re stroke grestore} def
/*rc {newpath re clip} def
/rf  /rectfill where {pop /rectfill}{/*rf} ifelse load def
/rs  /rectstroke where {pop /rectstroke}{/*rs} ifelse load def
/rc  /rectclip where {pop /rectclip}{/*rc} ifelse load def

% Emulation of the selectfont operator.  This includes a 20% increase in
% the fontsize which is necessary to get sizes similar to the Java fonts.
/*sf {exch findfont exch
      dup type /arraytype eq {makefont}{scalefont} ifelse setfont} bind def
/sf /selectfont where {pop {1.2 mul selectfont}}{{1.2 mul *sf}} ifelse def

% Special version of stroke which allows the dash pattern to continue
% across path segments.  (This may be needed for PostScript although
% modern printers seem to do this correctly.)
/vg&stroke {
  currentdash pop length 0 eq
  {stroke}
  {
    currentdash /vg&doffset exch def pop
    flattenpath
    {m vg&resetdash}
    {2 copy
     currentpoint
     3 -1 roll sub dup mul
     3 1 roll sub dup mul
     add sqrt
     3 1 roll l
     currentdash 3 -1 roll add setdash}
     {}
     {h vg&resetdash}
     pathforall
     stroke
     vg&resetdash
  } ifelse
} def
/vg&resetdash {currentdash pop vg&doffset setdash} def

% Initialize variables for safety.
/delta 0 def
/xv 0 def  /yv 0 def  /width 0 def  /height 0 def

% Initialize to portrait INTERNATIONAL (Letter-height, A4-width) page.
/pw 595 def  /ph 791  def  /po true def /ftp false def

% Initialize margins to 20 points.
/ml 20 def  /mr 20 def  /mt 20 def  /mb 20 def

% Temporary matrices.
/smatrix 0 def  /nmatrix 0 def

% set page size (usage: <page width><page height> setpagesize)
/setpagesize {/ph exch def /pw exch def} def

% set page orientation (usage: portrait or landscape)
/portrait {/po true def} def
/landscape {/po false def} def

% force natural size for image (usage: naturalsize)
/naturalsize {/ftp false def} def

% resize image to fill page (usage: fittopage)
/fittopage {/ftp true def} def

% set margins of the page (usage: <left><bottom><top><right> setmargins)
/setmargins {/mr exch def /mt exch def /mb exch def /ml exch def} def

% set the graphic's size (usage: <width><height> setsize)
/setsize {/gh exch def /gw exch def} def

% set the graphic's origin (usage: <x0><y0> setorigin)
/setorigin {/gy exch def /gx exch def} def

% calculate image center
/imagecenter {pw ml sub mr sub 2 div ml add
              ph mt sub mb sub 2 div mb add} def

% calculate the necessary scaling
/imagescale {po {gw}{gh} ifelse pw ml sub mr sub div
             po {gh}{gw} ifelse ph mt sub mb sub div
             2 copy lt {exch} if pop
             ftp not {1 2 copy lt {exch} if pop} if
             1 exch div /sfactor exch def
             /gw gw sfactor mul def /gh gh sfactor mul def} def

% calculate image origin
/imageorigin {pw ml sub mr sub 2 div ml add
              po {gw}{gh} ifelse 2 div sub
              ph mt sub mb sub 2 div mb add
              po {gh}{gw} ifelse 2 div po {add}{sub} ifelse} def

% calculate the clipping origin
/cliporigin  {pw ml sub mr sub 2 div ml add
              po {gw}{gh} ifelse 2 div sub floor
              ph mt sub mb sub 2 div mb add
              po {gh}{gw} ifelse 2 div sub floor} def

% Set the clipping region to the bounding box.
/cliptobounds {cliporigin po {gw}{gh} ifelse 1 add
                          po {gh}{gw} ifelse 1 add rc} def

% set the base transformation matrix (usage: setbasematrix)
/setbasematrix {imageorigin translate
                po {0}{90} ifelse rotate
                sfactor sfactor neg scale
                /defaultmatrix matrix currentmatrix def} def

% The lower-right bias in drawing 1 pt. wide lines.
/bias  {q 0.5 0.5 translate} def
/unbias {Q} def

% Define the composite fonts used to print Unicode strings.
% Undefine particular values in an encoding array.
/vg&undef { {exch dup 3 -1 roll /.notdef put} forall } def
/vg&redef { {3 -1 roll dup 4 2 roll put} forall } def

% usage: key encoding basefontname vg&newbasefont font
/vg&newbasefont {
findfont dup length dict copy
  begin
    currentdict /FID undef
    /Encoding exch def
    dup /FontName exch def
    currentdict
  end
definefont
} def

% usage: key encoding basefontname vg&newskewedbasefont font
/vg&newskewedbasefont {
findfont dup length dict copy
  begin
    currentdict /FID undef
    /Encoding exch def
    dup /FontName exch def
    exch FontMatrix exch matrix concatmatrix /FontMatrix exch def
    currentdict
  end
definefont
} def

% usage: basekey suffix vg&nconcat name
/vg&nconcat {
  2 {dup length string cvs exch} repeat
  dup length 3 -1 roll dup length 3 -1 roll add string
  dup 0 4 -1 roll dup length 5 1 roll putinterval
  dup 4 -2 roll exch putinterval cvn
} def

%usage: fontname vg&skewmatrix matrix
/vg&skewmatrix {
findfont dup /FontInfo known
  {
    /FontInfo get dup /ItalicAngle known
    {
      [ 1 0 4 -1 roll /ItalicAngle get neg dup sin exch cos div 1 0 0 ]
    }
    {pop matrix} ifelse
  }
  {pop matrix} ifelse
} def

% usage: newfontname basefontname vg&newcompositefont --
/vg&newcompositefont {
/vg&fstyle exch def
/vg&bfont exch def
/vg&fname exch def
<<
/FontStyleBits vg&fstyle
/FontType 0
/FontMatrix matrix
/FontName vg&fname
/FMapType 2
/Encoding [ 0 1 255 {pop 6} for ]
          dup 16#00 0 put % Latin
          dup 16#03 1 put % Greek
          dup 16#20 2 put % Punctuation
          dup 16#21 3 put % Arrows
          dup 16#22 4 put % MathOps
          dup 16#27 5 put % Dingbats

/FDepVector [
vg&bfont /-UC-Latin vg&nconcat UCLatinEncoding
vg&bfont vg&newbasefont

vg&bfont vg&skewmatrix
vg&bfont /-UC-Greek vg&nconcat UCGreekEncoding
/Symbol vg&newskewedbasefont

vg&bfont /-UC-Punctuation vg&nconcat UCPunctuationEncoding
vg&bfont vg&newbasefont

/Arrows-UC findfont
/MathOps-UC findfont
/Dingbats-UC findfont
/Undefined-UC findfont ]
>>
vg&fname exch definefont pop
} def

% Null encoding vector (all elements set to .notdef)
/NullEncoding [ 256 {/.notdef} repeat ] def

% Unicode Latin encoding (unicode codes \u0000-\u00ff)
/UCLatinEncoding
  ISOLatin1Encoding dup length array copy
  dup 16#60 /grave put
  [ 16#90 16#91 16#92 16#93 16#94 16#95 16#96
    16#97 16#98 16#9a 16#9b 16#9d 16#9e 16#9f
  ] vg&undef
  def

% Unicode Greek encoding (unicode codes \u0370-\u03ff)
/UCGreekEncoding
  NullEncoding dup length array copy
  << 16#91 /Alpha    16#92 /Beta      16#93 /Gamma    16#94 /Delta
     16#95 /Epsilon  16#96 /Zeta      16#97 /Eta      16#98 /Theta
     16#99 /Iota     16#9a /Kappa     16#9b /Lambda   16#9c /Mu
     16#9d /Nu       16#9e /Xi        16#9f /Omicron  16#a0 /Pi
     16#a1 /Rho      16#a3 /Sigma     16#a4 /Tau      16#a5 /Upsilon
     16#a6 /Phi      16#a7 /Chi       16#a8 /Psi      16#a9 /Omega
     16#b1 /alpha    16#b2 /beta      16#b3 /gamma    16#b4 /delta
     16#b5 /epsilon  16#b6 /zeta      16#b7 /eta      16#b8 /theta
     16#b9 /iota     16#ba /kappa     16#bb /lambda   16#bc /mu
     16#bd /nu       16#be /xi        16#bf /omicron  16#c0 /pi
     16#c1 /rho      16#c2 /sigma1    16#c3 /sigma    16#c4 /tau
     16#c5 /upsilon  16#c6 /phi1      16#c7 /chi      16#c8 /psi
     16#c9 /omega    16#7e /semicolon 16#87 /dotmath  16#d1 /theta1
     16#d2 /Upsilon1 16#d5 /phi       16#d6 /omega1
  >> vg&redef
  def

% Unicode punctuation encoding (unicode codes \u2000-\u206f)
/UCPunctuationEncoding
  NullEncoding dup length array copy
  << 16#10 /hyphen          16#11 /hyphen              16#12 /endash
     16#13 /emdash          16#18 /quoteleft           16#19 /quoteright
     16#1a /quotesinglbase  16#1b /quotesingle         16#1c /quotedblleft
     16#1d /quotedblright   16#1e /quotedblbase        16#1f /quotedbl
     16#20 /dagger          16#21 /daggerdbl           16#22 /bullet
     16#24 /period          16#26 /ellipsis            16#27 /periodcentered
     16#30 /perthousand     16#44 /fraction
     16#70 /zerosuperior    16#74 /foursuperior        16#75 /fivesuperior
     16#76 /sixsuperior     16#77 /sevensuperior       16#78 /eightsuperior
     16#79 /ninesuperior    16#7b /hyphensuperior      16#7d /parenleftsuperior
     16#7e /parenrightsuperior
     16#80 /zeroinferior    16#84 /fourinferior        16#85 /fiveinferior
     16#81 /oneinferior     16#82 /twoinferior         16#83 /threeinferior
     16#86 /sixinferior     16#87 /seveninferior       16#88 /eightinferior
     16#89 /nineinferior    16#8b /hypheninferior      16#8d /parenleftinferior
     16#8e /parenrightinferior
  >> vg&redef
  def

% Unicode mathematical operators encoding (unicode codes \u2200-\u22ff)
/UCMathOpsEncoding
  NullEncoding dup length array copy
  << 16#00 /universal       16#02 /partialdiff         16#03 /existential
     16#05 /emptyset        16#06 /Delta               16#07 /gradient
     16#08 /element         16#09 /notelement          16#0b /suchthat
     16#0f /product         16#11 /summation           16#12 /minus
     16#15 /fraction        16#17 /asteriskmath        16#19 /bullet
     16#1a /radical         16#1d /proportional        16#1e /infinity
     16#20 /angle           16#23 /bar                 16#27 /logicaland
     16#28 /logicalor       16#29 /intersection        16#2a /union
     16#2b /integral        16#34 /therefore           16#36 /colon
     16#3c /similar         16#45 /congruent           16#48 /approxequal
     16#60 /notequal        16#61 /equivalence         16#64 /lessequal
     16#65 /greaterequal    16#82 /propersubset        16#83 /propersuperset
     16#86 /reflexsubset    16#87 /reflexsuperset      16#95 /circleplus
     16#97 /circlemultiply  16#a5 /perpendicular       16#03 /existential
     16#c0 /logicaland      16#c1 /logicalor           16#c2 /intersection
     16#c3 /union           16#c4 /diamond             16#c5 /dotmath
  >> vg&redef
  def

% Unicode arrows encoding (unicode codes \u2190-\u21ff)
% Also includes those "Letterlike" unicode characters
% which are available in the symbol font. (unicode codes \u2100-\u214f)
/UCArrowsEncoding
  NullEncoding dup length array copy
  << 16#11 /Ifraktur        16#1c /Rfraktur            16#22 /trademarkserif
     16#35 /aleph
     16#90 /arrowleft       16#91 /arrowup             16#92 /arrowright
     16#93 /arrowdown       16#94 /arrowboth           16#d0 /arrowdblleft
     16#d1 /arrowdblup      16#d2 /arrowdblright       16#d3 /arrowdbldown
     16#d4 /arrowdblboth
  >> vg&redef
  def

/ZapfDingbats findfont /Encoding get
dup length array copy /UCDingbatsEncoding exch def
16#20 1 16#7f {
  dup 16#20 sub exch
  UCDingbatsEncoding exch get
  UCDingbatsEncoding 3 1 roll put
} for
16#a0 1 16#ff {
  dup 16#40 sub exch
  UCDingbatsEncoding exch get
  UCDingbatsEncoding 3 1 roll put
} for
UCDingbatsEncoding [ 16#c0 1 16#ff {} for ] vg&undef
[ 16#00  16#05 16#0a 16#0b  16#28 16#4c 16#4e  16#53 16#54 16#55  16#57 16#5f
  16#60  16#68 16#69 16#6a  16#6b 16#6c 16#6d  16#6e 16#6f 16#70  16#71 16#72
  16#73  16#74 16#75 16#95  16#96 16#97 16#b0  16#bf
] vg&undef pop

% Define the base fonts which don't change.
/Undefined-UC NullEncoding       /Helvetica    vg&newbasefont pop
/MathOps-UC   UCMathOpsEncoding  /Symbol       vg&newbasefont pop
/Arrows-UC    UCArrowsEncoding   /Symbol       vg&newbasefont pop
/Dingbats-UC  UCDingbatsEncoding /ZapfDingbats vg&newbasefont pop

% Make the SansSerif composite fonts.
/SansSerif /Helvetica 16#00 vg&newcompositefont
/SansSerif-Bold /Helvetica-Bold 16#01 vg&newcompositefont
/SansSerif-Italic /Helvetica-Oblique 16#02 vg&newcompositefont
/SansSerif-BoldItalic /Helvetica-BoldOblique 16#03 vg&newcompositefont

% Make the Serif composite fonts.
/Serif /Times-Roman 16#00 vg&newcompositefont
/Serif-Bold /Times-Bold 16#01 vg&newcompositefont
/Serif-Italic /Times-Italic 16#02 vg&newcompositefont
/Serif-BoldItalic /Times-BoldItalic 16#03 vg&newcompositefont

% Make the Monospaced composite fonts.
/Monospaced /Courier 16#00 vg&newcompositefont
/Monospaced-Bold /Courier-Bold 16#01 vg&newcompositefont
/Monospaced-Italic /Courier-Oblique 16#02 vg&newcompositefont
/Monospaced-BoldItalic /Courier-BoldOblique 16#03 vg&newcompositefont

% Make the Dialog composite fonts.
/Dialog /Helvetica 16#00 vg&newcompositefont
/Dialog-Bold /Helvetica-Bold 16#01 vg&newcompositefont
/Dialog-Italic /Helvetica-Oblique 16#02 vg&newcompositefont
/Dialog-BoldItalic /Helvetica-BoldOblique 16#03 vg&newcompositefont

% Make the DialogInput composite fonts.
/DialogInput /Courier 16#00 vg&newcompositefont
/DialogInput-Bold /Courier-Bold 16#01 vg&newcompositefont
/DialogInput-Italic /Courier-Oblique 16#02 vg&newcompositefont
/DialogInput-BoldItalic /Courier-BoldOblique 16#03 vg&newcompositefont

% Make the Typewriter composite fonts (JDK 1.1 only).
/Typewriter /Courier 16#00 vg&newcompositefont
/Typewriter-Bold /Courier-Bold 16#01 vg&newcompositefont
/Typewriter-Italic /Courier-Oblique 16#02 vg&newcompositefont
/Typewriter-BoldItalic /Courier-BoldOblique 16#03 vg&newcompositefont


/cfontH {
 dup /fontsize exch def /SansSerif exch sf
 /vg&fontstyles [{cfontH} {cfontHB} {cfontHI} {cfontHBI}] def
} def
/cfontHB {
  dup /fontsize exch def /SansSerif-Bold exch sf
 /vg&fontstyles [{cfontH} {cfontHB} {cfontHI} {cfontHBI}] def
} def
/cfontHI {
 dup /fontsize exch def /SansSerif-Italic exch sf
 /vg&fontstyles [{cfontH} {cfontHB} {cfontHI} {cfontHBI}] def
} def
/cfontHBI {
 dup /fontsize exch def /SansSerif-BoldItalic exch sf
 /vg&fontstyles [{cfontH} {cfontHB} {cfontHI} {cfontHBI}] def
} def

/cfontT {
 dup /fontsize exch def /Serif exch sf
 /vg&fontstyles [{cfontT} {cfontTB} {cfontTI} {cfontTBI}] def
} def
/cfontTB {
 dup /fontsize exch def /Serif-Bold exch sf
 /vg&fontstyles [{cfontT} {cfontTB} {cfontTI} {cfontTBI}] def
} def
/cfontTI {
 dup /fontsize exch def /Serif-Italic exch sf
 /vg&fontstyles [{cfontT} {cfontTB} {cfontTI} {cfontTBI}] def
} def
/cfontTBI {
 dup /fontsize exch def /Serif-BoldItalic exch sf
 /vg&fontstyles [{cfontT} {cfontTB} {cfontTI} {cfontTBI}] def
} def

/cfontC {
 dup /fontsize exch def /Typewriter exch sf
 /vg&fontstyles [{cfontC} {cfontCB} {cfontCI} {cfontCBI}] def
} def
/cfontCB {
 dup /fontsize exch def /Typewriter-Bold exch sf
 /vg&fontstyles [{cfontC} {cfontCB} {cfontCI} {cfontCBI}] def
} def
/cfontCI {
 dup /fontsize exch def /Typewriter-Italic exch sf
 /vg&fontstyles [{cfontC} {cfontCB} {cfontCI} {cfontCBI}] def
} def
/cfontCBI {
 dup /fontsize exch def /Typewriter-BoldItalic exch sf
 /vg&fontstyles [{cfontC} {cfontCB} {cfontCI} {cfontCBI}] def
} def

% Darken or lighten the current color.
/darken {0.7 exch exp 3 copy
         q 4 -1 roll vg&C
         currentrgbcolor 3 {4 -2 roll mul} repeat
         3 array astore Q} def

/displayColorMap
<< /Cr   [1.00 0.00 0.00]       /Cg     [0.00 1.00 0.00]
   /Cb   [0.00 0.00 1.00]       /Cc     [1.00 0.00 0.00 0.00]
   /Cm   [0.00 1.00 0.00 0.00]  /Cy     [0.00 0.00 1.00 0.00]
   /Co   [1.00 0.78 0.00]       /Cp     [1.00 0.67 0.67]
   /Cw   [1   ]                 /Cgrl   [0.75]
   /Cgr  [0.50]                 /Cgrd   [0.25]
   /Ck   [0   ]
   /CGr  [1.00 0.00 0.00]       /CGg    [0.00 1.00 0.00]
   /CGb  [0.00 0.00 1.00]       /CGc    [1.00 0.00 0.00 0.00]
   /CGm  [0.00 1.00 0.00 0.00]  /CGy    [0.00 0.00 1.00 0.00]
   /CGo  [1.00 0.78 0.00]       /CGp    [1.00 0.67 0.67]
   /CGw  [1   ]                 /CGgrl  [0.75]
   /CGgr [0.50]                 /CGgrd  [0.25]
   /CGk  [0   ]
   /CIr  [1.00 0.00 0.00]       /CIg    [0.00 1.00 0.00]
   /CIb  [0.00 0.00 1.00]       /CIc    [1.00 0.00 0.00 0.00]
   /CIm  [0.00 1.00 0.00 0.00]  /CIy    [0.00 0.00 1.00 0.00]
   /CIo  [1.00 0.78 0.00]       /CIp    [1.00 0.67 0.67]
   /CIw  [1   ]                 /CIgrl  [0.75]
   /CIgr [0.50]                 /CIgrd  [0.25]
   /CIk  [0   ]
>> def

/printColorMap
<< /Cr   [1.00 0.33 0.33]       /Cg     [0.33 1.00 0.33]
   /Cb   [0.33 0.33 1.00]       /Cc     [1.00 0.00 0.00 0.00]
   /Cm   [0.00 1.00 0.00 0.00]  /Cy     [0.00 0.00 1.00 0.00]
   /Co   [1.00 0.78 0.00]       /Cp     [1.00 0.67 0.67]
   /Cw   [1   ]                 /Cgrl   [0.75]
   /Cgr  [0.50]                 /Cgrd   [0.25]
   /Ck   [0   ]
   /CGr  [1.00 0.33 0.33]       /CGg    [0.33 1.00 0.33]
   /CGb  [0.33 0.33 1.00]       /CGc    [1.00 0.00 0.00 0.00]
   /CGm  [0.00 1.00 0.00 0.00]  /CGy    [0.00 0.00 1.00 0.00]
   /CGo  [1.00 0.78 0.00]       /CGp    [1.00 0.67 0.67]
   /CGw  [1   ]                 /CGgrl  [0.75]
   /CGgr [0.50]                 /CGgrd  [0.25]
   /CGk  [0   ]
   /CIr  [1.00 0.33 0.33]       /CIg    [0.33 1.00 0.33]
   /CIb  [0.33 0.33 1.00]       /CIc    [1.00 0.00 0.00 0.00]
   /CIm  [0.00 1.00 0.00 0.00]  /CIy    [0.00 0.00 1.00 0.00]
   /CIo  [1.00 0.78 0.00]       /CIp    [1.00 0.67 0.67]
   /CIw  [1   ]                 /CIgrl  [0.75]
   /CIgr [0.50]                 /CIgrd  [0.25]
   /CIk  [0   ]
>> def

/grayColorMap
<< /Cr   [0   ]                 /Cg     [0   ]
   /Cb   [0   ]                 /Cc     [0   ]
   /Cm   [0   ]                 /Cy     [0   ]
   /Co   [0   ]                 /Cp     [0   ]
   /Cw   [0   ]                 /Cgrl   [0   ]
   /Cgr  [0   ]                 /Cgrd   [0   ]
   /Ck   [0   ]
   /CGr  [0.75]                 /CGg    [1   ]
   /CGb  [0.50]                 /CGc    [0.75]
   /CGm  [0.50]                 /CGy    [1   ]
   /CGo  [0.75]                 /CGp    [1   ]
   /CGw  [0   ]                 /CGgrl  [0.25]
   /CGgr [0.50]                 /CGgrd  [0.75]
   /CGk  [1   ]
   /CIr  [1   ]                 /CIg    [1   ]
   /CIb  [1   ]                 /CIc    [1   ]
   /CIm  [1   ]                 /CIy    [1   ]
   /CIo  [1   ]                 /CIp    [1   ]
   /CIw  [1   ]                 /CIgrl  [1   ]
   /CIgr [1   ]                 /CIgrd  [1   ]
   /CIk  [1   ]
>> def

/bwColorMap
<< /Cr   [0   ]                 /Cg     [0   ]
   /Cb   [0   ]                 /Cc     [0   ]
   /Cm   [0   ]                 /Cy     [0   ]
   /Co   [0   ]                 /Cp     [0   ]
   /Cw   [0   ]                 /Cgrl   [0   ]
   /Cgr  [0   ]                 /Cgrd   [0   ]
   /Ck   [0   ]
   /CGr  [1   ]                 /CGg    [1   ]
   /CGb  [1   ]                 /CGc    [1   ]
   /CGm  [1   ]                 /CGy    [1   ]
   /CGo  [1   ]                 /CGp    [1   ]
   /CGw  [0   ]                 /CGgrl  [1   ]
   /CGgr [1   ]                 /CGgrd  [1   ]
   /CGk  [1   ]
   /CIr  [1   ]                 /CIg    [1   ]
   /CIb  [1   ]                 /CIc    [1   ]
   /CIm  [1   ]                 /CIy    [1   ]
   /CIo  [1   ]                 /CIp    [1   ]
   /CIw  [1   ]                 /CIgrl  [1   ]
   /CIgr [1   ]                 /CIgrd  [1   ]
   /CIk  [1   ]
>> def

%
% The following routines handle the alignment of and printing of
% tagged strings.
%

% Predefine the bounding box values.
/bbllx 0 def /bblly 0 def /bburx 0 def /bbury 0 def

% This routine pops the first unicode character off of a string and returns
% the remainder of the string, the character code of first character,
% and a "true" if the string was non-zero length.
% <string>      popfirst <remaining string> <true>
% <null string> popfirst <false>
/popfirst {
  dup length 1 gt
    {dup 0 get /vg&fbyte exch def
     dup 1 get /vg&cbyte exch def
     dup length 2 sub 2 exch getinterval true}
    {pop false} ifelse
} def

% This routine shows a single unicode character given the font and
% character codes.
% <font code> <char code> unicharshow --
/unicharshow {
  2 string
  dup 0 5 -1 roll put
  dup 1 4 -1 roll put
  internalshow
} def

% This is an internal routine to alternate between determining the
% bounding box for stringsize and showing the string for recshow.
% <string> internalshow --
/internalshow {show} def

% This is an internal routine to alternate between determining the
% bounding box for stringsize and stroking various ornaments.
% <string> internalstroke --
/internalstroke {S} def

% Sets up internalshow to use the null device to determine string size.
% -- nullinternalshow --
/nullinternalshow {/internalshow {false charpath flattenpath
                                  pathbbox updatebbox} def} def

% Sets up internalstroke to use the null device to determine string size.
% -- nullinternalstroke --
/nullinternalstroke {
 /internalstroke {flattenpath pathbbox updatebbox} def} def

% This routine tests to see if the character code matches the first
% character of a string.
% <char code> <string> testchar <char code> <true or false>
/testchar {exch dup 3 -1 roll 0 get eq} def

% Raise the text baseline for superscripts.
% -- raise --
/raise {
  0 fontsize 2 div rmoveto
  /fontsize fontsize 2 mul 3 div def
  currentfont /FontName get fontsize sf
} def

% Un-raise the text baseline for superscripts.
% -- unraise --
/unraise {
  /fontsize fontsize 1.5 mul def
  0 fontsize 2 div neg rmoveto
} def

% Lower the text baseline for subscripts.
% -- lower --
/lower {
  0 fontsize 3 div neg rmoveto
  /fontsize fontsize 2 mul 3 div def
  currentfont /FontName get fontsize sf
} def

% Un-lower the text baseline for subscripts.
% -- unlower --
/unlower {
  /fontsize fontsize 1.5 mul def
  0 fontsize 3 div rmoveto
} def

% Compare the top two elements on the stack and leave only the
% larger one.
/maxval {2 copy gt {pop} {exch pop} ifelse} def

% Tokenize a string.  Do not use the usual PostScript token because
% parentheses will not be interpreted correctly because of rescanning
% of the string.
/vg&token {/vg&string exch def /vg&index -1 def /vg&level 0 def
0 2 vg&string length 2 sub {
  dup dup 1 add exch vg&string exch get 8 bitshift vg&string 3 -1 roll get or
  dup 16#f0fe eq {pop 1}{16#f0ff eq {-1}{0} ifelse} ifelse
  /vg&level exch vg&level add def
  vg&level 0 eq {/vg&index exch def exit} if pop
} for
vg&index 0 ge {
  vg&string vg&index 2 add dup vg&string length exch sub getinterval
  vg&index 2 gt {vg&string 2 vg&index 2 sub getinterval}{()} ifelse
  true}
{false} ifelse
} bind def

% Recursively show an unicode string.
% <string> recshow --
/recshow {
  popfirst
  {
    % Test to see if this is a string attribute.
    vg&fbyte 16#f0 and 16#e0 eq
    {
      q

      % Font style.
      currentfont dup /FontStyleBits known {/FontStyleBits get}{pop 0} ifelse
      vg&cbyte or vg&fontstyles exch get fontsize exch exec

      vg&token pop recshow currentpoint Q m recshow
    }
    {
      vg&fbyte 16#F8 and 16#F0 eq {

        % Superscript and/or subscript.
        vg&cbyte 16#00 eq {
          vg&token pop exch vg&token pop 3 -1 roll
          q raise recshow unraise currentpoint pop Q exch
          q lower recshow unlower currentpoint pop Q
          maxval currentpoint exch pop m recshow } if

        % Strikeout.
        vg&cbyte 16#01 eq {
          vg&token pop currentpoint 3 -1 roll recshow
          q 0 J vg&underline vg&uthick w
          currentpoint 4 -2 roll fontsize 3 div add moveto
          fontsize 3 div add lineto internalstroke Q
          recshow} if

        % Underline.
        vg&cbyte 16#02 eq {
          vg&token pop currentpoint 3 -1 roll recshow
          q 0 J vg&underline vg&uthick w
          currentpoint 4 -2 roll vg&uoffset add moveto
          vg&uoffset add lineto internalstroke Q
          recshow} if

        % Dashed underline.
        vg&cbyte 16#03 eq {
          vg&token pop currentpoint 3 -1 roll recshow
          q 0 J [ vg&uthick 5 mul vg&uthick 2 mul] 0 d
          vg&underline vg&uthick w
          currentpoint 4 -2 roll vg&uoffset add moveto
          vg&uoffset add lineto internalstroke Q
          recshow} if

        % Dotted underline.
        vg&cbyte 16#04 eq {
          vg&token pop currentpoint 3 -1 roll recshow
          q 1 J [ 0 vg&uthick 3 mul] 0 d
          vg&underline vg&uthick w
          currentpoint 4 -2 roll vg&uoffset add moveto
          vg&uoffset add lineto internalstroke Q
          recshow} if

        % Thick underline.
        vg&cbyte 16#05 eq {
          vg&token pop currentpoint 3 -1 roll recshow
          q 0 J vg&underline vg&uthick 2 mul w
          currentpoint 4 -2 roll vg&uoffset vg&uthick 2 div sub add moveto
          vg&uoffset vg&uthick 2 div sub add lineto internalstroke Q
          recshow} if

        % Gray thick underline.
        vg&cbyte 16#06 eq {
          vg&token pop currentpoint 3 -1 roll recshow
          q 0 J vg&underline vg&uthick 2 mul w 0.5 setgray
          currentpoint 4 -2 roll vg&uoffset vg&uthick 2 div sub add moveto
          vg&uoffset vg&uthick 2 div sub add lineto internalstroke Q
          recshow} if

        % Overbar.
        vg&cbyte 16#07 eq {
          vg&token pop dup stringsize relative 4 1 roll pop pop exch
          3 -1 roll recshow
          q 0 J vg&underline vg&uthick w
          vg&uoffset neg add dup currentpoint pop exch m l internalstroke Q
          recshow} if
      }
      {
        vg&fbyte vg&cbyte unicharshow recshow
      } ifelse
    } ifelse
  } if
} def

% Get the underline position and thickness from the current font.
/vg&underline {

currentfont dup /FontType get 0 eq {/FDepVector get 0 get} if
dup dup /FontInfo known {
  /FontInfo get dup
  dup /UnderlinePosition known {
    /UnderlinePosition get /vg&uoffset exch def
  }
  {
    pop /vg&uoffset 0 def
  } ifelse
  dup /UnderlineThickness known {
    /UnderlineThickness get /vg&uthick exch def
  }
  {
    pop /vg&uthick 0 def
  } ifelse
}
{
  pop /vg&uoffset 0 def /vg&uthick 0 def
} ifelse
/FontMatrix get
currentfont dup /FontType get 0 eq
{/FontMatrix get matrix concatmatrix}{pop} ifelse
dup 0 vg&uoffset 3 -1 roll transform /vg&uoffset exch def pop
0 vg&uthick 3 -1 roll transform /vg&uthick exch def pop
} def

% Make a frame with the coordinates on the stack.
% <llx> <lly> <urx> <ury> frame --
/frame {4 copy m 3 1 roll exch l 4 -2 roll l l h} def

% Resets the accumulated bounding box to a degenerate box at the
% current point.
% -- resetbbox --
/resetbbox {
  currentpoint 2 copy
  /bbury exch def
  /bburx exch def
  /bblly exch def
  /bbllx exch def
} def

% Update the accumulated bounding box.
% <llx'> <lly'> <urx'> <ury'> updatebbox --
/updatebbox {
  dup bbury gt {/bbury exch def} {pop} ifelse
  dup bburx gt {/bburx exch def} {pop} ifelse
  dup bblly lt {/bblly exch def} {pop} ifelse
  dup bbllx lt {/bbllx exch def} {pop} ifelse
} def

% Set the bounding box to the values on the stack.
% <llx'> <lly'> <urx'> <ury'> updatebbox --
/restorebbox {
  /bbury exch def /bburx exch def /bblly exch def /bbllx exch def
} def

% Push the accumulated bounding box onto the stack.
% -- pushbbox <llx> <lly> <urx> <ury>
/pushbbox {bbllx bblly bburx bbury} def

% Make the relative bounding box relative to the currentpoint.
% <llx'> <lly'> <urx'> <ury'> inflate <llx> <lly> <urx> <ury>
/inflate {
  2 {fontsize 0.2 mul add 4 1 roll} repeat
  2 {fontsize 0.2 mul sub 4 1 roll} repeat
} def

% Make the relative bounding box relative to the currentpoint.
% <llx'> <lly'> <urx'> <ury'> relative <llx> <lly> <urx> <ury>
/relative {
  currentpoint 3 -1 roll add 3 1 roll add exch 4 2 roll
  currentpoint 3 -1 roll add 3 1 roll add exch 4 2 roll
} def

% Returns the size of a string appropriate for recshow.
% <string> stringsize <llx> <lly> <urx> <ury>
/stringsize {
  pushbbox /internalshow load /internalstroke load 7 -1 roll
  q
  nulldevice 0 0 m
  nullinternalshow nullinternalstroke
  resetbbox
  recshow
  /internalstroke exch def /internalshow exch def
  pushbbox 8 -4 roll restorebbox
  Q
} def

% Calculate values for string positioning.
/calcval {4 copy
  3 -1 roll sub /widy exch def sub neg /widx exch def
  pop pop /dy exch def /dx exch def} def

% Utilities to position a string.
% First letter (U=upper, C=center, B=baseline, L=lower)
% Second letter (L=left, C=center, R=right)
/align [
{calcval dx neg widy dy add neg rmoveto} % UL
{calcval dx neg widy 2 div dy add neg rmoveto} % CL
{calcval dx neg 0 rmoveto} % BL
{calcval dx neg dy neg rmoveto} % LL
{calcval widx dx add neg widy dy add neg rmoveto} % UR
{calcval widx dx add neg widy 2 div dy add neg rmoveto} % CR
{calcval widx dx add neg 0 rmoveto} % BR
{calcval widx dx add neg dy neg rmoveto} % LR
{calcval widx 2 div dx add neg widy dy add neg rmoveto} % UC
{calcval widx 2 div dx add neg widy 2 div dy add neg rmoveto} % CC
{calcval widx 2 div dx add neg 0 rmoveto} % BC
{calcval widx 2 div dx add neg dy neg rmoveto} % LC
] def

/vg&str {m q 1 -1 scale dup stringsize 4 copy align 11 -1 roll get exec
         q inflate relative frame exch exec Q recshow Q} def

end /procDict exch def
%%EndProlog

%%BeginSetup
save
procDict begin
printColorMap begin
595 791 setpagesize
20 20 20 20 setmargins
0 0 setorigin
482 157 setsize
fittopage
portrait
imagescale
cliptobounds
setbasematrix
/Helvetica 10 sf
defaultGraphicsState
%%EndSetup

0.00000 0.00000 0.00000 RG
[ 1.00000 0.00000 0.00000 1.00000 0.00000 0.00000 ] defaultmatrix matrix concatmatrix setmatrix
cliprestore
1.00000 1.00000 1.00000 RG
newpath
0.00000 0.00000 m
482.000 0.00000 l
482.000 157.000 l
0.00000 157.000 l
0.00000 0.00000 l
h
f
0.00000 0.00000 0.00000 RG
0.00000 0.00000 0.00000 RG
[ 1.00000 0.00000 0.00000 1.00000 0.00000 0.00000 ] defaultmatrix matrix concatmatrix setmatrix
cliprestore
1.00000 1.00000 1.00000 RG
newpath
0.00000 0.00000 m
482.000 0.00000 l
482.000 157.000 l
0.00000 157.000 l
0.00000 0.00000 l
h
f
0.00000 0.00000 0.00000 RG
1.00000 1.00000 1.00000 RG
newpath
0.00000 0.00000 m
482.000 0.00000 l
482.000 157.000 l
0.00000 157.000 l
0.00000 0.00000 l
h
f
cliprestore
0 0 482 157 rc
q
<< /PatternType 2
   /Shading
   << /ShadingType 2
      /ColorSpace /DeviceRGB
      /Coords [60.10435485839844 132.36679077148438 61.305145263671875 132.36679077148438]
      /Function
      << /FunctionType 2
         /Domain [0 1]
         /Range [0 1 0 1 0 1]
         /C0 [0.2 0.2 0.6]
         /C1 [0.0 0.0 0.0]
         /N 1
      >>
      /Extend [true true]
   >>
>>
matrix makepattern setpattern
newpath
52.5300 132.967 m
68.8795 132.967 l
69.2111 132.967 69.4799 132.698 69.4799 132.367  c
69.4799 132.035 69.2111 131.766 68.8795 131.766  c
52.5300 131.766 l
52.1984 131.766 51.9296 132.035 51.9296 132.367  c
51.9296 132.698 52.1984 132.967 52.5300 132.967  c
h
f
Q
q
.200000 .200000 .600000 RG
newpath
24.7915 126.763 m
24.4598 126.763 24.1911 127.032 24.1911 127.363  c
24.1911 127.695 24.4598 127.964 24.7915 127.964  c
41.5237 127.964 l
41.8554 127.964 42.1241 127.695 42.1241 127.363  c
42.1241 127.032 41.8554 126.763 41.5237 126.763  c
h
24.7915 131.766 m
24.4598 131.766 24.1911 132.035 24.1911 132.367  c
24.1911 132.698 24.4598 132.967 24.7915 132.967  c
41.5237 132.967 l
41.8554 132.967 42.1241 132.698 42.1241 132.367  c
42.1241 132.035 41.8554 131.766 41.5237 131.766  c
h
24.7915 136.770 m
24.4598 136.770 24.1911 137.038 24.1911 137.370  c
24.1911 137.702 24.4598 137.971 24.7915 137.971  c
41.5237 137.971 l
41.8554 137.971 42.1241 137.702 42.1241 137.370  c
42.1241 137.038 41.8554 136.770 41.5237 136.770  c
h
f
Q
q
0.00000 0.00000 0.00000 RG
newpath
172.696 131.766 m
158.363 131.766 l
158.031 131.766 157.762 132.035 157.762 132.367  c
157.762 132.698 158.031 132.967 158.363 132.967  c
172.696 132.967 l
173.028 132.967 173.297 132.698 173.297 132.367  c
173.297 132.035 173.028 131.766 172.696 131.766  c
h
f
Q
q
<< /PatternType 2
   /Shading
   << /ShadingType 2
      /ColorSpace /DeviceRGB
      /Coords [139.01629638671875 132.36679077148438 137.8155059814453 132.36679077148438]
      /Function
      << /FunctionType 2
         /Domain [0 1]
         /Range [0 1 0 1 0 1]
         /C0 [0.0 0.0 0.0]
         /C1 [0.2 0.2 0.6]
         /N 1
      >>
      /Extend [true true]
   >>
>>
matrix makepattern setpattern
newpath
146.591 137.971 m
146.922 137.971 147.191 137.702 147.191 137.370  c
147.191 137.038 146.922 136.770 146.591 136.770  c
130.241 136.770 l
129.910 136.770 129.641 137.038 129.641 137.370  c
129.641 137.702 129.910 137.971 130.241 137.971  c
h
146.591 132.967 m
146.922 132.967 147.191 132.698 147.191 132.367  c
147.191 132.035 146.922 131.766 146.591 131.766  c
130.241 131.766 l
129.910 131.766 129.641 132.035 129.641 132.367  c
129.641 132.698 129.910 132.967 130.241 132.967  c
h
146.591 127.964 m
146.922 127.964 147.191 127.695 147.191 127.363  c
147.191 127.032 146.922 126.763 146.591 126.763  c
130.241 126.763 l
129.910 126.763 129.641 127.032 129.641 127.363  c
129.641 127.695 129.910 127.964 130.241 127.964  c
h
f
Q
q
.200000 .200000 .600000 RG
newpath
353.042 138.722 m
353.374 138.722 353.642 138.453 353.642 138.121  c
353.642 137.790 353.374 137.521 353.042 137.521  c
336.310 137.521 l
335.978 137.521 335.709 137.790 335.709 138.121  c
335.709 138.453 335.978 138.722 336.310 138.722  c
h
353.042 133.718 m
353.374 133.718 353.642 133.450 353.642 133.118  c
353.642 132.786 353.374 132.517 353.042 132.517  c
336.310 132.517 l
335.978 132.517 335.709 132.786 335.709 133.118  c
335.709 133.450 335.978 133.718 336.310 133.718  c
h
353.042 128.715 m
353.374 128.715 353.642 128.446 353.642 128.115  c
353.642 127.783 353.374 127.514 353.042 127.514  c
336.310 127.514 l
335.978 127.514 335.709 127.783 335.709 128.115  c
335.709 128.446 335.978 128.715 336.310 128.715  c
h
f
Q
q
0.00000 0.00000 0.00000 RG
newpath
456.846 131.766 m
440.880 131.766 l
440.548 131.766 440.279 132.035 440.279 132.367  c
440.279 132.698 440.548 132.967 440.880 132.967  c
456.846 132.967 l
457.178 132.967 457.447 132.698 457.447 132.367  c
457.447 132.035 457.178 131.766 456.846 131.766  c
h
f
Q
q
<< /PatternType 2
   /Shading
   << /ShadingType 2
      /ColorSpace /DeviceRGB
      /Coords [421.5333557128906 132.36679077148438 420.33258056640625 132.36679077148438]
      /Function
      << /FunctionType 2
         /Domain [0 1]
         /Range [0 1 0 1 0 1]
         /C0 [0.0 0.0 0.0]
         /C1 [0.2 0.2 0.6]
         /N 1
      >>
      /Extend [true true]
   >>
>>
matrix makepattern setpattern
newpath
429.108 137.971 m
429.439 137.971 429.708 137.702 429.708 137.370  c
429.708 137.038 429.439 136.770 429.108 136.770  c
412.758 136.770 l
412.427 136.770 412.158 137.038 412.158 137.370  c
412.158 137.702 412.427 137.971 412.758 137.971  c
h
429.108 132.967 m
429.439 132.967 429.708 132.698 429.708 132.367  c
429.708 132.035 429.439 131.766 429.108 131.766  c
412.758 131.766 l
412.427 131.766 412.158 132.035 412.158 132.367  c
412.158 132.698 412.427 132.967 412.758 132.967  c
h
429.108 127.964 m
429.439 127.964 429.708 127.695 429.708 127.363  c
429.708 127.032 429.439 126.763 429.108 126.763  c
412.758 126.763 l
412.427 126.763 412.158 127.032 412.158 127.363  c
412.158 127.695 412.427 127.964 412.758 127.964  c
h
f
Q
q
0.00000 0.00000 0.00000 RG
newpath
87.1707 14.3657 m
65.6838 14.3657 l
65.3521 14.3657 65.0834 14.6344 65.0834 14.9661  c
65.0834 15.2978 65.3521 15.5665 65.6838 15.5665  c
87.1707 15.5665 l
87.5024 15.5665 87.7711 15.2978 87.7711 14.9661  c
87.7711 14.6344 87.5024 14.3657 87.1707 14.3657  c
h
f
Q
q
<< /PatternType 2
   /Shading
   << /ShadingType 2
      /ColorSpace /DeviceRGB
      /Coords [68.08202362060547 40.87281799316406 66.88123321533203 40.87281799316406]
      /Function
      << /FunctionType 2
         /Domain [0 1]
         /Range [0 1 0 1 0 1]
         /C0 [0.4 0.2 0.2]
         /C1 [0.0 0.0 0.0]
         /N 1
      >>
      /Extend [true true]
   >>
>>
matrix makepattern setpattern
newpath
77.2048 40.2724 m
57.7585 40.2724 l
57.4268 40.2724 57.1581 40.5412 57.1581 40.8728  c
57.1581 41.2045 57.4268 41.4732 57.7585 41.4732  c
77.2048 41.4732 l
77.5365 41.4732 77.8052 41.2045 77.8052 40.8728  c
77.8052 40.5412 77.5365 40.2724 77.2048 40.2724  c
h
f
Q
0.00000 0.00000 0.00000 RG
1.00000 1.00000 1.00000 RG
newpath
73.8299 127.339 m
72.4222 127.339 71.2811 128.481 71.2811 129.888  c
71.2811 134.986 l
71.2811 136.394 72.4222 137.535 73.8299 137.535  c
75.7010 137.535 l
77.1087 137.535 78.2498 136.394 78.2498 134.986  c
78.2498 129.888 l
78.2498 128.481 77.1087 127.339 75.7010 127.339  c
h
f
0.00000 0.00000 0.00000 RG
[ 1.00000 0.00000 0.00000 1.00000 71.2654 124.867 ] concat
newpath
6.46875 9.23438 m
7.51562 9.50000 l
7.29688 10.3542 6.90365 11.0078 6.33594 11.4609  c
5.76823 11.9141 5.07292 12.1406 4.25000 12.1406  c
3.39583 12.1406 2.70312 11.9661 2.17188 11.6172  c
1.64062 11.2682 1.23698 10.7656 .960938 10.1094  c
.684896 9.45312 .546875 8.75000 .546875 8.00000  c
.546875 7.18750 .703125 6.47396 1.01562 5.85938  c
1.32812 5.24479 1.77344 4.77865 2.35156 4.46094  c
2.92969 4.14323 3.56771 3.98438 4.26562 3.98438  c
5.05729 3.98438 5.72135 4.18490 6.25781 4.58594  c
6.79427 4.98698 7.16667 5.55208 7.37500 6.28125  c
6.34375 6.53125 l
6.16667 5.95833 5.90365 5.54167 5.55469 5.28125  c
5.20573 5.02083 4.77083 4.89062 4.25000 4.89062  c
3.63542 4.89062 3.12500 5.03385 2.71875 5.32031  c
2.31250 5.60677 2.02865 5.99479 1.86719 6.48438  c
1.70573 6.97396 1.62500 7.47917 1.62500 8.00000  c
1.62500 8.66667 1.72135 9.25000 1.91406 9.75000  c
2.10677 10.2500 2.40885 10.6250 2.82031 10.8750  c
3.23177 11.1250 3.67708 11.2500 4.15625 11.2500  c
4.73958 11.2500 5.23438 11.0807 5.64062 10.7422  c
6.04688 10.4036 6.32292 9.90104 6.46875 9.23438  c
h
f
[ 1.00000 0.00000 0.00000 1.00000 0.00000 0.00000 ] defaultmatrix matrix concatmatrix setmatrix
[ 1.00000 0.00000 0.00000 1.00000 0.00000 0.00000 ] defaultmatrix matrix concatmatrix setmatrix
[ 1.00000 0.00000 0.00000 1.00000 79.7542 127.437 ] concat
0.00000 0.00000 .607843 RG
newpath
.343750 6.48438 m
1.04688 6.39062 l
1.11979 6.78646 1.25521 7.07292 1.45312 7.25000  c
1.65104 7.42708 1.88542 7.51562 2.15625 7.51562  c
2.48958 7.51562 2.77083 7.40104 3.00000 7.17188  c
3.22917 6.94271 3.34375 6.66146 3.34375 6.32812  c
3.34375 6.00521 3.23698 5.73698 3.02344 5.52344  c
2.80990 5.30990 2.54167 5.20312 2.21875 5.20312  c
2.08333 5.20312 1.91667 5.22917 1.71875 5.28125  c
1.79688 4.67188 l
1.84896 4.67188 1.89062 4.67188 1.92188 4.67188  c
2.21354 4.67188 2.47917 4.59375 2.71875 4.43750  c
2.95833 4.28125 3.07812 4.04167 3.07812 3.71875  c
3.07812 3.45833 2.99219 3.24479 2.82031 3.07812  c
2.64844 2.91146 2.42188 2.82812 2.14062 2.82812  c
1.86979 2.82812 1.64323 2.91406 1.46094 3.08594  c
1.27865 3.25781 1.16146 3.51562 1.10938 3.85938  c
.406250 3.73438 l
.489583 3.26562 .684896 2.90104 .992188 2.64062  c
1.29948 2.38021 1.67708 2.25000 2.12500 2.25000  c
2.43750 2.25000 2.72656 2.31771 2.99219 2.45312  c
3.25781 2.58854 3.46094 2.77083 3.60156 3.00000  c
3.74219 3.22917 3.81250 3.47396 3.81250 3.73438  c
3.81250 3.98438 3.74479 4.21094 3.60938 4.41406  c
3.47396 4.61719 3.27604 4.77604 3.01562 4.89062  c
3.35938 4.97396 3.62500 5.13802 3.81250 5.38281  c
4.00000 5.62760 4.09375 5.93750 4.09375 6.31250  c
4.09375 6.81250 3.91146 7.23698 3.54688 7.58594  c
3.18229 7.93490 2.71875 8.10938 2.15625 8.10938  c
1.65625 8.10938 1.23958 7.95833 .906250 7.65625  c
.572917 7.35417 .385417 6.96354 .343750 6.48438  c
h
f
[ 1.00000 0.00000 0.00000 1.00000 0.00000 0.00000 ] defaultmatrix matrix concatmatrix setmatrix
[ 1.00000 0.00000 0.00000 1.00000 0.00000 0.00000 ] defaultmatrix matrix concatmatrix setmatrix
0.00000 0.00000 0.00000 RG
0.00000 0.00000 .607843 RG
1.00000 1.00000 1.00000 RG
.200000 .200000 .600000 RG
1.00000 1.00000 1.00000 RG
newpath
18.6477 127.445 m
17.2886 127.445 16.1868 128.547 16.1868 129.906  c
16.1868 134.828 l
16.1868 136.187 17.2886 137.289 18.6477 137.289  c
19.9290 137.289 l
21.2881 137.289 22.3899 136.187 22.3899 134.828  c
22.3899 129.906 l
22.3899 128.547 21.2881 127.445 19.9290 127.445  c
h
f
.200000 .200000 .600000 RG
[ 1.00000 0.00000 0.00000 1.00000 15.7883 124.867 ] concat
newpath
.843750 12.0000 m
.843750 4.12500 l
1.90625 4.12500 l
6.04688 10.3125 l
6.04688 4.12500 l
7.04688 4.12500 l
7.04688 12.0000 l
5.96875 12.0000 l
1.84375 5.81250 l
1.84375 12.0000 l
.843750 12.0000 l
h
f
[ 1.00000 0.00000 0.00000 1.00000 0.00000 0.00000 ] defaultmatrix matrix concatmatrix setmatrix
[ 1.00000 0.00000 0.00000 1.00000 0.00000 0.00000 ] defaultmatrix matrix concatmatrix setmatrix
[ 1.00000 0.00000 0.00000 1.00000 10.3035 127.367 ] concat
0.00000 0.00000 .607843 RG
newpath
4.03125 7.32812 m
4.03125 8.00000 l
.250000 8.00000 l
.239583 7.83333 .265625 7.67188 .328125 7.51562  c
.421875 7.25521 .575521 7.00000 .789062 6.75000  c
1.00260 6.50000 1.30729 6.20833 1.70312 5.87500  c
2.32812 5.36458 2.75000 4.96094 2.96875 4.66406  c
3.18750 4.36719 3.29688 4.08854 3.29688 3.82812  c
3.29688 3.54688 3.19792 3.30990 3.00000 3.11719  c
2.80208 2.92448 2.54167 2.82812 2.21875 2.82812  c
1.88542 2.82812 1.61719 2.92969 1.41406 3.13281  c
1.21094 3.33594 1.10417 3.61979 1.09375 3.98438  c
.375000 3.90625 l
.427083 3.36458 .614583 2.95312 .937500 2.67188  c
1.26042 2.39062 1.69271 2.25000 2.23438 2.25000  c
2.78646 2.25000 3.22135 2.40104 3.53906 2.70312  c
3.85677 3.00521 4.01562 3.38542 4.01562 3.84375  c
4.01562 4.07292 3.96875 4.29688 3.87500 4.51562  c
3.78125 4.73438 3.62760 4.96615 3.41406 5.21094  c
3.20052 5.45573 2.83854 5.79167 2.32812 6.21875  c
1.91146 6.57292 1.64323 6.81250 1.52344 6.93750  c
1.40365 7.06250 1.30208 7.19271 1.21875 7.32812  c
4.03125 7.32812 l
h
f
[ 1.00000 0.00000 0.00000 1.00000 0.00000 0.00000 ] defaultmatrix matrix concatmatrix setmatrix
[ 1.00000 0.00000 0.00000 1.00000 0.00000 0.00000 ] defaultmatrix matrix concatmatrix setmatrix
.200000 .200000 .600000 RG
0.00000 0.00000 .607843 RG
1.00000 1.00000 1.00000 RG
.200000 .200000 .600000 RG
1.00000 1.00000 1.00000 RG
newpath
46.3863 127.445 m
45.0271 127.445 43.9253 128.547 43.9253 129.906  c
43.9253 134.828 l
43.9253 136.187 45.0271 137.289 46.3863 137.289  c
47.6675 137.289 l
49.0266 137.289 50.1284 136.187 50.1284 134.828  c
50.1284 129.906 l
50.1284 128.547 49.0266 127.445 47.6675 127.445  c
h
f
.200000 .200000 .600000 RG
[ 1.00000 0.00000 0.00000 1.00000 43.5269 124.867 ] concat
newpath
.843750 12.0000 m
.843750 4.12500 l
1.90625 4.12500 l
6.04688 10.3125 l
6.04688 4.12500 l
7.04688 4.12500 l
7.04688 12.0000 l
5.96875 12.0000 l
1.84375 5.81250 l
1.84375 12.0000 l
.843750 12.0000 l
h
f
[ 1.00000 0.00000 0.00000 1.00000 0.00000 0.00000 ] defaultmatrix matrix concatmatrix setmatrix
[ 1.00000 0.00000 0.00000 1.00000 0.00000 0.00000 ] defaultmatrix matrix concatmatrix setmatrix
[ 1.00000 0.00000 0.00000 1.00000 45.0269 121.461 ] concat
0.00000 0.00000 .607843 RG
newpath
2.98438 8.00000 m
2.28125 8.00000 l
2.28125 3.51562 l
2.11458 3.68229 1.89323 3.84635 1.61719 4.00781  c
1.34115 4.16927 1.09375 4.28646 .875000 4.35938  c
.875000 3.68750 l
1.27083 3.50000 1.61458 3.27604 1.90625 3.01562  c
2.19792 2.75521 2.40625 2.50000 2.53125 2.25000  c
2.98438 2.25000 l
2.98438 8.00000 l
h
f
[ 1.00000 0.00000 0.00000 1.00000 0.00000 0.00000 ] defaultmatrix matrix concatmatrix setmatrix
[ 1.00000 0.00000 0.00000 1.00000 0.00000 0.00000 ] defaultmatrix matrix concatmatrix setmatrix
.200000 .200000 .600000 RG
0.00000 0.00000 .607843 RG
1.00000 1.00000 1.00000 RG
0.00000 0.00000 0.00000 RG
1.00000 1.00000 1.00000 RG
newpath
177.569 127.425 m
176.204 127.425 175.098 128.532 175.098 129.896  c
175.098 134.837 l
175.098 136.202 176.204 137.308 177.569 137.308  c
182.862 137.308 l
184.226 137.308 185.332 136.202 185.332 134.837  c
185.332 129.896 l
185.332 128.532 184.226 127.425 182.862 127.425  c
h
f
0.00000 0.00000 0.00000 RG
[ 1.00000 0.00000 0.00000 1.00000 173.715 124.867 ] concat
newpath
.859375 12.0000 m
.859375 4.12500 l
4.35938 4.12500 l
5.05729 4.12500 5.58854 4.19531 5.95312 4.33594  c
6.31771 4.47656 6.60938 4.72656 6.82812 5.08594  c
7.04688 5.44531 7.15625 5.84375 7.15625 6.28125  c
7.15625 6.83333 6.97656 7.30208 6.61719 7.68750  c
6.25781 8.07292 5.69792 8.31771 4.93750 8.42188  c
5.21875 8.54688 5.42708 8.67708 5.56250 8.81250  c
5.87500 9.09375 6.16667 9.44271 6.43750 9.85938  c
7.79688 12.0000 l
6.50000 12.0000 l
5.45312 10.3594 l
5.15104 9.89062 4.90104 9.53125 4.70312 9.28125  c
4.50521 9.03125 4.32812 8.85417 4.17188 8.75000  c
4.01562 8.64583 3.85938 8.57812 3.70312 8.54688  c
3.57812 8.51562 3.38021 8.50000 3.10938 8.50000  c
1.90625 8.50000 l
1.90625 12.0000 l
.859375 12.0000 l
h
1.90625 7.59375 m
4.14062 7.59375 l
4.61979 7.59375 4.99479 7.54688 5.26562 7.45312  c
5.53646 7.35938 5.73958 7.20312 5.87500 6.98438  c
6.01042 6.76562 6.07812 6.53125 6.07812 6.28125  c
6.07812 5.90625 5.94531 5.59896 5.67969 5.35938  c
5.41406 5.11979 4.98958 5.00000 4.40625 5.00000  c
1.90625 5.00000 l
1.90625 7.59375 l
h
12.0376 12.0000 m
11.0688 12.0000 l
11.0688 5.84375 l
10.8397 6.06250 10.5376 6.28385 10.1626 6.50781  c
9.78760 6.73177 9.44906 6.89583 9.14697 7.00000  c
9.14697 6.06250 l
9.68864 5.81250 10.1600 5.50781 10.5610 5.14844  c
10.9621 4.78906 11.2459 4.43750 11.4126 4.09375  c
12.0376 4.09375 l
12.0376 12.0000 l
h
f
[ 1.00000 0.00000 0.00000 1.00000 0.00000 0.00000 ] defaultmatrix matrix concatmatrix setmatrix
[ 1.00000 0.00000 0.00000 1.00000 0.00000 0.00000 ] defaultmatrix matrix concatmatrix setmatrix
[ 1.00000 0.00000 0.00000 1.00000 186.481 127.367 ] concat
0.00000 0.00000 .607843 RG
newpath
3.98438 3.67188 m
3.28125 3.73438 l
3.21875 3.45312 3.13021 3.25000 3.01562 3.12500  c
2.82812 2.92708 2.59375 2.82812 2.31250 2.82812  c
2.09375 2.82812 1.89583 2.89062 1.71875 3.01562  c
1.50000 3.17188 1.32812 3.40625 1.20312 3.71875  c
1.07812 4.03125 1.01042 4.47396 1.00000 5.04688  c
1.16667 4.78646 1.37240 4.59375 1.61719 4.46875  c
1.86198 4.34375 2.11979 4.28125 2.39062 4.28125  c
2.85938 4.28125 3.25781 4.45312 3.58594 4.79688  c
3.91406 5.14062 4.07812 5.58854 4.07812 6.14062  c
4.07812 6.49479 4.00260 6.82812 3.85156 7.14062  c
3.70052 7.45312 3.48958 7.69010 3.21875 7.85156  c
2.94792 8.01302 2.64062 8.09375 2.29688 8.09375  c
1.70312 8.09375 1.22135 7.87760 .851562 7.44531  c
.481771 7.01302 .296875 6.30208 .296875 5.31250  c
.296875 4.20833 .505208 3.40625 .921875 2.90625  c
1.27604 2.46875 1.75521 2.25000 2.35938 2.25000  c
2.80729 2.25000 3.17448 2.37500 3.46094 2.62500  c
3.74740 2.87500 3.92188 3.22396 3.98438 3.67188  c
h
1.10938 6.14062 m
1.10938 6.38021 1.16146 6.61198 1.26562 6.83594  c
1.36979 7.05990 1.51302 7.22917 1.69531 7.34375  c
1.87760 7.45833 2.07292 7.51562 2.28125 7.51562  c
2.57292 7.51562 2.82552 7.39583 3.03906 7.15625  c
3.25260 6.91667 3.35938 6.59375 3.35938 6.18750  c
3.35938 5.79167 3.25521 5.47917 3.04688 5.25000  c
2.83854 5.02083 2.57292 4.90625 2.25000 4.90625  c
1.93750 4.90625 1.66927 5.02083 1.44531 5.25000  c
1.22135 5.47917 1.10938 5.77604 1.10938 6.14062  c
h
f
[ 1.00000 0.00000 0.00000 1.00000 0.00000 0.00000 ] defaultmatrix matrix concatmatrix setmatrix
[ 1.00000 0.00000 0.00000 1.00000 0.00000 0.00000 ] defaultmatrix matrix concatmatrix setmatrix
0.00000 0.00000 0.00000 RG
0.00000 0.00000 .607843 RG
1.00000 1.00000 1.00000 RG
0.00000 0.00000 0.00000 RG
1.00000 1.00000 1.00000 RG
newpath
151.541 127.339 m
150.133 127.339 148.992 128.481 148.992 129.888  c
148.992 134.986 l
148.992 136.394 150.133 137.535 151.541 137.535  c
153.412 137.535 l
154.820 137.535 155.961 136.394 155.961 134.986  c
155.961 129.888 l
155.961 128.481 154.820 127.339 153.412 127.339  c
h
f
0.00000 0.00000 0.00000 RG
[ 1.00000 0.00000 0.00000 1.00000 148.977 124.867 ] concat
newpath
6.46875 9.23438 m
7.51562 9.50000 l
7.29688 10.3542 6.90365 11.0078 6.33594 11.4609  c
5.76823 11.9141 5.07292 12.1406 4.25000 12.1406  c
3.39583 12.1406 2.70312 11.9661 2.17188 11.6172  c
1.64062 11.2682 1.23698 10.7656 .960938 10.1094  c
.684896 9.45312 .546875 8.75000 .546875 8.00000  c
.546875 7.18750 .703125 6.47396 1.01562 5.85938  c
1.32812 5.24479 1.77344 4.77865 2.35156 4.46094  c
2.92969 4.14323 3.56771 3.98438 4.26562 3.98438  c
5.05729 3.98438 5.72135 4.18490 6.25781 4.58594  c
6.79427 4.98698 7.16667 5.55208 7.37500 6.28125  c
6.34375 6.53125 l
6.16667 5.95833 5.90365 5.54167 5.55469 5.28125  c
5.20573 5.02083 4.77083 4.89062 4.25000 4.89062  c
3.63542 4.89062 3.12500 5.03385 2.71875 5.32031  c
2.31250 5.60677 2.02865 5.99479 1.86719 6.48438  c
1.70573 6.97396 1.62500 7.47917 1.62500 8.00000  c
1.62500 8.66667 1.72135 9.25000 1.91406 9.75000  c
2.10677 10.2500 2.40885 10.6250 2.82031 10.8750  c
3.23177 11.1250 3.67708 11.2500 4.15625 11.2500  c
4.73958 11.2500 5.23438 11.0807 5.64062 10.7422  c
6.04688 10.4036 6.32292 9.90104 6.46875 9.23438  c
h
f
[ 1.00000 0.00000 0.00000 1.00000 0.00000 0.00000 ] defaultmatrix matrix concatmatrix setmatrix
[ 1.00000 0.00000 0.00000 1.00000 0.00000 0.00000 ] defaultmatrix matrix concatmatrix setmatrix
[ 1.00000 0.00000 0.00000 1.00000 150.477 121.320 ] concat
0.00000 0.00000 .607843 RG
newpath
.328125 6.50000 m
1.07812 6.43750 l
1.13021 6.79167 1.25521 7.05990 1.45312 7.24219  c
1.65104 7.42448 1.89062 7.51562 2.17188 7.51562  c
2.51562 7.51562 2.80469 7.38802 3.03906 7.13281  c
3.27344 6.87760 3.39062 6.54167 3.39062 6.12500  c
3.39062 5.71875 3.27604 5.40104 3.04688 5.17188  c
2.81771 4.94271 2.52083 4.82812 2.15625 4.82812  c
1.93750 4.82812 1.73698 4.87760 1.55469 4.97656  c
1.37240 5.07552 1.22917 5.20833 1.12500 5.37500  c
.453125 5.29688 l
1.01562 2.34375 l
3.85938 2.34375 l
3.85938 3.01562 l
1.57812 3.01562 l
1.26562 4.56250 l
1.60938 4.32292 1.96875 4.20312 2.34375 4.20312  c
2.84375 4.20312 3.26562 4.37500 3.60938 4.71875  c
3.95312 5.06250 4.12500 5.51042 4.12500 6.06250  c
4.12500 6.57292 3.97396 7.02083 3.67188 7.40625  c
3.30729 7.86458 2.80729 8.09375 2.17188 8.09375  c
1.65104 8.09375 1.22656 7.94792 .898438 7.65625  c
.570312 7.36458 .380208 6.97917 .328125 6.50000  c
h
f
[ 1.00000 0.00000 0.00000 1.00000 0.00000 0.00000 ] defaultmatrix matrix concatmatrix setmatrix
[ 1.00000 0.00000 0.00000 1.00000 0.00000 0.00000 ] defaultmatrix matrix concatmatrix setmatrix
0.00000 0.00000 0.00000 RG
0.00000 0.00000 .607843 RG
1.00000 1.00000 1.00000 RG
.200000 .200000 .600000 RG
1.00000 1.00000 1.00000 RG
newpath
124.097 127.445 m
122.738 127.445 121.636 128.547 121.636 129.906  c
121.636 134.828 l
121.636 136.187 122.738 137.289 124.097 137.289  c
125.379 137.289 l
126.738 137.289 127.840 136.187 127.840 134.828  c
127.840 129.906 l
127.840 128.547 126.738 127.445 125.379 127.445  c
h
f
.200000 .200000 .600000 RG
[ 1.00000 0.00000 0.00000 1.00000 121.238 124.867 ] concat
newpath
.843750 12.0000 m
.843750 4.12500 l
1.90625 4.12500 l
6.04688 10.3125 l
6.04688 4.12500 l
7.04688 4.12500 l
7.04688 12.0000 l
5.96875 12.0000 l
1.84375 5.81250 l
1.84375 12.0000 l
.843750 12.0000 l
h
f
[ 1.00000 0.00000 0.00000 1.00000 0.00000 0.00000 ] defaultmatrix matrix concatmatrix setmatrix
[ 1.00000 0.00000 0.00000 1.00000 0.00000 0.00000 ] defaultmatrix matrix concatmatrix setmatrix
[ 1.00000 0.00000 0.00000 1.00000 115.675 127.367 ] concat
0.00000 0.00000 .607843 RG
newpath
2.59375 8.00000 m
2.59375 6.62500 l
.109375 6.62500 l
.109375 5.98438 l
2.71875 2.26562 l
3.29688 2.26562 l
3.29688 5.98438 l
4.06250 5.98438 l
4.06250 6.62500 l
3.29688 6.62500 l
3.29688 8.00000 l
2.59375 8.00000 l
h
2.59375 5.98438 m
2.59375 3.40625 l
.796875 5.98438 l
2.59375 5.98438 l
h
f
[ 1.00000 0.00000 0.00000 1.00000 0.00000 0.00000 ] defaultmatrix matrix concatmatrix setmatrix
[ 1.00000 0.00000 0.00000 1.00000 0.00000 0.00000 ] defaultmatrix matrix concatmatrix setmatrix
.200000 .200000 .600000 RG
0.00000 0.00000 .607843 RG
1.00000 1.00000 1.00000 RG
0.00000 0.00000 0.00000 RG
[ 1.00000 0.00000 0.00000 1.00000 276.605 125.618 ] concat
newpath
.859375 12.0000 m
.859375 4.12500 l
4.35938 4.12500 l
5.05729 4.12500 5.58854 4.19531 5.95312 4.33594  c
6.31771 4.47656 6.60938 4.72656 6.82812 5.08594  c
7.04688 5.44531 7.15625 5.84375 7.15625 6.28125  c
7.15625 6.83333 6.97656 7.30208 6.61719 7.68750  c
6.25781 8.07292 5.69792 8.31771 4.93750 8.42188  c
5.21875 8.54688 5.42708 8.67708 5.56250 8.81250  c
5.87500 9.09375 6.16667 9.44271 6.43750 9.85938  c
7.79688 12.0000 l
6.50000 12.0000 l
5.45312 10.3594 l
5.15104 9.89062 4.90104 9.53125 4.70312 9.28125  c
4.50521 9.03125 4.32812 8.85417 4.17188 8.75000  c
4.01562 8.64583 3.85938 8.57812 3.70312 8.54688  c
3.57812 8.51562 3.38021 8.50000 3.10938 8.50000  c
1.90625 8.50000 l
1.90625 12.0000 l
.859375 12.0000 l
h
1.90625 7.59375 m
4.14062 7.59375 l
4.61979 7.59375 4.99479 7.54688 5.26562 7.45312  c
5.53646 7.35938 5.73958 7.20312 5.87500 6.98438  c
6.01042 6.76562 6.07812 6.53125 6.07812 6.28125  c
6.07812 5.90625 5.94531 5.59896 5.67969 5.35938  c
5.41406 5.11979 4.98958 5.00000 4.40625 5.00000  c
1.90625 5.00000 l
1.90625 7.59375 l
h
12.0376 12.0000 m
11.0688 12.0000 l
11.0688 5.84375 l
10.8397 6.06250 10.5376 6.28385 10.1626 6.50781  c
9.78760 6.73177 9.44906 6.89583 9.14697 7.00000  c
9.14697 6.06250 l
9.68864 5.81250 10.1600 5.50781 10.5610 5.14844  c
10.9621 4.78906 11.2459 4.43750 11.4126 4.09375  c
12.0376 4.09375 l
12.0376 12.0000 l
h
f
[ 1.00000 0.00000 0.00000 1.00000 0.00000 0.00000 ] defaultmatrix matrix concatmatrix setmatrix
[ 1.00000 0.00000 0.00000 1.00000 0.00000 0.00000 ] defaultmatrix matrix concatmatrix setmatrix
[ 1.00000 0.00000 0.00000 1.00000 281.105 137.876 ] concat
0.00000 0.00000 .607843 RG
newpath
3.98438 3.67188 m
3.28125 3.73438 l
3.21875 3.45312 3.13021 3.25000 3.01562 3.12500  c
2.82812 2.92708 2.59375 2.82812 2.31250 2.82812  c
2.09375 2.82812 1.89583 2.89062 1.71875 3.01562  c
1.50000 3.17188 1.32812 3.40625 1.20312 3.71875  c
1.07812 4.03125 1.01042 4.47396 1.00000 5.04688  c
1.16667 4.78646 1.37240 4.59375 1.61719 4.46875  c
1.86198 4.34375 2.11979 4.28125 2.39062 4.28125  c
2.85938 4.28125 3.25781 4.45312 3.58594 4.79688  c
3.91406 5.14062 4.07812 5.58854 4.07812 6.14062  c
4.07812 6.49479 4.00260 6.82812 3.85156 7.14062  c
3.70052 7.45312 3.48958 7.69010 3.21875 7.85156  c
2.94792 8.01302 2.64062 8.09375 2.29688 8.09375  c
1.70312 8.09375 1.22135 7.87760 .851562 7.44531  c
.481771 7.01302 .296875 6.30208 .296875 5.31250  c
.296875 4.20833 .505208 3.40625 .921875 2.90625  c
1.27604 2.46875 1.75521 2.25000 2.35938 2.25000  c
2.80729 2.25000 3.17448 2.37500 3.46094 2.62500  c
3.74740 2.87500 3.92188 3.22396 3.98438 3.67188  c
h
1.10938 6.14062 m
1.10938 6.38021 1.16146 6.61198 1.26562 6.83594  c
1.36979 7.05990 1.51302 7.22917 1.69531 7.34375  c
1.87760 7.45833 2.07292 7.51562 2.28125 7.51562  c
2.57292 7.51562 2.82552 7.39583 3.03906 7.15625  c
3.25260 6.91667 3.35938 6.59375 3.35938 6.18750  c
3.35938 5.79167 3.25521 5.47917 3.04688 5.25000  c
2.83854 5.02083 2.57292 4.90625 2.25000 4.90625  c
1.93750 4.90625 1.66927 5.02083 1.44531 5.25000  c
1.22135 5.47917 1.10938 5.77604 1.10938 6.14062  c
h
f
[ 1.00000 0.00000 0.00000 1.00000 0.00000 0.00000 ] defaultmatrix matrix concatmatrix setmatrix
[ 1.00000 0.00000 0.00000 1.00000 0.00000 0.00000 ] defaultmatrix matrix concatmatrix setmatrix
0.00000 0.00000 0.00000 RG
0.00000 0.00000 .607843 RG
1.00000 1.00000 1.00000 RG
.200000 .200000 .600000 RG
1.00000 1.00000 1.00000 RG
newpath
357.905 128.196 m
356.545 128.196 355.444 129.298 355.444 130.657  c
355.444 135.579 l
355.444 136.938 356.545 138.040 357.905 138.040  c
359.186 138.040 l
360.545 138.040 361.647 136.938 361.647 135.579  c
361.647 130.657 l
361.647 129.298 360.545 128.196 359.186 128.196  c
h
f
.200000 .200000 .600000 RG
[ 1.00000 0.00000 0.00000 1.00000 355.045 125.618 ] concat
newpath
.843750 12.0000 m
.843750 4.12500 l
1.90625 4.12500 l
6.04688 10.3125 l
6.04688 4.12500 l
7.04688 4.12500 l
7.04688 12.0000 l
5.96875 12.0000 l
1.84375 5.81250 l
1.84375 12.0000 l
.843750 12.0000 l
h
f
[ 1.00000 0.00000 0.00000 1.00000 0.00000 0.00000 ] defaultmatrix matrix concatmatrix setmatrix
[ 1.00000 0.00000 0.00000 1.00000 0.00000 0.00000 ] defaultmatrix matrix concatmatrix setmatrix
[ 1.00000 0.00000 0.00000 1.00000 363.530 128.118 ] concat
0.00000 0.00000 .607843 RG
newpath
4.03125 7.32812 m
4.03125 8.00000 l
.250000 8.00000 l
.239583 7.83333 .265625 7.67188 .328125 7.51562  c
.421875 7.25521 .575521 7.00000 .789062 6.75000  c
1.00260 6.50000 1.30729 6.20833 1.70312 5.87500  c
2.32812 5.36458 2.75000 4.96094 2.96875 4.66406  c
3.18750 4.36719 3.29688 4.08854 3.29688 3.82812  c
3.29688 3.54688 3.19792 3.30990 3.00000 3.11719  c
2.80208 2.92448 2.54167 2.82812 2.21875 2.82812  c
1.88542 2.82812 1.61719 2.92969 1.41406 3.13281  c
1.21094 3.33594 1.10417 3.61979 1.09375 3.98438  c
.375000 3.90625 l
.427083 3.36458 .614583 2.95312 .937500 2.67188  c
1.26042 2.39062 1.69271 2.25000 2.23438 2.25000  c
2.78646 2.25000 3.22135 2.40104 3.53906 2.70312  c
3.85677 3.00521 4.01562 3.38542 4.01562 3.84375  c
4.01562 4.07292 3.96875 4.29688 3.87500 4.51562  c
3.78125 4.73438 3.62760 4.96615 3.41406 5.21094  c
3.20052 5.45573 2.83854 5.79167 2.32812 6.21875  c
1.91146 6.57292 1.64323 6.81250 1.52344 6.93750  c
1.40365 7.06250 1.30208 7.19271 1.21875 7.32812  c
4.03125 7.32812 l
h
f
[ 1.00000 0.00000 0.00000 1.00000 0.00000 0.00000 ] defaultmatrix matrix concatmatrix setmatrix
[ 1.00000 0.00000 0.00000 1.00000 0.00000 0.00000 ] defaultmatrix matrix concatmatrix setmatrix
.200000 .200000 .600000 RG
0.00000 0.00000 .607843 RG
1.00000 1.00000 1.00000 RG
.200000 .200000 .600000 RG
1.00000 1.00000 1.00000 RG
newpath
330.166 128.196 m
328.807 128.196 327.705 129.298 327.705 130.657  c
327.705 135.579 l
327.705 136.938 328.807 138.040 330.166 138.040  c
331.447 138.040 l
332.806 138.040 333.908 136.938 333.908 135.579  c
333.908 130.657 l
333.908 129.298 332.806 128.196 331.447 128.196  c
h
f
.200000 .200000 .600000 RG
[ 1.00000 0.00000 0.00000 1.00000 327.307 125.618 ] concat
newpath
.843750 12.0000 m
.843750 4.12500 l
1.90625 4.12500 l
6.04688 10.3125 l
6.04688 4.12500 l
7.04688 4.12500 l
7.04688 12.0000 l
5.96875 12.0000 l
1.84375 5.81250 l
1.84375 12.0000 l
.843750 12.0000 l
h
f
[ 1.00000 0.00000 0.00000 1.00000 0.00000 0.00000 ] defaultmatrix matrix concatmatrix setmatrix
[ 1.00000 0.00000 0.00000 1.00000 0.00000 0.00000 ] defaultmatrix matrix concatmatrix setmatrix
[ 1.00000 0.00000 0.00000 1.00000 322.767 128.118 ] concat
0.00000 0.00000 .607843 RG
newpath
2.98438 8.00000 m
2.28125 8.00000 l
2.28125 3.51562 l
2.11458 3.68229 1.89323 3.84635 1.61719 4.00781  c
1.34115 4.16927 1.09375 4.28646 .875000 4.35938  c
.875000 3.68750 l
1.27083 3.50000 1.61458 3.27604 1.90625 3.01562  c
2.19792 2.75521 2.40625 2.50000 2.53125 2.25000  c
2.98438 2.25000 l
2.98438 8.00000 l
h
f
[ 1.00000 0.00000 0.00000 1.00000 0.00000 0.00000 ] defaultmatrix matrix concatmatrix setmatrix
[ 1.00000 0.00000 0.00000 1.00000 0.00000 0.00000 ] defaultmatrix matrix concatmatrix setmatrix
.200000 .200000 .600000 RG
0.00000 0.00000 .607843 RG
1.00000 1.00000 1.00000 RG
0.00000 0.00000 0.00000 RG
1.00000 1.00000 1.00000 RG
newpath
461.797 127.339 m
460.389 127.339 459.248 128.481 459.248 129.888  c
459.248 134.986 l
459.248 136.394 460.389 137.535 461.797 137.535  c
463.668 137.535 l
465.075 137.535 466.217 136.394 466.217 134.986  c
466.217 129.888 l
466.217 128.481 465.075 127.339 463.668 127.339  c
h
f
0.00000 0.00000 0.00000 RG
[ 1.00000 0.00000 0.00000 1.00000 459.232 124.867 ] concat
newpath
6.46875 9.23438 m
7.51562 9.50000 l
7.29688 10.3542 6.90365 11.0078 6.33594 11.4609  c
5.76823 11.9141 5.07292 12.1406 4.25000 12.1406  c
3.39583 12.1406 2.70312 11.9661 2.17188 11.6172  c
1.64062 11.2682 1.23698 10.7656 .960938 10.1094  c
.684896 9.45312 .546875 8.75000 .546875 8.00000  c
.546875 7.18750 .703125 6.47396 1.01562 5.85938  c
1.32812 5.24479 1.77344 4.77865 2.35156 4.46094  c
2.92969 4.14323 3.56771 3.98438 4.26562 3.98438  c
5.05729 3.98438 5.72135 4.18490 6.25781 4.58594  c
6.79427 4.98698 7.16667 5.55208 7.37500 6.28125  c
6.34375 6.53125 l
6.16667 5.95833 5.90365 5.54167 5.55469 5.28125  c
5.20573 5.02083 4.77083 4.89062 4.25000 4.89062  c
3.63542 4.89062 3.12500 5.03385 2.71875 5.32031  c
2.31250 5.60677 2.02865 5.99479 1.86719 6.48438  c
1.70573 6.97396 1.62500 7.47917 1.62500 8.00000  c
1.62500 8.66667 1.72135 9.25000 1.91406 9.75000  c
2.10677 10.2500 2.40885 10.6250 2.82031 10.8750  c
3.23177 11.1250 3.67708 11.2500 4.15625 11.2500  c
4.73958 11.2500 5.23438 11.0807 5.64062 10.7422  c
6.04688 10.4036 6.32292 9.90104 6.46875 9.23438  c
h
f
[ 1.00000 0.00000 0.00000 1.00000 0.00000 0.00000 ] defaultmatrix matrix concatmatrix setmatrix
[ 1.00000 0.00000 0.00000 1.00000 0.00000 0.00000 ] defaultmatrix matrix concatmatrix setmatrix
[ 1.00000 0.00000 0.00000 1.00000 467.721 127.437 ] concat
0.00000 0.00000 .607843 RG
newpath
.343750 6.48438 m
1.04688 6.39062 l
1.11979 6.78646 1.25521 7.07292 1.45312 7.25000  c
1.65104 7.42708 1.88542 7.51562 2.15625 7.51562  c
2.48958 7.51562 2.77083 7.40104 3.00000 7.17188  c
3.22917 6.94271 3.34375 6.66146 3.34375 6.32812  c
3.34375 6.00521 3.23698 5.73698 3.02344 5.52344  c
2.80990 5.30990 2.54167 5.20312 2.21875 5.20312  c
2.08333 5.20312 1.91667 5.22917 1.71875 5.28125  c
1.79688 4.67188 l
1.84896 4.67188 1.89062 4.67188 1.92188 4.67188  c
2.21354 4.67188 2.47917 4.59375 2.71875 4.43750  c
2.95833 4.28125 3.07812 4.04167 3.07812 3.71875  c
3.07812 3.45833 2.99219 3.24479 2.82031 3.07812  c
2.64844 2.91146 2.42188 2.82812 2.14062 2.82812  c
1.86979 2.82812 1.64323 2.91406 1.46094 3.08594  c
1.27865 3.25781 1.16146 3.51562 1.10938 3.85938  c
.406250 3.73438 l
.489583 3.26562 .684896 2.90104 .992188 2.64062  c
1.29948 2.38021 1.67708 2.25000 2.12500 2.25000  c
2.43750 2.25000 2.72656 2.31771 2.99219 2.45312  c
3.25781 2.58854 3.46094 2.77083 3.60156 3.00000  c
3.74219 3.22917 3.81250 3.47396 3.81250 3.73438  c
3.81250 3.98438 3.74479 4.21094 3.60938 4.41406  c
3.47396 4.61719 3.27604 4.77604 3.01562 4.89062  c
3.35938 4.97396 3.62500 5.13802 3.81250 5.38281  c
4.00000 5.62760 4.09375 5.93750 4.09375 6.31250  c
4.09375 6.81250 3.91146 7.23698 3.54688 7.58594  c
3.18229 7.93490 2.71875 8.10938 2.15625 8.10938  c
1.65625 8.10938 1.23958 7.95833 .906250 7.65625  c
.572917 7.35417 .385417 6.96354 .343750 6.48438  c
h
f
[ 1.00000 0.00000 0.00000 1.00000 0.00000 0.00000 ] defaultmatrix matrix concatmatrix setmatrix
[ 1.00000 0.00000 0.00000 1.00000 0.00000 0.00000 ] defaultmatrix matrix concatmatrix setmatrix
0.00000 0.00000 0.00000 RG
0.00000 0.00000 .607843 RG
1.00000 1.00000 1.00000 RG
0.00000 0.00000 0.00000 RG
1.00000 1.00000 1.00000 RG
newpath
434.058 127.339 m
432.650 127.339 431.509 128.481 431.509 129.888  c
431.509 134.986 l
431.509 136.394 432.650 137.535 434.058 137.535  c
435.929 137.535 l
437.337 137.535 438.478 136.394 438.478 134.986  c
438.478 129.888 l
438.478 128.481 437.337 127.339 435.929 127.339  c
h
f
0.00000 0.00000 0.00000 RG
[ 1.00000 0.00000 0.00000 1.00000 431.494 124.867 ] concat
newpath
6.46875 9.23438 m
7.51562 9.50000 l
7.29688 10.3542 6.90365 11.0078 6.33594 11.4609  c
5.76823 11.9141 5.07292 12.1406 4.25000 12.1406  c
3.39583 12.1406 2.70312 11.9661 2.17188 11.6172  c
1.64062 11.2682 1.23698 10.7656 .960938 10.1094  c
.684896 9.45312 .546875 8.75000 .546875 8.00000  c
.546875 7.18750 .703125 6.47396 1.01562 5.85938  c
1.32812 5.24479 1.77344 4.77865 2.35156 4.46094  c
2.92969 4.14323 3.56771 3.98438 4.26562 3.98438  c
5.05729 3.98438 5.72135 4.18490 6.25781 4.58594  c
6.79427 4.98698 7.16667 5.55208 7.37500 6.28125  c
6.34375 6.53125 l
6.16667 5.95833 5.90365 5.54167 5.55469 5.28125  c
5.20573 5.02083 4.77083 4.89062 4.25000 4.89062  c
3.63542 4.89062 3.12500 5.03385 2.71875 5.32031  c
2.31250 5.60677 2.02865 5.99479 1.86719 6.48438  c
1.70573 6.97396 1.62500 7.47917 1.62500 8.00000  c
1.62500 8.66667 1.72135 9.25000 1.91406 9.75000  c
2.10677 10.2500 2.40885 10.6250 2.82031 10.8750  c
3.23177 11.1250 3.67708 11.2500 4.15625 11.2500  c
4.73958 11.2500 5.23438 11.0807 5.64062 10.7422  c
6.04688 10.4036 6.32292 9.90104 6.46875 9.23438  c
h
f
[ 1.00000 0.00000 0.00000 1.00000 0.00000 0.00000 ] defaultmatrix matrix concatmatrix setmatrix
[ 1.00000 0.00000 0.00000 1.00000 0.00000 0.00000 ] defaultmatrix matrix concatmatrix setmatrix
[ 1.00000 0.00000 0.00000 1.00000 432.994 121.320 ] concat
0.00000 0.00000 .607843 RG
newpath
.328125 6.50000 m
1.07812 6.43750 l
1.13021 6.79167 1.25521 7.05990 1.45312 7.24219  c
1.65104 7.42448 1.89062 7.51562 2.17188 7.51562  c
2.51562 7.51562 2.80469 7.38802 3.03906 7.13281  c
3.27344 6.87760 3.39062 6.54167 3.39062 6.12500  c
3.39062 5.71875 3.27604 5.40104 3.04688 5.17188  c
2.81771 4.94271 2.52083 4.82812 2.15625 4.82812  c
1.93750 4.82812 1.73698 4.87760 1.55469 4.97656  c
1.37240 5.07552 1.22917 5.20833 1.12500 5.37500  c
.453125 5.29688 l
1.01562 2.34375 l
3.85938 2.34375 l
3.85938 3.01562 l
1.57812 3.01562 l
1.26562 4.56250 l
1.60938 4.32292 1.96875 4.20312 2.34375 4.20312  c
2.84375 4.20312 3.26562 4.37500 3.60938 4.71875  c
3.95312 5.06250 4.12500 5.51042 4.12500 6.06250  c
4.12500 6.57292 3.97396 7.02083 3.67188 7.40625  c
3.30729 7.86458 2.80729 8.09375 2.17188 8.09375  c
1.65104 8.09375 1.22656 7.94792 .898438 7.65625  c
.570312 7.36458 .380208 6.97917 .328125 6.50000  c
h
f
[ 1.00000 0.00000 0.00000 1.00000 0.00000 0.00000 ] defaultmatrix matrix concatmatrix setmatrix
[ 1.00000 0.00000 0.00000 1.00000 0.00000 0.00000 ] defaultmatrix matrix concatmatrix setmatrix
0.00000 0.00000 0.00000 RG
0.00000 0.00000 .607843 RG
1.00000 1.00000 1.00000 RG
.200000 .200000 .600000 RG
1.00000 1.00000 1.00000 RG
newpath
406.614 127.445 m
405.255 127.445 404.154 128.547 404.154 129.906  c
404.154 134.828 l
404.154 136.187 405.255 137.289 406.614 137.289  c
407.896 137.289 l
409.255 137.289 410.357 136.187 410.357 134.828  c
410.357 129.906 l
410.357 128.547 409.255 127.445 407.896 127.445  c
h
f
.200000 .200000 .600000 RG
[ 1.00000 0.00000 0.00000 1.00000 403.755 124.867 ] concat
newpath
.843750 12.0000 m
.843750 4.12500 l
1.90625 4.12500 l
6.04688 10.3125 l
6.04688 4.12500 l
7.04688 4.12500 l
7.04688 12.0000 l
5.96875 12.0000 l
1.84375 5.81250 l
1.84375 12.0000 l
.843750 12.0000 l
h
f
[ 1.00000 0.00000 0.00000 1.00000 0.00000 0.00000 ] defaultmatrix matrix concatmatrix setmatrix
[ 1.00000 0.00000 0.00000 1.00000 0.00000 0.00000 ] defaultmatrix matrix concatmatrix setmatrix
[ 1.00000 0.00000 0.00000 1.00000 398.192 127.367 ] concat
0.00000 0.00000 .607843 RG
newpath
2.59375 8.00000 m
2.59375 6.62500 l
.109375 6.62500 l
.109375 5.98438 l
2.71875 2.26562 l
3.29688 2.26562 l
3.29688 5.98438 l
4.06250 5.98438 l
4.06250 6.62500 l
3.29688 6.62500 l
3.29688 8.00000 l
2.59375 8.00000 l
h
2.59375 5.98438 m
2.59375 3.40625 l
.796875 5.98438 l
2.59375 5.98438 l
h
f
[ 1.00000 0.00000 0.00000 1.00000 0.00000 0.00000 ] defaultmatrix matrix concatmatrix setmatrix
[ 1.00000 0.00000 0.00000 1.00000 0.00000 0.00000 ] defaultmatrix matrix concatmatrix setmatrix
.200000 .200000 .600000 RG
0.00000 0.00000 .607843 RG
1.00000 1.00000 1.00000 RG
0.00000 0.00000 0.00000 RG
1.00000 1.00000 1.00000 RG
newpath
92.0723 10.0130 m
90.6916 10.0130 89.5723 11.1323 89.5723 12.5130  c
89.5723 17.5130 l
89.5723 18.8937 90.6916 20.0130 92.0723 20.0130  c
147.710 20.0130 l
149.091 20.0130 150.210 18.8937 150.210 17.5130  c
150.210 12.5130 l
150.210 11.1323 149.091 10.0130 147.710 10.0130  c
h
f
0.00000 0.00000 0.00000 RG
[ 1.00000 0.00000 0.00000 1.00000 92.3911 7.45047 ] concat
newpath
-.218750 12.0000 m
4.25000 4.12500 l
5.48438 4.12500 l
6.78125 12.0000 l
5.76562 12.0000 l
5.37500 9.73438 l
2.20312 9.73438 l
.937500 12.0000 l
-.218750 12.0000 l
h
2.64062 8.92188 m
5.25000 8.92188 l
4.95312 6.95312 l
4.82812 6.16146 4.75521 5.50521 4.73438 4.98438  c
4.54688 5.43229 4.28125 5.96875 3.93750 6.59375  c
2.64062 8.92188 l
h
7.63379 12.0000 m
9.27441 4.12500 l
10.2432 4.12500 l
8.60254 12.0000 l
7.63379 12.0000 l
h
10.1558 12.0000 m
11.8120 4.12500 l
12.7651 4.12500 l
11.7495 9.01562 l
14.5933 6.29688 l
15.8745 6.29688 l
13.4370 8.42188 l
14.9058 12.0000 l
13.8433 12.0000 l
12.7026 9.07812 l
11.5308 10.0938 l
11.1245 12.0000 l
10.1558 12.0000 l
h
19.4995 11.2969 m
19.1558 11.5781 18.8276 11.7865 18.5151 11.9219  c
18.2026 12.0573 17.8693 12.1250 17.5151 12.1250  c
16.9943 12.1250 16.5724 11.9714 16.2495 11.6641  c
15.9266 11.3568 15.7651 10.9583 15.7651 10.4688  c
15.7651 10.1562 15.8381 9.87760 15.9839 9.63281  c
16.1297 9.38802 16.3224 9.19010 16.5620 9.03906  c
16.8016 8.88802 17.0933 8.78125 17.4370 8.71875  c
17.6558 8.67708 18.0698 8.64323 18.6792 8.61719  c
19.2886 8.59115 19.7287 8.52604 19.9995 8.42188  c
20.0724 8.16146 20.1089 7.94271 20.1089 7.76562  c
20.1089 7.53646 20.0256 7.35938 19.8589 7.23438  c
19.6401 7.05729 19.3120 6.96875 18.8745 6.96875  c
18.4683 6.96875 18.1349 7.05729 17.8745 7.23438  c
17.6141 7.41146 17.4266 7.66667 17.3120 8.00000  c
16.3276 7.92188 l
16.5256 7.34896 16.8407 6.91406 17.2729 6.61719  c
17.7052 6.32031 18.2547 6.17188 18.9214 6.17188  c
19.6297 6.17188 20.1870 6.33854 20.5933 6.67188  c
20.9162 6.92188 21.0776 7.25000 21.0776 7.65625  c
21.0776 7.95833 21.0308 8.30729 20.9370 8.70312  c
20.6245 10.1250 l
20.5203 10.5729 20.4683 10.9375 20.4683 11.2188  c
20.4683 11.4062 20.5099 11.6667 20.5933 12.0000  c
19.6089 12.0000 l
19.5568 11.8125 19.5203 11.5781 19.4995 11.2969  c
h
19.8589 9.10938 m
19.7131 9.16146 19.5646 9.20312 19.4136 9.23438  c
19.2625 9.26562 19.0047 9.29688 18.6401 9.32812  c
18.0672 9.38021 17.6662 9.44271 17.4370 9.51562  c
17.2078 9.58854 17.0334 9.71094 16.9136 9.88281  c
16.7938 10.0547 16.7339 10.2396 16.7339 10.4375  c
16.7339 10.7083 16.8276 10.9323 17.0151 11.1094  c
17.2026 11.2865 17.4683 11.3750 17.8120 11.3750  c
18.1349 11.3750 18.4448 11.2891 18.7417 11.1172  c
19.0386 10.9453 19.2729 10.7083 19.4448 10.4062  c
19.6167 10.1042 19.7547 9.67188 19.8589 9.10938  c
h
21.6953 12.0000 m
23.3359 4.12500 l
24.3047 4.12500 l
22.6641 12.0000 l
21.6953 12.0000 l
h
25.5923 5.23438 m
25.8267 4.12500 l
26.7798 4.12500 l
26.5610 5.23438 l
25.5923 5.23438 l
h
24.1704 12.0000 m
25.3579 6.29688 l
26.3423 6.29688 l
25.1392 12.0000 l
24.1704 12.0000 l
h
26.7705 12.0000 m
28.4111 4.12500 l
29.7080 4.12500 l
30.5049 9.23438 l
30.6090 9.90104 30.6768 10.5417 30.7080 11.1562  c
30.9268 10.6250 31.2913 9.90625 31.8018 9.00000  c
34.5674 4.12500 l
35.8799 4.12500 l
34.2393 12.0000 l
33.1924 12.0000 l
34.0205 8.17188 l
34.2080 7.28646 34.4788 6.29167 34.8330 5.18750  c
34.6143 5.70833 34.3382 6.26042 34.0049 6.84375  c
31.0674 12.0000 l
30.0518 12.0000 l
29.2549 6.95312 l
29.1924 6.49479 29.1403 5.95312 29.0986 5.32812  c
29.0153 6.02604 28.9320 6.57812 28.8486 6.98438  c
27.8018 12.0000 l
26.7705 12.0000 l
h
40.0117 10.0625 m
40.9492 10.1562 l
40.8138 10.6250 40.5013 11.0703 40.0117 11.4922  c
39.5221 11.9141 38.9388 12.1250 38.2617 12.1250  c
37.8451 12.1250 37.4596 12.0286 37.1055 11.8359  c
36.7513 11.6432 36.4805 11.3594 36.2930 10.9844  c
36.1055 10.6094 36.0117 10.1875 36.0117 9.71875  c
36.0117 9.09375 36.1576 8.48698 36.4492 7.89844  c
36.7409 7.30990 37.1159 6.87500 37.5742 6.59375  c
38.0326 6.31250 38.5273 6.17188 39.0586 6.17188  c
39.7357 6.17188 40.2773 6.38281 40.6836 6.80469  c
41.0898 7.22656 41.2930 7.80208 41.2930 8.53125  c
41.2930 8.81250 41.2721 9.09896 41.2305 9.39062  c
37.0273 9.39062 l
37.0065 9.50521 36.9961 9.60417 36.9961 9.68750  c
36.9961 10.2188 37.1185 10.6250 37.3633 10.9062  c
37.6081 11.1875 37.9076 11.3281 38.2617 11.3281  c
38.5951 11.3281 38.9232 11.2188 39.2461 11.0000  c
39.5690 10.7812 39.8242 10.4688 40.0117 10.0625  c
h
37.1836 8.64062 m
40.3867 8.64062 l
40.3867 8.54688 40.3867 8.47917 40.3867 8.43750  c
40.3867 7.94792 40.2643 7.57292 40.0195 7.31250  c
39.7747 7.05208 39.4596 6.92188 39.0742 6.92188  c
38.6680 6.92188 38.2930 7.06510 37.9492 7.35156  c
37.6055 7.63802 37.3503 8.06771 37.1836 8.64062  c
h
44.2075 11.2031 m
44.0356 12.0000 l
43.8065 12.0625 43.5825 12.0938 43.3638 12.0938  c
42.9784 12.0938 42.6711 12.0000 42.4419 11.8125  c
42.2752 11.6667 42.1919 11.4688 42.1919 11.2188  c
42.1919 11.0938 42.2336 10.8073 42.3169 10.3594  c
43.0200 7.04688 l
42.2544 7.04688 l
42.4106 6.29688 l
43.1763 6.29688 l
43.4731 4.89062 l
44.5825 4.21875 l
44.1450 6.29688 l
45.0981 6.29688 l
44.9419 7.04688 l
43.9888 7.04688 l
43.3325 10.2031 l
43.2492 10.5990 43.2075 10.8385 43.2075 10.9219  c
43.2075 11.0365 43.2414 11.1250 43.3091 11.1875  c
43.3768 11.2500 43.4836 11.2812 43.6294 11.2812  c
43.8481 11.2812 44.0409 11.2552 44.2075 11.2031  c
h
48.8418 11.2969 m
48.4980 11.5781 48.1699 11.7865 47.8574 11.9219  c
47.5449 12.0573 47.2116 12.1250 46.8574 12.1250  c
46.3366 12.1250 45.9147 11.9714 45.5918 11.6641  c
45.2689 11.3568 45.1074 10.9583 45.1074 10.4688  c
45.1074 10.1562 45.1803 9.87760 45.3262 9.63281  c
45.4720 9.38802 45.6647 9.19010 45.9043 9.03906  c
46.1439 8.88802 46.4355 8.78125 46.7793 8.71875  c
46.9980 8.67708 47.4121 8.64323 48.0215 8.61719  c
48.6309 8.59115 49.0710 8.52604 49.3418 8.42188  c
49.4147 8.16146 49.4512 7.94271 49.4512 7.76562  c
49.4512 7.53646 49.3678 7.35938 49.2012 7.23438  c
48.9824 7.05729 48.6543 6.96875 48.2168 6.96875  c
47.8105 6.96875 47.4772 7.05729 47.2168 7.23438  c
46.9564 7.41146 46.7689 7.66667 46.6543 8.00000  c
45.6699 7.92188 l
45.8678 7.34896 46.1829 6.91406 46.6152 6.61719  c
47.0475 6.32031 47.5970 6.17188 48.2637 6.17188  c
48.9720 6.17188 49.5293 6.33854 49.9355 6.67188  c
50.2585 6.92188 50.4199 7.25000 50.4199 7.65625  c
50.4199 7.95833 50.3730 8.30729 50.2793 8.70312  c
49.9668 10.1250 l
49.8626 10.5729 49.8105 10.9375 49.8105 11.2188  c
49.8105 11.4062 49.8522 11.6667 49.9355 12.0000  c
48.9512 12.0000 l
48.8991 11.8125 48.8626 11.5781 48.8418 11.2969  c
h
49.2012 9.10938 m
49.0553 9.16146 48.9069 9.20312 48.7559 9.23438  c
48.6048 9.26562 48.3470 9.29688 47.9824 9.32812  c
47.4095 9.38021 47.0085 9.44271 46.7793 9.51562  c
46.5501 9.58854 46.3757 9.71094 46.2559 9.88281  c
46.1361 10.0547 46.0762 10.2396 46.0762 10.4375  c
46.0762 10.7083 46.1699 10.9323 46.3574 11.1094  c
46.5449 11.2865 46.8105 11.3750 47.1543 11.3750  c
47.4772 11.3750 47.7871 11.2891 48.0840 11.1172  c
48.3809 10.9453 48.6152 10.7083 48.7871 10.4062  c
48.9590 10.1042 49.0970 9.67188 49.2012 9.10938  c
h
51.0376 12.0000 m
52.6782 4.12500 l
53.6470 4.12500 l
52.0063 12.0000 l
51.0376 12.0000 l
h
f
[ 1.00000 0.00000 0.00000 1.00000 0.00000 0.00000 ] defaultmatrix matrix concatmatrix setmatrix
[ 1.00000 0.00000 0.00000 1.00000 0.00000 0.00000 ] defaultmatrix matrix concatmatrix setmatrix
1.00000 1.00000 1.00000 RG
.400000 .200000 .200000 RG
1.00000 1.00000 1.00000 RG
newpath
82.1552 35.8455 m
80.7475 35.8455 79.6064 36.9866 79.6064 38.3943  c
79.6064 43.4920 l
79.6064 44.8996 80.7475 46.0408 82.1552 46.0408  c
88.8388 46.0408 l
90.2465 46.0408 91.3876 44.8996 91.3876 43.4920  c
91.3876 38.3943 l
91.3876 36.9866 90.2465 35.8455 88.8388 35.8455  c
h
f
.400000 .200000 .200000 RG
[ 1.00000 0.00000 0.00000 1.00000 78.9970 33.3728 ] concat
newpath
6.46875 9.23438 m
7.51562 9.50000 l
7.29688 10.3542 6.90365 11.0078 6.33594 11.4609  c
5.76823 11.9141 5.07292 12.1406 4.25000 12.1406  c
3.39583 12.1406 2.70312 11.9661 2.17188 11.6172  c
1.64062 11.2682 1.23698 10.7656 .960938 10.1094  c
.684896 9.45312 .546875 8.75000 .546875 8.00000  c
.546875 7.18750 .703125 6.47396 1.01562 5.85938  c
1.32812 5.24479 1.77344 4.77865 2.35156 4.46094  c
2.92969 4.14323 3.56771 3.98438 4.26562 3.98438  c
5.05729 3.98438 5.72135 4.18490 6.25781 4.58594  c
6.79427 4.98698 7.16667 5.55208 7.37500 6.28125  c
6.34375 6.53125 l
6.16667 5.95833 5.90365 5.54167 5.55469 5.28125  c
5.20573 5.02083 4.77083 4.89062 4.25000 4.89062  c
3.63542 4.89062 3.12500 5.03385 2.71875 5.32031  c
2.31250 5.60677 2.02865 5.99479 1.86719 6.48438  c
1.70573 6.97396 1.62500 7.47917 1.62500 8.00000  c
1.62500 8.66667 1.72135 9.25000 1.91406 9.75000  c
2.10677 10.2500 2.40885 10.6250 2.82031 10.8750  c
3.23177 11.1250 3.67708 11.2500 4.15625 11.2500  c
4.73958 11.2500 5.23438 11.0807 5.64062 10.7422  c
6.04688 10.4036 6.32292 9.90104 6.46875 9.23438  c
h
12.4126 12.0000 m
12.4126 11.1562 l
11.9647 11.8021 11.3605 12.1250 10.6001 12.1250  c
10.2668 12.1250 9.95166 12.0599 9.65479 11.9297  c
9.35791 11.7995 9.13916 11.6380 8.99854 11.4453  c
8.85791 11.2526 8.76156 11.0156 8.70947 10.7344  c
8.66781 10.5469 8.64697 10.2448 8.64697 9.82812  c
8.64697 6.29688 l
9.61572 6.29688 l
9.61572 9.45312 l
9.61572 9.96354 9.63656 10.3073 9.67822 10.4844  c
9.74072 10.7344 9.86833 10.9323 10.0610 11.0781  c
10.2537 11.2240 10.4959 11.2969 10.7876 11.2969  c
11.0793 11.2969 11.3527 11.2214 11.6079 11.0703  c
11.8631 10.9193 12.0428 10.7161 12.1470 10.4609  c
12.2511 10.2057 12.3032 9.83854 12.3032 9.35938  c
12.3032 6.29688 l
13.2720 6.29688 l
13.2720 12.0000 l
12.4126 12.0000 l
h
f
[ 1.00000 0.00000 0.00000 1.00000 0.00000 0.00000 ] defaultmatrix matrix concatmatrix setmatrix
[ 1.00000 0.00000 0.00000 1.00000 0.00000 0.00000 ] defaultmatrix matrix concatmatrix setmatrix
0.00000 0.00000 0.00000 RG
.400000 .200000 .200000 RG
0.00000 0.00000 0.00000 RG
newpath
32.8125 30.0000 m
32.8125 22.1250 l
36.1562 22.1250 l
37.0000 22.1250 37.6120 22.1953 37.9922 22.3359  c
38.3724 22.4766 38.6771 22.7292 38.9062 23.0938  c
39.1354 23.4583 39.2500 23.8698 39.2500 24.3281  c
39.2500 24.9219 39.0755 25.4115 38.7266 25.7969  c
38.3776 26.1823 37.8594 26.4271 37.1719 26.5312  c
37.5156 26.7292 37.7995 26.9479 38.0234 27.1875  c
38.2474 27.4271 38.5469 27.8542 38.9219 28.4688  c
39.8906 30.0000 l
37.9844 30.0000 l
36.8281 28.2812 l
36.4219 27.6771 36.1432 27.2943 35.9922 27.1328  c
35.8411 26.9714 35.6823 26.8620 35.5156 26.8047  c
35.3490 26.7474 35.0833 26.7188 34.7188 26.7188  c
34.3906 26.7188 l
34.3906 30.0000 l
32.8125 30.0000 l
h
34.3906 25.4531 m
35.5781 25.4531 l
36.3385 25.4531 36.8125 25.4219 37.0000 25.3594  c
37.1875 25.2969 37.3359 25.1875 37.4453 25.0312  c
37.5547 24.8750 37.6094 24.6771 37.6094 24.4375  c
37.6094 24.1667 37.5391 23.9505 37.3984 23.7891  c
37.2578 23.6276 37.0573 23.5260 36.7969 23.4844  c
36.6719 23.4635 36.2865 23.4531 35.6406 23.4531  c
34.3906 23.4531 l
34.3906 25.4531 l
h
44.2720 30.0000 m
42.7563 30.0000 l
42.7563 24.3125 l
42.2147 24.8229 41.5688 25.2031 40.8188 25.4531  c
40.8188 24.0938 l
41.2147 23.9583 41.6418 23.7109 42.1001 23.3516  c
42.5584 22.9922 42.8761 22.5729 43.0532 22.0938  c
44.2720 22.0938 l
44.2720 30.0000 l
h
49.5708 25.6094 m
49.5708 24.2344 l
55.0864 24.2344 l
55.0864 25.6094 l
49.5708 25.6094 l
h
49.5708 28.0000 m
49.5708 26.6094 l
55.0864 26.6094 l
55.0864 28.0000 l
49.5708 28.0000 l
h
f
newpath
66.4995 6.89952 m
66.3807 6.89952 66.2606 6.93474 66.1558 7.00807  c
65.8841 7.19820 65.8179 7.57246 66.0081 7.84420  c
66.5671 8.64286 l
65.2081 10.5844 l
65.0636 10.7908 65.0636 11.0664 65.2081 11.2728  c
66.5671 13.2143 l
65.2081 15.1558 l
65.0636 15.3622 65.0636 15.6378 65.2081 15.8442  c
66.5671 17.7857 l
65.2081 19.7272 l
65.0636 19.9336 65.0636 20.2092 65.2081 20.4156  c
66.5671 22.3571 l
66.0081 23.1558 l
65.8179 23.4275 65.8841 23.8018 66.1558 23.9919  c
66.2606 24.0653 66.3807 24.1005 66.4995 24.1005  c
66.6888 24.1005 66.8751 24.0111 66.9919 23.8442  c
67.7919 22.7013 l
67.9364 22.4949 67.9364 22.2194 67.7919 22.0129  c
66.4329 20.0714 l
67.7919 18.1299 l
67.9364 17.9235 67.9364 17.6479 67.7919 17.4415  c
66.4329 15.5000 l
67.7919 13.5585 l
67.9364 13.3521 67.9364 13.0765 67.7919 12.8701  c
66.4329 10.9286 l
67.7919 8.98706 l
67.9364 8.78064 67.9364 8.50508 67.7919 8.29865  c
66.9919 7.15580 l
66.8751 6.98886 66.6888 6.89952 66.4995 6.89952  c
h
f
1.00000 w
2 J
0 j
10.0000 M
[ ] 0.00000 d
newpath
58.4995 32.8995 m
58.3807 32.8995 58.2606 32.9347 58.1558 33.0081  c
57.8841 33.1982 57.8179 33.5725 58.0081 33.8442  c
58.5671 34.6429 l
57.2081 36.5844 l
57.0636 36.7908 57.0636 37.0664 57.2081 37.2728  c
58.5671 39.2143 l
58.5671 39.2143 l
57.2081 41.1558 l
57.0636 41.3622 57.0636 41.6378 57.2081 41.8442  c
58.5671 43.7857 l
58.5671 43.7857 l
57.2081 45.7272 l
57.0636 45.9336 57.0636 46.2092 57.2081 46.4156  c
58.5671 48.3571 l
58.5671 48.3571 l
58.0081 49.1558 l
57.8179 49.4275 57.8841 49.8018 58.1558 49.9919  c
58.2606 50.0653 58.3807 50.1005 58.4995 50.1005  c
58.6888 50.1005 58.8751 50.0111 58.9919 49.8442  c
59.7919 48.7013 l
59.9364 48.4949 59.9364 48.2194 59.7919 48.0129  c
58.4329 46.0714 l
58.4329 46.0714 l
59.7919 44.1299 l
59.9364 43.9235 59.9364 43.6479 59.7919 43.4415  c
58.4329 41.5000 l
58.4329 41.5000 l
59.7919 39.5585 l
59.9364 39.3521 59.9364 39.0765 59.7919 38.8701  c
58.4329 36.9286 l
58.4329 36.9286 l
59.7919 34.9871 l
59.9364 34.7806 59.9364 34.5051 59.7919 34.2987  c
58.9919 33.1558 l
58.8751 32.9889 58.6888 32.8995 58.4995 32.8995  c
h
f
1.00000 w
2 J
0 j
10.0000 M
[ ] 0.00000 d
q
cliprestore
newpath
0.00000 0.00000 m
0.00000 157.000 l
482.000 157.000 l
482.000 0.00000 l
h
W
cliprestore
newpath
0.00000 0.00000 m
0.00000 157.000 l
482.000 157.000 l
482.000 0.00000 l
h
W
Q
cliprestore
97.0000 120.000 12.0000 26.0000 rc
[ .990662 0.00000 0.00000 .990662 .906016 1.12962 ] defaultmatrix matrix concatmatrix setmatrix
[ 1.00000 0.00000 0.00000 1.00000 0.00000 0.00000 ] defaultmatrix matrix concatmatrix setmatrix
cliprestore
newpath
0.00000 0.00000 m
0.00000 157.000 l
482.000 157.000 l
482.000 0.00000 l
h
W
cliprestore
97.0000 120.000 12.0000 26.0000 rc
[ .990662 0.00000 0.00000 .990662 .906016 1.12962 ] defaultmatrix matrix concatmatrix setmatrix
newpath
101.397 138.115 m
101.397 134.771 l
98.0216 134.771 l
98.0216 132.459 l
101.397 132.459 l
101.397 129.115 l
103.647 129.115 l
103.647 132.459 l
107.022 132.459 l
107.022 134.771 l
103.647 134.771 l
103.647 138.115 l
101.397 138.115 l
h
f
[ 1.00000 0.00000 0.00000 1.00000 0.00000 0.00000 ] defaultmatrix matrix concatmatrix setmatrix
cliprestore
newpath
0.00000 0.00000 m
0.00000 157.000 l
482.000 157.000 l
482.000 0.00000 l
h
W
cliprestore
304.000 121.000 13.0000 25.0000 rc
[ .990662 0.00000 0.00000 .990662 2.84083 1.13664 ] defaultmatrix matrix concatmatrix setmatrix
[ 1.00000 0.00000 0.00000 1.00000 0.00000 0.00000 ] defaultmatrix matrix concatmatrix setmatrix
cliprestore
newpath
0.00000 0.00000 m
0.00000 157.000 l
482.000 157.000 l
482.000 0.00000 l
h
W
cliprestore
304.000 121.000 13.0000 25.0000 rc
[ .990662 0.00000 0.00000 .990662 2.84083 1.13664 ] defaultmatrix matrix concatmatrix setmatrix
newpath
308.601 138.866 m
308.601 135.522 l
305.226 135.522 l
305.226 133.210 l
308.601 133.210 l
308.601 129.866 l
310.851 129.866 l
310.851 133.210 l
314.226 133.210 l
314.226 135.522 l
310.851 135.522 l
310.851 138.866 l
308.601 138.866 l
h
f
[ 1.00000 0.00000 0.00000 1.00000 0.00000 0.00000 ] defaultmatrix matrix concatmatrix setmatrix
cliprestore
newpath
0.00000 0.00000 m
0.00000 157.000 l
482.000 157.000 l
482.000 0.00000 l
h
W
cliprestore
380.000 121.000 13.0000 25.0000 rc
[ .990662 0.00000 0.00000 .990662 3.54998 1.13367 ] defaultmatrix matrix concatmatrix setmatrix
[ 1.00000 0.00000 0.00000 1.00000 0.00000 0.00000 ] defaultmatrix matrix concatmatrix setmatrix
cliprestore
newpath
0.00000 0.00000 m
0.00000 157.000 l
482.000 157.000 l
482.000 0.00000 l
h
W
cliprestore
380.000 121.000 13.0000 25.0000 rc
[ .990662 0.00000 0.00000 .990662 3.54998 1.13367 ] defaultmatrix matrix concatmatrix setmatrix
newpath
384.545 138.548 m
384.545 135.204 l
381.170 135.204 l
381.170 132.892 l
384.545 132.892 l
384.545 129.548 l
386.795 129.548 l
386.795 132.892 l
390.170 132.892 l
390.170 135.204 l
386.795 135.204 l
386.795 138.548 l
384.545 138.548 l
h
f
[ 1.00000 0.00000 0.00000 1.00000 0.00000 0.00000 ] defaultmatrix matrix concatmatrix setmatrix
cliprestore
newpath
0.00000 0.00000 m
0.00000 157.000 l
482.000 157.000 l
482.000 0.00000 l
h
W
q
newpath
248.378 132.003 m
205.938 131.946 l
205.937 133.072 l
248.376 133.129 l
248.373 135.831 l
257.383 132.578 l
248.382 129.302 l
h
f
Q

%%Trailer
%%EOF
