%!PS-Adobe-3.0 EPSF-3.0
%%BoundingBox: 20 342 575 449
%%Creator: FreeHEP Graphics2D Driver
%%Producer: org.freehep.graphicsio.ps.EPSGraphics2D
%%For: 
%%Title: 
%%LanguageLevel: 3
%%EndComments
%%BeginProlog
100 dict dup begin

%
% File: org/freehep/graphicsio.ps/PSProlog.txt
% Author: Charles Loomis
%

% Redefinitions which save some space in the output file.  These are also
% the same as the PDF operators.
/q {gsave} def
/Q {grestore} def

/n {newpath} def
/m {moveto} def
/l {lineto} def
/c {curveto} def
/h {closepath} def

/re {4 -2 roll moveto
     dup 0 exch rlineto exch 0 rlineto
     neg 0 exch rlineto closepath} def

/f {fill} def
/f* {eofill} def
/F {gsave vg&FC fill grestore} def
/F* {gsave vg&FC eofill grestore} def

/s {closepath stroke} def
/S {stroke} def

/b {closepath gsave vg&FC fill grestore
    gsave stroke grestore newpath} def
/B {gsave vg&FC fill grestore gsave stroke grestore newpath} def
/b* {closepath gsave vg&FC eofill grestore
    gsave stroke grestore newpath} def
/B* {gsave vg&FC eofill grestore gsave stroke grestore newpath} def

/g {1 array astore /vg&fcolor exch def} def
/G {setgray} def
/k {4 array astore /vg&fcolor exch def} def
/K {setcmykcolor} def
/rg {3 array astore /vg&fcolor exch def} def
/RG {setrgbcolor} def

% Initialize the fill color.
0 0 0 rg

/vg&FC {mark vg&fcolor aload pop
        counttomark 1 eq {G} if
        counttomark 3 eq {RG} if
        counttomark 4 eq {K} if
        cleartomark } def

/vg&DFC {/vg&fcolor exch def} def

/vg&C {mark exch aload pop
       counttomark 1 eq {G} if
       counttomark 3 eq {RG} if
       counttomark 4 eq {K} if
       cleartomark } def

/w {setlinewidth} def
/j {setlinejoin} def
/J {setlinecap} def
/M {setmiterlimit} def
/d {setdash} def
/i {setflat} def

/W {clip} def
/W* {eoclip} def

% Setup the default graphics state.
% (black; 1 pt. linewidth; miter join; butt-ends; solid)
/defaultGraphicsState {0 g 1 w 0 j 0 J [] 0 d} def

% Emulation of the rectangle operators for PostScript implementations
% which do not implement all Level 2 features.  This is an INCOMPLETE
% emulation; only the "x y width height rect..." form is emulated.
/*rf {gsave newpath re fill grestore} def
/*rs {gsave newpath re stroke grestore} def
/*rc {newpath re clip} def
/rf  /rectfill where {pop /rectfill}{/*rf} ifelse load def
/rs  /rectstroke where {pop /rectstroke}{/*rs} ifelse load def
/rc  /rectclip where {pop /rectclip}{/*rc} ifelse load def

% Emulation of the selectfont operator.  This includes a 20% increase in
% the fontsize which is necessary to get sizes similar to the Java fonts.
/*sf {exch findfont exch
      dup type /arraytype eq {makefont}{scalefont} ifelse setfont} bind def
/sf /selectfont where {pop {1.2 mul selectfont}}{{1.2 mul *sf}} ifelse def

% Special version of stroke which allows the dash pattern to continue
% across path segments.  (This may be needed for PostScript although
% modern printers seem to do this correctly.)
/vg&stroke {
  currentdash pop length 0 eq
  {stroke}
  {
    currentdash /vg&doffset exch def pop
    flattenpath
    {m vg&resetdash}
    {2 copy
     currentpoint
     3 -1 roll sub dup mul
     3 1 roll sub dup mul
     add sqrt
     3 1 roll l
     currentdash 3 -1 roll add setdash}
     {}
     {h vg&resetdash}
     pathforall
     stroke
     vg&resetdash
  } ifelse
} def
/vg&resetdash {currentdash pop vg&doffset setdash} def

% Initialize variables for safety.
/delta 0 def
/xv 0 def  /yv 0 def  /width 0 def  /height 0 def

% Initialize to portrait INTERNATIONAL (Letter-height, A4-width) page.
/pw 595 def  /ph 791  def  /po true def /ftp false def

% Initialize margins to 20 points.
/ml 20 def  /mr 20 def  /mt 20 def  /mb 20 def

% Temporary matrices.
/smatrix 0 def  /nmatrix 0 def

% set page size (usage: <page width><page height> setpagesize)
/setpagesize {/ph exch def /pw exch def} def

% set page orientation (usage: portrait or landscape)
/portrait {/po true def} def
/landscape {/po false def} def

% force natural size for image (usage: naturalsize)
/naturalsize {/ftp false def} def

% resize image to fill page (usage: fittopage)
/fittopage {/ftp true def} def

% set margins of the page (usage: <left><bottom><top><right> setmargins)
/setmargins {/mr exch def /mt exch def /mb exch def /ml exch def} def

% set the graphic's size (usage: <width><height> setsize)
/setsize {/gh exch def /gw exch def} def

% set the graphic's origin (usage: <x0><y0> setorigin)
/setorigin {/gy exch def /gx exch def} def

% calculate image center
/imagecenter {pw ml sub mr sub 2 div ml add
              ph mt sub mb sub 2 div mb add} def

% calculate the necessary scaling
/imagescale {po {gw}{gh} ifelse pw ml sub mr sub div
             po {gh}{gw} ifelse ph mt sub mb sub div
             2 copy lt {exch} if pop
             ftp not {1 2 copy lt {exch} if pop} if
             1 exch div /sfactor exch def
             /gw gw sfactor mul def /gh gh sfactor mul def} def

% calculate image origin
/imageorigin {pw ml sub mr sub 2 div ml add
              po {gw}{gh} ifelse 2 div sub
              ph mt sub mb sub 2 div mb add
              po {gh}{gw} ifelse 2 div po {add}{sub} ifelse} def

% calculate the clipping origin
/cliporigin  {pw ml sub mr sub 2 div ml add
              po {gw}{gh} ifelse 2 div sub floor
              ph mt sub mb sub 2 div mb add
              po {gh}{gw} ifelse 2 div sub floor} def

% Set the clipping region to the bounding box.
/cliptobounds {cliporigin po {gw}{gh} ifelse 1 add
                          po {gh}{gw} ifelse 1 add rc} def

% set the base transformation matrix (usage: setbasematrix)
/setbasematrix {imageorigin translate
                po {0}{90} ifelse rotate
                sfactor sfactor neg scale
                /defaultmatrix matrix currentmatrix def} def

% The lower-right bias in drawing 1 pt. wide lines.
/bias  {q 0.5 0.5 translate} def
/unbias {Q} def

% Define the composite fonts used to print Unicode strings.
% Undefine particular values in an encoding array.
/vg&undef { {exch dup 3 -1 roll /.notdef put} forall } def
/vg&redef { {3 -1 roll dup 4 2 roll put} forall } def

% usage: key encoding basefontname vg&newbasefont font
/vg&newbasefont {
findfont dup length dict copy
  begin
    currentdict /FID undef
    /Encoding exch def
    dup /FontName exch def
    currentdict
  end
definefont
} def

% usage: key encoding basefontname vg&newskewedbasefont font
/vg&newskewedbasefont {
findfont dup length dict copy
  begin
    currentdict /FID undef
    /Encoding exch def
    dup /FontName exch def
    exch FontMatrix exch matrix concatmatrix /FontMatrix exch def
    currentdict
  end
definefont
} def

% usage: basekey suffix vg&nconcat name
/vg&nconcat {
  2 {dup length string cvs exch} repeat
  dup length 3 -1 roll dup length 3 -1 roll add string
  dup 0 4 -1 roll dup length 5 1 roll putinterval
  dup 4 -2 roll exch putinterval cvn
} def

%usage: fontname vg&skewmatrix matrix
/vg&skewmatrix {
findfont dup /FontInfo known
  {
    /FontInfo get dup /ItalicAngle known
    {
      [ 1 0 4 -1 roll /ItalicAngle get neg dup sin exch cos div 1 0 0 ]
    }
    {pop matrix} ifelse
  }
  {pop matrix} ifelse
} def

% usage: newfontname basefontname vg&newcompositefont --
/vg&newcompositefont {
/vg&fstyle exch def
/vg&bfont exch def
/vg&fname exch def
<<
/FontStyleBits vg&fstyle
/FontType 0
/FontMatrix matrix
/FontName vg&fname
/FMapType 2
/Encoding [ 0 1 255 {pop 6} for ]
          dup 16#00 0 put % Latin
          dup 16#03 1 put % Greek
          dup 16#20 2 put % Punctuation
          dup 16#21 3 put % Arrows
          dup 16#22 4 put % MathOps
          dup 16#27 5 put % Dingbats

/FDepVector [
vg&bfont /-UC-Latin vg&nconcat UCLatinEncoding
vg&bfont vg&newbasefont

vg&bfont vg&skewmatrix
vg&bfont /-UC-Greek vg&nconcat UCGreekEncoding
/Symbol vg&newskewedbasefont

vg&bfont /-UC-Punctuation vg&nconcat UCPunctuationEncoding
vg&bfont vg&newbasefont

/Arrows-UC findfont
/MathOps-UC findfont
/Dingbats-UC findfont
/Undefined-UC findfont ]
>>
vg&fname exch definefont pop
} def

% Null encoding vector (all elements set to .notdef)
/NullEncoding [ 256 {/.notdef} repeat ] def

% Unicode Latin encoding (unicode codes \u0000-\u00ff)
/UCLatinEncoding
  ISOLatin1Encoding dup length array copy
  dup 16#60 /grave put
  [ 16#90 16#91 16#92 16#93 16#94 16#95 16#96
    16#97 16#98 16#9a 16#9b 16#9d 16#9e 16#9f
  ] vg&undef
  def

% Unicode Greek encoding (unicode codes \u0370-\u03ff)
/UCGreekEncoding
  NullEncoding dup length array copy
  << 16#91 /Alpha    16#92 /Beta      16#93 /Gamma    16#94 /Delta
     16#95 /Epsilon  16#96 /Zeta      16#97 /Eta      16#98 /Theta
     16#99 /Iota     16#9a /Kappa     16#9b /Lambda   16#9c /Mu
     16#9d /Nu       16#9e /Xi        16#9f /Omicron  16#a0 /Pi
     16#a1 /Rho      16#a3 /Sigma     16#a4 /Tau      16#a5 /Upsilon
     16#a6 /Phi      16#a7 /Chi       16#a8 /Psi      16#a9 /Omega
     16#b1 /alpha    16#b2 /beta      16#b3 /gamma    16#b4 /delta
     16#b5 /epsilon  16#b6 /zeta      16#b7 /eta      16#b8 /theta
     16#b9 /iota     16#ba /kappa     16#bb /lambda   16#bc /mu
     16#bd /nu       16#be /xi        16#bf /omicron  16#c0 /pi
     16#c1 /rho      16#c2 /sigma1    16#c3 /sigma    16#c4 /tau
     16#c5 /upsilon  16#c6 /phi1      16#c7 /chi      16#c8 /psi
     16#c9 /omega    16#7e /semicolon 16#87 /dotmath  16#d1 /theta1
     16#d2 /Upsilon1 16#d5 /phi       16#d6 /omega1
  >> vg&redef
  def

% Unicode punctuation encoding (unicode codes \u2000-\u206f)
/UCPunctuationEncoding
  NullEncoding dup length array copy
  << 16#10 /hyphen          16#11 /hyphen              16#12 /endash
     16#13 /emdash          16#18 /quoteleft           16#19 /quoteright
     16#1a /quotesinglbase  16#1b /quotesingle         16#1c /quotedblleft
     16#1d /quotedblright   16#1e /quotedblbase        16#1f /quotedbl
     16#20 /dagger          16#21 /daggerdbl           16#22 /bullet
     16#24 /period          16#26 /ellipsis            16#27 /periodcentered
     16#30 /perthousand     16#44 /fraction
     16#70 /zerosuperior    16#74 /foursuperior        16#75 /fivesuperior
     16#76 /sixsuperior     16#77 /sevensuperior       16#78 /eightsuperior
     16#79 /ninesuperior    16#7b /hyphensuperior      16#7d /parenleftsuperior
     16#7e /parenrightsuperior
     16#80 /zeroinferior    16#84 /fourinferior        16#85 /fiveinferior
     16#81 /oneinferior     16#82 /twoinferior         16#83 /threeinferior
     16#86 /sixinferior     16#87 /seveninferior       16#88 /eightinferior
     16#89 /nineinferior    16#8b /hypheninferior      16#8d /parenleftinferior
     16#8e /parenrightinferior
  >> vg&redef
  def

% Unicode mathematical operators encoding (unicode codes \u2200-\u22ff)
/UCMathOpsEncoding
  NullEncoding dup length array copy
  << 16#00 /universal       16#02 /partialdiff         16#03 /existential
     16#05 /emptyset        16#06 /Delta               16#07 /gradient
     16#08 /element         16#09 /notelement          16#0b /suchthat
     16#0f /product         16#11 /summation           16#12 /minus
     16#15 /fraction        16#17 /asteriskmath        16#19 /bullet
     16#1a /radical         16#1d /proportional        16#1e /infinity
     16#20 /angle           16#23 /bar                 16#27 /logicaland
     16#28 /logicalor       16#29 /intersection        16#2a /union
     16#2b /integral        16#34 /therefore           16#36 /colon
     16#3c /similar         16#45 /congruent           16#48 /approxequal
     16#60 /notequal        16#61 /equivalence         16#64 /lessequal
     16#65 /greaterequal    16#82 /propersubset        16#83 /propersuperset
     16#86 /reflexsubset    16#87 /reflexsuperset      16#95 /circleplus
     16#97 /circlemultiply  16#a5 /perpendicular       16#03 /existential
     16#c0 /logicaland      16#c1 /logicalor           16#c2 /intersection
     16#c3 /union           16#c4 /diamond             16#c5 /dotmath
  >> vg&redef
  def

% Unicode arrows encoding (unicode codes \u2190-\u21ff)
% Also includes those "Letterlike" unicode characters
% which are available in the symbol font. (unicode codes \u2100-\u214f)
/UCArrowsEncoding
  NullEncoding dup length array copy
  << 16#11 /Ifraktur        16#1c /Rfraktur            16#22 /trademarkserif
     16#35 /aleph
     16#90 /arrowleft       16#91 /arrowup             16#92 /arrowright
     16#93 /arrowdown       16#94 /arrowboth           16#d0 /arrowdblleft
     16#d1 /arrowdblup      16#d2 /arrowdblright       16#d3 /arrowdbldown
     16#d4 /arrowdblboth
  >> vg&redef
  def

/ZapfDingbats findfont /Encoding get
dup length array copy /UCDingbatsEncoding exch def
16#20 1 16#7f {
  dup 16#20 sub exch
  UCDingbatsEncoding exch get
  UCDingbatsEncoding 3 1 roll put
} for
16#a0 1 16#ff {
  dup 16#40 sub exch
  UCDingbatsEncoding exch get
  UCDingbatsEncoding 3 1 roll put
} for
UCDingbatsEncoding [ 16#c0 1 16#ff {} for ] vg&undef
[ 16#00  16#05 16#0a 16#0b  16#28 16#4c 16#4e  16#53 16#54 16#55  16#57 16#5f
  16#60  16#68 16#69 16#6a  16#6b 16#6c 16#6d  16#6e 16#6f 16#70  16#71 16#72
  16#73  16#74 16#75 16#95  16#96 16#97 16#b0  16#bf
] vg&undef pop

% Define the base fonts which don't change.
/Undefined-UC NullEncoding       /Helvetica    vg&newbasefont pop
/MathOps-UC   UCMathOpsEncoding  /Symbol       vg&newbasefont pop
/Arrows-UC    UCArrowsEncoding   /Symbol       vg&newbasefont pop
/Dingbats-UC  UCDingbatsEncoding /ZapfDingbats vg&newbasefont pop

% Make the SansSerif composite fonts.
/SansSerif /Helvetica 16#00 vg&newcompositefont
/SansSerif-Bold /Helvetica-Bold 16#01 vg&newcompositefont
/SansSerif-Italic /Helvetica-Oblique 16#02 vg&newcompositefont
/SansSerif-BoldItalic /Helvetica-BoldOblique 16#03 vg&newcompositefont

% Make the Serif composite fonts.
/Serif /Times-Roman 16#00 vg&newcompositefont
/Serif-Bold /Times-Bold 16#01 vg&newcompositefont
/Serif-Italic /Times-Italic 16#02 vg&newcompositefont
/Serif-BoldItalic /Times-BoldItalic 16#03 vg&newcompositefont

% Make the Monospaced composite fonts.
/Monospaced /Courier 16#00 vg&newcompositefont
/Monospaced-Bold /Courier-Bold 16#01 vg&newcompositefont
/Monospaced-Italic /Courier-Oblique 16#02 vg&newcompositefont
/Monospaced-BoldItalic /Courier-BoldOblique 16#03 vg&newcompositefont

% Make the Dialog composite fonts.
/Dialog /Helvetica 16#00 vg&newcompositefont
/Dialog-Bold /Helvetica-Bold 16#01 vg&newcompositefont
/Dialog-Italic /Helvetica-Oblique 16#02 vg&newcompositefont
/Dialog-BoldItalic /Helvetica-BoldOblique 16#03 vg&newcompositefont

% Make the DialogInput composite fonts.
/DialogInput /Courier 16#00 vg&newcompositefont
/DialogInput-Bold /Courier-Bold 16#01 vg&newcompositefont
/DialogInput-Italic /Courier-Oblique 16#02 vg&newcompositefont
/DialogInput-BoldItalic /Courier-BoldOblique 16#03 vg&newcompositefont

% Make the Typewriter composite fonts (JDK 1.1 only).
/Typewriter /Courier 16#00 vg&newcompositefont
/Typewriter-Bold /Courier-Bold 16#01 vg&newcompositefont
/Typewriter-Italic /Courier-Oblique 16#02 vg&newcompositefont
/Typewriter-BoldItalic /Courier-BoldOblique 16#03 vg&newcompositefont


/cfontH {
 dup /fontsize exch def /SansSerif exch sf
 /vg&fontstyles [{cfontH} {cfontHB} {cfontHI} {cfontHBI}] def
} def
/cfontHB {
  dup /fontsize exch def /SansSerif-Bold exch sf
 /vg&fontstyles [{cfontH} {cfontHB} {cfontHI} {cfontHBI}] def
} def
/cfontHI {
 dup /fontsize exch def /SansSerif-Italic exch sf
 /vg&fontstyles [{cfontH} {cfontHB} {cfontHI} {cfontHBI}] def
} def
/cfontHBI {
 dup /fontsize exch def /SansSerif-BoldItalic exch sf
 /vg&fontstyles [{cfontH} {cfontHB} {cfontHI} {cfontHBI}] def
} def

/cfontT {
 dup /fontsize exch def /Serif exch sf
 /vg&fontstyles [{cfontT} {cfontTB} {cfontTI} {cfontTBI}] def
} def
/cfontTB {
 dup /fontsize exch def /Serif-Bold exch sf
 /vg&fontstyles [{cfontT} {cfontTB} {cfontTI} {cfontTBI}] def
} def
/cfontTI {
 dup /fontsize exch def /Serif-Italic exch sf
 /vg&fontstyles [{cfontT} {cfontTB} {cfontTI} {cfontTBI}] def
} def
/cfontTBI {
 dup /fontsize exch def /Serif-BoldItalic exch sf
 /vg&fontstyles [{cfontT} {cfontTB} {cfontTI} {cfontTBI}] def
} def

/cfontC {
 dup /fontsize exch def /Typewriter exch sf
 /vg&fontstyles [{cfontC} {cfontCB} {cfontCI} {cfontCBI}] def
} def
/cfontCB {
 dup /fontsize exch def /Typewriter-Bold exch sf
 /vg&fontstyles [{cfontC} {cfontCB} {cfontCI} {cfontCBI}] def
} def
/cfontCI {
 dup /fontsize exch def /Typewriter-Italic exch sf
 /vg&fontstyles [{cfontC} {cfontCB} {cfontCI} {cfontCBI}] def
} def
/cfontCBI {
 dup /fontsize exch def /Typewriter-BoldItalic exch sf
 /vg&fontstyles [{cfontC} {cfontCB} {cfontCI} {cfontCBI}] def
} def

% Darken or lighten the current color.
/darken {0.7 exch exp 3 copy
         q 4 -1 roll vg&C
         currentrgbcolor 3 {4 -2 roll mul} repeat
         3 array astore Q} def

/displayColorMap
<< /Cr   [1.00 0.00 0.00]       /Cg     [0.00 1.00 0.00]
   /Cb   [0.00 0.00 1.00]       /Cc     [1.00 0.00 0.00 0.00]
   /Cm   [0.00 1.00 0.00 0.00]  /Cy     [0.00 0.00 1.00 0.00]
   /Co   [1.00 0.78 0.00]       /Cp     [1.00 0.67 0.67]
   /Cw   [1   ]                 /Cgrl   [0.75]
   /Cgr  [0.50]                 /Cgrd   [0.25]
   /Ck   [0   ]
   /CGr  [1.00 0.00 0.00]       /CGg    [0.00 1.00 0.00]
   /CGb  [0.00 0.00 1.00]       /CGc    [1.00 0.00 0.00 0.00]
   /CGm  [0.00 1.00 0.00 0.00]  /CGy    [0.00 0.00 1.00 0.00]
   /CGo  [1.00 0.78 0.00]       /CGp    [1.00 0.67 0.67]
   /CGw  [1   ]                 /CGgrl  [0.75]
   /CGgr [0.50]                 /CGgrd  [0.25]
   /CGk  [0   ]
   /CIr  [1.00 0.00 0.00]       /CIg    [0.00 1.00 0.00]
   /CIb  [0.00 0.00 1.00]       /CIc    [1.00 0.00 0.00 0.00]
   /CIm  [0.00 1.00 0.00 0.00]  /CIy    [0.00 0.00 1.00 0.00]
   /CIo  [1.00 0.78 0.00]       /CIp    [1.00 0.67 0.67]
   /CIw  [1   ]                 /CIgrl  [0.75]
   /CIgr [0.50]                 /CIgrd  [0.25]
   /CIk  [0   ]
>> def

/printColorMap
<< /Cr   [1.00 0.33 0.33]       /Cg     [0.33 1.00 0.33]
   /Cb   [0.33 0.33 1.00]       /Cc     [1.00 0.00 0.00 0.00]
   /Cm   [0.00 1.00 0.00 0.00]  /Cy     [0.00 0.00 1.00 0.00]
   /Co   [1.00 0.78 0.00]       /Cp     [1.00 0.67 0.67]
   /Cw   [1   ]                 /Cgrl   [0.75]
   /Cgr  [0.50]                 /Cgrd   [0.25]
   /Ck   [0   ]
   /CGr  [1.00 0.33 0.33]       /CGg    [0.33 1.00 0.33]
   /CGb  [0.33 0.33 1.00]       /CGc    [1.00 0.00 0.00 0.00]
   /CGm  [0.00 1.00 0.00 0.00]  /CGy    [0.00 0.00 1.00 0.00]
   /CGo  [1.00 0.78 0.00]       /CGp    [1.00 0.67 0.67]
   /CGw  [1   ]                 /CGgrl  [0.75]
   /CGgr [0.50]                 /CGgrd  [0.25]
   /CGk  [0   ]
   /CIr  [1.00 0.33 0.33]       /CIg    [0.33 1.00 0.33]
   /CIb  [0.33 0.33 1.00]       /CIc    [1.00 0.00 0.00 0.00]
   /CIm  [0.00 1.00 0.00 0.00]  /CIy    [0.00 0.00 1.00 0.00]
   /CIo  [1.00 0.78 0.00]       /CIp    [1.00 0.67 0.67]
   /CIw  [1   ]                 /CIgrl  [0.75]
   /CIgr [0.50]                 /CIgrd  [0.25]
   /CIk  [0   ]
>> def

/grayColorMap
<< /Cr   [0   ]                 /Cg     [0   ]
   /Cb   [0   ]                 /Cc     [0   ]
   /Cm   [0   ]                 /Cy     [0   ]
   /Co   [0   ]                 /Cp     [0   ]
   /Cw   [0   ]                 /Cgrl   [0   ]
   /Cgr  [0   ]                 /Cgrd   [0   ]
   /Ck   [0   ]
   /CGr  [0.75]                 /CGg    [1   ]
   /CGb  [0.50]                 /CGc    [0.75]
   /CGm  [0.50]                 /CGy    [1   ]
   /CGo  [0.75]                 /CGp    [1   ]
   /CGw  [0   ]                 /CGgrl  [0.25]
   /CGgr [0.50]                 /CGgrd  [0.75]
   /CGk  [1   ]
   /CIr  [1   ]                 /CIg    [1   ]
   /CIb  [1   ]                 /CIc    [1   ]
   /CIm  [1   ]                 /CIy    [1   ]
   /CIo  [1   ]                 /CIp    [1   ]
   /CIw  [1   ]                 /CIgrl  [1   ]
   /CIgr [1   ]                 /CIgrd  [1   ]
   /CIk  [1   ]
>> def

/bwColorMap
<< /Cr   [0   ]                 /Cg     [0   ]
   /Cb   [0   ]                 /Cc     [0   ]
   /Cm   [0   ]                 /Cy     [0   ]
   /Co   [0   ]                 /Cp     [0   ]
   /Cw   [0   ]                 /Cgrl   [0   ]
   /Cgr  [0   ]                 /Cgrd   [0   ]
   /Ck   [0   ]
   /CGr  [1   ]                 /CGg    [1   ]
   /CGb  [1   ]                 /CGc    [1   ]
   /CGm  [1   ]                 /CGy    [1   ]
   /CGo  [1   ]                 /CGp    [1   ]
   /CGw  [0   ]                 /CGgrl  [1   ]
   /CGgr [1   ]                 /CGgrd  [1   ]
   /CGk  [1   ]
   /CIr  [1   ]                 /CIg    [1   ]
   /CIb  [1   ]                 /CIc    [1   ]
   /CIm  [1   ]                 /CIy    [1   ]
   /CIo  [1   ]                 /CIp    [1   ]
   /CIw  [1   ]                 /CIgrl  [1   ]
   /CIgr [1   ]                 /CIgrd  [1   ]
   /CIk  [1   ]
>> def

%
% The following routines handle the alignment of and printing of
% tagged strings.
%

% Predefine the bounding box values.
/bbllx 0 def /bblly 0 def /bburx 0 def /bbury 0 def

% This routine pops the first unicode character off of a string and returns
% the remainder of the string, the character code of first character,
% and a "true" if the string was non-zero length.
% <string>      popfirst <remaining string> <true>
% <null string> popfirst <false>
/popfirst {
  dup length 1 gt
    {dup 0 get /vg&fbyte exch def
     dup 1 get /vg&cbyte exch def
     dup length 2 sub 2 exch getinterval true}
    {pop false} ifelse
} def

% This routine shows a single unicode character given the font and
% character codes.
% <font code> <char code> unicharshow --
/unicharshow {
  2 string
  dup 0 5 -1 roll put
  dup 1 4 -1 roll put
  internalshow
} def

% This is an internal routine to alternate between determining the
% bounding box for stringsize and showing the string for recshow.
% <string> internalshow --
/internalshow {show} def

% This is an internal routine to alternate between determining the
% bounding box for stringsize and stroking various ornaments.
% <string> internalstroke --
/internalstroke {S} def

% Sets up internalshow to use the null device to determine string size.
% -- nullinternalshow --
/nullinternalshow {/internalshow {false charpath flattenpath
                                  pathbbox updatebbox} def} def

% Sets up internalstroke to use the null device to determine string size.
% -- nullinternalstroke --
/nullinternalstroke {
 /internalstroke {flattenpath pathbbox updatebbox} def} def

% This routine tests to see if the character code matches the first
% character of a string.
% <char code> <string> testchar <char code> <true or false>
/testchar {exch dup 3 -1 roll 0 get eq} def

% Raise the text baseline for superscripts.
% -- raise --
/raise {
  0 fontsize 2 div rmoveto
  /fontsize fontsize 2 mul 3 div def
  currentfont /FontName get fontsize sf
} def

% Un-raise the text baseline for superscripts.
% -- unraise --
/unraise {
  /fontsize fontsize 1.5 mul def
  0 fontsize 2 div neg rmoveto
} def

% Lower the text baseline for subscripts.
% -- lower --
/lower {
  0 fontsize 3 div neg rmoveto
  /fontsize fontsize 2 mul 3 div def
  currentfont /FontName get fontsize sf
} def

% Un-lower the text baseline for subscripts.
% -- unlower --
/unlower {
  /fontsize fontsize 1.5 mul def
  0 fontsize 3 div rmoveto
} def

% Compare the top two elements on the stack and leave only the
% larger one.
/maxval {2 copy gt {pop} {exch pop} ifelse} def

% Tokenize a string.  Do not use the usual PostScript token because
% parentheses will not be interpreted correctly because of rescanning
% of the string.
/vg&token {/vg&string exch def /vg&index -1 def /vg&level 0 def
0 2 vg&string length 2 sub {
  dup dup 1 add exch vg&string exch get 8 bitshift vg&string 3 -1 roll get or
  dup 16#f0fe eq {pop 1}{16#f0ff eq {-1}{0} ifelse} ifelse
  /vg&level exch vg&level add def
  vg&level 0 eq {/vg&index exch def exit} if pop
} for
vg&index 0 ge {
  vg&string vg&index 2 add dup vg&string length exch sub getinterval
  vg&index 2 gt {vg&string 2 vg&index 2 sub getinterval}{()} ifelse
  true}
{false} ifelse
} bind def

% Recursively show an unicode string.
% <string> recshow --
/recshow {
  popfirst
  {
    % Test to see if this is a string attribute.
    vg&fbyte 16#f0 and 16#e0 eq
    {
      q

      % Font style.
      currentfont dup /FontStyleBits known {/FontStyleBits get}{pop 0} ifelse
      vg&cbyte or vg&fontstyles exch get fontsize exch exec

      vg&token pop recshow currentpoint Q m recshow
    }
    {
      vg&fbyte 16#F8 and 16#F0 eq {

        % Superscript and/or subscript.
        vg&cbyte 16#00 eq {
          vg&token pop exch vg&token pop 3 -1 roll
          q raise recshow unraise currentpoint pop Q exch
          q lower recshow unlower currentpoint pop Q
          maxval currentpoint exch pop m recshow } if

        % Strikeout.
        vg&cbyte 16#01 eq {
          vg&token pop currentpoint 3 -1 roll recshow
          q 0 J vg&underline vg&uthick w
          currentpoint 4 -2 roll fontsize 3 div add moveto
          fontsize 3 div add lineto internalstroke Q
          recshow} if

        % Underline.
        vg&cbyte 16#02 eq {
          vg&token pop currentpoint 3 -1 roll recshow
          q 0 J vg&underline vg&uthick w
          currentpoint 4 -2 roll vg&uoffset add moveto
          vg&uoffset add lineto internalstroke Q
          recshow} if

        % Dashed underline.
        vg&cbyte 16#03 eq {
          vg&token pop currentpoint 3 -1 roll recshow
          q 0 J [ vg&uthick 5 mul vg&uthick 2 mul] 0 d
          vg&underline vg&uthick w
          currentpoint 4 -2 roll vg&uoffset add moveto
          vg&uoffset add lineto internalstroke Q
          recshow} if

        % Dotted underline.
        vg&cbyte 16#04 eq {
          vg&token pop currentpoint 3 -1 roll recshow
          q 1 J [ 0 vg&uthick 3 mul] 0 d
          vg&underline vg&uthick w
          currentpoint 4 -2 roll vg&uoffset add moveto
          vg&uoffset add lineto internalstroke Q
          recshow} if

        % Thick underline.
        vg&cbyte 16#05 eq {
          vg&token pop currentpoint 3 -1 roll recshow
          q 0 J vg&underline vg&uthick 2 mul w
          currentpoint 4 -2 roll vg&uoffset vg&uthick 2 div sub add moveto
          vg&uoffset vg&uthick 2 div sub add lineto internalstroke Q
          recshow} if

        % Gray thick underline.
        vg&cbyte 16#06 eq {
          vg&token pop currentpoint 3 -1 roll recshow
          q 0 J vg&underline vg&uthick 2 mul w 0.5 setgray
          currentpoint 4 -2 roll vg&uoffset vg&uthick 2 div sub add moveto
          vg&uoffset vg&uthick 2 div sub add lineto internalstroke Q
          recshow} if

        % Overbar.
        vg&cbyte 16#07 eq {
          vg&token pop dup stringsize relative 4 1 roll pop pop exch
          3 -1 roll recshow
          q 0 J vg&underline vg&uthick w
          vg&uoffset neg add dup currentpoint pop exch m l internalstroke Q
          recshow} if
      }
      {
        vg&fbyte vg&cbyte unicharshow recshow
      } ifelse
    } ifelse
  } if
} def

% Get the underline position and thickness from the current font.
/vg&underline {

currentfont dup /FontType get 0 eq {/FDepVector get 0 get} if
dup dup /FontInfo known {
  /FontInfo get dup
  dup /UnderlinePosition known {
    /UnderlinePosition get /vg&uoffset exch def
  }
  {
    pop /vg&uoffset 0 def
  } ifelse
  dup /UnderlineThickness known {
    /UnderlineThickness get /vg&uthick exch def
  }
  {
    pop /vg&uthick 0 def
  } ifelse
}
{
  pop /vg&uoffset 0 def /vg&uthick 0 def
} ifelse
/FontMatrix get
currentfont dup /FontType get 0 eq
{/FontMatrix get matrix concatmatrix}{pop} ifelse
dup 0 vg&uoffset 3 -1 roll transform /vg&uoffset exch def pop
0 vg&uthick 3 -1 roll transform /vg&uthick exch def pop
} def

% Make a frame with the coordinates on the stack.
% <llx> <lly> <urx> <ury> frame --
/frame {4 copy m 3 1 roll exch l 4 -2 roll l l h} def

% Resets the accumulated bounding box to a degenerate box at the
% current point.
% -- resetbbox --
/resetbbox {
  currentpoint 2 copy
  /bbury exch def
  /bburx exch def
  /bblly exch def
  /bbllx exch def
} def

% Update the accumulated bounding box.
% <llx'> <lly'> <urx'> <ury'> updatebbox --
/updatebbox {
  dup bbury gt {/bbury exch def} {pop} ifelse
  dup bburx gt {/bburx exch def} {pop} ifelse
  dup bblly lt {/bblly exch def} {pop} ifelse
  dup bbllx lt {/bbllx exch def} {pop} ifelse
} def

% Set the bounding box to the values on the stack.
% <llx'> <lly'> <urx'> <ury'> updatebbox --
/restorebbox {
  /bbury exch def /bburx exch def /bblly exch def /bbllx exch def
} def

% Push the accumulated bounding box onto the stack.
% -- pushbbox <llx> <lly> <urx> <ury>
/pushbbox {bbllx bblly bburx bbury} def

% Make the relative bounding box relative to the currentpoint.
% <llx'> <lly'> <urx'> <ury'> inflate <llx> <lly> <urx> <ury>
/inflate {
  2 {fontsize 0.2 mul add 4 1 roll} repeat
  2 {fontsize 0.2 mul sub 4 1 roll} repeat
} def

% Make the relative bounding box relative to the currentpoint.
% <llx'> <lly'> <urx'> <ury'> relative <llx> <lly> <urx> <ury>
/relative {
  currentpoint 3 -1 roll add 3 1 roll add exch 4 2 roll
  currentpoint 3 -1 roll add 3 1 roll add exch 4 2 roll
} def

% Returns the size of a string appropriate for recshow.
% <string> stringsize <llx> <lly> <urx> <ury>
/stringsize {
  pushbbox /internalshow load /internalstroke load 7 -1 roll
  q
  nulldevice 0 0 m
  nullinternalshow nullinternalstroke
  resetbbox
  recshow
  /internalstroke exch def /internalshow exch def
  pushbbox 8 -4 roll restorebbox
  Q
} def

% Calculate values for string positioning.
/calcval {4 copy
  3 -1 roll sub /widy exch def sub neg /widx exch def
  pop pop /dy exch def /dx exch def} def

% Utilities to position a string.
% First letter (U=upper, C=center, B=baseline, L=lower)
% Second letter (L=left, C=center, R=right)
/align [
{calcval dx neg widy dy add neg rmoveto} % UL
{calcval dx neg widy 2 div dy add neg rmoveto} % CL
{calcval dx neg 0 rmoveto} % BL
{calcval dx neg dy neg rmoveto} % LL
{calcval widx dx add neg widy dy add neg rmoveto} % UR
{calcval widx dx add neg widy 2 div dy add neg rmoveto} % CR
{calcval widx dx add neg 0 rmoveto} % BR
{calcval widx dx add neg dy neg rmoveto} % LR
{calcval widx 2 div dx add neg widy dy add neg rmoveto} % UC
{calcval widx 2 div dx add neg widy 2 div dy add neg rmoveto} % CC
{calcval widx 2 div dx add neg 0 rmoveto} % BC
{calcval widx 2 div dx add neg dy neg rmoveto} % LC
] def

/vg&str {m q 1 -1 scale dup stringsize 4 copy align 11 -1 roll get exec
         q inflate relative frame exch exec Q recshow Q} def

end /procDict exch def
%%EndProlog

%%BeginSetup
save
procDict begin
printColorMap begin
595 791 setpagesize
20 20 20 20 setmargins
0 0 setorigin
503 96 setsize
fittopage
portrait
imagescale
cliptobounds
setbasematrix
/Helvetica 10 sf
defaultGraphicsState
%%EndSetup

0.00000 0.00000 0.00000 RG
[ 1.00000 0.00000 0.00000 1.00000 0.00000 0.00000 ] defaultmatrix matrix concatmatrix setmatrix
cliprestore
1.00000 1.00000 1.00000 RG
newpath
0.00000 0.00000 m
503.000 0.00000 l
503.000 96.0000 l
0.00000 96.0000 l
0.00000 0.00000 l
h
f
0.00000 0.00000 0.00000 RG
0.00000 0.00000 0.00000 RG
[ 1.00000 0.00000 0.00000 1.00000 0.00000 0.00000 ] defaultmatrix matrix concatmatrix setmatrix
cliprestore
1.00000 1.00000 1.00000 RG
newpath
0.00000 0.00000 m
503.000 0.00000 l
503.000 96.0000 l
0.00000 96.0000 l
0.00000 0.00000 l
h
f
0.00000 0.00000 0.00000 RG
1.00000 1.00000 1.00000 RG
newpath
0.00000 0.00000 m
503.000 0.00000 l
503.000 96.0000 l
0.00000 96.0000 l
0.00000 0.00000 l
h
f
cliprestore
0 0 503 96 rc
q
<< /PatternType 2
   /Shading
   << /ShadingType 2
      /ColorSpace /DeviceRGB
      /Coords [55.22740936279297 36.66340637207031 54.62672424316406 37.703834533691406]
      /Function
      << /FunctionType 2
         /Domain [0 1]
         /Range [0 1 0 1 0 1]
         /C0 [0.4 0.2 0.2]
         /C1 [0.6 0.4 0.0]
         /N 1
      >>
      /Extend [true true]
   >>
>>
matrix makepattern setpattern
newpath
57.4841 31.5532 m
51.3296 42.2134 l
51.1637 42.5007 51.2621 42.8680 51.5494 43.0339  c
51.8368 43.1998 52.2041 43.1014 52.3700 42.8141  c
58.5246 32.1539 l
58.6905 31.8665 58.5921 31.4992 58.3047 31.3333  c
58.0173 31.1674 57.6500 31.2658 57.4841 31.5532  c
h
f
Q
q
<< /PatternType 2
   /Shading
   << /ShadingType 2
      /ColorSpace /DeviceRGB
      /Coords [35.961669921875 48.764747619628906 34.76028823852539 48.764747619628906]
      /Function
      << /FunctionType 2
         /Domain [0 1]
         /Range [0 1 0 1 0 1]
         /C0 [0.6 0.4 0.0]
         /C1 [0.4 0.2 0.2]
         /N 1
      >>
      /Extend [true true]
   >>
>>
matrix makepattern setpattern
newpath
42.8302 48.1641 m
27.8917 48.1641 l
27.5599 48.1641 27.2910 48.4329 27.2910 48.7647  c
27.2910 49.0966 27.5599 49.3654 27.8917 49.3654  c
42.8302 49.3654 l
43.1620 49.3654 43.4309 49.0966 43.4309 48.7647  c
43.4309 48.4329 43.1620 48.1641 42.8302 48.1641  c
h
f
Q
q
<< /PatternType 2
   /Shading
   << /ShadingType 2
      /ColorSpace /DeviceRGB
      /Coords [54.62672424316406 59.82565689086914 55.22740936279297 60.8660888671875]
      /Function
      << /FunctionType 2
         /Domain [0 1]
         /Range [0 1 0 1 0 1]
         /C0 [0.6 0.4 0.0]
         /C1 [0.4 0.2 0.2]
         /N 1
      >>
      /Extend [true true]
   >>
>>
matrix makepattern setpattern
newpath
51.3296 55.3161 m
57.4841 65.9763 l
57.6500 66.2637 58.0173 66.3621 58.3047 66.1962  c
58.5921 66.0303 58.6905 65.6630 58.5246 65.3756  c
52.3700 54.7154 l
52.2041 54.4281 51.8368 54.3297 51.5494 54.4956  c
51.2621 54.6615 51.1637 55.0288 51.3296 55.3161  c
h
f
Q
q
<< /PatternType 2
   /Shading
   << /ShadingType 2
      /ColorSpace /DeviceRGB
      /Coords [140.70758056640625 50.601806640625 141.7480010986328 51.2025260925293]
      /Function
      << /FunctionType 2
         /Domain [0 1]
         /Range [0 1 0 1 0 1]
         /C0 [0.2 0.2 0.2]
         /C1 [1.0 0.0 0.0]
         /N 1
      >>
      /Extend [true true]
   >>
>>
matrix makepattern setpattern
newpath
134.685 47.8182 m
147.170 55.0265 l
147.457 55.1925 147.824 55.0941 147.990 54.8067  c
148.156 54.5193 148.058 54.1520 147.770 53.9861  c
135.286 46.7778 l
134.999 46.6119 134.631 46.7103 134.465 46.9976  c
134.299 47.2850 134.398 47.6523 134.685 47.8182  c
h
f
Q
q
<< /PatternType 2
   /Shading
   << /ShadingType 2
      /ColorSpace /DeviceRGB
      /Coords [165.1565399169922 51.311767578125 166.19696044921875 50.71108627319336]
      /Function
      << /FunctionType 2
         /Domain [0 1]
         /Range [0 1 0 1 0 1]
         /C0 [1.0 0.0 0.0]
         /C1 [0.0 0.0 0.0]
         /N 1
      >>
      /Extend [true true]
   >>
>>
matrix makepattern setpattern
newpath
159.923 55.0268 m
172.031 48.0365 l
172.318 47.8706 172.417 47.5033 172.251 47.2159  c
172.085 46.9286 171.718 46.8302 171.430 46.9961  c
159.323 53.9864 l
159.035 54.1523 158.937 54.5195 159.103 54.8069  c
159.269 55.0943 159.636 55.1927 159.923 55.0268  c
h
f
Q
q
<< /PatternType 2
   /Shading
   << /ShadingType 2
      /ColorSpace /DeviceRGB
      /Coords [349.8813781738281 43.95863342285156 348.67999267578125 43.95863342285156]
      /Function
      << /FunctionType 2
         /Domain [0 1]
         /Range [0 1 0 1 0 1]
         /C0 [0.4 0.2 0.2]
         /C1 [0.0 0.0 0.0]
         /N 1
      >>
      /Extend [true true]
   >>
>>
matrix makepattern setpattern
newpath
356.512 43.3579 m
342.050 43.3579 l
341.718 43.3579 341.449 43.6268 341.449 43.9586  c
341.449 44.2905 341.718 44.5593 342.050 44.5593  c
356.512 44.5593 l
356.843 44.5593 357.112 44.2905 357.112 43.9586  c
357.112 43.6268 356.843 43.3579 356.512 43.3579  c
h
f
Q
q
<< /PatternType 2
   /Shading
   << /ShadingType 2
      /ColorSpace /DeviceRGB
      /Coords [479.3272399902344 37.703834533691406 479.92791748046875 36.66340637207031]
      /Function
      << /FunctionType 2
         /Domain [0 1]
         /Range [0 1 0 1 0 1]
         /C0 [0.6 0.4 0.0]
         /C1 [0.4 0.2 0.2]
         /N 1
      >>
      /Extend [true true]
   >>
>>
matrix makepattern setpattern
newpath
477.071 42.8141 m
483.225 32.1539 l
483.391 31.8665 483.293 31.4992 483.005 31.3333  c
482.718 31.1674 482.351 31.2658 482.185 31.5532  c
476.030 42.2134 l
475.864 42.5007 475.963 42.8680 476.250 43.0339  c
476.537 43.1998 476.905 43.1014 477.071 42.8141  c
h
f
Q
q
<< /PatternType 2
   /Shading
   << /ShadingType 2
      /ColorSpace /DeviceRGB
      /Coords [479.3272399902344 59.82565689086914 479.92791748046875 60.8660888671875]
      /Function
      << /FunctionType 2
         /Domain [0 1]
         /Range [0 1 0 1 0 1]
         /C0 [0.6 0.4 0.0]
         /C1 [0.4 0.2 0.2]
         /N 1
      >>
      /Extend [true true]
   >>
>>
matrix makepattern setpattern
newpath
476.030 55.3161 m
482.185 65.9763 l
482.351 66.2637 482.718 66.3621 483.005 66.1962  c
483.293 66.0303 483.391 65.6630 483.225 65.3756  c
477.071 54.7154 l
476.905 54.4281 476.537 54.3297 476.250 54.4956  c
475.963 54.6615 475.864 55.0288 476.030 55.3161  c
h
f
Q
q
<< /PatternType 2
   /Shading
   << /ShadingType 2
      /ColorSpace /DeviceRGB
      /Coords [460.04498291015625 48.764747619628906 458.8435974121094 48.764747619628906]
      /Function
      << /FunctionType 2
         /Domain [0 1]
         /Range [0 1 0 1 0 1]
         /C0 [0.6 0.4 0.0]
         /C1 [1.0 0.0 0.0]
         /N 1
      >>
      /Extend [true true]
   >>
>>
matrix makepattern setpattern
newpath
467.531 48.1641 m
451.358 48.1641 l
451.026 48.1641 450.757 48.4329 450.757 48.7647  c
450.757 49.0966 451.026 49.3654 451.358 49.3654  c
467.531 49.3654 l
467.863 49.3654 468.131 49.0966 468.131 48.7647  c
468.131 48.4329 467.863 48.1641 467.531 48.1641  c
h
f
Q
q
<< /PatternType 2
   /Shading
   << /ShadingType 2
      /ColorSpace /DeviceRGB
      /Coords [437.854248046875 36.059574127197266 438.4549255371094 37.10000228881836]
      /Function
      << /FunctionType 2
         /Domain [0 1]
         /Range [0 1 0 1 0 1]
         /C0 [0.2 0.2 0.2]
         /C1 [1.0 0.0 0.0]
         /N 1
      >>
      /Extend [true true]
   >>
>>
matrix makepattern setpattern
newpath
434.426 31.3237 m
440.842 42.4366 l
441.008 42.7240 441.376 42.8224 441.663 42.6565  c
441.950 42.4906 442.049 42.1233 441.883 41.8359  c
435.467 30.7230 l
435.301 30.4356 434.934 30.3372 434.646 30.5031  c
434.359 30.6690 434.260 31.0363 434.426 31.3237  c
h
f
Q
.600000 .400000 0.00000 RG
1.00000 1.00000 1.00000 RG
newpath
47.6939 43.8429 m
46.3348 43.8429 45.2330 44.9447 45.2330 46.3038  c
45.2330 51.2257 l
45.2330 52.5848 46.3348 53.6866 47.6939 53.6866  c
48.7877 53.6866 l
50.1468 53.6866 51.2486 52.5848 51.2486 51.2257  c
51.2486 46.3038 l
51.2486 44.9447 50.1468 43.8429 48.7877 43.8429  c
h
f
.600000 .400000 0.00000 RG
[ 1.00000 0.00000 0.00000 1.00000 45.2408 41.2647 ] concat
newpath
.843750 12.0000 m
.843750 4.12500 l
3.81250 4.12500 l
4.34375 4.12500 4.74479 4.15104 5.01562 4.20312  c
5.40104 4.26562 5.72396 4.38802 5.98438 4.57031  c
6.24479 4.75260 6.45573 5.00521 6.61719 5.32812  c
6.77865 5.65104 6.85938 6.01042 6.85938 6.40625  c
6.85938 7.07292 6.64583 7.63802 6.21875 8.10156  c
5.79167 8.56510 5.02083 8.79688 3.90625 8.79688  c
1.89062 8.79688 l
1.89062 12.0000 l
.843750 12.0000 l
h
1.89062 7.87500 m
3.92188 7.87500 l
4.59896 7.87500 5.07812 7.75000 5.35938 7.50000  c
5.64062 7.25000 5.78125 6.89583 5.78125 6.43750  c
5.78125 6.10417 5.69792 5.82031 5.53125 5.58594  c
5.36458 5.35156 5.14583 5.19792 4.87500 5.12500  c
4.69792 5.08333 4.37500 5.06250 3.90625 5.06250  c
1.89062 5.06250 l
1.89062 7.87500 l
h
f
[ 1.00000 0.00000 0.00000 1.00000 0.00000 0.00000 ] defaultmatrix matrix concatmatrix setmatrix
[ 1.00000 0.00000 0.00000 1.00000 0.00000 0.00000 ] defaultmatrix matrix concatmatrix setmatrix
[ 1.00000 0.00000 0.00000 1.00000 52.2804 43.7647 ] concat
0.00000 0.00000 .607843 RG
newpath
2.98438 8.00000 m
2.28125 8.00000 l
2.28125 3.51562 l
2.11458 3.68229 1.89323 3.84635 1.61719 4.00781  c
1.34115 4.16927 1.09375 4.28646 .875000 4.35938  c
.875000 3.68750 l
1.27083 3.50000 1.61458 3.27604 1.90625 3.01562  c
2.19792 2.75521 2.40625 2.50000 2.53125 2.25000  c
2.98438 2.25000 l
2.98438 8.00000 l
h
f
[ 1.00000 0.00000 0.00000 1.00000 0.00000 0.00000 ] defaultmatrix matrix concatmatrix setmatrix
[ 1.00000 0.00000 0.00000 1.00000 0.00000 0.00000 ] defaultmatrix matrix concatmatrix setmatrix
.600000 .400000 0.00000 RG
0.00000 0.00000 .607843 RG
1.00000 1.00000 1.00000 RG
.400000 .200000 .200000 RG
1.00000 1.00000 1.00000 RG
newpath
59.5777 19.8087 m
58.2185 19.8087 57.1167 20.9105 57.1167 22.2696  c
57.1167 27.1915 l
57.1167 28.5506 58.2185 29.6524 59.5777 29.6524  c
64.6558 29.6524 l
66.0149 29.6524 67.1167 28.5506 67.1167 27.1915  c
67.1167 22.2696 l
67.1167 20.9105 66.0149 19.8087 64.6558 19.8087  c
h
f
.400000 .200000 .200000 RG
[ 1.00000 0.00000 0.00000 1.00000 56.6167 17.2306 ] concat
newpath
.812500 12.0000 m
.812500 4.12500 l
3.76562 4.12500 l
4.35938 4.12500 4.83854 4.20573 5.20312 4.36719  c
5.56771 4.52865 5.85417 4.77344 6.06250 5.10156  c
6.27083 5.42969 6.37500 5.77604 6.37500 6.14062  c
6.37500 6.47396 6.28385 6.78906 6.10156 7.08594  c
5.91927 7.38281 5.64062 7.62500 5.26562 7.81250  c
5.74479 7.94792 6.11198 8.18490 6.36719 8.52344  c
6.62240 8.86198 6.75000 9.26042 6.75000 9.71875  c
6.75000 10.0833 6.67188 10.4245 6.51562 10.7422  c
6.35938 11.0599 6.16667 11.3047 5.93750 11.4766  c
5.70833 11.6484 5.42188 11.7786 5.07812 11.8672  c
4.73438 11.9557 4.31250 12.0000 3.81250 12.0000  c
.812500 12.0000 l
h
1.84375 7.43750 m
3.54688 7.43750 l
4.01562 7.43750 4.34896 7.40625 4.54688 7.34375  c
4.80729 7.26042 5.00521 7.12760 5.14062 6.94531  c
5.27604 6.76302 5.34375 6.53646 5.34375 6.26562  c
5.34375 6.00521 5.28125 5.77604 5.15625 5.57812  c
5.03125 5.38021 4.85156 5.24479 4.61719 5.17188  c
4.38281 5.09896 3.98438 5.06250 3.42188 5.06250  c
1.84375 5.06250 l
1.84375 7.43750 l
h
1.84375 11.0781 m
3.81250 11.0781 l
4.14583 11.0781 4.38021 11.0625 4.51562 11.0312  c
4.75521 10.9896 4.95573 10.9193 5.11719 10.8203  c
5.27865 10.7214 5.41146 10.5755 5.51562 10.3828  c
5.61979 10.1901 5.67188 9.96875 5.67188 9.71875  c
5.67188 9.42708 5.59635 9.17188 5.44531 8.95312  c
5.29427 8.73438 5.08594 8.58073 4.82031 8.49219  c
4.55469 8.40365 4.17188 8.35938 3.67188 8.35938  c
1.84375 8.35938 l
1.84375 11.0781 l
h
8.05566 12.0000 m
8.05566 6.29688 l
8.91504 6.29688 l
8.91504 7.15625 l
9.14421 6.75000 9.35254 6.48438 9.54004 6.35938  c
9.72754 6.23438 9.93066 6.17188 10.1494 6.17188  c
10.4827 6.17188 10.8161 6.27604 11.1494 6.48438  c
10.8213 7.37500 l
10.5817 7.23958 10.3421 7.17188 10.1025 7.17188  c
9.89421 7.17188 9.70671 7.23438 9.54004 7.35938  c
9.37337 7.48438 9.25358 7.66146 9.18066 7.89062  c
9.07650 8.23438 9.02441 8.60938 9.02441 9.01562  c
9.02441 12.0000 l
8.05566 12.0000 l
h
f
[ 1.00000 0.00000 0.00000 1.00000 0.00000 0.00000 ] defaultmatrix matrix concatmatrix setmatrix
[ 1.00000 0.00000 0.00000 1.00000 0.00000 0.00000 ] defaultmatrix matrix concatmatrix setmatrix
[ 1.00000 0.00000 0.00000 1.00000 64.1480 11.1651 ] concat
0.00000 0.00000 .607843 RG
newpath
4.03125 7.32812 m
4.03125 8.00000 l
.250000 8.00000 l
.239583 7.83333 .265625 7.67188 .328125 7.51562  c
.421875 7.25521 .575521 7.00000 .789062 6.75000  c
1.00260 6.50000 1.30729 6.20833 1.70312 5.87500  c
2.32812 5.36458 2.75000 4.96094 2.96875 4.66406  c
3.18750 4.36719 3.29688 4.08854 3.29688 3.82812  c
3.29688 3.54688 3.19792 3.30990 3.00000 3.11719  c
2.80208 2.92448 2.54167 2.82812 2.21875 2.82812  c
1.88542 2.82812 1.61719 2.92969 1.41406 3.13281  c
1.21094 3.33594 1.10417 3.61979 1.09375 3.98438  c
.375000 3.90625 l
.427083 3.36458 .614583 2.95312 .937500 2.67188  c
1.26042 2.39062 1.69271 2.25000 2.23438 2.25000  c
2.78646 2.25000 3.22135 2.40104 3.53906 2.70312  c
3.85677 3.00521 4.01562 3.38542 4.01562 3.84375  c
4.01562 4.07292 3.96875 4.29688 3.87500 4.51562  c
3.78125 4.73438 3.62760 4.96615 3.41406 5.21094  c
3.20052 5.45573 2.83854 5.79167 2.32812 6.21875  c
1.91146 6.57292 1.64323 6.81250 1.52344 6.93750  c
1.40365 7.06250 1.30208 7.19271 1.21875 7.32812  c
4.03125 7.32812 l
h
f
[ 1.00000 0.00000 0.00000 1.00000 0.00000 0.00000 ] defaultmatrix matrix concatmatrix setmatrix
[ 1.00000 0.00000 0.00000 1.00000 0.00000 0.00000 ] defaultmatrix matrix concatmatrix setmatrix
.400000 .200000 .200000 RG
0.00000 0.00000 .607843 RG
1.00000 1.00000 1.00000 RG
.400000 .200000 .200000 RG
1.00000 1.00000 1.00000 RG
newpath
59.5777 67.8770 m
58.2185 67.8770 57.1167 68.9788 57.1167 70.3380  c
57.1167 75.2599 l
57.1167 76.6190 58.2185 77.7208 59.5777 77.7208  c
64.6558 77.7208 l
66.0149 77.7208 67.1167 76.6190 67.1167 75.2599  c
67.1167 70.3380 l
67.1167 68.9788 66.0149 67.8770 64.6558 67.8770  c
h
f
.400000 .200000 .200000 RG
[ 1.00000 0.00000 0.00000 1.00000 56.6167 65.2989 ] concat
newpath
.812500 12.0000 m
.812500 4.12500 l
3.76562 4.12500 l
4.35938 4.12500 4.83854 4.20573 5.20312 4.36719  c
5.56771 4.52865 5.85417 4.77344 6.06250 5.10156  c
6.27083 5.42969 6.37500 5.77604 6.37500 6.14062  c
6.37500 6.47396 6.28385 6.78906 6.10156 7.08594  c
5.91927 7.38281 5.64062 7.62500 5.26562 7.81250  c
5.74479 7.94792 6.11198 8.18490 6.36719 8.52344  c
6.62240 8.86198 6.75000 9.26042 6.75000 9.71875  c
6.75000 10.0833 6.67188 10.4245 6.51562 10.7422  c
6.35938 11.0599 6.16667 11.3047 5.93750 11.4766  c
5.70833 11.6484 5.42188 11.7786 5.07812 11.8672  c
4.73438 11.9557 4.31250 12.0000 3.81250 12.0000  c
.812500 12.0000 l
h
1.84375 7.43750 m
3.54688 7.43750 l
4.01562 7.43750 4.34896 7.40625 4.54688 7.34375  c
4.80729 7.26042 5.00521 7.12760 5.14062 6.94531  c
5.27604 6.76302 5.34375 6.53646 5.34375 6.26562  c
5.34375 6.00521 5.28125 5.77604 5.15625 5.57812  c
5.03125 5.38021 4.85156 5.24479 4.61719 5.17188  c
4.38281 5.09896 3.98438 5.06250 3.42188 5.06250  c
1.84375 5.06250 l
1.84375 7.43750 l
h
1.84375 11.0781 m
3.81250 11.0781 l
4.14583 11.0781 4.38021 11.0625 4.51562 11.0312  c
4.75521 10.9896 4.95573 10.9193 5.11719 10.8203  c
5.27865 10.7214 5.41146 10.5755 5.51562 10.3828  c
5.61979 10.1901 5.67188 9.96875 5.67188 9.71875  c
5.67188 9.42708 5.59635 9.17188 5.44531 8.95312  c
5.29427 8.73438 5.08594 8.58073 4.82031 8.49219  c
4.55469 8.40365 4.17188 8.35938 3.67188 8.35938  c
1.84375 8.35938 l
1.84375 11.0781 l
h
8.05566 12.0000 m
8.05566 6.29688 l
8.91504 6.29688 l
8.91504 7.15625 l
9.14421 6.75000 9.35254 6.48438 9.54004 6.35938  c
9.72754 6.23438 9.93066 6.17188 10.1494 6.17188  c
10.4827 6.17188 10.8161 6.27604 11.1494 6.48438  c
10.8213 7.37500 l
10.5817 7.23958 10.3421 7.17188 10.1025 7.17188  c
9.89421 7.17188 9.70671 7.23438 9.54004 7.35938  c
9.37337 7.48438 9.25358 7.66146 9.18066 7.89062  c
9.07650 8.23438 9.02441 8.60938 9.02441 9.01562  c
9.02441 12.0000 l
8.05566 12.0000 l
h
f
[ 1.00000 0.00000 0.00000 1.00000 0.00000 0.00000 ] defaultmatrix matrix concatmatrix setmatrix
[ 1.00000 0.00000 0.00000 1.00000 0.00000 0.00000 ] defaultmatrix matrix concatmatrix setmatrix
[ 1.00000 0.00000 0.00000 1.00000 64.1363 76.3837 ] concat
0.00000 0.00000 .607843 RG
newpath
.343750 6.48438 m
1.04688 6.39062 l
1.11979 6.78646 1.25521 7.07292 1.45312 7.25000  c
1.65104 7.42708 1.88542 7.51562 2.15625 7.51562  c
2.48958 7.51562 2.77083 7.40104 3.00000 7.17188  c
3.22917 6.94271 3.34375 6.66146 3.34375 6.32812  c
3.34375 6.00521 3.23698 5.73698 3.02344 5.52344  c
2.80990 5.30990 2.54167 5.20312 2.21875 5.20312  c
2.08333 5.20312 1.91667 5.22917 1.71875 5.28125  c
1.79688 4.67188 l
1.84896 4.67188 1.89062 4.67188 1.92188 4.67188  c
2.21354 4.67188 2.47917 4.59375 2.71875 4.43750  c
2.95833 4.28125 3.07812 4.04167 3.07812 3.71875  c
3.07812 3.45833 2.99219 3.24479 2.82031 3.07812  c
2.64844 2.91146 2.42188 2.82812 2.14062 2.82812  c
1.86979 2.82812 1.64323 2.91406 1.46094 3.08594  c
1.27865 3.25781 1.16146 3.51562 1.10938 3.85938  c
.406250 3.73438 l
.489583 3.26562 .684896 2.90104 .992188 2.64062  c
1.29948 2.38021 1.67708 2.25000 2.12500 2.25000  c
2.43750 2.25000 2.72656 2.31771 2.99219 2.45312  c
3.25781 2.58854 3.46094 2.77083 3.60156 3.00000  c
3.74219 3.22917 3.81250 3.47396 3.81250 3.73438  c
3.81250 3.98438 3.74479 4.21094 3.60938 4.41406  c
3.47396 4.61719 3.27604 4.77604 3.01562 4.89062  c
3.35938 4.97396 3.62500 5.13802 3.81250 5.38281  c
4.00000 5.62760 4.09375 5.93750 4.09375 6.31250  c
4.09375 6.81250 3.91146 7.23698 3.54688 7.58594  c
3.18229 7.93490 2.71875 8.10938 2.15625 8.10938  c
1.65625 8.10938 1.23958 7.95833 .906250 7.65625  c
.572917 7.35417 .385417 6.96354 .343750 6.48438  c
h
f
[ 1.00000 0.00000 0.00000 1.00000 0.00000 0.00000 ] defaultmatrix matrix concatmatrix setmatrix
[ 1.00000 0.00000 0.00000 1.00000 0.00000 0.00000 ] defaultmatrix matrix concatmatrix setmatrix
.400000 .200000 .200000 RG
0.00000 0.00000 .607843 RG
1.00000 1.00000 1.00000 RG
.400000 .200000 .200000 RG
1.00000 1.00000 1.00000 RG
newpath
17.9499 43.8429 m
16.5908 43.8429 15.4890 44.9447 15.4890 46.3038  c
15.4890 51.2257 l
15.4890 52.5848 16.5908 53.6866 17.9499 53.6866  c
23.0280 53.6866 l
24.3872 53.6866 25.4890 52.5848 25.4890 51.2257  c
25.4890 46.3038 l
25.4890 44.9447 24.3872 43.8429 23.0280 43.8429  c
h
f
.400000 .200000 .200000 RG
[ 1.00000 0.00000 0.00000 1.00000 14.9890 41.2647 ] concat
newpath
.812500 12.0000 m
.812500 4.12500 l
3.76562 4.12500 l
4.35938 4.12500 4.83854 4.20573 5.20312 4.36719  c
5.56771 4.52865 5.85417 4.77344 6.06250 5.10156  c
6.27083 5.42969 6.37500 5.77604 6.37500 6.14062  c
6.37500 6.47396 6.28385 6.78906 6.10156 7.08594  c
5.91927 7.38281 5.64062 7.62500 5.26562 7.81250  c
5.74479 7.94792 6.11198 8.18490 6.36719 8.52344  c
6.62240 8.86198 6.75000 9.26042 6.75000 9.71875  c
6.75000 10.0833 6.67188 10.4245 6.51562 10.7422  c
6.35938 11.0599 6.16667 11.3047 5.93750 11.4766  c
5.70833 11.6484 5.42188 11.7786 5.07812 11.8672  c
4.73438 11.9557 4.31250 12.0000 3.81250 12.0000  c
.812500 12.0000 l
h
1.84375 7.43750 m
3.54688 7.43750 l
4.01562 7.43750 4.34896 7.40625 4.54688 7.34375  c
4.80729 7.26042 5.00521 7.12760 5.14062 6.94531  c
5.27604 6.76302 5.34375 6.53646 5.34375 6.26562  c
5.34375 6.00521 5.28125 5.77604 5.15625 5.57812  c
5.03125 5.38021 4.85156 5.24479 4.61719 5.17188  c
4.38281 5.09896 3.98438 5.06250 3.42188 5.06250  c
1.84375 5.06250 l
1.84375 7.43750 l
h
1.84375 11.0781 m
3.81250 11.0781 l
4.14583 11.0781 4.38021 11.0625 4.51562 11.0312  c
4.75521 10.9896 4.95573 10.9193 5.11719 10.8203  c
5.27865 10.7214 5.41146 10.5755 5.51562 10.3828  c
5.61979 10.1901 5.67188 9.96875 5.67188 9.71875  c
5.67188 9.42708 5.59635 9.17188 5.44531 8.95312  c
5.29427 8.73438 5.08594 8.58073 4.82031 8.49219  c
4.55469 8.40365 4.17188 8.35938 3.67188 8.35938  c
1.84375 8.35938 l
1.84375 11.0781 l
h
8.05566 12.0000 m
8.05566 6.29688 l
8.91504 6.29688 l
8.91504 7.15625 l
9.14421 6.75000 9.35254 6.48438 9.54004 6.35938  c
9.72754 6.23438 9.93066 6.17188 10.1494 6.17188  c
10.4827 6.17188 10.8161 6.27604 11.1494 6.48438  c
10.8213 7.37500 l
10.5817 7.23958 10.3421 7.17188 10.1025 7.17188  c
9.89421 7.17188 9.70671 7.23438 9.54004 7.35938  c
9.37337 7.48438 9.25358 7.66146 9.18066 7.89062  c
9.07650 8.23438 9.02441 8.60938 9.02441 9.01562  c
9.02441 12.0000 l
8.05566 12.0000 l
h
f
[ 1.00000 0.00000 0.00000 1.00000 0.00000 0.00000 ] defaultmatrix matrix concatmatrix setmatrix
[ 1.00000 0.00000 0.00000 1.00000 0.00000 0.00000 ] defaultmatrix matrix concatmatrix setmatrix
[ 1.00000 0.00000 0.00000 1.00000 10.2541 43.7647 ] concat
0.00000 0.00000 .607843 RG
newpath
2.59375 8.00000 m
2.59375 6.62500 l
.109375 6.62500 l
.109375 5.98438 l
2.71875 2.26562 l
3.29688 2.26562 l
3.29688 5.98438 l
4.06250 5.98438 l
4.06250 6.62500 l
3.29688 6.62500 l
3.29688 8.00000 l
2.59375 8.00000 l
h
2.59375 5.98438 m
2.59375 3.40625 l
.796875 5.98438 l
2.59375 5.98438 l
h
f
[ 1.00000 0.00000 0.00000 1.00000 0.00000 0.00000 ] defaultmatrix matrix concatmatrix setmatrix
[ 1.00000 0.00000 0.00000 1.00000 0.00000 0.00000 ] defaultmatrix matrix concatmatrix setmatrix
.400000 .200000 .200000 RG
0.00000 0.00000 .607843 RG
1.00000 1.00000 1.00000 RG
1.00000 0.00000 0.00000 RG
1.00000 1.00000 1.00000 RG
newpath
152.330 52.9874 m
150.922 52.9874 149.781 54.1286 149.781 55.5362  c
149.781 60.6339 l
149.781 62.0416 150.922 63.1827 152.330 63.1827  c
154.763 63.1827 l
156.171 63.1827 157.312 62.0416 157.312 60.6339  c
157.312 55.5362 l
157.312 54.1286 156.171 52.9874 154.763 52.9874  c
h
f
1.00000 0.00000 0.00000 RG
[ 1.00000 0.00000 0.00000 1.00000 149.546 50.5148 ] concat
newpath
.531250 8.17188 m
.531250 6.85938 .882812 5.83333 1.58594 5.09375  c
2.28906 4.35417 3.19271 3.98438 4.29688 3.98438  c
5.02604 3.98438 5.68229 4.15885 6.26562 4.50781  c
6.84896 4.85677 7.29427 5.34115 7.60156 5.96094  c
7.90885 6.58073 8.06250 7.28646 8.06250 8.07812  c
8.06250 8.86979 7.90104 9.58073 7.57812 10.2109  c
7.25521 10.8411 6.79948 11.3203 6.21094 11.6484  c
5.62240 11.9766 4.98438 12.1406 4.29688 12.1406  c
3.55729 12.1406 2.89583 11.9609 2.31250 11.6016  c
1.72917 11.2422 1.28646 10.7526 .984375 10.1328  c
.682292 9.51302 .531250 8.85938 .531250 8.17188  c
h
1.60938 8.18750 m
1.60938 9.13542 1.86458 9.88281 2.37500 10.4297  c
2.88542 10.9766 3.52604 11.2500 4.29688 11.2500  c
5.07812 11.2500 5.72135 10.9740 6.22656 10.4219  c
6.73177 9.86979 6.98438 9.08333 6.98438 8.06250  c
6.98438 7.42708 6.87760 6.86979 6.66406 6.39062  c
6.45052 5.91146 6.13542 5.54167 5.71875 5.28125  c
5.30208 5.02083 4.83333 4.89062 4.31250 4.89062  c
3.57292 4.89062 2.93750 5.14323 2.40625 5.64844  c
1.87500 6.15365 1.60938 7.00000 1.60938 8.18750  c
h
f
[ 1.00000 0.00000 0.00000 1.00000 0.00000 0.00000 ] defaultmatrix matrix concatmatrix setmatrix
[ 1.00000 0.00000 0.00000 1.00000 0.00000 0.00000 ] defaultmatrix matrix concatmatrix setmatrix
[ 1.00000 0.00000 0.00000 1.00000 151.546 59.2024 ] concat
0.00000 0.00000 .607843 RG
newpath
.328125 6.50000 m
1.07812 6.43750 l
1.13021 6.79167 1.25521 7.05990 1.45312 7.24219  c
1.65104 7.42448 1.89062 7.51562 2.17188 7.51562  c
2.51562 7.51562 2.80469 7.38802 3.03906 7.13281  c
3.27344 6.87760 3.39062 6.54167 3.39062 6.12500  c
3.39062 5.71875 3.27604 5.40104 3.04688 5.17188  c
2.81771 4.94271 2.52083 4.82812 2.15625 4.82812  c
1.93750 4.82812 1.73698 4.87760 1.55469 4.97656  c
1.37240 5.07552 1.22917 5.20833 1.12500 5.37500  c
.453125 5.29688 l
1.01562 2.34375 l
3.85938 2.34375 l
3.85938 3.01562 l
1.57812 3.01562 l
1.26562 4.56250 l
1.60938 4.32292 1.96875 4.20312 2.34375 4.20312  c
2.84375 4.20312 3.26562 4.37500 3.60938 4.71875  c
3.95312 5.06250 4.12500 5.51042 4.12500 6.06250  c
4.12500 6.57292 3.97396 7.02083 3.67188 7.40625  c
3.30729 7.86458 2.80729 8.09375 2.17188 8.09375  c
1.65104 8.09375 1.22656 7.94792 .898438 7.65625  c
.570312 7.36458 .380208 6.97917 .328125 6.50000  c
h
f
[ 1.00000 0.00000 0.00000 1.00000 0.00000 0.00000 ] defaultmatrix matrix concatmatrix setmatrix
[ 1.00000 0.00000 0.00000 1.00000 0.00000 0.00000 ] defaultmatrix matrix concatmatrix setmatrix
1.00000 0.00000 0.00000 RG
0.00000 0.00000 .607843 RG
1.00000 1.00000 1.00000 RG
.200000 .200000 .200000 RG
1.00000 1.00000 1.00000 RG
newpath
128.881 39.2170 m
127.522 39.2170 126.420 40.3188 126.420 41.6779  c
126.420 46.5998 l
126.420 47.9589 127.522 49.0607 128.881 49.0607  c
130.147 49.0607 l
131.506 49.0607 132.608 47.9589 132.608 46.5998  c
132.608 41.6779 l
132.608 40.3188 131.506 39.2170 130.147 39.2170  c
h
f
.200000 .200000 .200000 RG
[ 1.00000 0.00000 0.00000 1.00000 126.014 36.6388 ] concat
newpath
.875000 12.0000 m
.875000 4.12500 l
1.92188 4.12500 l
1.92188 7.35938 l
6.01562 7.35938 l
6.01562 4.12500 l
7.06250 4.12500 l
7.06250 12.0000 l
6.01562 12.0000 l
6.01562 8.28125 l
1.92188 8.28125 l
1.92188 12.0000 l
.875000 12.0000 l
h
f
[ 1.00000 0.00000 0.00000 1.00000 0.00000 0.00000 ] defaultmatrix matrix concatmatrix setmatrix
[ 1.00000 0.00000 0.00000 1.00000 0.00000 0.00000 ] defaultmatrix matrix concatmatrix setmatrix
[ 1.00000 0.00000 0.00000 1.00000 121.448 33.2492 ] concat
0.00000 0.00000 .607843 RG
newpath
3.98438 3.67188 m
3.28125 3.73438 l
3.21875 3.45312 3.13021 3.25000 3.01562 3.12500  c
2.82812 2.92708 2.59375 2.82812 2.31250 2.82812  c
2.09375 2.82812 1.89583 2.89062 1.71875 3.01562  c
1.50000 3.17188 1.32812 3.40625 1.20312 3.71875  c
1.07812 4.03125 1.01042 4.47396 1.00000 5.04688  c
1.16667 4.78646 1.37240 4.59375 1.61719 4.46875  c
1.86198 4.34375 2.11979 4.28125 2.39062 4.28125  c
2.85938 4.28125 3.25781 4.45312 3.58594 4.79688  c
3.91406 5.14062 4.07812 5.58854 4.07812 6.14062  c
4.07812 6.49479 4.00260 6.82812 3.85156 7.14062  c
3.70052 7.45312 3.48958 7.69010 3.21875 7.85156  c
2.94792 8.01302 2.64062 8.09375 2.29688 8.09375  c
1.70312 8.09375 1.22135 7.87760 .851562 7.44531  c
.481771 7.01302 .296875 6.30208 .296875 5.31250  c
.296875 4.20833 .505208 3.40625 .921875 2.90625  c
1.27604 2.46875 1.75521 2.25000 2.35938 2.25000  c
2.80729 2.25000 3.17448 2.37500 3.46094 2.62500  c
3.74740 2.87500 3.92188 3.22396 3.98438 3.67188  c
h
1.10938 6.14062 m
1.10938 6.38021 1.16146 6.61198 1.26562 6.83594  c
1.36979 7.05990 1.51302 7.22917 1.69531 7.34375  c
1.87760 7.45833 2.07292 7.51562 2.28125 7.51562  c
2.57292 7.51562 2.82552 7.39583 3.03906 7.15625  c
3.25260 6.91667 3.35938 6.59375 3.35938 6.18750  c
3.35938 5.79167 3.25521 5.47917 3.04688 5.25000  c
2.83854 5.02083 2.57292 4.90625 2.25000 4.90625  c
1.93750 4.90625 1.66927 5.02083 1.44531 5.25000  c
1.22135 5.47917 1.10938 5.77604 1.10938 6.14062  c
h
f
[ 1.00000 0.00000 0.00000 1.00000 0.00000 0.00000 ] defaultmatrix matrix concatmatrix setmatrix
[ 1.00000 0.00000 0.00000 1.00000 0.00000 0.00000 ] defaultmatrix matrix concatmatrix setmatrix
.200000 .200000 .200000 RG
0.00000 0.00000 .607843 RG
1.00000 1.00000 1.00000 RG
0.00000 0.00000 0.00000 RG
1.00000 1.00000 1.00000 RG
newpath
176.645 39.1115 m
175.237 39.1115 174.096 40.2526 174.096 41.6603  c
174.096 46.7580 l
174.096 48.1657 175.237 49.3068 176.645 49.3068  c
178.516 49.3068 l
179.924 49.3068 181.065 48.1657 181.065 46.7580  c
181.065 41.6603 l
181.065 40.2526 179.924 39.1115 178.516 39.1115  c
h
f
0.00000 0.00000 0.00000 RG
[ 1.00000 0.00000 0.00000 1.00000 174.081 36.6388 ] concat
newpath
6.46875 9.23438 m
7.51562 9.50000 l
7.29688 10.3542 6.90365 11.0078 6.33594 11.4609  c
5.76823 11.9141 5.07292 12.1406 4.25000 12.1406  c
3.39583 12.1406 2.70312 11.9661 2.17188 11.6172  c
1.64062 11.2682 1.23698 10.7656 .960938 10.1094  c
.684896 9.45312 .546875 8.75000 .546875 8.00000  c
.546875 7.18750 .703125 6.47396 1.01562 5.85938  c
1.32812 5.24479 1.77344 4.77865 2.35156 4.46094  c
2.92969 4.14323 3.56771 3.98438 4.26562 3.98438  c
5.05729 3.98438 5.72135 4.18490 6.25781 4.58594  c
6.79427 4.98698 7.16667 5.55208 7.37500 6.28125  c
6.34375 6.53125 l
6.16667 5.95833 5.90365 5.54167 5.55469 5.28125  c
5.20573 5.02083 4.77083 4.89062 4.25000 4.89062  c
3.63542 4.89062 3.12500 5.03385 2.71875 5.32031  c
2.31250 5.60677 2.02865 5.99479 1.86719 6.48438  c
1.70573 6.97396 1.62500 7.47917 1.62500 8.00000  c
1.62500 8.66667 1.72135 9.25000 1.91406 9.75000  c
2.10677 10.2500 2.40885 10.6250 2.82031 10.8750  c
3.23177 11.1250 3.67708 11.2500 4.15625 11.2500  c
4.73958 11.2500 5.23438 11.0807 5.64062 10.7422  c
6.04688 10.4036 6.32292 9.90104 6.46875 9.23438  c
h
f
[ 1.00000 0.00000 0.00000 1.00000 0.00000 0.00000 ] defaultmatrix matrix concatmatrix setmatrix
[ 1.00000 0.00000 0.00000 1.00000 0.00000 0.00000 ] defaultmatrix matrix concatmatrix setmatrix
[ 1.00000 0.00000 0.00000 1.00000 181.518 33.4519 ] concat
0.00000 0.00000 .607843 RG
newpath
.375000 3.01562 m
.375000 2.34375 l
4.09375 2.34375 l
4.09375 2.89062 l
3.72917 3.27604 3.36719 3.79167 3.00781 4.43750  c
2.64844 5.08333 2.36979 5.74479 2.17188 6.42188  c
2.03646 6.90104 1.94792 7.42708 1.90625 8.00000  c
1.18750 8.00000 l
1.18750 7.55208 1.27344 7.00781 1.44531 6.36719  c
1.61719 5.72656 1.86198 5.10938 2.17969 4.51562  c
2.49740 3.92188 2.83333 3.42188 3.18750 3.01562  c
.375000 3.01562 l
h
f
[ 1.00000 0.00000 0.00000 1.00000 0.00000 0.00000 ] defaultmatrix matrix concatmatrix setmatrix
[ 1.00000 0.00000 0.00000 1.00000 0.00000 0.00000 ] defaultmatrix matrix concatmatrix setmatrix
0.00000 0.00000 0.00000 RG
0.00000 0.00000 .607843 RG
1.00000 1.00000 1.00000 RG
.400000 .200000 .200000 RG
1.00000 1.00000 1.00000 RG
newpath
361.375 39.0368 m
360.016 39.0368 358.914 40.1386 358.914 41.4977  c
358.914 46.4196 l
358.914 47.7787 360.016 48.8805 361.375 48.8805  c
366.453 48.8805 l
367.813 48.8805 368.914 47.7787 368.914 46.4196  c
368.914 41.4977 l
368.914 40.1386 367.813 39.0368 366.453 39.0368  c
h
f
.400000 .200000 .200000 RG
[ 1.00000 0.00000 0.00000 1.00000 358.414 36.4586 ] concat
newpath
.812500 12.0000 m
.812500 4.12500 l
3.76562 4.12500 l
4.35938 4.12500 4.83854 4.20573 5.20312 4.36719  c
5.56771 4.52865 5.85417 4.77344 6.06250 5.10156  c
6.27083 5.42969 6.37500 5.77604 6.37500 6.14062  c
6.37500 6.47396 6.28385 6.78906 6.10156 7.08594  c
5.91927 7.38281 5.64062 7.62500 5.26562 7.81250  c
5.74479 7.94792 6.11198 8.18490 6.36719 8.52344  c
6.62240 8.86198 6.75000 9.26042 6.75000 9.71875  c
6.75000 10.0833 6.67188 10.4245 6.51562 10.7422  c
6.35938 11.0599 6.16667 11.3047 5.93750 11.4766  c
5.70833 11.6484 5.42188 11.7786 5.07812 11.8672  c
4.73438 11.9557 4.31250 12.0000 3.81250 12.0000  c
.812500 12.0000 l
h
1.84375 7.43750 m
3.54688 7.43750 l
4.01562 7.43750 4.34896 7.40625 4.54688 7.34375  c
4.80729 7.26042 5.00521 7.12760 5.14062 6.94531  c
5.27604 6.76302 5.34375 6.53646 5.34375 6.26562  c
5.34375 6.00521 5.28125 5.77604 5.15625 5.57812  c
5.03125 5.38021 4.85156 5.24479 4.61719 5.17188  c
4.38281 5.09896 3.98438 5.06250 3.42188 5.06250  c
1.84375 5.06250 l
1.84375 7.43750 l
h
1.84375 11.0781 m
3.81250 11.0781 l
4.14583 11.0781 4.38021 11.0625 4.51562 11.0312  c
4.75521 10.9896 4.95573 10.9193 5.11719 10.8203  c
5.27865 10.7214 5.41146 10.5755 5.51562 10.3828  c
5.61979 10.1901 5.67188 9.96875 5.67188 9.71875  c
5.67188 9.42708 5.59635 9.17188 5.44531 8.95312  c
5.29427 8.73438 5.08594 8.58073 4.82031 8.49219  c
4.55469 8.40365 4.17188 8.35938 3.67188 8.35938  c
1.84375 8.35938 l
1.84375 11.0781 l
h
8.05566 12.0000 m
8.05566 6.29688 l
8.91504 6.29688 l
8.91504 7.15625 l
9.14421 6.75000 9.35254 6.48438 9.54004 6.35938  c
9.72754 6.23438 9.93066 6.17188 10.1494 6.17188  c
10.4827 6.17188 10.8161 6.27604 11.1494 6.48438  c
10.8213 7.37500 l
10.5817 7.23958 10.3421 7.17188 10.1025 7.17188  c
9.89421 7.17188 9.70671 7.23438 9.54004 7.35938  c
9.37337 7.48438 9.25358 7.66146 9.18066 7.89062  c
9.07650 8.23438 9.02441 8.60938 9.02441 9.01562  c
9.02441 12.0000 l
8.05566 12.0000 l
h
f
[ 1.00000 0.00000 0.00000 1.00000 0.00000 0.00000 ] defaultmatrix matrix concatmatrix setmatrix
[ 1.00000 0.00000 0.00000 1.00000 0.00000 0.00000 ] defaultmatrix matrix concatmatrix setmatrix
[ 1.00000 0.00000 0.00000 1.00000 370.149 38.9586 ] concat
0.00000 0.00000 .607843 RG
newpath
2.59375 8.00000 m
2.59375 6.62500 l
.109375 6.62500 l
.109375 5.98438 l
2.71875 2.26562 l
3.29688 2.26562 l
3.29688 5.98438 l
4.06250 5.98438 l
4.06250 6.62500 l
3.29688 6.62500 l
3.29688 8.00000 l
2.59375 8.00000 l
h
2.59375 5.98438 m
2.59375 3.40625 l
.796875 5.98438 l
2.59375 5.98438 l
h
f
[ 1.00000 0.00000 0.00000 1.00000 0.00000 0.00000 ] defaultmatrix matrix concatmatrix setmatrix
[ 1.00000 0.00000 0.00000 1.00000 0.00000 0.00000 ] defaultmatrix matrix concatmatrix setmatrix
.400000 .200000 .200000 RG
0.00000 0.00000 .607843 RG
1.00000 1.00000 1.00000 RG
0.00000 0.00000 0.00000 RG
1.00000 1.00000 1.00000 RG
newpath
335.227 38.9313 m
333.819 38.9313 332.678 40.0724 332.678 41.4801  c
332.678 46.5778 l
332.678 47.9855 333.819 49.1266 335.227 49.1266  c
337.098 49.1266 l
338.506 49.1266 339.647 47.9855 339.647 46.5778  c
339.647 41.4801 l
339.647 40.0724 338.506 38.9313 337.098 38.9313  c
h
f
0.00000 0.00000 0.00000 RG
[ 1.00000 0.00000 0.00000 1.00000 332.663 36.4586 ] concat
newpath
6.46875 9.23438 m
7.51562 9.50000 l
7.29688 10.3542 6.90365 11.0078 6.33594 11.4609  c
5.76823 11.9141 5.07292 12.1406 4.25000 12.1406  c
3.39583 12.1406 2.70312 11.9661 2.17188 11.6172  c
1.64062 11.2682 1.23698 10.7656 .960938 10.1094  c
.684896 9.45312 .546875 8.75000 .546875 8.00000  c
.546875 7.18750 .703125 6.47396 1.01562 5.85938  c
1.32812 5.24479 1.77344 4.77865 2.35156 4.46094  c
2.92969 4.14323 3.56771 3.98438 4.26562 3.98438  c
5.05729 3.98438 5.72135 4.18490 6.25781 4.58594  c
6.79427 4.98698 7.16667 5.55208 7.37500 6.28125  c
6.34375 6.53125 l
6.16667 5.95833 5.90365 5.54167 5.55469 5.28125  c
5.20573 5.02083 4.77083 4.89062 4.25000 4.89062  c
3.63542 4.89062 3.12500 5.03385 2.71875 5.32031  c
2.31250 5.60677 2.02865 5.99479 1.86719 6.48438  c
1.70573 6.97396 1.62500 7.47917 1.62500 8.00000  c
1.62500 8.66667 1.72135 9.25000 1.91406 9.75000  c
2.10677 10.2500 2.40885 10.6250 2.82031 10.8750  c
3.23177 11.1250 3.67708 11.2500 4.15625 11.2500  c
4.73958 11.2500 5.23438 11.0807 5.64062 10.7422  c
6.04688 10.4036 6.32292 9.90104 6.46875 9.23438  c
h
f
[ 1.00000 0.00000 0.00000 1.00000 0.00000 0.00000 ] defaultmatrix matrix concatmatrix setmatrix
[ 1.00000 0.00000 0.00000 1.00000 0.00000 0.00000 ] defaultmatrix matrix concatmatrix setmatrix
[ 1.00000 0.00000 0.00000 1.00000 327.307 39.0289 ] concat
0.00000 0.00000 .607843 RG
newpath
.375000 3.01562 m
.375000 2.34375 l
4.09375 2.34375 l
4.09375 2.89062 l
3.72917 3.27604 3.36719 3.79167 3.00781 4.43750  c
2.64844 5.08333 2.36979 5.74479 2.17188 6.42188  c
2.03646 6.90104 1.94792 7.42708 1.90625 8.00000  c
1.18750 8.00000 l
1.18750 7.55208 1.27344 7.00781 1.44531 6.36719  c
1.61719 5.72656 1.86198 5.10938 2.17969 4.51562  c
2.49740 3.92188 2.83333 3.42188 3.18750 3.01562  c
.375000 3.01562 l
h
f
[ 1.00000 0.00000 0.00000 1.00000 0.00000 0.00000 ] defaultmatrix matrix concatmatrix setmatrix
[ 1.00000 0.00000 0.00000 1.00000 0.00000 0.00000 ] defaultmatrix matrix concatmatrix setmatrix
0.00000 0.00000 0.00000 RG
0.00000 0.00000 .607843 RG
1.00000 1.00000 1.00000 RG
.600000 .400000 0.00000 RG
1.00000 1.00000 1.00000 RG
newpath
472.394 43.8429 m
471.035 43.8429 469.933 44.9447 469.933 46.3038  c
469.933 51.2257 l
469.933 52.5848 471.035 53.6866 472.394 53.6866  c
473.488 53.6866 l
474.847 53.6866 475.949 52.5848 475.949 51.2257  c
475.949 46.3038 l
475.949 44.9447 474.847 43.8429 473.488 43.8429  c
h
f
.600000 .400000 0.00000 RG
[ 1.00000 0.00000 0.00000 1.00000 469.941 41.2647 ] concat
newpath
.843750 12.0000 m
.843750 4.12500 l
3.81250 4.12500 l
4.34375 4.12500 4.74479 4.15104 5.01562 4.20312  c
5.40104 4.26562 5.72396 4.38802 5.98438 4.57031  c
6.24479 4.75260 6.45573 5.00521 6.61719 5.32812  c
6.77865 5.65104 6.85938 6.01042 6.85938 6.40625  c
6.85938 7.07292 6.64583 7.63802 6.21875 8.10156  c
5.79167 8.56510 5.02083 8.79688 3.90625 8.79688  c
1.89062 8.79688 l
1.89062 12.0000 l
.843750 12.0000 l
h
1.89062 7.87500 m
3.92188 7.87500 l
4.59896 7.87500 5.07812 7.75000 5.35938 7.50000  c
5.64062 7.25000 5.78125 6.89583 5.78125 6.43750  c
5.78125 6.10417 5.69792 5.82031 5.53125 5.58594  c
5.36458 5.35156 5.14583 5.19792 4.87500 5.12500  c
4.69792 5.08333 4.37500 5.06250 3.90625 5.06250  c
1.89062 5.06250 l
1.89062 7.87500 l
h
f
[ 1.00000 0.00000 0.00000 1.00000 0.00000 0.00000 ] defaultmatrix matrix concatmatrix setmatrix
[ 1.00000 0.00000 0.00000 1.00000 0.00000 0.00000 ] defaultmatrix matrix concatmatrix setmatrix
[ 1.00000 0.00000 0.00000 1.00000 476.981 43.7647 ] concat
0.00000 0.00000 .607843 RG
newpath
2.98438 8.00000 m
2.28125 8.00000 l
2.28125 3.51562 l
2.11458 3.68229 1.89323 3.84635 1.61719 4.00781  c
1.34115 4.16927 1.09375 4.28646 .875000 4.35938  c
.875000 3.68750 l
1.27083 3.50000 1.61458 3.27604 1.90625 3.01562  c
2.19792 2.75521 2.40625 2.50000 2.53125 2.25000  c
2.98438 2.25000 l
2.98438 8.00000 l
h
f
[ 1.00000 0.00000 0.00000 1.00000 0.00000 0.00000 ] defaultmatrix matrix concatmatrix setmatrix
[ 1.00000 0.00000 0.00000 1.00000 0.00000 0.00000 ] defaultmatrix matrix concatmatrix setmatrix
.600000 .400000 0.00000 RG
0.00000 0.00000 .607843 RG
1.00000 1.00000 1.00000 RG
.400000 .200000 .200000 RG
1.00000 1.00000 1.00000 RG
newpath
484.278 19.8087 m
482.919 19.8087 481.817 20.9105 481.817 22.2696  c
481.817 27.1915 l
481.817 28.5506 482.919 29.6524 484.278 29.6524  c
489.356 29.6524 l
490.715 29.6524 491.817 28.5506 491.817 27.1915  c
491.817 22.2696 l
491.817 20.9105 490.715 19.8087 489.356 19.8087  c
h
f
.400000 .200000 .200000 RG
[ 1.00000 0.00000 0.00000 1.00000 481.317 17.2306 ] concat
newpath
.812500 12.0000 m
.812500 4.12500 l
3.76562 4.12500 l
4.35938 4.12500 4.83854 4.20573 5.20312 4.36719  c
5.56771 4.52865 5.85417 4.77344 6.06250 5.10156  c
6.27083 5.42969 6.37500 5.77604 6.37500 6.14062  c
6.37500 6.47396 6.28385 6.78906 6.10156 7.08594  c
5.91927 7.38281 5.64062 7.62500 5.26562 7.81250  c
5.74479 7.94792 6.11198 8.18490 6.36719 8.52344  c
6.62240 8.86198 6.75000 9.26042 6.75000 9.71875  c
6.75000 10.0833 6.67188 10.4245 6.51562 10.7422  c
6.35938 11.0599 6.16667 11.3047 5.93750 11.4766  c
5.70833 11.6484 5.42188 11.7786 5.07812 11.8672  c
4.73438 11.9557 4.31250 12.0000 3.81250 12.0000  c
.812500 12.0000 l
h
1.84375 7.43750 m
3.54688 7.43750 l
4.01562 7.43750 4.34896 7.40625 4.54688 7.34375  c
4.80729 7.26042 5.00521 7.12760 5.14062 6.94531  c
5.27604 6.76302 5.34375 6.53646 5.34375 6.26562  c
5.34375 6.00521 5.28125 5.77604 5.15625 5.57812  c
5.03125 5.38021 4.85156 5.24479 4.61719 5.17188  c
4.38281 5.09896 3.98438 5.06250 3.42188 5.06250  c
1.84375 5.06250 l
1.84375 7.43750 l
h
1.84375 11.0781 m
3.81250 11.0781 l
4.14583 11.0781 4.38021 11.0625 4.51562 11.0312  c
4.75521 10.9896 4.95573 10.9193 5.11719 10.8203  c
5.27865 10.7214 5.41146 10.5755 5.51562 10.3828  c
5.61979 10.1901 5.67188 9.96875 5.67188 9.71875  c
5.67188 9.42708 5.59635 9.17188 5.44531 8.95312  c
5.29427 8.73438 5.08594 8.58073 4.82031 8.49219  c
4.55469 8.40365 4.17188 8.35938 3.67188 8.35938  c
1.84375 8.35938 l
1.84375 11.0781 l
h
8.05566 12.0000 m
8.05566 6.29688 l
8.91504 6.29688 l
8.91504 7.15625 l
9.14421 6.75000 9.35254 6.48438 9.54004 6.35938  c
9.72754 6.23438 9.93066 6.17188 10.1494 6.17188  c
10.4827 6.17188 10.8161 6.27604 11.1494 6.48438  c
10.8213 7.37500 l
10.5817 7.23958 10.3421 7.17188 10.1025 7.17188  c
9.89421 7.17188 9.70671 7.23438 9.54004 7.35938  c
9.37337 7.48438 9.25358 7.66146 9.18066 7.89062  c
9.07650 8.23438 9.02441 8.60938 9.02441 9.01562  c
9.02441 12.0000 l
8.05566 12.0000 l
h
f
[ 1.00000 0.00000 0.00000 1.00000 0.00000 0.00000 ] defaultmatrix matrix concatmatrix setmatrix
[ 1.00000 0.00000 0.00000 1.00000 0.00000 0.00000 ] defaultmatrix matrix concatmatrix setmatrix
[ 1.00000 0.00000 0.00000 1.00000 488.848 11.1651 ] concat
0.00000 0.00000 .607843 RG
newpath
4.03125 7.32812 m
4.03125 8.00000 l
.250000 8.00000 l
.239583 7.83333 .265625 7.67188 .328125 7.51562  c
.421875 7.25521 .575521 7.00000 .789062 6.75000  c
1.00260 6.50000 1.30729 6.20833 1.70312 5.87500  c
2.32812 5.36458 2.75000 4.96094 2.96875 4.66406  c
3.18750 4.36719 3.29688 4.08854 3.29688 3.82812  c
3.29688 3.54688 3.19792 3.30990 3.00000 3.11719  c
2.80208 2.92448 2.54167 2.82812 2.21875 2.82812  c
1.88542 2.82812 1.61719 2.92969 1.41406 3.13281  c
1.21094 3.33594 1.10417 3.61979 1.09375 3.98438  c
.375000 3.90625 l
.427083 3.36458 .614583 2.95312 .937500 2.67188  c
1.26042 2.39062 1.69271 2.25000 2.23438 2.25000  c
2.78646 2.25000 3.22135 2.40104 3.53906 2.70312  c
3.85677 3.00521 4.01562 3.38542 4.01562 3.84375  c
4.01562 4.07292 3.96875 4.29688 3.87500 4.51562  c
3.78125 4.73438 3.62760 4.96615 3.41406 5.21094  c
3.20052 5.45573 2.83854 5.79167 2.32812 6.21875  c
1.91146 6.57292 1.64323 6.81250 1.52344 6.93750  c
1.40365 7.06250 1.30208 7.19271 1.21875 7.32812  c
4.03125 7.32812 l
h
f
[ 1.00000 0.00000 0.00000 1.00000 0.00000 0.00000 ] defaultmatrix matrix concatmatrix setmatrix
[ 1.00000 0.00000 0.00000 1.00000 0.00000 0.00000 ] defaultmatrix matrix concatmatrix setmatrix
.400000 .200000 .200000 RG
0.00000 0.00000 .607843 RG
1.00000 1.00000 1.00000 RG
.400000 .200000 .200000 RG
1.00000 1.00000 1.00000 RG
newpath
484.278 67.8770 m
482.919 67.8770 481.817 68.9788 481.817 70.3380  c
481.817 75.2599 l
481.817 76.6190 482.919 77.7208 484.278 77.7208  c
489.356 77.7208 l
490.715 77.7208 491.817 76.6190 491.817 75.2599  c
491.817 70.3380 l
491.817 68.9788 490.715 67.8770 489.356 67.8770  c
h
f
.400000 .200000 .200000 RG
[ 1.00000 0.00000 0.00000 1.00000 481.317 65.2989 ] concat
newpath
.812500 12.0000 m
.812500 4.12500 l
3.76562 4.12500 l
4.35938 4.12500 4.83854 4.20573 5.20312 4.36719  c
5.56771 4.52865 5.85417 4.77344 6.06250 5.10156  c
6.27083 5.42969 6.37500 5.77604 6.37500 6.14062  c
6.37500 6.47396 6.28385 6.78906 6.10156 7.08594  c
5.91927 7.38281 5.64062 7.62500 5.26562 7.81250  c
5.74479 7.94792 6.11198 8.18490 6.36719 8.52344  c
6.62240 8.86198 6.75000 9.26042 6.75000 9.71875  c
6.75000 10.0833 6.67188 10.4245 6.51562 10.7422  c
6.35938 11.0599 6.16667 11.3047 5.93750 11.4766  c
5.70833 11.6484 5.42188 11.7786 5.07812 11.8672  c
4.73438 11.9557 4.31250 12.0000 3.81250 12.0000  c
.812500 12.0000 l
h
1.84375 7.43750 m
3.54688 7.43750 l
4.01562 7.43750 4.34896 7.40625 4.54688 7.34375  c
4.80729 7.26042 5.00521 7.12760 5.14062 6.94531  c
5.27604 6.76302 5.34375 6.53646 5.34375 6.26562  c
5.34375 6.00521 5.28125 5.77604 5.15625 5.57812  c
5.03125 5.38021 4.85156 5.24479 4.61719 5.17188  c
4.38281 5.09896 3.98438 5.06250 3.42188 5.06250  c
1.84375 5.06250 l
1.84375 7.43750 l
h
1.84375 11.0781 m
3.81250 11.0781 l
4.14583 11.0781 4.38021 11.0625 4.51562 11.0312  c
4.75521 10.9896 4.95573 10.9193 5.11719 10.8203  c
5.27865 10.7214 5.41146 10.5755 5.51562 10.3828  c
5.61979 10.1901 5.67188 9.96875 5.67188 9.71875  c
5.67188 9.42708 5.59635 9.17188 5.44531 8.95312  c
5.29427 8.73438 5.08594 8.58073 4.82031 8.49219  c
4.55469 8.40365 4.17188 8.35938 3.67188 8.35938  c
1.84375 8.35938 l
1.84375 11.0781 l
h
8.05566 12.0000 m
8.05566 6.29688 l
8.91504 6.29688 l
8.91504 7.15625 l
9.14421 6.75000 9.35254 6.48438 9.54004 6.35938  c
9.72754 6.23438 9.93066 6.17188 10.1494 6.17188  c
10.4827 6.17188 10.8161 6.27604 11.1494 6.48438  c
10.8213 7.37500 l
10.5817 7.23958 10.3421 7.17188 10.1025 7.17188  c
9.89421 7.17188 9.70671 7.23438 9.54004 7.35938  c
9.37337 7.48438 9.25358 7.66146 9.18066 7.89062  c
9.07650 8.23438 9.02441 8.60938 9.02441 9.01562  c
9.02441 12.0000 l
8.05566 12.0000 l
h
f
[ 1.00000 0.00000 0.00000 1.00000 0.00000 0.00000 ] defaultmatrix matrix concatmatrix setmatrix
[ 1.00000 0.00000 0.00000 1.00000 0.00000 0.00000 ] defaultmatrix matrix concatmatrix setmatrix
[ 1.00000 0.00000 0.00000 1.00000 488.837 76.3837 ] concat
0.00000 0.00000 .607843 RG
newpath
.343750 6.48438 m
1.04688 6.39062 l
1.11979 6.78646 1.25521 7.07292 1.45312 7.25000  c
1.65104 7.42708 1.88542 7.51562 2.15625 7.51562  c
2.48958 7.51562 2.77083 7.40104 3.00000 7.17188  c
3.22917 6.94271 3.34375 6.66146 3.34375 6.32812  c
3.34375 6.00521 3.23698 5.73698 3.02344 5.52344  c
2.80990 5.30990 2.54167 5.20312 2.21875 5.20312  c
2.08333 5.20312 1.91667 5.22917 1.71875 5.28125  c
1.79688 4.67188 l
1.84896 4.67188 1.89062 4.67188 1.92188 4.67188  c
2.21354 4.67188 2.47917 4.59375 2.71875 4.43750  c
2.95833 4.28125 3.07812 4.04167 3.07812 3.71875  c
3.07812 3.45833 2.99219 3.24479 2.82031 3.07812  c
2.64844 2.91146 2.42188 2.82812 2.14062 2.82812  c
1.86979 2.82812 1.64323 2.91406 1.46094 3.08594  c
1.27865 3.25781 1.16146 3.51562 1.10938 3.85938  c
.406250 3.73438 l
.489583 3.26562 .684896 2.90104 .992188 2.64062  c
1.29948 2.38021 1.67708 2.25000 2.12500 2.25000  c
2.43750 2.25000 2.72656 2.31771 2.99219 2.45312  c
3.25781 2.58854 3.46094 2.77083 3.60156 3.00000  c
3.74219 3.22917 3.81250 3.47396 3.81250 3.73438  c
3.81250 3.98438 3.74479 4.21094 3.60938 4.41406  c
3.47396 4.61719 3.27604 4.77604 3.01562 4.89062  c
3.35938 4.97396 3.62500 5.13802 3.81250 5.38281  c
4.00000 5.62760 4.09375 5.93750 4.09375 6.31250  c
4.09375 6.81250 3.91146 7.23698 3.54688 7.58594  c
3.18229 7.93490 2.71875 8.10938 2.15625 8.10938  c
1.65625 8.10938 1.23958 7.95833 .906250 7.65625  c
.572917 7.35417 .385417 6.96354 .343750 6.48438  c
h
f
[ 1.00000 0.00000 0.00000 1.00000 0.00000 0.00000 ] defaultmatrix matrix concatmatrix setmatrix
[ 1.00000 0.00000 0.00000 1.00000 0.00000 0.00000 ] defaultmatrix matrix concatmatrix setmatrix
.400000 .200000 .200000 RG
0.00000 0.00000 .607843 RG
1.00000 1.00000 1.00000 RG
1.00000 0.00000 0.00000 RG
1.00000 1.00000 1.00000 RG
newpath
443.973 43.7374 m
442.565 43.7374 441.424 44.8786 441.424 46.2862  c
441.424 51.3839 l
441.424 52.7916 442.565 53.9327 443.973 53.9327  c
446.406 53.9327 l
447.814 53.9327 448.955 52.7916 448.955 51.3839  c
448.955 46.2862 l
448.955 44.8786 447.814 43.7374 446.406 43.7374  c
h
f
1.00000 0.00000 0.00000 RG
[ 1.00000 0.00000 0.00000 1.00000 441.189 41.2647 ] concat
newpath
.531250 8.17188 m
.531250 6.85938 .882812 5.83333 1.58594 5.09375  c
2.28906 4.35417 3.19271 3.98438 4.29688 3.98438  c
5.02604 3.98438 5.68229 4.15885 6.26562 4.50781  c
6.84896 4.85677 7.29427 5.34115 7.60156 5.96094  c
7.90885 6.58073 8.06250 7.28646 8.06250 8.07812  c
8.06250 8.86979 7.90104 9.58073 7.57812 10.2109  c
7.25521 10.8411 6.79948 11.3203 6.21094 11.6484  c
5.62240 11.9766 4.98438 12.1406 4.29688 12.1406  c
3.55729 12.1406 2.89583 11.9609 2.31250 11.6016  c
1.72917 11.2422 1.28646 10.7526 .984375 10.1328  c
.682292 9.51302 .531250 8.85938 .531250 8.17188  c
h
1.60938 8.18750 m
1.60938 9.13542 1.86458 9.88281 2.37500 10.4297  c
2.88542 10.9766 3.52604 11.2500 4.29688 11.2500  c
5.07812 11.2500 5.72135 10.9740 6.22656 10.4219  c
6.73177 9.86979 6.98438 9.08333 6.98438 8.06250  c
6.98438 7.42708 6.87760 6.86979 6.66406 6.39062  c
6.45052 5.91146 6.13542 5.54167 5.71875 5.28125  c
5.30208 5.02083 4.83333 4.89062 4.31250 4.89062  c
3.57292 4.89062 2.93750 5.14323 2.40625 5.64844  c
1.87500 6.15365 1.60938 7.00000 1.60938 8.18750  c
h
f
[ 1.00000 0.00000 0.00000 1.00000 0.00000 0.00000 ] defaultmatrix matrix concatmatrix setmatrix
[ 1.00000 0.00000 0.00000 1.00000 0.00000 0.00000 ] defaultmatrix matrix concatmatrix setmatrix
[ 1.00000 0.00000 0.00000 1.00000 439.340 52.0467 ] concat
0.00000 0.00000 .607843 RG
newpath
.328125 6.50000 m
1.07812 6.43750 l
1.13021 6.79167 1.25521 7.05990 1.45312 7.24219  c
1.65104 7.42448 1.89062 7.51562 2.17188 7.51562  c
2.51562 7.51562 2.80469 7.38802 3.03906 7.13281  c
3.27344 6.87760 3.39062 6.54167 3.39062 6.12500  c
3.39062 5.71875 3.27604 5.40104 3.04688 5.17188  c
2.81771 4.94271 2.52083 4.82812 2.15625 4.82812  c
1.93750 4.82812 1.73698 4.87760 1.55469 4.97656  c
1.37240 5.07552 1.22917 5.20833 1.12500 5.37500  c
.453125 5.29688 l
1.01562 2.34375 l
3.85938 2.34375 l
3.85938 3.01562 l
1.57812 3.01562 l
1.26562 4.56250 l
1.60938 4.32292 1.96875 4.20312 2.34375 4.20312  c
2.84375 4.20312 3.26562 4.37500 3.60938 4.71875  c
3.95312 5.06250 4.12500 5.51042 4.12500 6.06250  c
4.12500 6.57292 3.97396 7.02083 3.67188 7.40625  c
3.30729 7.86458 2.80729 8.09375 2.17188 8.09375  c
1.65104 8.09375 1.22656 7.94792 .898438 7.65625  c
.570312 7.36458 .380208 6.97917 .328125 6.50000  c
h
f
[ 1.00000 0.00000 0.00000 1.00000 0.00000 0.00000 ] defaultmatrix matrix concatmatrix setmatrix
[ 1.00000 0.00000 0.00000 1.00000 0.00000 0.00000 ] defaultmatrix matrix concatmatrix setmatrix
1.00000 0.00000 0.00000 RG
0.00000 0.00000 .607843 RG
1.00000 1.00000 1.00000 RG
.200000 .200000 .200000 RG
1.00000 1.00000 1.00000 RG
newpath
430.681 19.8087 m
429.322 19.8087 428.220 20.9105 428.220 22.2696  c
428.220 27.1915 l
428.220 28.5506 429.322 29.6524 430.681 29.6524  c
431.946 29.6524 l
433.305 29.6524 434.407 28.5506 434.407 27.1915  c
434.407 22.2696 l
434.407 20.9105 433.305 19.8087 431.946 19.8087  c
h
f
.200000 .200000 .200000 RG
[ 1.00000 0.00000 0.00000 1.00000 427.814 17.2306 ] concat
newpath
.875000 12.0000 m
.875000 4.12500 l
1.92188 4.12500 l
1.92188 7.35938 l
6.01562 7.35938 l
6.01562 4.12500 l
7.06250 4.12500 l
7.06250 12.0000 l
6.01562 12.0000 l
6.01562 8.28125 l
1.92188 8.28125 l
1.92188 12.0000 l
.875000 12.0000 l
h
f
[ 1.00000 0.00000 0.00000 1.00000 0.00000 0.00000 ] defaultmatrix matrix concatmatrix setmatrix
[ 1.00000 0.00000 0.00000 1.00000 0.00000 0.00000 ] defaultmatrix matrix concatmatrix setmatrix
[ 1.00000 0.00000 0.00000 1.00000 425.739 11.9309 ] concat
0.00000 0.00000 .607843 RG
newpath
3.98438 3.67188 m
3.28125 3.73438 l
3.21875 3.45312 3.13021 3.25000 3.01562 3.12500  c
2.82812 2.92708 2.59375 2.82812 2.31250 2.82812  c
2.09375 2.82812 1.89583 2.89062 1.71875 3.01562  c
1.50000 3.17188 1.32812 3.40625 1.20312 3.71875  c
1.07812 4.03125 1.01042 4.47396 1.00000 5.04688  c
1.16667 4.78646 1.37240 4.59375 1.61719 4.46875  c
1.86198 4.34375 2.11979 4.28125 2.39062 4.28125  c
2.85938 4.28125 3.25781 4.45312 3.58594 4.79688  c
3.91406 5.14062 4.07812 5.58854 4.07812 6.14062  c
4.07812 6.49479 4.00260 6.82812 3.85156 7.14062  c
3.70052 7.45312 3.48958 7.69010 3.21875 7.85156  c
2.94792 8.01302 2.64062 8.09375 2.29688 8.09375  c
1.70312 8.09375 1.22135 7.87760 .851562 7.44531  c
.481771 7.01302 .296875 6.30208 .296875 5.31250  c
.296875 4.20833 .505208 3.40625 .921875 2.90625  c
1.27604 2.46875 1.75521 2.25000 2.35938 2.25000  c
2.80729 2.25000 3.17448 2.37500 3.46094 2.62500  c
3.74740 2.87500 3.92188 3.22396 3.98438 3.67188  c
h
1.10938 6.14062 m
1.10938 6.38021 1.16146 6.61198 1.26562 6.83594  c
1.36979 7.05990 1.51302 7.22917 1.69531 7.34375  c
1.87760 7.45833 2.07292 7.51562 2.28125 7.51562  c
2.57292 7.51562 2.82552 7.39583 3.03906 7.15625  c
3.25260 6.91667 3.35938 6.59375 3.35938 6.18750  c
3.35938 5.79167 3.25521 5.47917 3.04688 5.25000  c
2.83854 5.02083 2.57292 4.90625 2.25000 4.90625  c
1.93750 4.90625 1.66927 5.02083 1.44531 5.25000  c
1.22135 5.47917 1.10938 5.77604 1.10938 6.14062  c
h
f
[ 1.00000 0.00000 0.00000 1.00000 0.00000 0.00000 ] defaultmatrix matrix concatmatrix setmatrix
[ 1.00000 0.00000 0.00000 1.00000 0.00000 0.00000 ] defaultmatrix matrix concatmatrix setmatrix
.200000 .200000 .200000 RG
0.00000 0.00000 .607843 RG
q
cliprestore
newpath
0.00000 0.00000 m
0.00000 96.0000 l
503.000 96.0000 l
503.000 0.00000 l
h
W
cliprestore
newpath
0.00000 0.00000 m
0.00000 96.0000 l
503.000 96.0000 l
503.000 0.00000 l
h
W
Q
cliprestore
93.0000 36.0000 12.0000 26.0000 rc
[ .991149 0.00000 0.00000 .991149 .823950 .330734 ] defaultmatrix matrix concatmatrix setmatrix
0.00000 0.00000 0.00000 RG
[ 1.00000 0.00000 0.00000 1.00000 0.00000 0.00000 ] defaultmatrix matrix concatmatrix setmatrix
cliprestore
newpath
0.00000 0.00000 m
0.00000 96.0000 l
503.000 96.0000 l
503.000 0.00000 l
h
W
0.00000 0.00000 .607843 RG
cliprestore
93.0000 36.0000 12.0000 26.0000 rc
[ .991149 0.00000 0.00000 .991149 .823950 .330734 ] defaultmatrix matrix concatmatrix setmatrix
0.00000 0.00000 0.00000 RG
newpath
97.4590 54.5069 m
97.4590 51.1631 l
94.0840 51.1631 l
94.0840 48.8506 l
97.4590 48.8506 l
97.4590 45.5069 l
99.7090 45.5069 l
99.7090 48.8506 l
103.084 48.8506 l
103.084 51.1631 l
99.7090 51.1631 l
99.7090 54.5069 l
97.4590 54.5069 l
h
f
[ 1.00000 0.00000 0.00000 1.00000 0.00000 0.00000 ] defaultmatrix matrix concatmatrix setmatrix
cliprestore
newpath
0.00000 0.00000 m
0.00000 96.0000 l
503.000 96.0000 l
503.000 0.00000 l
h
W
0.00000 0.00000 .607843 RG
cliprestore
394.000 32.0000 13.0000 25.0000 rc
[ .991149 0.00000 0.00000 .991149 3.49521 .288194 ] defaultmatrix matrix concatmatrix setmatrix
0.00000 0.00000 0.00000 RG
[ 1.00000 0.00000 0.00000 1.00000 0.00000 0.00000 ] defaultmatrix matrix concatmatrix setmatrix
cliprestore
newpath
0.00000 0.00000 m
0.00000 96.0000 l
503.000 96.0000 l
503.000 0.00000 l
h
W
0.00000 0.00000 .607843 RG
cliprestore
394.000 32.0000 13.0000 25.0000 rc
[ .991149 0.00000 0.00000 .991149 3.49521 .288194 ] defaultmatrix matrix concatmatrix setmatrix
0.00000 0.00000 0.00000 RG
newpath
399.258 49.7007 m
399.258 46.3570 l
395.883 46.3570 l
395.883 44.0445 l
399.258 44.0445 l
399.258 40.7007 l
401.508 40.7007 l
401.508 44.0445 l
404.883 44.0445 l
404.883 46.3570 l
401.508 46.3570 l
401.508 49.7007 l
399.258 49.7007 l
h
f
[ 1.00000 0.00000 0.00000 1.00000 0.00000 0.00000 ] defaultmatrix matrix concatmatrix setmatrix
cliprestore
newpath
0.00000 0.00000 m
0.00000 96.0000 l
503.000 96.0000 l
503.000 0.00000 l
h
W
0.00000 0.00000 .607843 RG
q
0.00000 0.00000 0.00000 RG
newpath
287.526 45.4445 m
217.259 46.4422 l
217.275 47.5684 l
287.542 46.5707 l
287.581 49.2736 l
296.544 45.8797 l
287.488 42.7417 l
h
f
Q

%%Trailer
%%EOF
