%!PS-Adobe-3.0 EPSF-3.0
%%BoundingBox: 20 323 575 468
%%Creator: FreeHEP Graphics2D Driver
%%Producer: org.freehep.graphicsio.ps.EPSGraphics2D
%%For: 
%%Title: 
%%LanguageLevel: 3
%%EndComments
%%BeginProlog
100 dict dup begin

%
% File: org/freehep/graphicsio.ps/PSProlog.txt
% Author: Charles Loomis
%

% Redefinitions which save some space in the output file.  These are also
% the same as the PDF operators.
/q {gsave} def
/Q {grestore} def

/n {newpath} def
/m {moveto} def
/l {lineto} def
/c {curveto} def
/h {closepath} def

/re {4 -2 roll moveto
     dup 0 exch rlineto exch 0 rlineto
     neg 0 exch rlineto closepath} def

/f {fill} def
/f* {eofill} def
/F {gsave vg&FC fill grestore} def
/F* {gsave vg&FC eofill grestore} def

/s {closepath stroke} def
/S {stroke} def

/b {closepath gsave vg&FC fill grestore
    gsave stroke grestore newpath} def
/B {gsave vg&FC fill grestore gsave stroke grestore newpath} def
/b* {closepath gsave vg&FC eofill grestore
    gsave stroke grestore newpath} def
/B* {gsave vg&FC eofill grestore gsave stroke grestore newpath} def

/g {1 array astore /vg&fcolor exch def} def
/G {setgray} def
/k {4 array astore /vg&fcolor exch def} def
/K {setcmykcolor} def
/rg {3 array astore /vg&fcolor exch def} def
/RG {setrgbcolor} def

% Initialize the fill color.
0 0 0 rg

/vg&FC {mark vg&fcolor aload pop
        counttomark 1 eq {G} if
        counttomark 3 eq {RG} if
        counttomark 4 eq {K} if
        cleartomark } def

/vg&DFC {/vg&fcolor exch def} def

/vg&C {mark exch aload pop
       counttomark 1 eq {G} if
       counttomark 3 eq {RG} if
       counttomark 4 eq {K} if
       cleartomark } def

/w {setlinewidth} def
/j {setlinejoin} def
/J {setlinecap} def
/M {setmiterlimit} def
/d {setdash} def
/i {setflat} def

/W {clip} def
/W* {eoclip} def

% Setup the default graphics state.
% (black; 1 pt. linewidth; miter join; butt-ends; solid)
/defaultGraphicsState {0 g 1 w 0 j 0 J [] 0 d} def

% Emulation of the rectangle operators for PostScript implementations
% which do not implement all Level 2 features.  This is an INCOMPLETE
% emulation; only the "x y width height rect..." form is emulated.
/*rf {gsave newpath re fill grestore} def
/*rs {gsave newpath re stroke grestore} def
/*rc {newpath re clip} def
/rf  /rectfill where {pop /rectfill}{/*rf} ifelse load def
/rs  /rectstroke where {pop /rectstroke}{/*rs} ifelse load def
/rc  /rectclip where {pop /rectclip}{/*rc} ifelse load def

% Emulation of the selectfont operator.  This includes a 20% increase in
% the fontsize which is necessary to get sizes similar to the Java fonts.
/*sf {exch findfont exch
      dup type /arraytype eq {makefont}{scalefont} ifelse setfont} bind def
/sf /selectfont where {pop {1.2 mul selectfont}}{{1.2 mul *sf}} ifelse def

% Special version of stroke which allows the dash pattern to continue
% across path segments.  (This may be needed for PostScript although
% modern printers seem to do this correctly.)
/vg&stroke {
  currentdash pop length 0 eq
  {stroke}
  {
    currentdash /vg&doffset exch def pop
    flattenpath
    {m vg&resetdash}
    {2 copy
     currentpoint
     3 -1 roll sub dup mul
     3 1 roll sub dup mul
     add sqrt
     3 1 roll l
     currentdash 3 -1 roll add setdash}
     {}
     {h vg&resetdash}
     pathforall
     stroke
     vg&resetdash
  } ifelse
} def
/vg&resetdash {currentdash pop vg&doffset setdash} def

% Initialize variables for safety.
/delta 0 def
/xv 0 def  /yv 0 def  /width 0 def  /height 0 def

% Initialize to portrait INTERNATIONAL (Letter-height, A4-width) page.
/pw 595 def  /ph 791  def  /po true def /ftp false def

% Initialize margins to 20 points.
/ml 20 def  /mr 20 def  /mt 20 def  /mb 20 def

% Temporary matrices.
/smatrix 0 def  /nmatrix 0 def

% set page size (usage: <page width><page height> setpagesize)
/setpagesize {/ph exch def /pw exch def} def

% set page orientation (usage: portrait or landscape)
/portrait {/po true def} def
/landscape {/po false def} def

% force natural size for image (usage: naturalsize)
/naturalsize {/ftp false def} def

% resize image to fill page (usage: fittopage)
/fittopage {/ftp true def} def

% set margins of the page (usage: <left><bottom><top><right> setmargins)
/setmargins {/mr exch def /mt exch def /mb exch def /ml exch def} def

% set the graphic's size (usage: <width><height> setsize)
/setsize {/gh exch def /gw exch def} def

% set the graphic's origin (usage: <x0><y0> setorigin)
/setorigin {/gy exch def /gx exch def} def

% calculate image center
/imagecenter {pw ml sub mr sub 2 div ml add
              ph mt sub mb sub 2 div mb add} def

% calculate the necessary scaling
/imagescale {po {gw}{gh} ifelse pw ml sub mr sub div
             po {gh}{gw} ifelse ph mt sub mb sub div
             2 copy lt {exch} if pop
             ftp not {1 2 copy lt {exch} if pop} if
             1 exch div /sfactor exch def
             /gw gw sfactor mul def /gh gh sfactor mul def} def

% calculate image origin
/imageorigin {pw ml sub mr sub 2 div ml add
              po {gw}{gh} ifelse 2 div sub
              ph mt sub mb sub 2 div mb add
              po {gh}{gw} ifelse 2 div po {add}{sub} ifelse} def

% calculate the clipping origin
/cliporigin  {pw ml sub mr sub 2 div ml add
              po {gw}{gh} ifelse 2 div sub floor
              ph mt sub mb sub 2 div mb add
              po {gh}{gw} ifelse 2 div sub floor} def

% Set the clipping region to the bounding box.
/cliptobounds {cliporigin po {gw}{gh} ifelse 1 add
                          po {gh}{gw} ifelse 1 add rc} def

% set the base transformation matrix (usage: setbasematrix)
/setbasematrix {imageorigin translate
                po {0}{90} ifelse rotate
                sfactor sfactor neg scale
                /defaultmatrix matrix currentmatrix def} def

% The lower-right bias in drawing 1 pt. wide lines.
/bias  {q 0.5 0.5 translate} def
/unbias {Q} def

% Define the composite fonts used to print Unicode strings.
% Undefine particular values in an encoding array.
/vg&undef { {exch dup 3 -1 roll /.notdef put} forall } def
/vg&redef { {3 -1 roll dup 4 2 roll put} forall } def

% usage: key encoding basefontname vg&newbasefont font
/vg&newbasefont {
findfont dup length dict copy
  begin
    currentdict /FID undef
    /Encoding exch def
    dup /FontName exch def
    currentdict
  end
definefont
} def

% usage: key encoding basefontname vg&newskewedbasefont font
/vg&newskewedbasefont {
findfont dup length dict copy
  begin
    currentdict /FID undef
    /Encoding exch def
    dup /FontName exch def
    exch FontMatrix exch matrix concatmatrix /FontMatrix exch def
    currentdict
  end
definefont
} def

% usage: basekey suffix vg&nconcat name
/vg&nconcat {
  2 {dup length string cvs exch} repeat
  dup length 3 -1 roll dup length 3 -1 roll add string
  dup 0 4 -1 roll dup length 5 1 roll putinterval
  dup 4 -2 roll exch putinterval cvn
} def

%usage: fontname vg&skewmatrix matrix
/vg&skewmatrix {
findfont dup /FontInfo known
  {
    /FontInfo get dup /ItalicAngle known
    {
      [ 1 0 4 -1 roll /ItalicAngle get neg dup sin exch cos div 1 0 0 ]
    }
    {pop matrix} ifelse
  }
  {pop matrix} ifelse
} def

% usage: newfontname basefontname vg&newcompositefont --
/vg&newcompositefont {
/vg&fstyle exch def
/vg&bfont exch def
/vg&fname exch def
<<
/FontStyleBits vg&fstyle
/FontType 0
/FontMatrix matrix
/FontName vg&fname
/FMapType 2
/Encoding [ 0 1 255 {pop 6} for ]
          dup 16#00 0 put % Latin
          dup 16#03 1 put % Greek
          dup 16#20 2 put % Punctuation
          dup 16#21 3 put % Arrows
          dup 16#22 4 put % MathOps
          dup 16#27 5 put % Dingbats

/FDepVector [
vg&bfont /-UC-Latin vg&nconcat UCLatinEncoding
vg&bfont vg&newbasefont

vg&bfont vg&skewmatrix
vg&bfont /-UC-Greek vg&nconcat UCGreekEncoding
/Symbol vg&newskewedbasefont

vg&bfont /-UC-Punctuation vg&nconcat UCPunctuationEncoding
vg&bfont vg&newbasefont

/Arrows-UC findfont
/MathOps-UC findfont
/Dingbats-UC findfont
/Undefined-UC findfont ]
>>
vg&fname exch definefont pop
} def

% Null encoding vector (all elements set to .notdef)
/NullEncoding [ 256 {/.notdef} repeat ] def

% Unicode Latin encoding (unicode codes \u0000-\u00ff)
/UCLatinEncoding
  ISOLatin1Encoding dup length array copy
  dup 16#60 /grave put
  [ 16#90 16#91 16#92 16#93 16#94 16#95 16#96
    16#97 16#98 16#9a 16#9b 16#9d 16#9e 16#9f
  ] vg&undef
  def

% Unicode Greek encoding (unicode codes \u0370-\u03ff)
/UCGreekEncoding
  NullEncoding dup length array copy
  << 16#91 /Alpha    16#92 /Beta      16#93 /Gamma    16#94 /Delta
     16#95 /Epsilon  16#96 /Zeta      16#97 /Eta      16#98 /Theta
     16#99 /Iota     16#9a /Kappa     16#9b /Lambda   16#9c /Mu
     16#9d /Nu       16#9e /Xi        16#9f /Omicron  16#a0 /Pi
     16#a1 /Rho      16#a3 /Sigma     16#a4 /Tau      16#a5 /Upsilon
     16#a6 /Phi      16#a7 /Chi       16#a8 /Psi      16#a9 /Omega
     16#b1 /alpha    16#b2 /beta      16#b3 /gamma    16#b4 /delta
     16#b5 /epsilon  16#b6 /zeta      16#b7 /eta      16#b8 /theta
     16#b9 /iota     16#ba /kappa     16#bb /lambda   16#bc /mu
     16#bd /nu       16#be /xi        16#bf /omicron  16#c0 /pi
     16#c1 /rho      16#c2 /sigma1    16#c3 /sigma    16#c4 /tau
     16#c5 /upsilon  16#c6 /phi1      16#c7 /chi      16#c8 /psi
     16#c9 /omega    16#7e /semicolon 16#87 /dotmath  16#d1 /theta1
     16#d2 /Upsilon1 16#d5 /phi       16#d6 /omega1
  >> vg&redef
  def

% Unicode punctuation encoding (unicode codes \u2000-\u206f)
/UCPunctuationEncoding
  NullEncoding dup length array copy
  << 16#10 /hyphen          16#11 /hyphen              16#12 /endash
     16#13 /emdash          16#18 /quoteleft           16#19 /quoteright
     16#1a /quotesinglbase  16#1b /quotesingle         16#1c /quotedblleft
     16#1d /quotedblright   16#1e /quotedblbase        16#1f /quotedbl
     16#20 /dagger          16#21 /daggerdbl           16#22 /bullet
     16#24 /period          16#26 /ellipsis            16#27 /periodcentered
     16#30 /perthousand     16#44 /fraction
     16#70 /zerosuperior    16#74 /foursuperior        16#75 /fivesuperior
     16#76 /sixsuperior     16#77 /sevensuperior       16#78 /eightsuperior
     16#79 /ninesuperior    16#7b /hyphensuperior      16#7d /parenleftsuperior
     16#7e /parenrightsuperior
     16#80 /zeroinferior    16#84 /fourinferior        16#85 /fiveinferior
     16#81 /oneinferior     16#82 /twoinferior         16#83 /threeinferior
     16#86 /sixinferior     16#87 /seveninferior       16#88 /eightinferior
     16#89 /nineinferior    16#8b /hypheninferior      16#8d /parenleftinferior
     16#8e /parenrightinferior
  >> vg&redef
  def

% Unicode mathematical operators encoding (unicode codes \u2200-\u22ff)
/UCMathOpsEncoding
  NullEncoding dup length array copy
  << 16#00 /universal       16#02 /partialdiff         16#03 /existential
     16#05 /emptyset        16#06 /Delta               16#07 /gradient
     16#08 /element         16#09 /notelement          16#0b /suchthat
     16#0f /product         16#11 /summation           16#12 /minus
     16#15 /fraction        16#17 /asteriskmath        16#19 /bullet
     16#1a /radical         16#1d /proportional        16#1e /infinity
     16#20 /angle           16#23 /bar                 16#27 /logicaland
     16#28 /logicalor       16#29 /intersection        16#2a /union
     16#2b /integral        16#34 /therefore           16#36 /colon
     16#3c /similar         16#45 /congruent           16#48 /approxequal
     16#60 /notequal        16#61 /equivalence         16#64 /lessequal
     16#65 /greaterequal    16#82 /propersubset        16#83 /propersuperset
     16#86 /reflexsubset    16#87 /reflexsuperset      16#95 /circleplus
     16#97 /circlemultiply  16#a5 /perpendicular       16#03 /existential
     16#c0 /logicaland      16#c1 /logicalor           16#c2 /intersection
     16#c3 /union           16#c4 /diamond             16#c5 /dotmath
  >> vg&redef
  def

% Unicode arrows encoding (unicode codes \u2190-\u21ff)
% Also includes those "Letterlike" unicode characters
% which are available in the symbol font. (unicode codes \u2100-\u214f)
/UCArrowsEncoding
  NullEncoding dup length array copy
  << 16#11 /Ifraktur        16#1c /Rfraktur            16#22 /trademarkserif
     16#35 /aleph
     16#90 /arrowleft       16#91 /arrowup             16#92 /arrowright
     16#93 /arrowdown       16#94 /arrowboth           16#d0 /arrowdblleft
     16#d1 /arrowdblup      16#d2 /arrowdblright       16#d3 /arrowdbldown
     16#d4 /arrowdblboth
  >> vg&redef
  def

/ZapfDingbats findfont /Encoding get
dup length array copy /UCDingbatsEncoding exch def
16#20 1 16#7f {
  dup 16#20 sub exch
  UCDingbatsEncoding exch get
  UCDingbatsEncoding 3 1 roll put
} for
16#a0 1 16#ff {
  dup 16#40 sub exch
  UCDingbatsEncoding exch get
  UCDingbatsEncoding 3 1 roll put
} for
UCDingbatsEncoding [ 16#c0 1 16#ff {} for ] vg&undef
[ 16#00  16#05 16#0a 16#0b  16#28 16#4c 16#4e  16#53 16#54 16#55  16#57 16#5f
  16#60  16#68 16#69 16#6a  16#6b 16#6c 16#6d  16#6e 16#6f 16#70  16#71 16#72
  16#73  16#74 16#75 16#95  16#96 16#97 16#b0  16#bf
] vg&undef pop

% Define the base fonts which don't change.
/Undefined-UC NullEncoding       /Helvetica    vg&newbasefont pop
/MathOps-UC   UCMathOpsEncoding  /Symbol       vg&newbasefont pop
/Arrows-UC    UCArrowsEncoding   /Symbol       vg&newbasefont pop
/Dingbats-UC  UCDingbatsEncoding /ZapfDingbats vg&newbasefont pop

% Make the SansSerif composite fonts.
/SansSerif /Helvetica 16#00 vg&newcompositefont
/SansSerif-Bold /Helvetica-Bold 16#01 vg&newcompositefont
/SansSerif-Italic /Helvetica-Oblique 16#02 vg&newcompositefont
/SansSerif-BoldItalic /Helvetica-BoldOblique 16#03 vg&newcompositefont

% Make the Serif composite fonts.
/Serif /Times-Roman 16#00 vg&newcompositefont
/Serif-Bold /Times-Bold 16#01 vg&newcompositefont
/Serif-Italic /Times-Italic 16#02 vg&newcompositefont
/Serif-BoldItalic /Times-BoldItalic 16#03 vg&newcompositefont

% Make the Monospaced composite fonts.
/Monospaced /Courier 16#00 vg&newcompositefont
/Monospaced-Bold /Courier-Bold 16#01 vg&newcompositefont
/Monospaced-Italic /Courier-Oblique 16#02 vg&newcompositefont
/Monospaced-BoldItalic /Courier-BoldOblique 16#03 vg&newcompositefont

% Make the Dialog composite fonts.
/Dialog /Helvetica 16#00 vg&newcompositefont
/Dialog-Bold /Helvetica-Bold 16#01 vg&newcompositefont
/Dialog-Italic /Helvetica-Oblique 16#02 vg&newcompositefont
/Dialog-BoldItalic /Helvetica-BoldOblique 16#03 vg&newcompositefont

% Make the DialogInput composite fonts.
/DialogInput /Courier 16#00 vg&newcompositefont
/DialogInput-Bold /Courier-Bold 16#01 vg&newcompositefont
/DialogInput-Italic /Courier-Oblique 16#02 vg&newcompositefont
/DialogInput-BoldItalic /Courier-BoldOblique 16#03 vg&newcompositefont

% Make the Typewriter composite fonts (JDK 1.1 only).
/Typewriter /Courier 16#00 vg&newcompositefont
/Typewriter-Bold /Courier-Bold 16#01 vg&newcompositefont
/Typewriter-Italic /Courier-Oblique 16#02 vg&newcompositefont
/Typewriter-BoldItalic /Courier-BoldOblique 16#03 vg&newcompositefont


/cfontH {
 dup /fontsize exch def /SansSerif exch sf
 /vg&fontstyles [{cfontH} {cfontHB} {cfontHI} {cfontHBI}] def
} def
/cfontHB {
  dup /fontsize exch def /SansSerif-Bold exch sf
 /vg&fontstyles [{cfontH} {cfontHB} {cfontHI} {cfontHBI}] def
} def
/cfontHI {
 dup /fontsize exch def /SansSerif-Italic exch sf
 /vg&fontstyles [{cfontH} {cfontHB} {cfontHI} {cfontHBI}] def
} def
/cfontHBI {
 dup /fontsize exch def /SansSerif-BoldItalic exch sf
 /vg&fontstyles [{cfontH} {cfontHB} {cfontHI} {cfontHBI}] def
} def

/cfontT {
 dup /fontsize exch def /Serif exch sf
 /vg&fontstyles [{cfontT} {cfontTB} {cfontTI} {cfontTBI}] def
} def
/cfontTB {
 dup /fontsize exch def /Serif-Bold exch sf
 /vg&fontstyles [{cfontT} {cfontTB} {cfontTI} {cfontTBI}] def
} def
/cfontTI {
 dup /fontsize exch def /Serif-Italic exch sf
 /vg&fontstyles [{cfontT} {cfontTB} {cfontTI} {cfontTBI}] def
} def
/cfontTBI {
 dup /fontsize exch def /Serif-BoldItalic exch sf
 /vg&fontstyles [{cfontT} {cfontTB} {cfontTI} {cfontTBI}] def
} def

/cfontC {
 dup /fontsize exch def /Typewriter exch sf
 /vg&fontstyles [{cfontC} {cfontCB} {cfontCI} {cfontCBI}] def
} def
/cfontCB {
 dup /fontsize exch def /Typewriter-Bold exch sf
 /vg&fontstyles [{cfontC} {cfontCB} {cfontCI} {cfontCBI}] def
} def
/cfontCI {
 dup /fontsize exch def /Typewriter-Italic exch sf
 /vg&fontstyles [{cfontC} {cfontCB} {cfontCI} {cfontCBI}] def
} def
/cfontCBI {
 dup /fontsize exch def /Typewriter-BoldItalic exch sf
 /vg&fontstyles [{cfontC} {cfontCB} {cfontCI} {cfontCBI}] def
} def

% Darken or lighten the current color.
/darken {0.7 exch exp 3 copy
         q 4 -1 roll vg&C
         currentrgbcolor 3 {4 -2 roll mul} repeat
         3 array astore Q} def

/displayColorMap
<< /Cr   [1.00 0.00 0.00]       /Cg     [0.00 1.00 0.00]
   /Cb   [0.00 0.00 1.00]       /Cc     [1.00 0.00 0.00 0.00]
   /Cm   [0.00 1.00 0.00 0.00]  /Cy     [0.00 0.00 1.00 0.00]
   /Co   [1.00 0.78 0.00]       /Cp     [1.00 0.67 0.67]
   /Cw   [1   ]                 /Cgrl   [0.75]
   /Cgr  [0.50]                 /Cgrd   [0.25]
   /Ck   [0   ]
   /CGr  [1.00 0.00 0.00]       /CGg    [0.00 1.00 0.00]
   /CGb  [0.00 0.00 1.00]       /CGc    [1.00 0.00 0.00 0.00]
   /CGm  [0.00 1.00 0.00 0.00]  /CGy    [0.00 0.00 1.00 0.00]
   /CGo  [1.00 0.78 0.00]       /CGp    [1.00 0.67 0.67]
   /CGw  [1   ]                 /CGgrl  [0.75]
   /CGgr [0.50]                 /CGgrd  [0.25]
   /CGk  [0   ]
   /CIr  [1.00 0.00 0.00]       /CIg    [0.00 1.00 0.00]
   /CIb  [0.00 0.00 1.00]       /CIc    [1.00 0.00 0.00 0.00]
   /CIm  [0.00 1.00 0.00 0.00]  /CIy    [0.00 0.00 1.00 0.00]
   /CIo  [1.00 0.78 0.00]       /CIp    [1.00 0.67 0.67]
   /CIw  [1   ]                 /CIgrl  [0.75]
   /CIgr [0.50]                 /CIgrd  [0.25]
   /CIk  [0   ]
>> def

/printColorMap
<< /Cr   [1.00 0.33 0.33]       /Cg     [0.33 1.00 0.33]
   /Cb   [0.33 0.33 1.00]       /Cc     [1.00 0.00 0.00 0.00]
   /Cm   [0.00 1.00 0.00 0.00]  /Cy     [0.00 0.00 1.00 0.00]
   /Co   [1.00 0.78 0.00]       /Cp     [1.00 0.67 0.67]
   /Cw   [1   ]                 /Cgrl   [0.75]
   /Cgr  [0.50]                 /Cgrd   [0.25]
   /Ck   [0   ]
   /CGr  [1.00 0.33 0.33]       /CGg    [0.33 1.00 0.33]
   /CGb  [0.33 0.33 1.00]       /CGc    [1.00 0.00 0.00 0.00]
   /CGm  [0.00 1.00 0.00 0.00]  /CGy    [0.00 0.00 1.00 0.00]
   /CGo  [1.00 0.78 0.00]       /CGp    [1.00 0.67 0.67]
   /CGw  [1   ]                 /CGgrl  [0.75]
   /CGgr [0.50]                 /CGgrd  [0.25]
   /CGk  [0   ]
   /CIr  [1.00 0.33 0.33]       /CIg    [0.33 1.00 0.33]
   /CIb  [0.33 0.33 1.00]       /CIc    [1.00 0.00 0.00 0.00]
   /CIm  [0.00 1.00 0.00 0.00]  /CIy    [0.00 0.00 1.00 0.00]
   /CIo  [1.00 0.78 0.00]       /CIp    [1.00 0.67 0.67]
   /CIw  [1   ]                 /CIgrl  [0.75]
   /CIgr [0.50]                 /CIgrd  [0.25]
   /CIk  [0   ]
>> def

/grayColorMap
<< /Cr   [0   ]                 /Cg     [0   ]
   /Cb   [0   ]                 /Cc     [0   ]
   /Cm   [0   ]                 /Cy     [0   ]
   /Co   [0   ]                 /Cp     [0   ]
   /Cw   [0   ]                 /Cgrl   [0   ]
   /Cgr  [0   ]                 /Cgrd   [0   ]
   /Ck   [0   ]
   /CGr  [0.75]                 /CGg    [1   ]
   /CGb  [0.50]                 /CGc    [0.75]
   /CGm  [0.50]                 /CGy    [1   ]
   /CGo  [0.75]                 /CGp    [1   ]
   /CGw  [0   ]                 /CGgrl  [0.25]
   /CGgr [0.50]                 /CGgrd  [0.75]
   /CGk  [1   ]
   /CIr  [1   ]                 /CIg    [1   ]
   /CIb  [1   ]                 /CIc    [1   ]
   /CIm  [1   ]                 /CIy    [1   ]
   /CIo  [1   ]                 /CIp    [1   ]
   /CIw  [1   ]                 /CIgrl  [1   ]
   /CIgr [1   ]                 /CIgrd  [1   ]
   /CIk  [1   ]
>> def

/bwColorMap
<< /Cr   [0   ]                 /Cg     [0   ]
   /Cb   [0   ]                 /Cc     [0   ]
   /Cm   [0   ]                 /Cy     [0   ]
   /Co   [0   ]                 /Cp     [0   ]
   /Cw   [0   ]                 /Cgrl   [0   ]
   /Cgr  [0   ]                 /Cgrd   [0   ]
   /Ck   [0   ]
   /CGr  [1   ]                 /CGg    [1   ]
   /CGb  [1   ]                 /CGc    [1   ]
   /CGm  [1   ]                 /CGy    [1   ]
   /CGo  [1   ]                 /CGp    [1   ]
   /CGw  [0   ]                 /CGgrl  [1   ]
   /CGgr [1   ]                 /CGgrd  [1   ]
   /CGk  [1   ]
   /CIr  [1   ]                 /CIg    [1   ]
   /CIb  [1   ]                 /CIc    [1   ]
   /CIm  [1   ]                 /CIy    [1   ]
   /CIo  [1   ]                 /CIp    [1   ]
   /CIw  [1   ]                 /CIgrl  [1   ]
   /CIgr [1   ]                 /CIgrd  [1   ]
   /CIk  [1   ]
>> def

%
% The following routines handle the alignment of and printing of
% tagged strings.
%

% Predefine the bounding box values.
/bbllx 0 def /bblly 0 def /bburx 0 def /bbury 0 def

% This routine pops the first unicode character off of a string and returns
% the remainder of the string, the character code of first character,
% and a "true" if the string was non-zero length.
% <string>      popfirst <remaining string> <true>
% <null string> popfirst <false>
/popfirst {
  dup length 1 gt
    {dup 0 get /vg&fbyte exch def
     dup 1 get /vg&cbyte exch def
     dup length 2 sub 2 exch getinterval true}
    {pop false} ifelse
} def

% This routine shows a single unicode character given the font and
% character codes.
% <font code> <char code> unicharshow --
/unicharshow {
  2 string
  dup 0 5 -1 roll put
  dup 1 4 -1 roll put
  internalshow
} def

% This is an internal routine to alternate between determining the
% bounding box for stringsize and showing the string for recshow.
% <string> internalshow --
/internalshow {show} def

% This is an internal routine to alternate between determining the
% bounding box for stringsize and stroking various ornaments.
% <string> internalstroke --
/internalstroke {S} def

% Sets up internalshow to use the null device to determine string size.
% -- nullinternalshow --
/nullinternalshow {/internalshow {false charpath flattenpath
                                  pathbbox updatebbox} def} def

% Sets up internalstroke to use the null device to determine string size.
% -- nullinternalstroke --
/nullinternalstroke {
 /internalstroke {flattenpath pathbbox updatebbox} def} def

% This routine tests to see if the character code matches the first
% character of a string.
% <char code> <string> testchar <char code> <true or false>
/testchar {exch dup 3 -1 roll 0 get eq} def

% Raise the text baseline for superscripts.
% -- raise --
/raise {
  0 fontsize 2 div rmoveto
  /fontsize fontsize 2 mul 3 div def
  currentfont /FontName get fontsize sf
} def

% Un-raise the text baseline for superscripts.
% -- unraise --
/unraise {
  /fontsize fontsize 1.5 mul def
  0 fontsize 2 div neg rmoveto
} def

% Lower the text baseline for subscripts.
% -- lower --
/lower {
  0 fontsize 3 div neg rmoveto
  /fontsize fontsize 2 mul 3 div def
  currentfont /FontName get fontsize sf
} def

% Un-lower the text baseline for subscripts.
% -- unlower --
/unlower {
  /fontsize fontsize 1.5 mul def
  0 fontsize 3 div rmoveto
} def

% Compare the top two elements on the stack and leave only the
% larger one.
/maxval {2 copy gt {pop} {exch pop} ifelse} def

% Tokenize a string.  Do not use the usual PostScript token because
% parentheses will not be interpreted correctly because of rescanning
% of the string.
/vg&token {/vg&string exch def /vg&index -1 def /vg&level 0 def
0 2 vg&string length 2 sub {
  dup dup 1 add exch vg&string exch get 8 bitshift vg&string 3 -1 roll get or
  dup 16#f0fe eq {pop 1}{16#f0ff eq {-1}{0} ifelse} ifelse
  /vg&level exch vg&level add def
  vg&level 0 eq {/vg&index exch def exit} if pop
} for
vg&index 0 ge {
  vg&string vg&index 2 add dup vg&string length exch sub getinterval
  vg&index 2 gt {vg&string 2 vg&index 2 sub getinterval}{()} ifelse
  true}
{false} ifelse
} bind def

% Recursively show an unicode string.
% <string> recshow --
/recshow {
  popfirst
  {
    % Test to see if this is a string attribute.
    vg&fbyte 16#f0 and 16#e0 eq
    {
      q

      % Font style.
      currentfont dup /FontStyleBits known {/FontStyleBits get}{pop 0} ifelse
      vg&cbyte or vg&fontstyles exch get fontsize exch exec

      vg&token pop recshow currentpoint Q m recshow
    }
    {
      vg&fbyte 16#F8 and 16#F0 eq {

        % Superscript and/or subscript.
        vg&cbyte 16#00 eq {
          vg&token pop exch vg&token pop 3 -1 roll
          q raise recshow unraise currentpoint pop Q exch
          q lower recshow unlower currentpoint pop Q
          maxval currentpoint exch pop m recshow } if

        % Strikeout.
        vg&cbyte 16#01 eq {
          vg&token pop currentpoint 3 -1 roll recshow
          q 0 J vg&underline vg&uthick w
          currentpoint 4 -2 roll fontsize 3 div add moveto
          fontsize 3 div add lineto internalstroke Q
          recshow} if

        % Underline.
        vg&cbyte 16#02 eq {
          vg&token pop currentpoint 3 -1 roll recshow
          q 0 J vg&underline vg&uthick w
          currentpoint 4 -2 roll vg&uoffset add moveto
          vg&uoffset add lineto internalstroke Q
          recshow} if

        % Dashed underline.
        vg&cbyte 16#03 eq {
          vg&token pop currentpoint 3 -1 roll recshow
          q 0 J [ vg&uthick 5 mul vg&uthick 2 mul] 0 d
          vg&underline vg&uthick w
          currentpoint 4 -2 roll vg&uoffset add moveto
          vg&uoffset add lineto internalstroke Q
          recshow} if

        % Dotted underline.
        vg&cbyte 16#04 eq {
          vg&token pop currentpoint 3 -1 roll recshow
          q 1 J [ 0 vg&uthick 3 mul] 0 d
          vg&underline vg&uthick w
          currentpoint 4 -2 roll vg&uoffset add moveto
          vg&uoffset add lineto internalstroke Q
          recshow} if

        % Thick underline.
        vg&cbyte 16#05 eq {
          vg&token pop currentpoint 3 -1 roll recshow
          q 0 J vg&underline vg&uthick 2 mul w
          currentpoint 4 -2 roll vg&uoffset vg&uthick 2 div sub add moveto
          vg&uoffset vg&uthick 2 div sub add lineto internalstroke Q
          recshow} if

        % Gray thick underline.
        vg&cbyte 16#06 eq {
          vg&token pop currentpoint 3 -1 roll recshow
          q 0 J vg&underline vg&uthick 2 mul w 0.5 setgray
          currentpoint 4 -2 roll vg&uoffset vg&uthick 2 div sub add moveto
          vg&uoffset vg&uthick 2 div sub add lineto internalstroke Q
          recshow} if

        % Overbar.
        vg&cbyte 16#07 eq {
          vg&token pop dup stringsize relative 4 1 roll pop pop exch
          3 -1 roll recshow
          q 0 J vg&underline vg&uthick w
          vg&uoffset neg add dup currentpoint pop exch m l internalstroke Q
          recshow} if
      }
      {
        vg&fbyte vg&cbyte unicharshow recshow
      } ifelse
    } ifelse
  } if
} def

% Get the underline position and thickness from the current font.
/vg&underline {

currentfont dup /FontType get 0 eq {/FDepVector get 0 get} if
dup dup /FontInfo known {
  /FontInfo get dup
  dup /UnderlinePosition known {
    /UnderlinePosition get /vg&uoffset exch def
  }
  {
    pop /vg&uoffset 0 def
  } ifelse
  dup /UnderlineThickness known {
    /UnderlineThickness get /vg&uthick exch def
  }
  {
    pop /vg&uthick 0 def
  } ifelse
}
{
  pop /vg&uoffset 0 def /vg&uthick 0 def
} ifelse
/FontMatrix get
currentfont dup /FontType get 0 eq
{/FontMatrix get matrix concatmatrix}{pop} ifelse
dup 0 vg&uoffset 3 -1 roll transform /vg&uoffset exch def pop
0 vg&uthick 3 -1 roll transform /vg&uthick exch def pop
} def

% Make a frame with the coordinates on the stack.
% <llx> <lly> <urx> <ury> frame --
/frame {4 copy m 3 1 roll exch l 4 -2 roll l l h} def

% Resets the accumulated bounding box to a degenerate box at the
% current point.
% -- resetbbox --
/resetbbox {
  currentpoint 2 copy
  /bbury exch def
  /bburx exch def
  /bblly exch def
  /bbllx exch def
} def

% Update the accumulated bounding box.
% <llx'> <lly'> <urx'> <ury'> updatebbox --
/updatebbox {
  dup bbury gt {/bbury exch def} {pop} ifelse
  dup bburx gt {/bburx exch def} {pop} ifelse
  dup bblly lt {/bblly exch def} {pop} ifelse
  dup bbllx lt {/bbllx exch def} {pop} ifelse
} def

% Set the bounding box to the values on the stack.
% <llx'> <lly'> <urx'> <ury'> updatebbox --
/restorebbox {
  /bbury exch def /bburx exch def /bblly exch def /bbllx exch def
} def

% Push the accumulated bounding box onto the stack.
% -- pushbbox <llx> <lly> <urx> <ury>
/pushbbox {bbllx bblly bburx bbury} def

% Make the relative bounding box relative to the currentpoint.
% <llx'> <lly'> <urx'> <ury'> inflate <llx> <lly> <urx> <ury>
/inflate {
  2 {fontsize 0.2 mul add 4 1 roll} repeat
  2 {fontsize 0.2 mul sub 4 1 roll} repeat
} def

% Make the relative bounding box relative to the currentpoint.
% <llx'> <lly'> <urx'> <ury'> relative <llx> <lly> <urx> <ury>
/relative {
  currentpoint 3 -1 roll add 3 1 roll add exch 4 2 roll
  currentpoint 3 -1 roll add 3 1 roll add exch 4 2 roll
} def

% Returns the size of a string appropriate for recshow.
% <string> stringsize <llx> <lly> <urx> <ury>
/stringsize {
  pushbbox /internalshow load /internalstroke load 7 -1 roll
  q
  nulldevice 0 0 m
  nullinternalshow nullinternalstroke
  resetbbox
  recshow
  /internalstroke exch def /internalshow exch def
  pushbbox 8 -4 roll restorebbox
  Q
} def

% Calculate values for string positioning.
/calcval {4 copy
  3 -1 roll sub /widy exch def sub neg /widx exch def
  pop pop /dy exch def /dx exch def} def

% Utilities to position a string.
% First letter (U=upper, C=center, B=baseline, L=lower)
% Second letter (L=left, C=center, R=right)
/align [
{calcval dx neg widy dy add neg rmoveto} % UL
{calcval dx neg widy 2 div dy add neg rmoveto} % CL
{calcval dx neg 0 rmoveto} % BL
{calcval dx neg dy neg rmoveto} % LL
{calcval widx dx add neg widy dy add neg rmoveto} % UR
{calcval widx dx add neg widy 2 div dy add neg rmoveto} % CR
{calcval widx dx add neg 0 rmoveto} % BR
{calcval widx dx add neg dy neg rmoveto} % LR
{calcval widx 2 div dx add neg widy dy add neg rmoveto} % UC
{calcval widx 2 div dx add neg widy 2 div dy add neg rmoveto} % CC
{calcval widx 2 div dx add neg 0 rmoveto} % BC
{calcval widx 2 div dx add neg dy neg rmoveto} % LC
] def

/vg&str {m q 1 -1 scale dup stringsize 4 copy align 11 -1 roll get exec
         q inflate relative frame exch exec Q recshow Q} def

end /procDict exch def
%%EndProlog

%%BeginSetup
save
procDict begin
printColorMap begin
595 791 setpagesize
20 20 20 20 setmargins
0 0 setorigin
425 110 setsize
fittopage
portrait
imagescale
cliptobounds
setbasematrix
/Helvetica 10 sf
defaultGraphicsState
%%EndSetup

0.00000 0.00000 0.00000 RG
[ 1.00000 0.00000 0.00000 1.00000 0.00000 0.00000 ] defaultmatrix matrix concatmatrix setmatrix
cliprestore
1.00000 1.00000 1.00000 RG
newpath
0.00000 0.00000 m
425.000 0.00000 l
425.000 110.000 l
0.00000 110.000 l
0.00000 0.00000 l
h
f
0.00000 0.00000 0.00000 RG
0.00000 0.00000 0.00000 RG
[ 1.00000 0.00000 0.00000 1.00000 0.00000 0.00000 ] defaultmatrix matrix concatmatrix setmatrix
cliprestore
1.00000 1.00000 1.00000 RG
newpath
0.00000 0.00000 m
425.000 0.00000 l
425.000 110.000 l
0.00000 110.000 l
0.00000 0.00000 l
h
f
0.00000 0.00000 0.00000 RG
1.00000 1.00000 1.00000 RG
newpath
0.00000 0.00000 m
425.000 0.00000 l
425.000 110.000 l
0.00000 110.000 l
0.00000 0.00000 l
h
f
cliprestore
0 0 425 110 rc
q
0.00000 0.00000 0.00000 RG
newpath
42.3824 84.4233 m
27.9860 84.4233 l
27.6534 84.4233 27.3839 84.6927 27.3839 85.0253  c
27.3839 85.3579 27.6534 85.6273 27.9860 85.6273  c
42.3824 85.6273 l
42.7150 85.6273 42.9845 85.3579 42.9845 85.0253  c
42.9845 84.6927 42.7150 84.4233 42.3824 84.4233  c
h
f
Q
q
<< /PatternType 2
   /Shading
   << /ShadingType 2
      /ColorSpace /DeviceRGB
      /Coords [112.2082748413086 83.08910369873047 113.25103759765625 82.48707580566406]
      /Function
      << /FunctionType 2
         /Domain [0 1]
         /Range [0 1 0 1 0 1]
         /C0 [0.0 0.0 0.0]
         /C1 [1.0 0.0 0.0]
         /N 1
      >>
      /Extend [true true]
   >>
>>
matrix makepattern setpattern
newpath
106.955 86.8173 m
119.107 79.8016 l
119.395 79.6353 119.493 79.2672 119.327 78.9792  c
119.161 78.6912 118.793 78.5926 118.505 78.7589  c
106.353 85.7746 l
106.065 85.9408 105.966 86.3089 106.132 86.5969  c
106.299 86.8850 106.667 86.9836 106.955 86.8173  c
h
f
Q
q
<< /PatternType 2
   /Shading
   << /ShadingType 2
      /ColorSpace /DeviceRGB
      /Coords [137.79315185546875 83.19100952148438 136.75039672851562 82.58898162841797]
      /Function
      << /FunctionType 2
         /Domain [0 1]
         /Range [0 1 0 1 0 1]
         /C0 [0.2 0.2 0.2]
         /C1 [1.0 0.0 0.0]
         /N 1
      >>
      /Extend [true true]
   >>
>>
matrix makepattern setpattern
newpath
143.825 85.9784 m
131.320 78.7589 l
131.032 78.5926 130.664 78.6912 130.498 78.9792  c
130.332 79.2672 130.430 79.6353 130.718 79.8016  c
143.223 87.0211 l
143.511 87.1874 143.879 87.0888 144.046 86.8008  c
144.212 86.5128 144.113 86.1446 143.825 85.9784  c
h
f
Q
q
<< /PatternType 2
   /Shading
   << /ShadingType 2
      /ColorSpace /DeviceRGB
      /Coords [280.00347900390625 82.94367980957031 278.9607238769531 82.3416519165039]
      /Function
      << /FunctionType 2
         /Domain [0 1]
         /Range [0 1 0 1 0 1]
         /C0 [1.0 0.0 0.0]
         /C1 [0.0 0.0 0.0]
         /N 1
      >>
      /Extend [true true]
   >>
>>
matrix makepattern setpattern
newpath
285.859 85.6291 m
273.707 78.6134 l
273.419 78.4472 273.051 78.5458 272.885 78.8338  c
272.719 79.1218 272.817 79.4899 273.105 79.6562  c
285.257 86.6719 l
285.545 86.8382 285.913 86.7395 286.079 86.4515  c
286.246 86.1635 286.147 85.7954 285.859 85.6291  c
h
f
Q
q
<< /PatternType 2
   /Shading
   << /ShadingType 2
      /ColorSpace /DeviceRGB
      /Coords [304.31732177734375 82.34162902832031 303.27459716796875 82.94368743896484]
      /Function
      << /FunctionType 2
         /Domain [0 1]
         /Range [0 1 0 1 0 1]
         /C0 [0.0 0.0 0.0]
         /C1 [1.0 0.0 0.0]
         /N 1
      >>
      /Extend [true true]
   >>
>>
matrix makepattern setpattern
newpath
309.570 78.6137 m
297.420 85.6289 l
297.132 85.7952 297.033 86.1633 297.200 86.4513  c
297.366 86.7393 297.734 86.8379 298.022 86.6716  c
310.172 79.6564 l
310.460 79.4901 310.559 79.1220 310.392 78.8340  c
310.226 78.5460 309.858 78.4474 309.570 78.6137  c
h
f
Q
q
<< /PatternType 2
   /Shading
   << /ShadingType 2
      /ColorSpace /DeviceRGB
      /Coords [393.5906982421875 80.39077758789062 392.3866271972656 80.39077758789062]
      /Function
      << /FunctionType 2
         /Domain [0 1]
         /Range [0 1 0 1 0 1]
         /C0 [0.2 0.2 0.2]
         /C1 [0.0 0.0 0.0]
         /N 1
      >>
      /Extend [true true]
   >>
>>
matrix makepattern setpattern
newpath
400.382 79.7887 m
385.595 79.7887 l
385.263 79.7887 384.993 80.0582 384.993 80.3908  c
384.993 80.7233 385.263 80.9928 385.595 80.9928  c
400.382 80.9928 l
400.715 80.9928 400.984 80.7233 400.984 80.3908  c
400.984 80.0582 400.715 79.7887 400.382 79.7887  c
h
f
Q
q
0.00000 0.00000 0.00000 RG
newpath
67.7032 15.0175 m
46.6025 15.0175 l
46.2699 15.0175 46.0005 15.2870 46.0005 15.6195  c
46.0005 15.9521 46.2699 16.2216 46.6025 16.2216  c
67.7032 16.2216 l
68.0358 16.2216 68.3052 15.9521 68.3052 15.6195  c
68.3052 15.2870 68.0358 15.0175 67.7032 15.0175  c
h
f
Q
0.00000 0.00000 0.00000 RG
1.00000 1.00000 1.00000 RG
newpath
47.3394 79.9980 m
45.9317 79.9980 44.7906 81.1391 44.7906 82.5468  c
44.7906 87.6444 l
44.7906 89.0521 45.9317 90.1933 47.3394 90.1933  c
49.2105 90.1933 l
50.6182 90.1933 51.7593 89.0521 51.7593 87.6444  c
51.7593 82.5468 l
51.7593 81.1391 50.6182 79.9980 49.2105 79.9980  c
h
f
0.00000 0.00000 0.00000 RG
[ 1.00000 0.00000 0.00000 1.00000 44.7750 77.5253 ] concat
newpath
6.46875 9.23438 m
7.51562 9.50000 l
7.29688 10.3542 6.90365 11.0078 6.33594 11.4609  c
5.76823 11.9141 5.07292 12.1406 4.25000 12.1406  c
3.39583 12.1406 2.70312 11.9661 2.17188 11.6172  c
1.64062 11.2682 1.23698 10.7656 .960938 10.1094  c
.684896 9.45312 .546875 8.75000 .546875 8.00000  c
.546875 7.18750 .703125 6.47396 1.01562 5.85938  c
1.32812 5.24479 1.77344 4.77865 2.35156 4.46094  c
2.92969 4.14323 3.56771 3.98438 4.26562 3.98438  c
5.05729 3.98438 5.72135 4.18490 6.25781 4.58594  c
6.79427 4.98698 7.16667 5.55208 7.37500 6.28125  c
6.34375 6.53125 l
6.16667 5.95833 5.90365 5.54167 5.55469 5.28125  c
5.20573 5.02083 4.77083 4.89062 4.25000 4.89062  c
3.63542 4.89062 3.12500 5.03385 2.71875 5.32031  c
2.31250 5.60677 2.02865 5.99479 1.86719 6.48438  c
1.70573 6.97396 1.62500 7.47917 1.62500 8.00000  c
1.62500 8.66667 1.72135 9.25000 1.91406 9.75000  c
2.10677 10.2500 2.40885 10.6250 2.82031 10.8750  c
3.23177 11.1250 3.67708 11.2500 4.15625 11.2500  c
4.73958 11.2500 5.23438 11.0807 5.64062 10.7422  c
6.04688 10.4036 6.32292 9.90104 6.46875 9.23438  c
h
f
[ 1.00000 0.00000 0.00000 1.00000 0.00000 0.00000 ] defaultmatrix matrix concatmatrix setmatrix
[ 1.00000 0.00000 0.00000 1.00000 0.00000 0.00000 ] defaultmatrix matrix concatmatrix setmatrix
[ 1.00000 0.00000 0.00000 1.00000 52.3145 80.0956 ] concat
0.00000 0.00000 .607843 RG
newpath
2.98438 8.00000 m
2.28125 8.00000 l
2.28125 3.51562 l
2.11458 3.68229 1.89323 3.84635 1.61719 4.00781  c
1.34115 4.16927 1.09375 4.28646 .875000 4.35938  c
.875000 3.68750 l
1.27083 3.50000 1.61458 3.27604 1.90625 3.01562  c
2.19792 2.75521 2.40625 2.50000 2.53125 2.25000  c
2.98438 2.25000 l
2.98438 8.00000 l
h
f
[ 1.00000 0.00000 0.00000 1.00000 0.00000 0.00000 ] defaultmatrix matrix concatmatrix setmatrix
[ 1.00000 0.00000 0.00000 1.00000 0.00000 0.00000 ] defaultmatrix matrix concatmatrix setmatrix
0.00000 0.00000 0.00000 RG
0.00000 0.00000 .607843 RG
1.00000 1.00000 1.00000 RG
0.00000 0.00000 0.00000 RG
1.00000 1.00000 1.00000 RG
newpath
17.8141 80.0839 m
16.4496 80.0839 15.3434 81.1901 15.3434 82.5546  c
15.3434 87.4960 l
15.3434 88.8605 16.4496 89.9667 17.8141 89.9667  c
23.1071 89.9667 l
24.4716 89.9667 25.5778 88.8605 25.5778 87.4960  c
25.5778 82.5546 l
25.5778 81.1901 24.4716 80.0839 23.1071 80.0839  c
h
f
0.00000 0.00000 0.00000 RG
[ 1.00000 0.00000 0.00000 1.00000 13.9606 77.5253 ] concat
newpath
.859375 12.0000 m
.859375 4.12500 l
4.35938 4.12500 l
5.05729 4.12500 5.58854 4.19531 5.95312 4.33594  c
6.31771 4.47656 6.60938 4.72656 6.82812 5.08594  c
7.04688 5.44531 7.15625 5.84375 7.15625 6.28125  c
7.15625 6.83333 6.97656 7.30208 6.61719 7.68750  c
6.25781 8.07292 5.69792 8.31771 4.93750 8.42188  c
5.21875 8.54688 5.42708 8.67708 5.56250 8.81250  c
5.87500 9.09375 6.16667 9.44271 6.43750 9.85938  c
7.79688 12.0000 l
6.50000 12.0000 l
5.45312 10.3594 l
5.15104 9.89062 4.90104 9.53125 4.70312 9.28125  c
4.50521 9.03125 4.32812 8.85417 4.17188 8.75000  c
4.01562 8.64583 3.85938 8.57812 3.70312 8.54688  c
3.57812 8.51562 3.38021 8.50000 3.10938 8.50000  c
1.90625 8.50000 l
1.90625 12.0000 l
.859375 12.0000 l
h
1.90625 7.59375 m
4.14062 7.59375 l
4.61979 7.59375 4.99479 7.54688 5.26562 7.45312  c
5.53646 7.35938 5.73958 7.20312 5.87500 6.98438  c
6.01042 6.76562 6.07812 6.53125 6.07812 6.28125  c
6.07812 5.90625 5.94531 5.59896 5.67969 5.35938  c
5.41406 5.11979 4.98958 5.00000 4.40625 5.00000  c
1.90625 5.00000 l
1.90625 7.59375 l
h
12.0376 12.0000 m
11.0688 12.0000 l
11.0688 5.84375 l
10.8397 6.06250 10.5376 6.28385 10.1626 6.50781  c
9.78760 6.73177 9.44906 6.89583 9.14697 7.00000  c
9.14697 6.06250 l
9.68864 5.81250 10.1600 5.50781 10.5610 5.14844  c
10.9621 4.78906 11.2459 4.43750 11.4126 4.09375  c
12.0376 4.09375 l
12.0376 12.0000 l
h
f
[ 1.00000 0.00000 0.00000 1.00000 0.00000 0.00000 ] defaultmatrix matrix concatmatrix setmatrix
[ 1.00000 0.00000 0.00000 1.00000 0.00000 0.00000 ] defaultmatrix matrix concatmatrix setmatrix
[ 1.00000 0.00000 0.00000 1.00000 10.1867 80.0253 ] concat
0.00000 0.00000 .607843 RG
newpath
4.03125 7.32812 m
4.03125 8.00000 l
.250000 8.00000 l
.239583 7.83333 .265625 7.67188 .328125 7.51562  c
.421875 7.25521 .575521 7.00000 .789062 6.75000  c
1.00260 6.50000 1.30729 6.20833 1.70312 5.87500  c
2.32812 5.36458 2.75000 4.96094 2.96875 4.66406  c
3.18750 4.36719 3.29688 4.08854 3.29688 3.82812  c
3.29688 3.54688 3.19792 3.30990 3.00000 3.11719  c
2.80208 2.92448 2.54167 2.82812 2.21875 2.82812  c
1.88542 2.82812 1.61719 2.92969 1.41406 3.13281  c
1.21094 3.33594 1.10417 3.61979 1.09375 3.98438  c
.375000 3.90625 l
.427083 3.36458 .614583 2.95312 .937500 2.67188  c
1.26042 2.39062 1.69271 2.25000 2.23438 2.25000  c
2.78646 2.25000 3.22135 2.40104 3.53906 2.70312  c
3.85677 3.00521 4.01562 3.38542 4.01562 3.84375  c
4.01562 4.07292 3.96875 4.29688 3.87500 4.51562  c
3.78125 4.73438 3.62760 4.96615 3.41406 5.21094  c
3.20052 5.45573 2.83854 5.79167 2.32812 6.21875  c
1.91146 6.57292 1.64323 6.81250 1.52344 6.93750  c
1.40365 7.06250 1.30208 7.19271 1.21875 7.32812  c
4.03125 7.32812 l
h
f
[ 1.00000 0.00000 0.00000 1.00000 0.00000 0.00000 ] defaultmatrix matrix concatmatrix setmatrix
[ 1.00000 0.00000 0.00000 1.00000 0.00000 0.00000 ] defaultmatrix matrix concatmatrix setmatrix
0.00000 0.00000 0.00000 RG
0.00000 0.00000 .607843 RG
1.00000 1.00000 1.00000 RG
0.00000 0.00000 0.00000 RG
1.00000 1.00000 1.00000 RG
newpath
99.8886 84.6343 m
98.4809 84.6343 97.3398 85.7754 97.3398 87.1831  c
97.3398 92.2808 l
97.3398 93.6884 98.4809 94.8296 99.8886 94.8296  c
101.760 94.8296 l
103.167 94.8296 104.309 93.6884 104.309 92.2808  c
104.309 87.1831 l
104.309 85.7754 103.167 84.6343 101.760 84.6343  c
h
f
0.00000 0.00000 0.00000 RG
[ 1.00000 0.00000 0.00000 1.00000 97.3242 82.1616 ] concat
newpath
6.46875 9.23438 m
7.51562 9.50000 l
7.29688 10.3542 6.90365 11.0078 6.33594 11.4609  c
5.76823 11.9141 5.07292 12.1406 4.25000 12.1406  c
3.39583 12.1406 2.70312 11.9661 2.17188 11.6172  c
1.64062 11.2682 1.23698 10.7656 .960938 10.1094  c
.684896 9.45312 .546875 8.75000 .546875 8.00000  c
.546875 7.18750 .703125 6.47396 1.01562 5.85938  c
1.32812 5.24479 1.77344 4.77865 2.35156 4.46094  c
2.92969 4.14323 3.56771 3.98438 4.26562 3.98438  c
5.05729 3.98438 5.72135 4.18490 6.25781 4.58594  c
6.79427 4.98698 7.16667 5.55208 7.37500 6.28125  c
6.34375 6.53125 l
6.16667 5.95833 5.90365 5.54167 5.55469 5.28125  c
5.20573 5.02083 4.77083 4.89062 4.25000 4.89062  c
3.63542 4.89062 3.12500 5.03385 2.71875 5.32031  c
2.31250 5.60677 2.02865 5.99479 1.86719 6.48438  c
1.70573 6.97396 1.62500 7.47917 1.62500 8.00000  c
1.62500 8.66667 1.72135 9.25000 1.91406 9.75000  c
2.10677 10.2500 2.40885 10.6250 2.82031 10.8750  c
3.23177 11.1250 3.67708 11.2500 4.15625 11.2500  c
4.73958 11.2500 5.23438 11.0807 5.64062 10.7422  c
6.04688 10.4036 6.32292 9.90104 6.46875 9.23438  c
h
f
[ 1.00000 0.00000 0.00000 1.00000 0.00000 0.00000 ] defaultmatrix matrix concatmatrix setmatrix
[ 1.00000 0.00000 0.00000 1.00000 0.00000 0.00000 ] defaultmatrix matrix concatmatrix setmatrix
[ 1.00000 0.00000 0.00000 1.00000 92.7717 90.6212 ] concat
0.00000 0.00000 .607843 RG
newpath
.343750 6.48438 m
1.04688 6.39062 l
1.11979 6.78646 1.25521 7.07292 1.45312 7.25000  c
1.65104 7.42708 1.88542 7.51562 2.15625 7.51562  c
2.48958 7.51562 2.77083 7.40104 3.00000 7.17188  c
3.22917 6.94271 3.34375 6.66146 3.34375 6.32812  c
3.34375 6.00521 3.23698 5.73698 3.02344 5.52344  c
2.80990 5.30990 2.54167 5.20312 2.21875 5.20312  c
2.08333 5.20312 1.91667 5.22917 1.71875 5.28125  c
1.79688 4.67188 l
1.84896 4.67188 1.89062 4.67188 1.92188 4.67188  c
2.21354 4.67188 2.47917 4.59375 2.71875 4.43750  c
2.95833 4.28125 3.07812 4.04167 3.07812 3.71875  c
3.07812 3.45833 2.99219 3.24479 2.82031 3.07812  c
2.64844 2.91146 2.42188 2.82812 2.14062 2.82812  c
1.86979 2.82812 1.64323 2.91406 1.46094 3.08594  c
1.27865 3.25781 1.16146 3.51562 1.10938 3.85938  c
.406250 3.73438 l
.489583 3.26562 .684896 2.90104 .992188 2.64062  c
1.29948 2.38021 1.67708 2.25000 2.12500 2.25000  c
2.43750 2.25000 2.72656 2.31771 2.99219 2.45312  c
3.25781 2.58854 3.46094 2.77083 3.60156 3.00000  c
3.74219 3.22917 3.81250 3.47396 3.81250 3.73438  c
3.81250 3.98438 3.74479 4.21094 3.60938 4.41406  c
3.47396 4.61719 3.27604 4.77604 3.01562 4.89062  c
3.35938 4.97396 3.62500 5.13802 3.81250 5.38281  c
4.00000 5.62760 4.09375 5.93750 4.09375 6.31250  c
4.09375 6.81250 3.91146 7.23698 3.54688 7.58594  c
3.18229 7.93490 2.71875 8.10938 2.15625 8.10938  c
1.65625 8.10938 1.23958 7.95833 .906250 7.65625  c
.572917 7.35417 .385417 6.96354 .343750 6.48438  c
h
f
[ 1.00000 0.00000 0.00000 1.00000 0.00000 0.00000 ] defaultmatrix matrix concatmatrix setmatrix
[ 1.00000 0.00000 0.00000 1.00000 0.00000 0.00000 ] defaultmatrix matrix concatmatrix setmatrix
0.00000 0.00000 0.00000 RG
0.00000 0.00000 .607843 RG
1.00000 1.00000 1.00000 RG
1.00000 0.00000 0.00000 RG
1.00000 1.00000 1.00000 RG
newpath
123.696 70.7271 m
122.288 70.7271 121.147 71.8683 121.147 73.2759  c
121.147 78.3736 l
121.147 79.7813 122.288 80.9224 123.696 80.9224  c
126.129 80.9224 l
127.537 80.9224 128.678 79.7813 128.678 78.3736  c
128.678 73.2759 l
128.678 71.8683 127.537 70.7271 126.129 70.7271  c
h
f
1.00000 0.00000 0.00000 RG
[ 1.00000 0.00000 0.00000 1.00000 120.912 68.2545 ] concat
newpath
.531250 8.17188 m
.531250 6.85938 .882812 5.83333 1.58594 5.09375  c
2.28906 4.35417 3.19271 3.98438 4.29688 3.98438  c
5.02604 3.98438 5.68229 4.15885 6.26562 4.50781  c
6.84896 4.85677 7.29427 5.34115 7.60156 5.96094  c
7.90885 6.58073 8.06250 7.28646 8.06250 8.07812  c
8.06250 8.86979 7.90104 9.58073 7.57812 10.2109  c
7.25521 10.8411 6.79948 11.3203 6.21094 11.6484  c
5.62240 11.9766 4.98438 12.1406 4.29688 12.1406  c
3.55729 12.1406 2.89583 11.9609 2.31250 11.6016  c
1.72917 11.2422 1.28646 10.7526 .984375 10.1328  c
.682292 9.51302 .531250 8.85938 .531250 8.17188  c
h
1.60938 8.18750 m
1.60938 9.13542 1.86458 9.88281 2.37500 10.4297  c
2.88542 10.9766 3.52604 11.2500 4.29688 11.2500  c
5.07812 11.2500 5.72135 10.9740 6.22656 10.4219  c
6.73177 9.86979 6.98438 9.08333 6.98438 8.06250  c
6.98438 7.42708 6.87760 6.86979 6.66406 6.39062  c
6.45052 5.91146 6.13542 5.54167 5.71875 5.28125  c
5.30208 5.02083 4.83333 4.89062 4.31250 4.89062  c
3.57292 4.89062 2.93750 5.14323 2.40625 5.64844  c
1.87500 6.15365 1.60938 7.00000 1.60938 8.18750  c
h
f
[ 1.00000 0.00000 0.00000 1.00000 0.00000 0.00000 ] defaultmatrix matrix concatmatrix setmatrix
[ 1.00000 0.00000 0.00000 1.00000 0.00000 0.00000 ] defaultmatrix matrix concatmatrix setmatrix
[ 1.00000 0.00000 0.00000 1.00000 122.912 64.7076 ] concat
0.00000 0.00000 .607843 RG
newpath
2.59375 8.00000 m
2.59375 6.62500 l
.109375 6.62500 l
.109375 5.98438 l
2.71875 2.26562 l
3.29688 2.26562 l
3.29688 5.98438 l
4.06250 5.98438 l
4.06250 6.62500 l
3.29688 6.62500 l
3.29688 8.00000 l
2.59375 8.00000 l
h
2.59375 5.98438 m
2.59375 3.40625 l
.796875 5.98438 l
2.59375 5.98438 l
h
f
[ 1.00000 0.00000 0.00000 1.00000 0.00000 0.00000 ] defaultmatrix matrix concatmatrix setmatrix
[ 1.00000 0.00000 0.00000 1.00000 0.00000 0.00000 ] defaultmatrix matrix concatmatrix setmatrix
1.00000 0.00000 0.00000 RG
0.00000 0.00000 .607843 RG
1.00000 1.00000 1.00000 RG
.200000 .200000 .200000 RG
1.00000 1.00000 1.00000 RG
newpath
148.368 84.7397 m
147.009 84.7397 145.907 85.8415 145.907 87.2007  c
145.907 92.1226 l
145.907 93.4817 147.009 94.5835 148.368 94.5835  c
149.634 94.5835 l
150.993 94.5835 152.095 93.4817 152.095 92.1226  c
152.095 87.2007 l
152.095 85.8415 150.993 84.7397 149.634 84.7397  c
h
f
.200000 .200000 .200000 RG
[ 1.00000 0.00000 0.00000 1.00000 145.501 82.1616 ] concat
newpath
.875000 12.0000 m
.875000 4.12500 l
1.92188 4.12500 l
1.92188 7.35938 l
6.01562 7.35938 l
6.01562 4.12500 l
7.06250 4.12500 l
7.06250 12.0000 l
6.01562 12.0000 l
6.01562 8.28125 l
1.92188 8.28125 l
1.92188 12.0000 l
.875000 12.0000 l
h
f
[ 1.00000 0.00000 0.00000 1.00000 0.00000 0.00000 ] defaultmatrix matrix concatmatrix setmatrix
[ 1.00000 0.00000 0.00000 1.00000 0.00000 0.00000 ] defaultmatrix matrix concatmatrix setmatrix
[ 1.00000 0.00000 0.00000 1.00000 153.002 90.4519 ] concat
0.00000 0.00000 .607843 RG
newpath
.328125 6.50000 m
1.07812 6.43750 l
1.13021 6.79167 1.25521 7.05990 1.45312 7.24219  c
1.65104 7.42448 1.89062 7.51562 2.17188 7.51562  c
2.51562 7.51562 2.80469 7.38802 3.03906 7.13281  c
3.27344 6.87760 3.39062 6.54167 3.39062 6.12500  c
3.39062 5.71875 3.27604 5.40104 3.04688 5.17188  c
2.81771 4.94271 2.52083 4.82812 2.15625 4.82812  c
1.93750 4.82812 1.73698 4.87760 1.55469 4.97656  c
1.37240 5.07552 1.22917 5.20833 1.12500 5.37500  c
.453125 5.29688 l
1.01562 2.34375 l
3.85938 2.34375 l
3.85938 3.01562 l
1.57812 3.01562 l
1.26562 4.56250 l
1.60938 4.32292 1.96875 4.20312 2.34375 4.20312  c
2.84375 4.20312 3.26562 4.37500 3.60938 4.71875  c
3.95312 5.06250 4.12500 5.51042 4.12500 6.06250  c
4.12500 6.57292 3.97396 7.02083 3.67188 7.40625  c
3.30729 7.86458 2.80729 8.09375 2.17188 8.09375  c
1.65104 8.09375 1.22656 7.94792 .898438 7.65625  c
.570312 7.36458 .380208 6.97917 .328125 6.50000  c
h
f
[ 1.00000 0.00000 0.00000 1.00000 0.00000 0.00000 ] defaultmatrix matrix concatmatrix setmatrix
[ 1.00000 0.00000 0.00000 1.00000 0.00000 0.00000 ] defaultmatrix matrix concatmatrix setmatrix
.200000 .200000 .200000 RG
0.00000 0.00000 .607843 RG
1.00000 1.00000 1.00000 RG
0.00000 0.00000 0.00000 RG
1.00000 1.00000 1.00000 RG
newpath
266.616 70.7271 m
265.208 70.7271 264.067 71.8683 264.067 73.2759  c
264.067 78.3736 l
264.067 79.7813 265.208 80.9224 266.616 80.9224  c
268.487 80.9224 l
269.894 80.9224 271.036 79.7813 271.036 78.3736  c
271.036 73.2759 l
271.036 71.8683 269.894 70.7271 268.487 70.7271  c
h
f
0.00000 0.00000 0.00000 RG
[ 1.00000 0.00000 0.00000 1.00000 264.051 68.2545 ] concat
newpath
6.46875 9.23438 m
7.51562 9.50000 l
7.29688 10.3542 6.90365 11.0078 6.33594 11.4609  c
5.76823 11.9141 5.07292 12.1406 4.25000 12.1406  c
3.39583 12.1406 2.70312 11.9661 2.17188 11.6172  c
1.64062 11.2682 1.23698 10.7656 .960938 10.1094  c
.684896 9.45312 .546875 8.75000 .546875 8.00000  c
.546875 7.18750 .703125 6.47396 1.01562 5.85938  c
1.32812 5.24479 1.77344 4.77865 2.35156 4.46094  c
2.92969 4.14323 3.56771 3.98438 4.26562 3.98438  c
5.05729 3.98438 5.72135 4.18490 6.25781 4.58594  c
6.79427 4.98698 7.16667 5.55208 7.37500 6.28125  c
6.34375 6.53125 l
6.16667 5.95833 5.90365 5.54167 5.55469 5.28125  c
5.20573 5.02083 4.77083 4.89062 4.25000 4.89062  c
3.63542 4.89062 3.12500 5.03385 2.71875 5.32031  c
2.31250 5.60677 2.02865 5.99479 1.86719 6.48438  c
1.70573 6.97396 1.62500 7.47917 1.62500 8.00000  c
1.62500 8.66667 1.72135 9.25000 1.91406 9.75000  c
2.10677 10.2500 2.40885 10.6250 2.82031 10.8750  c
3.23177 11.1250 3.67708 11.2500 4.15625 11.2500  c
4.73958 11.2500 5.23438 11.0807 5.64062 10.7422  c
6.04688 10.4036 6.32292 9.90104 6.46875 9.23438  c
h
f
[ 1.00000 0.00000 0.00000 1.00000 0.00000 0.00000 ] defaultmatrix matrix concatmatrix setmatrix
[ 1.00000 0.00000 0.00000 1.00000 0.00000 0.00000 ] defaultmatrix matrix concatmatrix setmatrix
[ 1.00000 0.00000 0.00000 1.00000 260.321 64.9685 ] concat
0.00000 0.00000 .607843 RG
newpath
2.98438 8.00000 m
2.28125 8.00000 l
2.28125 3.51562 l
2.11458 3.68229 1.89323 3.84635 1.61719 4.00781  c
1.34115 4.16927 1.09375 4.28646 .875000 4.35938  c
.875000 3.68750 l
1.27083 3.50000 1.61458 3.27604 1.90625 3.01562  c
2.19792 2.75521 2.40625 2.50000 2.53125 2.25000  c
2.98438 2.25000 l
2.98438 8.00000 l
h
f
[ 1.00000 0.00000 0.00000 1.00000 0.00000 0.00000 ] defaultmatrix matrix concatmatrix setmatrix
[ 1.00000 0.00000 0.00000 1.00000 0.00000 0.00000 ] defaultmatrix matrix concatmatrix setmatrix
0.00000 0.00000 0.00000 RG
0.00000 0.00000 .607843 RG
1.00000 1.00000 1.00000 RG
0.00000 0.00000 0.00000 RG
1.00000 1.00000 1.00000 RG
newpath
314.790 70.7271 m
313.383 70.7271 312.242 71.8683 312.242 73.2759  c
312.242 78.3736 l
312.242 79.7813 313.383 80.9224 314.790 80.9224  c
316.662 80.9224 l
318.069 80.9224 319.210 79.7813 319.210 78.3736  c
319.210 73.2759 l
319.210 71.8683 318.069 70.7271 316.662 70.7271  c
h
f
0.00000 0.00000 0.00000 RG
[ 1.00000 0.00000 0.00000 1.00000 312.226 68.2545 ] concat
newpath
6.46875 9.23438 m
7.51562 9.50000 l
7.29688 10.3542 6.90365 11.0078 6.33594 11.4609  c
5.76823 11.9141 5.07292 12.1406 4.25000 12.1406  c
3.39583 12.1406 2.70312 11.9661 2.17188 11.6172  c
1.64062 11.2682 1.23698 10.7656 .960938 10.1094  c
.684896 9.45312 .546875 8.75000 .546875 8.00000  c
.546875 7.18750 .703125 6.47396 1.01562 5.85938  c
1.32812 5.24479 1.77344 4.77865 2.35156 4.46094  c
2.92969 4.14323 3.56771 3.98438 4.26562 3.98438  c
5.05729 3.98438 5.72135 4.18490 6.25781 4.58594  c
6.79427 4.98698 7.16667 5.55208 7.37500 6.28125  c
6.34375 6.53125 l
6.16667 5.95833 5.90365 5.54167 5.55469 5.28125  c
5.20573 5.02083 4.77083 4.89062 4.25000 4.89062  c
3.63542 4.89062 3.12500 5.03385 2.71875 5.32031  c
2.31250 5.60677 2.02865 5.99479 1.86719 6.48438  c
1.70573 6.97396 1.62500 7.47917 1.62500 8.00000  c
1.62500 8.66667 1.72135 9.25000 1.91406 9.75000  c
2.10677 10.2500 2.40885 10.6250 2.82031 10.8750  c
3.23177 11.1250 3.67708 11.2500 4.15625 11.2500  c
4.73958 11.2500 5.23438 11.0807 5.64062 10.7422  c
6.04688 10.4036 6.32292 9.90104 6.46875 9.23438  c
h
f
[ 1.00000 0.00000 0.00000 1.00000 0.00000 0.00000 ] defaultmatrix matrix concatmatrix setmatrix
[ 1.00000 0.00000 0.00000 1.00000 0.00000 0.00000 ] defaultmatrix matrix concatmatrix setmatrix
[ 1.00000 0.00000 0.00000 1.00000 319.778 64.9351 ] concat
0.00000 0.00000 .607843 RG
newpath
.343750 6.48438 m
1.04688 6.39062 l
1.11979 6.78646 1.25521 7.07292 1.45312 7.25000  c
1.65104 7.42708 1.88542 7.51562 2.15625 7.51562  c
2.48958 7.51562 2.77083 7.40104 3.00000 7.17188  c
3.22917 6.94271 3.34375 6.66146 3.34375 6.32812  c
3.34375 6.00521 3.23698 5.73698 3.02344 5.52344  c
2.80990 5.30990 2.54167 5.20312 2.21875 5.20312  c
2.08333 5.20312 1.91667 5.22917 1.71875 5.28125  c
1.79688 4.67188 l
1.84896 4.67188 1.89062 4.67188 1.92188 4.67188  c
2.21354 4.67188 2.47917 4.59375 2.71875 4.43750  c
2.95833 4.28125 3.07812 4.04167 3.07812 3.71875  c
3.07812 3.45833 2.99219 3.24479 2.82031 3.07812  c
2.64844 2.91146 2.42188 2.82812 2.14062 2.82812  c
1.86979 2.82812 1.64323 2.91406 1.46094 3.08594  c
1.27865 3.25781 1.16146 3.51562 1.10938 3.85938  c
.406250 3.73438 l
.489583 3.26562 .684896 2.90104 .992188 2.64062  c
1.29948 2.38021 1.67708 2.25000 2.12500 2.25000  c
2.43750 2.25000 2.72656 2.31771 2.99219 2.45312  c
3.25781 2.58854 3.46094 2.77083 3.60156 3.00000  c
3.74219 3.22917 3.81250 3.47396 3.81250 3.73438  c
3.81250 3.98438 3.74479 4.21094 3.60938 4.41406  c
3.47396 4.61719 3.27604 4.77604 3.01562 4.89062  c
3.35938 4.97396 3.62500 5.13802 3.81250 5.38281  c
4.00000 5.62760 4.09375 5.93750 4.09375 6.31250  c
4.09375 6.81250 3.91146 7.23698 3.54688 7.58594  c
3.18229 7.93490 2.71875 8.10938 2.15625 8.10938  c
1.65625 8.10938 1.23958 7.95833 .906250 7.65625  c
.572917 7.35417 .385417 6.96354 .343750 6.48438  c
h
f
[ 1.00000 0.00000 0.00000 1.00000 0.00000 0.00000 ] defaultmatrix matrix concatmatrix setmatrix
[ 1.00000 0.00000 0.00000 1.00000 0.00000 0.00000 ] defaultmatrix matrix concatmatrix setmatrix
0.00000 0.00000 0.00000 RG
0.00000 0.00000 .607843 RG
1.00000 1.00000 1.00000 RG
1.00000 0.00000 0.00000 RG
1.00000 1.00000 1.00000 RG
newpath
290.423 84.6343 m
289.015 84.6343 287.874 85.7754 287.874 87.1831  c
287.874 92.2808 l
287.874 93.6884 289.015 94.8296 290.423 94.8296  c
292.856 94.8296 l
294.264 94.8296 295.405 93.6884 295.405 92.2808  c
295.405 87.1831 l
295.405 85.7754 294.264 84.6343 292.856 84.6343  c
h
f
1.00000 0.00000 0.00000 RG
[ 1.00000 0.00000 0.00000 1.00000 287.639 82.1616 ] concat
newpath
.531250 8.17188 m
.531250 6.85938 .882812 5.83333 1.58594 5.09375  c
2.28906 4.35417 3.19271 3.98438 4.29688 3.98438  c
5.02604 3.98438 5.68229 4.15885 6.26562 4.50781  c
6.84896 4.85677 7.29427 5.34115 7.60156 5.96094  c
7.90885 6.58073 8.06250 7.28646 8.06250 8.07812  c
8.06250 8.86979 7.90104 9.58073 7.57812 10.2109  c
7.25521 10.8411 6.79948 11.3203 6.21094 11.6484  c
5.62240 11.9766 4.98438 12.1406 4.29688 12.1406  c
3.55729 12.1406 2.89583 11.9609 2.31250 11.6016  c
1.72917 11.2422 1.28646 10.7526 .984375 10.1328  c
.682292 9.51302 .531250 8.85938 .531250 8.17188  c
h
1.60938 8.18750 m
1.60938 9.13542 1.86458 9.88281 2.37500 10.4297  c
2.88542 10.9766 3.52604 11.2500 4.29688 11.2500  c
5.07812 11.2500 5.72135 10.9740 6.22656 10.4219  c
6.73177 9.86979 6.98438 9.08333 6.98438 8.06250  c
6.98438 7.42708 6.87760 6.86979 6.66406 6.39062  c
6.45052 5.91146 6.13542 5.54167 5.71875 5.28125  c
5.30208 5.02083 4.83333 4.89062 4.31250 4.89062  c
3.57292 4.89062 2.93750 5.14323 2.40625 5.64844  c
1.87500 6.15365 1.60938 7.00000 1.60938 8.18750  c
h
f
[ 1.00000 0.00000 0.00000 1.00000 0.00000 0.00000 ] defaultmatrix matrix concatmatrix setmatrix
[ 1.00000 0.00000 0.00000 1.00000 0.00000 0.00000 ] defaultmatrix matrix concatmatrix setmatrix
[ 1.00000 0.00000 0.00000 1.00000 289.640 90.8492 ] concat
0.00000 0.00000 .607843 RG
newpath
2.59375 8.00000 m
2.59375 6.62500 l
.109375 6.62500 l
.109375 5.98438 l
2.71875 2.26562 l
3.29688 2.26562 l
3.29688 5.98438 l
4.06250 5.98438 l
4.06250 6.62500 l
3.29688 6.62500 l
3.29688 8.00000 l
2.59375 8.00000 l
h
2.59375 5.98438 m
2.59375 3.40625 l
.796875 5.98438 l
2.59375 5.98438 l
h
f
[ 1.00000 0.00000 0.00000 1.00000 0.00000 0.00000 ] defaultmatrix matrix concatmatrix setmatrix
[ 1.00000 0.00000 0.00000 1.00000 0.00000 0.00000 ] defaultmatrix matrix concatmatrix setmatrix
1.00000 0.00000 0.00000 RG
0.00000 0.00000 .607843 RG
1.00000 1.00000 1.00000 RG
.200000 .200000 .200000 RG
1.00000 1.00000 1.00000 RG
newpath
405.251 75.4689 m
403.892 75.4689 402.790 76.5707 402.790 77.9298  c
402.790 82.8517 l
402.790 84.2109 403.892 85.3127 405.251 85.3127  c
406.517 85.3127 l
407.876 85.3127 408.978 84.2109 408.978 82.8517  c
408.978 77.9298 l
408.978 76.5707 407.876 75.4689 406.517 75.4689  c
h
f
.200000 .200000 .200000 RG
[ 1.00000 0.00000 0.00000 1.00000 402.384 72.8908 ] concat
newpath
.875000 12.0000 m
.875000 4.12500 l
1.92188 4.12500 l
1.92188 7.35938 l
6.01562 7.35938 l
6.01562 4.12500 l
7.06250 4.12500 l
7.06250 12.0000 l
6.01562 12.0000 l
6.01562 8.28125 l
1.92188 8.28125 l
1.92188 12.0000 l
.875000 12.0000 l
h
f
[ 1.00000 0.00000 0.00000 1.00000 0.00000 0.00000 ] defaultmatrix matrix concatmatrix setmatrix
[ 1.00000 0.00000 0.00000 1.00000 0.00000 0.00000 ] defaultmatrix matrix concatmatrix setmatrix
[ 1.00000 0.00000 0.00000 1.00000 410.814 75.3908 ] concat
0.00000 0.00000 .607843 RG
newpath
.328125 6.50000 m
1.07812 6.43750 l
1.13021 6.79167 1.25521 7.05990 1.45312 7.24219  c
1.65104 7.42448 1.89062 7.51562 2.17188 7.51562  c
2.51562 7.51562 2.80469 7.38802 3.03906 7.13281  c
3.27344 6.87760 3.39062 6.54167 3.39062 6.12500  c
3.39062 5.71875 3.27604 5.40104 3.04688 5.17188  c
2.81771 4.94271 2.52083 4.82812 2.15625 4.82812  c
1.93750 4.82812 1.73698 4.87760 1.55469 4.97656  c
1.37240 5.07552 1.22917 5.20833 1.12500 5.37500  c
.453125 5.29688 l
1.01562 2.34375 l
3.85938 2.34375 l
3.85938 3.01562 l
1.57812 3.01562 l
1.26562 4.56250 l
1.60938 4.32292 1.96875 4.20312 2.34375 4.20312  c
2.84375 4.20312 3.26562 4.37500 3.60938 4.71875  c
3.95312 5.06250 4.12500 5.51042 4.12500 6.06250  c
4.12500 6.57292 3.97396 7.02083 3.67188 7.40625  c
3.30729 7.86458 2.80729 8.09375 2.17188 8.09375  c
1.65104 8.09375 1.22656 7.94792 .898438 7.65625  c
.570312 7.36458 .380208 6.97917 .328125 6.50000  c
h
f
[ 1.00000 0.00000 0.00000 1.00000 0.00000 0.00000 ] defaultmatrix matrix concatmatrix setmatrix
[ 1.00000 0.00000 0.00000 1.00000 0.00000 0.00000 ] defaultmatrix matrix concatmatrix setmatrix
.200000 .200000 .200000 RG
0.00000 0.00000 .607843 RG
1.00000 1.00000 1.00000 RG
0.00000 0.00000 0.00000 RG
1.00000 1.00000 1.00000 RG
newpath
375.423 75.4494 m
374.059 75.4494 372.953 76.5555 372.953 77.9201  c
372.953 82.8615 l
372.953 84.2260 374.059 85.3322 375.423 85.3322  c
380.716 85.3322 l
382.081 85.3322 383.187 84.2260 383.187 82.8615  c
383.187 77.9201 l
383.187 76.5555 382.081 75.4494 380.716 75.4494  c
h
f
0.00000 0.00000 0.00000 RG
[ 1.00000 0.00000 0.00000 1.00000 371.570 72.8908 ] concat
newpath
.859375 12.0000 m
.859375 4.12500 l
4.35938 4.12500 l
5.05729 4.12500 5.58854 4.19531 5.95312 4.33594  c
6.31771 4.47656 6.60938 4.72656 6.82812 5.08594  c
7.04688 5.44531 7.15625 5.84375 7.15625 6.28125  c
7.15625 6.83333 6.97656 7.30208 6.61719 7.68750  c
6.25781 8.07292 5.69792 8.31771 4.93750 8.42188  c
5.21875 8.54688 5.42708 8.67708 5.56250 8.81250  c
5.87500 9.09375 6.16667 9.44271 6.43750 9.85938  c
7.79688 12.0000 l
6.50000 12.0000 l
5.45312 10.3594 l
5.15104 9.89062 4.90104 9.53125 4.70312 9.28125  c
4.50521 9.03125 4.32812 8.85417 4.17188 8.75000  c
4.01562 8.64583 3.85938 8.57812 3.70312 8.54688  c
3.57812 8.51562 3.38021 8.50000 3.10938 8.50000  c
1.90625 8.50000 l
1.90625 12.0000 l
.859375 12.0000 l
h
1.90625 7.59375 m
4.14062 7.59375 l
4.61979 7.59375 4.99479 7.54688 5.26562 7.45312  c
5.53646 7.35938 5.73958 7.20312 5.87500 6.98438  c
6.01042 6.76562 6.07812 6.53125 6.07812 6.28125  c
6.07812 5.90625 5.94531 5.59896 5.67969 5.35938  c
5.41406 5.11979 4.98958 5.00000 4.40625 5.00000  c
1.90625 5.00000 l
1.90625 7.59375 l
h
12.0376 12.0000 m
11.0688 12.0000 l
11.0688 5.84375 l
10.8397 6.06250 10.5376 6.28385 10.1626 6.50781  c
9.78760 6.73177 9.44906 6.89583 9.14697 7.00000  c
9.14697 6.06250 l
9.68864 5.81250 10.1600 5.50781 10.5610 5.14844  c
10.9621 4.78906 11.2459 4.43750 11.4126 4.09375  c
12.0376 4.09375 l
12.0376 12.0000 l
h
f
[ 1.00000 0.00000 0.00000 1.00000 0.00000 0.00000 ] defaultmatrix matrix concatmatrix setmatrix
[ 1.00000 0.00000 0.00000 1.00000 0.00000 0.00000 ] defaultmatrix matrix concatmatrix setmatrix
[ 1.00000 0.00000 0.00000 1.00000 367.796 75.3908 ] concat
0.00000 0.00000 .607843 RG
newpath
4.03125 7.32812 m
4.03125 8.00000 l
.250000 8.00000 l
.239583 7.83333 .265625 7.67188 .328125 7.51562  c
.421875 7.25521 .575521 7.00000 .789062 6.75000  c
1.00260 6.50000 1.30729 6.20833 1.70312 5.87500  c
2.32812 5.36458 2.75000 4.96094 2.96875 4.66406  c
3.18750 4.36719 3.29688 4.08854 3.29688 3.82812  c
3.29688 3.54688 3.19792 3.30990 3.00000 3.11719  c
2.80208 2.92448 2.54167 2.82812 2.21875 2.82812  c
1.88542 2.82812 1.61719 2.92969 1.41406 3.13281  c
1.21094 3.33594 1.10417 3.61979 1.09375 3.98438  c
.375000 3.90625 l
.427083 3.36458 .614583 2.95312 .937500 2.67188  c
1.26042 2.39062 1.69271 2.25000 2.23438 2.25000  c
2.78646 2.25000 3.22135 2.40104 3.53906 2.70312  c
3.85677 3.00521 4.01562 3.38542 4.01562 3.84375  c
4.01562 4.07292 3.96875 4.29688 3.87500 4.51562  c
3.78125 4.73438 3.62760 4.96615 3.41406 5.21094  c
3.20052 5.45573 2.83854 5.79167 2.32812 6.21875  c
1.91146 6.57292 1.64323 6.81250 1.52344 6.93750  c
1.40365 7.06250 1.30208 7.19271 1.21875 7.32812  c
4.03125 7.32812 l
h
f
[ 1.00000 0.00000 0.00000 1.00000 0.00000 0.00000 ] defaultmatrix matrix concatmatrix setmatrix
[ 1.00000 0.00000 0.00000 1.00000 0.00000 0.00000 ] defaultmatrix matrix concatmatrix setmatrix
0.00000 0.00000 0.00000 RG
0.00000 0.00000 .607843 RG
1.00000 1.00000 1.00000 RG
0.00000 0.00000 0.00000 RG
1.00000 1.00000 1.00000 RG
newpath
73.2852 10.1273 m
71.5323 10.1273 70.1113 11.5483 70.1113 13.3012  c
70.1113 19.6488 l
70.1113 21.4017 71.5323 22.8226 73.2852 22.8226  c
111.316 22.8226 l
113.068 22.8226 114.489 21.4017 114.489 19.6488  c
114.489 13.3012 l
114.489 11.5483 113.068 10.1273 111.316 10.1273  c
h
f
0.00000 0.00000 0.00000 RG
[ 1.00000 0.00000 0.00000 1.00000 71.8004 7.83436 ] concat
newpath
.468750 12.0000 m
2.10938 4.12500 l
3.15625 4.12500 l
2.46875 7.39062 l
6.56250 7.39062 l
7.23438 4.12500 l
8.29688 4.12500 l
6.65625 12.0000 l
5.59375 12.0000 l
6.37500 8.28125 l
2.29688 8.28125 l
1.51562 12.0000 l
.468750 12.0000 l
h
12.1626 11.2969 m
11.8188 11.5781 11.4907 11.7865 11.1782 11.9219  c
10.8657 12.0573 10.5324 12.1250 10.1782 12.1250  c
9.65739 12.1250 9.23551 11.9714 8.91260 11.6641  c
8.58968 11.3568 8.42822 10.9583 8.42822 10.4688  c
8.42822 10.1562 8.50114 9.87760 8.64697 9.63281  c
8.79281 9.38802 8.98551 9.19010 9.22510 9.03906  c
9.46468 8.88802 9.75635 8.78125 10.1001 8.71875  c
10.3188 8.67708 10.7329 8.64323 11.3423 8.61719  c
11.9517 8.59115 12.3918 8.52604 12.6626 8.42188  c
12.7355 8.16146 12.7720 7.94271 12.7720 7.76562  c
12.7720 7.53646 12.6886 7.35938 12.5220 7.23438  c
12.3032 7.05729 11.9751 6.96875 11.5376 6.96875  c
11.1313 6.96875 10.7980 7.05729 10.5376 7.23438  c
10.2772 7.41146 10.0897 7.66667 9.97510 8.00000  c
8.99072 7.92188 l
9.18864 7.34896 9.50374 6.91406 9.93604 6.61719  c
10.3683 6.32031 10.9178 6.17188 11.5845 6.17188  c
12.2928 6.17188 12.8501 6.33854 13.2563 6.67188  c
13.5793 6.92188 13.7407 7.25000 13.7407 7.65625  c
13.7407 7.95833 13.6938 8.30729 13.6001 8.70312  c
13.2876 10.1250 l
13.1834 10.5729 13.1313 10.9375 13.1313 11.2188  c
13.1313 11.4062 13.1730 11.6667 13.2563 12.0000  c
12.2720 12.0000 l
12.2199 11.8125 12.1834 11.5781 12.1626 11.2969  c
h
12.5220 9.10938 m
12.3761 9.16146 12.2277 9.20312 12.0767 9.23438  c
11.9256 9.26562 11.6678 9.29688 11.3032 9.32812  c
10.7303 9.38021 10.3293 9.44271 10.1001 9.51562  c
9.87093 9.58854 9.69645 9.71094 9.57666 9.88281  c
9.45687 10.0547 9.39697 10.2396 9.39697 10.4375  c
9.39697 10.7083 9.49072 10.9323 9.67822 11.1094  c
9.86572 11.2865 10.1313 11.3750 10.4751 11.3750  c
10.7980 11.3750 11.1079 11.2891 11.4048 11.1172  c
11.7017 10.9453 11.9360 10.7083 12.1079 10.4062  c
12.2798 10.1042 12.4178 9.67188 12.5220 9.10938  c
h
14.3584 12.0000 m
15.9990 4.12500 l
16.9678 4.12500 l
15.3271 12.0000 l
14.3584 12.0000 l
h
17.0366 9.82812 m
17.0366 8.72396 17.3647 7.80208 18.0210 7.06250  c
18.5627 6.46875 19.2710 6.17188 20.1460 6.17188  c
20.8335 6.17188 21.3882 6.38542 21.8101 6.81250  c
22.2319 7.23958 22.4429 7.81771 22.4429 8.54688  c
22.4429 9.20312 22.3101 9.81250 22.0444 10.3750  c
21.7788 10.9375 21.4012 11.3698 20.9116 11.6719  c
20.4220 11.9740 19.9116 12.1250 19.3804 12.1250  c
18.9325 12.1250 18.5262 12.0312 18.1616 11.8438  c
17.7970 11.6562 17.5184 11.3880 17.3257 11.0391  c
17.1330 10.6901 17.0366 10.2865 17.0366 9.82812  c
h
18.0210 9.73438 m
18.0210 10.2760 18.1486 10.6849 18.4038 10.9609  c
18.6590 11.2370 18.9845 11.3750 19.3804 11.3750  c
19.5887 11.3750 19.7944 11.3333 19.9976 11.2500  c
20.2007 11.1667 20.3908 11.0391 20.5679 10.8672  c
20.7450 10.6953 20.8960 10.5000 21.0210 10.2812  c
21.1460 10.0625 21.2450 9.82292 21.3179 9.56250  c
21.4325 9.20833 21.4897 8.86979 21.4897 8.54688  c
21.4897 8.02604 21.3595 7.62500 21.0991 7.34375  c
20.8387 7.06250 20.5106 6.92188 20.1147 6.92188  c
19.8127 6.92188 19.5366 6.99479 19.2866 7.14062  c
19.0366 7.28646 18.8101 7.49740 18.6069 7.77344  c
18.4038 8.04948 18.2554 8.37240 18.1616 8.74219  c
18.0679 9.11198 18.0210 9.44271 18.0210 9.73438  c
h
22.9355 12.5156 m
23.9199 12.6094 l
23.9095 12.8281 23.9355 12.9922 23.9980 13.1016  c
24.0605 13.2109 24.1595 13.2969 24.2949 13.3594  c
24.4616 13.4427 24.6855 13.4844 24.9668 13.4844  c
25.5605 13.4844 25.9824 13.3333 26.2324 13.0312  c
26.4095 12.8229 26.5658 12.3750 26.7012 11.6875  c
26.7949 11.2344 l
26.2949 11.7448 25.7585 12.0000 25.1855 12.0000  c
24.6126 12.0000 24.1309 11.7891 23.7402 11.3672  c
23.3496 10.9453 23.1543 10.3438 23.1543 9.56250  c
23.1543 8.91667 23.3079 8.32552 23.6152 7.78906  c
23.9225 7.25260 24.2871 6.84896 24.7090 6.57812  c
25.1309 6.30729 25.5658 6.17188 26.0137 6.17188  c
26.7637 6.17188 27.3418 6.52604 27.7480 7.23438  c
27.9355 6.29688 l
28.8262 6.29688 l
27.6855 11.7969 l
27.5605 12.4010 27.3965 12.8724 27.1934 13.2109  c
26.9902 13.5495 26.7064 13.8125 26.3418 14.0000  c
25.9772 14.1875 25.5553 14.2812 25.0762 14.2812  c
24.6178 14.2812 24.2246 14.2214 23.8965 14.1016  c
23.5684 13.9818 23.3210 13.8099 23.1543 13.5859  c
22.9876 13.3620 22.9043 13.1042 22.9043 12.8125  c
22.9043 12.7188 22.9147 12.6198 22.9355 12.5156  c
h
24.1543 9.46875 m
24.1543 9.86458 24.1908 10.1615 24.2637 10.3594  c
24.3678 10.6302 24.5189 10.8385 24.7168 10.9844  c
24.9147 11.1302 25.1387 11.2031 25.3887 11.2031  c
25.7012 11.2031 26.0163 11.0911 26.3340 10.8672  c
26.6517 10.6432 26.9069 10.2969 27.0996 9.82812  c
27.2923 9.35938 27.3887 8.91146 27.3887 8.48438  c
27.3887 8.01562 27.2585 7.64323 26.9980 7.36719  c
26.7376 7.09115 26.4199 6.95312 26.0449 6.95312  c
25.8053 6.95312 25.5736 7.01562 25.3496 7.14062  c
25.1257 7.26562 24.9199 7.45833 24.7324 7.71875  c
24.5449 7.97917 24.4017 8.29167 24.3027 8.65625  c
24.2038 9.02083 24.1543 9.29167 24.1543 9.46875  c
h
33.3032 10.0625 m
34.2407 10.1562 l
34.1053 10.6250 33.7928 11.0703 33.3032 11.4922  c
32.8136 11.9141 32.2303 12.1250 31.5532 12.1250  c
31.1366 12.1250 30.7511 12.0286 30.3970 11.8359  c
30.0428 11.6432 29.7720 11.3594 29.5845 10.9844  c
29.3970 10.6094 29.3032 10.1875 29.3032 9.71875  c
29.3032 9.09375 29.4491 8.48698 29.7407 7.89844  c
30.0324 7.30990 30.4074 6.87500 30.8657 6.59375  c
31.3241 6.31250 31.8188 6.17188 32.3501 6.17188  c
33.0272 6.17188 33.5688 6.38281 33.9751 6.80469  c
34.3813 7.22656 34.5845 7.80208 34.5845 8.53125  c
34.5845 8.81250 34.5636 9.09896 34.5220 9.39062  c
30.3188 9.39062 l
30.2980 9.50521 30.2876 9.60417 30.2876 9.68750  c
30.2876 10.2188 30.4100 10.6250 30.6548 10.9062  c
30.8996 11.1875 31.1991 11.3281 31.5532 11.3281  c
31.8866 11.3281 32.2147 11.2188 32.5376 11.0000  c
32.8605 10.7812 33.1157 10.4688 33.3032 10.0625  c
h
30.4751 8.64062 m
33.6782 8.64062 l
33.6782 8.54688 33.6782 8.47917 33.6782 8.43750  c
33.6782 7.94792 33.5558 7.57292 33.3110 7.31250  c
33.0662 7.05208 32.7511 6.92188 32.3657 6.92188  c
31.9595 6.92188 31.5845 7.06510 31.2407 7.35156  c
30.8970 7.63802 30.6418 8.06771 30.4751 8.64062  c
h
35.2178 12.0000 m
36.4209 6.29688 l
37.2959 6.29688 l
37.0928 7.29688 l
37.4678 6.90104 37.8219 6.61458 38.1553 6.43750  c
38.4886 6.26042 38.8324 6.17188 39.1865 6.17188  c
39.6449 6.17188 40.0068 6.29688 40.2725 6.54688  c
40.5381 6.79688 40.6709 7.13021 40.6709 7.54688  c
40.6709 7.75521 40.6240 8.08854 40.5303 8.54688  c
39.7959 12.0000 l
38.8271 12.0000 l
39.5928 8.39062 l
39.6657 8.03646 39.7021 7.77604 39.7021 7.60938  c
39.7021 7.42188 39.6370 7.26823 39.5068 7.14844  c
39.3766 7.02865 39.1865 6.96875 38.9365 6.96875  c
38.4365 6.96875 37.9938 7.14844 37.6084 7.50781  c
37.2230 7.86719 36.9365 8.47917 36.7490 9.34375  c
36.2021 12.0000 l
35.2178 12.0000 l
h
f
[ 1.00000 0.00000 0.00000 1.00000 0.00000 0.00000 ] defaultmatrix matrix concatmatrix setmatrix
[ 1.00000 0.00000 0.00000 1.00000 0.00000 0.00000 ] defaultmatrix matrix concatmatrix setmatrix
newpath
21.8125 18.0000 m
21.8125 10.1250 l
25.1562 10.1250 l
26.0000 10.1250 26.6120 10.1953 26.9922 10.3359  c
27.3724 10.4766 27.6771 10.7292 27.9062 11.0938  c
28.1354 11.4583 28.2500 11.8698 28.2500 12.3281  c
28.2500 12.9219 28.0755 13.4115 27.7266 13.7969  c
27.3776 14.1823 26.8594 14.4271 26.1719 14.5312  c
26.5156 14.7292 26.7995 14.9479 27.0234 15.1875  c
27.2474 15.4271 27.5469 15.8542 27.9219 16.4688  c
28.8906 18.0000 l
26.9844 18.0000 l
25.8281 16.2812 l
25.4219 15.6771 25.1432 15.2943 24.9922 15.1328  c
24.8411 14.9714 24.6823 14.8620 24.5156 14.8047  c
24.3490 14.7474 24.0833 14.7188 23.7188 14.7188  c
23.3906 14.7188 l
23.3906 18.0000 l
21.8125 18.0000 l
h
23.3906 13.4531 m
24.5781 13.4531 l
25.3385 13.4531 25.8125 13.4219 26.0000 13.3594  c
26.1875 13.2969 26.3359 13.1875 26.4453 13.0312  c
26.5547 12.8750 26.6094 12.6771 26.6094 12.4375  c
26.6094 12.1667 26.5391 11.9505 26.3984 11.7891  c
26.2578 11.6276 26.0573 11.5260 25.7969 11.4844  c
25.6719 11.4635 25.2865 11.4531 24.6406 11.4531  c
23.3906 11.4531 l
23.3906 13.4531 l
h
33.2720 18.0000 m
31.7563 18.0000 l
31.7563 12.3125 l
31.2147 12.8229 30.5688 13.2031 29.8188 13.4531  c
29.8188 12.0938 l
30.2147 11.9583 30.6418 11.7109 31.1001 11.3516  c
31.5584 10.9922 31.8761 10.5729 32.0532 10.0938  c
33.2720 10.0938 l
33.2720 18.0000 l
h
38.5708 13.6094 m
38.5708 12.2344 l
44.0864 12.2344 l
44.0864 13.6094 l
38.5708 13.6094 l
h
38.5708 16.0000 m
38.5708 14.6094 l
44.0864 14.6094 l
44.0864 16.0000 l
38.5708 16.0000 l
h
f
newpath
47.4995 6.89788 m
47.3803 6.89788 47.2599 6.93319 47.1549 7.00672  c
46.8824 7.19738 46.8161 7.57266 47.0067 7.84515  c
47.6151 8.71429 l
46.1567 10.7977 l
46.0119 11.0047 46.0119 11.2810 46.1567 11.4880  c
47.6151 13.5714 l
46.1567 15.6549 l
46.0119 15.8618 46.0119 16.1382 46.1567 16.3451  c
47.6151 18.4286 l
46.1567 20.5120 l
46.0119 20.7190 46.0119 20.9953 46.1567 21.2023  c
47.6151 23.2857 l
47.0067 24.1549 l
46.8161 24.4273 46.8824 24.8026 47.1549 24.9933  c
47.2599 25.0668 47.3803 25.1021 47.4995 25.1021  c
47.6894 25.1021 47.8762 25.0125 47.9933 24.8451  c
48.8433 23.6309 l
48.9881 23.4239 48.9881 23.1476 48.8433 22.9406  c
47.3849 20.8571 l
48.8433 18.7737 l
48.9881 18.5667 48.9881 18.2904 48.8433 18.0834  c
47.3849 16.0000 l
48.8433 13.9166 l
48.9881 13.7096 48.9881 13.4333 48.8433 13.2263  c
47.3849 11.1429 l
48.8433 9.05943 l
48.9881 8.85244 48.9881 8.57613 48.8433 8.36914  c
47.9933 7.15485 l
47.8762 6.98746 47.6894 6.89788 47.4995 6.89788  c
h
f
1.00000 w
2 J
0 j
10.0000 M
[ ] 0.00000 d
q
cliprestore
newpath
0.00000 0.00000 m
0.00000 110.000 l
425.000 110.000 l
425.000 0.00000 l
h
W
cliprestore
newpath
0.00000 0.00000 m
0.00000 110.000 l
425.000 110.000 l
425.000 0.00000 l
h
W
Q
cliprestore
71.0000 73.0000 13.0000 25.0000 rc
[ .993369 0.00000 0.00000 .993369 .476238 .488068 ] defaultmatrix matrix concatmatrix setmatrix
[ 1.00000 0.00000 0.00000 1.00000 0.00000 0.00000 ] defaultmatrix matrix concatmatrix setmatrix
cliprestore
newpath
0.00000 0.00000 m
0.00000 110.000 l
425.000 110.000 l
425.000 0.00000 l
h
W
cliprestore
71.0000 73.0000 13.0000 25.0000 rc
[ .993369 0.00000 0.00000 .993369 .476238 .488068 ] defaultmatrix matrix concatmatrix setmatrix
newpath
76.1870 90.7424 m
76.1870 87.3987 l
72.8120 87.3987 l
72.8120 85.0862 l
76.1870 85.0862 l
76.1870 81.7424 l
78.4370 81.7424 l
78.4370 85.0862 l
81.8120 85.0862 l
81.8120 87.3987 l
78.4370 87.3987 l
78.4370 90.7424 l
76.1870 90.7424 l
h
f
[ 1.00000 0.00000 0.00000 1.00000 0.00000 0.00000 ] defaultmatrix matrix concatmatrix setmatrix
cliprestore
newpath
0.00000 0.00000 m
0.00000 110.000 l
425.000 110.000 l
425.000 0.00000 l
h
W
cliprestore
344.000 68.0000 13.0000 26.0000 rc
[ .993369 0.00000 0.00000 .993369 2.28223 .457332 ] defaultmatrix matrix concatmatrix setmatrix
[ 1.00000 0.00000 0.00000 1.00000 0.00000 0.00000 ] defaultmatrix matrix concatmatrix setmatrix
cliprestore
newpath
0.00000 0.00000 m
0.00000 110.000 l
425.000 110.000 l
425.000 0.00000 l
h
W
cliprestore
344.000 68.0000 13.0000 26.0000 rc
[ .993369 0.00000 0.00000 .993369 2.28223 .457332 ] defaultmatrix matrix concatmatrix setmatrix
newpath
348.535 86.1074 m
348.535 82.7636 l
345.160 82.7636 l
345.160 80.4511 l
348.535 80.4511 l
348.535 77.1074 l
350.785 77.1074 l
350.785 80.4511 l
354.160 80.4511 l
354.160 82.7636 l
350.785 82.7636 l
350.785 86.1074 l
348.535 86.1074 l
h
f
[ 1.00000 0.00000 0.00000 1.00000 0.00000 0.00000 ] defaultmatrix matrix concatmatrix setmatrix
cliprestore
newpath
0.00000 0.00000 m
0.00000 110.000 l
425.000 110.000 l
425.000 0.00000 l
h
W
q
newpath
228.930 81.7870 m
178.573 82.7473 l
178.594 83.8759 l
228.952 82.9156 l
229.003 85.6243 l
237.970 82.1792 l
228.878 79.0783 l
h
f
Q

%%Trailer
%%EOF
